/* XPM */
static char * maximize_toggled_pressed_35p_xpm[] = {
"35 35 4 1",
" 	c None",
".	c #000000",
"+	c #000015",
"@	c #ffffff",
"...................................",
".+++++++++++++++++++++++++++++++++.",
".+++++++++++++++++++++++++++++++++.",
".+++++++++++++++++++++++++++++++++.",
".+++++++++++++++++++++++++++++++++.",
".+++++++++++++++++++++++++++++++++.",
".+++++++++++++++++++++++++++++++++.",
".+++++++++++++++++++++++++++++++++.",
".+++++++++++++++++++++++++++++++++.",
".+++++++++++++++++@+++++++++++++++.",
".++++++++++++++++@@@++++++++++++++.",
".+++++++++++++++@@@@@+++++++++++++.",
".++++++++++++++@@@@@@@++++++++++++.",
".+++++++++++++@@@@@@@@@+++++++++++.",
".++++++++++++@@@@@+@@@@@++++++++++.",
".+++++++++++@@@@@+++@@@@@+++++++++.",
".++++++++++@@@@@+++++@@@@@++++++++.",
".+++++++++@@@@@+++++++@@@@@+++++++.",
".++++++++@@@@@+++++++++@@@@@++++++.",
".+++++++++@@@@@+++++++@@@@@+++++++.",
".++++++++++@@@@@+++++@@@@@++++++++.",
".+++++++++++@@@@@+++@@@@@+++++++++.",
".++++++++++++@@@@@+@@@@@++++++++++.",
".+++++++++++++@@@@@@@@@+++++++++++.",
".++++++++++++++@@@@@@@++++++++++++.",
".+++++++++++++++@@@@@+++++++++++++.",
".++++++++++++++++@@@++++++++++++++.",
".+++++++++++++++++@+++++++++++++++.",
".+++++++++++++++++++++++++++++++++.",
".+++++++++++++++++++++++++++++++++.",
".+++++++++++++++++++++++++++++++++.",
".+++++++++++++++++++++++++++++++++.",
".+++++++++++++++++++++++++++++++++.",
".+++++++++++++++++++++++++++++++++.",
"..................................."};
