<?xml version="1.0" encoding="UTF-8" standalone="no"?>
<svg
   xmlns:dc="http://purl.org/dc/elements/1.1/"
   xmlns:cc="http://creativecommons.org/ns#"
   xmlns:rdf="http://www.w3.org/1999/02/22-rdf-syntax-ns#"
   xmlns:svg="http://www.w3.org/2000/svg"
   xmlns="http://www.w3.org/2000/svg"
   xmlns:xlink="http://www.w3.org/1999/xlink"
   viewBox="0 0 32 32"
   height="32"
   width="32"
   id="svg2"
   version="1.1">
  <metadata
     id="metadata8">
    <rdf:RDF>
      <cc:Work
         rdf:about="">
        <dc:format>image/svg+xml</dc:format>
        <dc:type
           rdf:resource="http://purl.org/dc/dcmitype/StillImage" />
        <dc:title></dc:title>
      </cc:Work>
    </rdf:RDF>
  </metadata>
  <defs
     id="defs6" />
  <image
     y="0"
     x="0"
     id="image10"
     xlink:href="data:image/png;base64,iVBORw0KGgoAAAANSUhEUgAAAIAAAACACAYAAADDPmHLAAAABmJLR0QA/wD/AP+gvaeTAAAACXBI WXMAAABIAAAASABGyWs+AAAzGElEQVR42u19y68sSXrXL175OHXOPX0f3T3dM54Zv4AZP5iRjTde WAILiRVLlmwQEmLNggWs+AtYwj8BQmJhgZBY2CuEDIyMZMOYMXbbnpl+3HPrVGVmRCSLyC/ii8jI qjrn3O4eGYeUyqp8Rsbvi+8dEQJvt4gLzs8XXPf/Y6F2mZ94zYPK2wRCPOHYX5ZQ5rd0/OLytsCI z3nxrb9zJXXXw03zj//gP382j6/5NX/Z+0+XVQ9/9Yt/9wXmWdjj3Wef/q//NBTXPrk8FQx+v+ie f10cP/mB+Mp3/t63X//xf/+Dn371m/9WSv0r3tuzlRVSQQoF58a32J5fXBFSYfYu7t9S+eH3fu9f /tLNh98x3auf/atuOvzg49/7958s52a2f7RYeAoBCLYXAMTuvW+Zd775a//05eG9f/aoJ84zIMR6 /xegeG8hpc6OGd1jsof4X6kGzo3Ztd7b0DTe/dafqe//wx/9j3/3xwhg0wY8gRvoR9wjit9xa25e 9i8P7z03ur/4YdN0j7Z9BgCwboBWbdzzBviLWnhb+dmhbDsiEOedFoDButNysfpgQngoAWyBLwFI KVVrdH9tmh2mcb+6Weku/nb2CNPsoE0PISSkUDDmCn52ULqFFCrcoxqM0x6N2QEApFTw3mX7hxal DJybzh7jhb+T14OXUnw5H56npIF1I7RqYJdrhBCw0yG73pgdnD0CCMAb3UeuoHR7wDQIAAoBaP5y Av7BouAxHICXCD4ApXRzpXT30nsHpbvZ2aPgoGcf2+zgvYMQIoINIPutVAMAEXwCggNyrhCwSpkF pCn+54DzYzVioHedeifV17kx/o4NrRo4P0EsIm2e59gGUqpVh+GcQKnGAtByVtcLZgR+jQgeVOQD ri17v2R7BcBIKZ8JIb7SNtcQIglvomopFYQQEXQhBJQ0q0akje5xboSUarXVwCagy98RCN2uruHX at2uevZm423UhepeEgEQuIGSBlo12XtMs4tcMXtH6BAzgFdaN+8iEIBG6nilSHiQ0vRYHYCzfkWV kkrtlDQv48NNj3meoXQHUVHmOPi1xqKGNaauU7TtDYbhLgMYCCDOs9/+ACFPni+fZ+2QHauJCqpr STzG9JsERVyB6qJNj2ncg0Ro2z7DMLwGFgKQUj1H0AMAwCMpgo/WAS7lADUqI/CJAMw8zzsAt7xH ZL+FgpIGjdllPZ33dtoHbrGuHh0TQmIc9yuwhJDZffx6ftw0VxBCQi8iSm+Iqnn22TvCPS20Dkpq +f6muco4Awd/izNQRxBCrsA3zQ5SKAHgVgjcLgSgl3Z/Mhd4iAigB9NG90siAMy4Uqq55h8thYJW TdbbnRszhanGzste2rY3EcC2vUGzsEoCloM5zz7+VqqBaa5WDT97H+uidQdrj4kYTBevrRHIPPvl HYkIuI5B9aJz/PtKIqB2UdJAiuALYT2fdAMJ4Bqhgxmkjkfgl7hcXJ4iAjj4CwdwHYB268ZTbJ7v az14HPcRdPqdgOgimPwddNxOx6zhrT1mgPNrlWri9XQP1SE+b9Fp1t9HRK6W+oT6lVZLyRVqzi+y jhYiEACU964D0CAof7RJBHHwKGfQY60ATgBRCQREbNGacrcFPvVAIMn1tr3JXyglhuMd2i4dL69Z sVZlqv9r8ry0Fk49lxOOkDISTEkYSpnIyZybYEwH56ZIBKQfRFOPEYOSBn52wTxudmIa9/BubpDY f8kBahidJYhLRIA4c44pgeZFrfG4jK+ZU7wHjOM+AjuOe4yLeTR7H3r9sg9AtOw9a+2fn6sBWxLD Jb/LMnufcYpSlyAxVj7jlOUQ22sxiclE3O1f3iJx3JoIeHC5hAOUAZxSBAgASqqmeT79zLvlB9WK lCo2iBAK1h6z3kygN4VJlFVct7i//xhXVy+qjXwKtFQPUhDbZQ9472PPpWeE68yiawDTNJx8LhcV nLvxehHnqVkPhUiY2/aZGIbXaLvn70jTd346DKgrgA8WAw/1A6z8/1goUZquUbqNBFAqefShZW90 bkTX34aHLoA0zW4FftnD59lHccAVQSnTXps2O07/pZQRfKkMlDbxd2z12WfXUSECMSb4E8Zxz5TB taggJbMs3P9QOrU4F1CqEXRsmu6fmfa6Ry5+qTNynD4XAqgRQ6yI1E2jVPP+4rSZjekz0Pk+PmTp ZcPxDgDivgY8/eZgK2ky/4IQOaDeWSgd/hO49Ju2+OzlHm3auPFrAmEhEpD3HkJI7HY5B+JiiRMF iYfSHAUAY7rsO1O7Jd0AQlqt2nd0u9shZ//0sC/ECtjiAlLptpFCvbc4bWJFgicvV66SiZTknih6 Wum9m2e/ajilDZydIni8yE2Zr+GcjftLCj3LuykGKbVp4d2EeSbiaGHtEOu+jjU00W9BCmNp6pb+ E1IQl/9O6fZd3e12qPf6R+kAT+EAtJcAhFDamGa3UgKpR1CDaN0tzpWcXXLljhMDd+TExtSpl9fA B4KXDQAku0+rBs5ZSCEz8KWQUEv4VcntPkEcQWkDOw2QysRotRCAMcFB5NyUOYto3zQ7aJPEQg7+ 8v6CExSi4YXSLYkA7o5/dHlKODhzCEmptNH9s1TZ8CHckyaEXNnf5UcnwFPQ5FRPzz5mibbxfaio h1hovTxn3ZjF6cVCDM7bLHrHfwOBA3DCoOLsFAGnb6e9c1NmNXjv0DQ7WHuE9zYTldRhSD+QQgmt 2lupdPtU0Hl5LAeI7UWbEEoP45ubrQu1Dt61mkLkZxcbP8hZQKqcNjn4SukIoFYNpJDZf74PlZRQ KvUkrZr4v22uQlCKPVMUzyOuoFUTN7OAXIoazp1IX0j1TgEnIFk5RIC8bZIFEustAeyEkDwQ9GQz 8Cmu4NwdLIRom+uVF5AUn6DM5AodKU1BmZNRiYuKl9Ir4BUjjMjmI/tU8br19WL5r9h1KogEeeo+ QOu1STuRvN8QGbzexNWklDBmHaiSUkfwM1GXtVcjAMg5KIACdSweHBN4iieQyyCBQJmCK2xJO6Y4 +YanTSclK6ucajBjO2qXGicpdBxEfp5K0/QYR7LL5+xc7b7yufS/ba5g7Ri5BX2r80HH8LPPiMC7 KVoOQgRC8N5XlUVKCbP2GMWBc6MUUmOeMwI4B/Jb8QRulUwXMN3NDRBCpwT+KVlPNjZvJM5Os+wZ yNVGPZmAaVsKGYcIqdZm9Vtrszhc6NjyLjIBtWH3rQmC/hNhlDEL0h9qUUypzOKHWGpZQJO3jY7O IzKVKSQupLnG6Z7/ueQDlDImVwSFlLq/fRV8AP1Znzw1iK/E1ZXSEJCZohaOq+LVeQtaG4ilaVL8 nbPu2m+tm2huaSa3jelWbNrasqempuMWRST+QiEtv5vMRynrnIA6j/cW8+xnpYzA7HFjv/rOj6VS s3fniOAij+BjYgE1P4B47n72XX4Rsa9VsoZpMy9cPM7A5uBTL3dunVSRgDTQuoHWTTVVbCub6FSa V1DgmOK4cAddsUSIKxBRxOjhhju85n08Fa8QQgohZOAiqnsudUvJoZeKgs3yVpJCpdSqbZ99uPT8 QK21D5cS3k2bThpqsLbpV69TSkHrBtaOWS9vGuopLvOr14iAn+PnQ25i3hfIDKXjnCNwItjiDJwr 0HfNs4djWc5bXDCvt+Zh7lGq9l1leuPG+y0l8EHxgKfkA6TfQsi2uflASgWt28V3zQMp7IO4ZrvI S7s5GCSNeSDwT/XyBNDpQBS5cmv3pmMyA7cm14OeUyeGGiEAqIoEIHQKOw1V5ZBcwlIo17bPPlS6 KdPDH80FnpIUynwAUgip3w0fPCUWLyUz6Zg/vjCdgl2uV+YXlWbhCAQs782cGLaSRcO9iX2n6wvi ZP+tnaC1gTENhBBxz+tXEkVNRFwiGni8QS5af9tdF89poFQzG92/xwiAewK/kISQU+MCnm81Ln1g 21zBOQvrRhjdYl5U4dBAcwR7HA+rXlwDt/Sda20icByAYTjA2olZCoAxDeZ5zoiJ3mntCKU0pmlA 03TQmp5P0cBcARRCYJ7naP5SPUpCoOtj4y/mI4kFzh19kaiyfKNUunsulCZn0JP1gKdmBUcRoFVz A6QsHe995i4FgGG8h5J6+fDSBhfQ2mAcD7HHnxqEET+g6HHl/5B5E95H4xDiGxfgypi8MS2cs/FZ 1k5oGgVrp4zQ6BkEMIFLRED31gjhVKHe3y5iIdxnIISUUqprUM7ZW3AJP2VgSBYQUiqgRmys5MTE 5r13K/C9d2jbK8yzX0yweQGTm25m8SjaKtBiYwxhiqrpKC7KaCCxdurNnPCEEGiaLu7zZ5cRTB3v FSKZl8FEzQdHZ06mJfZQr39IRlnqs7h/Re6EW4uCi8tjHEErN7CQSk72oAOYuf1MPd66MbpdSxub wD9VrJ2i0nUK/Jo+EDKQdNXly0FVSsOYNl7PibQkWq1N5AZr0PI6NE0fTdWsbZY6SamymAOQRID3 nhOaDB0o4wC14NzF5SmxgJiI0Fw937XNdd64UscPsm5E21zFc6TJh/BpLU9AVxu71AM4sCXgJTCc pfNz5fFSaw8AdkyREytuw+8vwQ+6wby6NgLNRJsQcjPIFO7txOwtpOl2vP0fCvpDCeAUa5EARHfz /stpGejIfeLkTGmbKwzjfXZj2euJ3SYiMSFCVwGNGrnG9rns1dqgadqVUiiljKDS+5qmXT2D9jWi KK2WmmuZ17F0KoUyRxHVdbuYQs45QcxMknJWygghNXR38xJlLKauoD+ZALZm9ciHhV+//DCYKWbx VpV2+Ix2GZwBIIuIpZz7ZApRrwhx9Dw4Q4pcySHKvVI69jwp5dI7eaeZoZSKABGrpfvoWSQiaF8q jGWwqKaUCiEidyi/t21Du0zTEDvMRixBBC+qmm/9N95bLio754OjgU8NBwsA4hW+9TVCmkwbrRqm UFEj5z734HcP13HzrWxs3tM48H1/ld1D7JbkddMkQiTwg2s55QcYY5YwrWHnE/umiCEpkqUvYct3 QboKfRfthRARZK1DW/V9SqMgAqe8g3g8OYaOu90HHwipCbsnZQU9xArYUjiEMVdfDXK3ixWhtC/O +kotWinNGkZmLL1UwEp23zQtnHPxXMiuqYzGVQrOuSwhpP5p5fU06Gku7hVQKnAW0h/I1CPNvmm6 GHJumi4SPvkS6Hpi/8Nwj7YN4eW+v8HxuI9tCCBLV5NCWSn114WQcq4PDfvcooFUOB+VAIRW7VdC DyEWXAx9NilFiit64Vqz2Nmp1wshoqkGJDmas/EEWALOL8Cxyp4I+JwLCpXPooAU9WKlVLR6tDZR 5NR0BgCRKEpHUdteYZqO6PsbDEPSlQTLVaTnGNPD6P5DIQTlBdQwutgreAkBnIo5U0bwS/KxE2il rKyBL+M4gBx8fg012FbhvZMA23L18ntq0UWKEeTeQd7Dw33GGDi3Dg5tcTDyLxA38N7H5yadoFnG Iqh4DxEBAD6fgDTN7qUImbM1H8DnPj9ABJ5eKIV6VoYyybmTGldltnQN1FNafRnAAYI7l0Aqz4U6 pGNKqUyUEOE459C2Lay1kSg4IaQ9OZEoyykxQs7tam5gAEwhDfrFOB7jtafMRCKEOIeAbvXh+Fk7 Y36yDwB4S0oggM4VYV5iazSCl0ynaiWKczz2znuxMSYqacakwNDK+cTEglIKbdvG+8uitcY0TdA6 mId0beBmiZMQhyufoVQ4xgHeCgpRCfpKlymG1NOtnZjimEdJl2uklEoLIZ80LPyxBLBFEB2QR/mC 166pBnEud+PKBWzDwFCra0IDqwy0tm0X8yskk6T4vkDTNFFhJFOQWLu1NoKstV6ZilSHsh70vJIb kEma11nF8yURcOLp+5tVJLHrbsKcMd6/lZFBT/UECqkamrAgo34y83iwpQZ+2ThbLL826wjvoVpr GGMi6Pk7VGb2AcA4jhE0rXX2m4iARAJxh1XjFYQQTEp1QvfITUYeWCIuyIeOHQ53qzYyphfTuIfp b2mASInL5xIL2DI15O7l1+OcQMGU2c5wKT1yJdvv+6sIKPV8KtmsIwvgIU5vYg9OCppj9nw+GJRK 17WQMukD3FQkAmqaJv4mLtS2bRQTHMj0Xanu9M5TeQLkauaF5H3X7aIFVXKC5vrVqwKbLbweTQDi zDkBQPS3H3xAXsAyQ4ZXvObKLYtzLmPjdC3fCFjukw+ewUQwgSgArRWkFBHoQAjpf6iXWk1GSu+g +hBxEKEBqBJB+V2lpVESQjY8LQ5VT44iISSmiQ8t17NSWgCw7e75Bzg/MORzSQvPk0HFt7+xOIHS BUJmPbzsfVzmk6+ey/IakXDlLG94mbF4DjAnJGM0jEmevNx8VEvOoULbNtA65wik5BljIoch4mjb tkqw4duaKrHzAaq8zcr7A9Ek55Zzlhru/v3mV79ZAL9FCCe5wEODQautbZ99SLnrXH6VEzqmHry2 70tQydQq7Xmt9aJTBBFA7FlK0jU4YTVwzsH7mfkf1OKhTADRdW3bZD2WOEPJMYggiCNYa+OzS0II x2UUB/kwsZQPUPNb1NqJwtWm2Tkp9TdQ6GN4hB7wEEcQ/x9fanT/FZpMIV6wsDGqPE/KKD+KgjDG NJimqQjrJvcw9Ujqeamhc9CBoOBxJY+eNU1T1AumaVrdR3uuQ1BvT95IhWlaRge17ZJp5GGtXVkz tUwmrhdQIf9ESCKp50UY02IY7jFNA9rmGt67r1XAj4+8lAgeEg2shhxNs3uXcta5YnMJ+LxBpmmE UnkvIZneNE0m38vi/YymaTCOY7y+jAvQsCx6PlfSaoUrhiQetFaw1i15gcmb6JyL3KnkBLXCQ89A nlZWJqhwrkrnlDIawLsbmNT2m+WxE0Tw7dmpbJ5T+XxUyKlDQBFA1POmaYpsd57nyLZDbw7fOE22 GgxK76CkTF85LhZxkTgZ7TnnARAJgQrpBgQkJ5zArbYVQ+41pFS1MucwvYfapYUQUi25gVs+gLcu ArbcjtJ71wPI4v30cQFQh9IPQDY+Ndz6mtSbnAtRPpL9ybMolmggWQDrTwnPzxXhMsCTQJbxnPd+ qR/PRUiuY164CDLGsOCQzq5PnDCJsXEcWEwghcxDW+QEwAeoKNXoYXhNwaAnTRb5ZEcQNiaGJOdG qHyoE2dvpwI1tCe7PkXZ3Eqzz921ib0H8OpW0NpRlGdXkcVAsr4EIiiAEloreD+zcyJaJfVgU+k9 LOcTWlLo7BjbqkxBWxRumifwS3MFcyLQQHBapA+VmeZKJQ3LzhuFGoZMPert5OShhih9/LwEuSyr wBPg5Dyi33wLDZ3XzRidOZLCf/IpCFjrMg7ACZXqXBIb1Z8re6XvhNLSeTumd3i07W7BTdR6/4MI 4rEcQAIQzfWra4QpTLOPqeXsNU0b3aQ866ZsFPLVJwKRWc8qgafeytk1gRrsfg5+Mu/43D5CcF+A ZoQi4L1H2zYx3yB/t8ksCCIG8heUk1GE78ld0vSNqR1y85DHCqj0/Y0AgP751yg3cEtJP1seOjw8 0wXa3YtrACIlgqR0qZriV+sN/BzvOWTXh7ECZtG0FQvIyM3n857Mf9e08/TOJHYoOssVvmD+TcV7 U14jWSBEBN7PK69hqQ8A4kRbmagUUki6mJPAmu7Zs0NdR7u4bCFyzrQIyaD97Ts6pH3NWhtBmisN peIfswUCKYRJq8+dOqEhHIzRmZZeKnM18LdAP3We/tN0cKXe0bYNDodjFAvEIegbuOyn6CKlrpW6 QVI6HUoXMR8AU6acRQLor9/BZax/M0PoSfkA/e17Xwcgl9j0kobdZZk99AGl7czFBIVda+leBP5W IVYfTMb83i3wtZZR6ycQSoLitj+Vvu8isPzZxJW4KZoIWEcRVlMMS8cWAc3bKF2bRjIZsxtf6e/8 DNZJoW/VCtjKOBEAxDv2r3ygVCPCVGfJbEkzdFC+X5sFVbguwBsiViozrdYae0ipKsPIawWxbTW0 lqstsfgEfi2fkJ7H9QUSRdM0oW1zXaXrWozjuJnCxgm9DGlTKRNGqR05YQCAVs1szNU3C3we7Ah6 Egcw5uo9AIIGWpSFwOeNyXs+uUDL0C8lRnATi1gu9XhqUP7snFXrLH0rWAgUA1BomqDUta2O1xCB bHEDDhix99LHH3wWPnNSJfGUHE4EMv8+DvbarZzyKYPzqZfGXH0V25nBby0cvBVxklq1L50bhTFh 5q1yKbcw2jefWTsNqMjj++m3qLJ+AsVaGzV60urLQuAT8M75Si4fYIyC8zkR8GfUOEJuQYhMjPDv 4tFJTgRE6LnmXxdXnED4YJG27SGE1Eb3r86AfTYmcAkH4GvSldtNmPyxySwAol7OAUoziNjhlmae R9ZkBLBk/XQtZ/EEvnPBY2iMir1/FdnTgQi0WYNPz6sBZYzKZvqiXs2DSJyDxcacZ7RtW+UCZSmH slMJ7bqTEJLmDX60J/CcGbglV2hbLefFlb+y1OReqQSRp60EiuQtyeDyOdb6yL6Ts0ZFQjAmeO2k FNkeANSSKDJZh6bRGQHx3m1t6QcIRMDzCCnKmCuJpNHr7JpwjnNCPqR8rQvwopTR07SnaWO33PWb 2n98J86XlfLHtiaIgCTnw8iYdhXM4E6UMkmTYurJ1EsZPNSwachXXXnSOsj4knDCtWUSicj21MsN yyAK75LL72ASJsuBs2b6FYaRkXuaRIH386qu/DtyDhA8oLztwniK1B5BxEpo00rnRo0ncoCn5AQK LBzEmCayfqV0lPt8MGYIlKQkywSczhS7tYNnzgAkhw0VYu/5oIxc6aNjxii0bUrUoPuJGGgrxQUX A+dKWChqZrJeLG7jcrSQxLaZus4h5GMTrZ3mtukfDXpWj0feJ3R30ykdtCdSULL5bzLnD0+O1Kil gRM7PmXzl4UTxlxMvcl7OScEa2e0rcI0uYwYSmWO3xPqfkof0NV68whi05hYpzCWcXuWslwpTpxi mkbyCgqaRqe9fvcG9aggcAFh1AhAbBzL4gDXr376KwCMMX0cnFmO9+ONQEOieE9IKV0p64ePzikb krN3Dhax/xJEAjIpkNyfruMxfrwkAhIDoRdv5z2EyKHIQsoUTUxtkIakl3kH/DoA1ezqdW6lPO5e fI0yg0qcSvlfJYZLHEFVJaO/efcDAJrWvCkrStp/6fnjeX2cGMj8K92uZeGuWgI/fzdPCpWQEmhb FUFuGgFqRykRf28RAfftb/kJAKDMHaDoYVkoeyh8g2Dv2Q4Vl1PcxPZpbsbu5t2vY1sHeKuOoOwl L+UvfwWADlOd50Bx27+M+pHzhxqiprRRGYZx89x8JuE5mHGlMyVtIV6R36O1QNMk4qFCyiXVtWlU lQiolPGA1A5iaZ/0XSQKTmVNee/gnGXjIB2JPPkCv/CNBceteQIe7QfYehi97JXRvaot7MypN9jD a6dPyoCZV/YyD/hwOZuO1Vy2cvP8FuD8HJ3fyMlcXNAzrPUYx/Q9RIiBva/jClzW03c2TQgecWsg vUet7uMdiBJtjGnQ98+1lPpDPCEnYIsAROV/xlqMuXoOQOli5AqQOEDJ0re03gRuchOX19Ymeej7 cjFGsaSK+dj7OZunQoCX0WkuDrQWK8I0RmXKYOAyCjW/RXje9ngI+p90AXXyXrqG508KIXXXPX+B ug5wCs/0zAsuLBXAkA5udjdSKtk2V5wlLQ0YZjLNQ58q84Mn16heJV6m+1J1CAzuTzgcSNGU2XUk +2vgty2gFOI8hpwYyt5fWgL0/lIZTHrOOgMo2O6h7mlmVBUTXcgpxLmk9z4To3weoqQ/TVDKGACl FcAxO1vOiYCqh+mXf+mf/IO2uf4NAMLaMesmfAasspF4D6YPnyYLpVTch4anBR7y/L+THxJt9iDH x7xaaNoAfqpnIIT8GWuCqVkVPJhUnucgE5gpUyhPFA31SKFfPh6CxCgfXUyEQGLgavdCa9X83K98 95//C9R7/9n5gy61AvjDBIBWSiXCmj+NoEmUnLNL5ephVfq4cs4fcs3yVOzwobbqMyhTswgYpSSs pVlGRQamd4BzgNKANsmK4ERAekCNEMpCesA4rs014mr0vTU9JzYwywYuFcG+D4NtKTMoONmOMbPa 6FY6P8HPrinwuZgDPDQlTAKQXfe8994JrVu8++5X46jeGuCkBRMHCO7eeXHQaPb4UF69ehZt72ly uL5ukpKmwr6phNuVTqacVoB1QNcBnHGQbvrpi5BSe/MxA3QAeBJwMMMFrAMAhWHJZx0nwFrgfo9l wqdEPNYCw0Au4Kv4DdYGhc/awDHu7u7hnMM02VXmc7jXxzZrmjD6iJRpPqfA/f0dLcjVFBjljZrj mFHipbGAbDseP+nGaQ9rh/lw2GO/fwMgsT8e2y/Do1s9QWsVezEATJODMQrD4GBtAN+70MgcKG2W TQfg43GVennTJvAfU3gij4qKYgIfSL/7ngeB5gh+aIM8bKy1QtcFgHmAiLcbUFeKh+Ewa22EC6uX tchNwdpwsXq7PwR4evhnn33/9/v+xf1xeH31/e//F3T9LZrmCrur2xTFUgqe2CCNu79gRW8+LavW BldXu+J80oKN0UtqtsTWAI3c0yajzA25emSD+4Vt+0zkHI9DFj0kUPmzw+yeAUDei0nMHY+H5V02 svhxPGKe5zgjGJ+cmvbeO2jTwE7BZ0DL1I3jPY6Hz3AcXovD4WMY3btheP1HeIQFADzcDJQApNbd 7aef/mFHU7ADYaHmAH445hkFe5f+n5oQiTdCAGl7somQRj4vyZu5TlCGZHliyDCMS2pXYMdpOFcO /jzPuLqi2csS+EBKCiHiqA3ozP35lNpeznWcN385opq3oRQSnsVaqB3f7P9MWbu/BbIFpbfCw6uS T9hfJ4QVB/Devm/tXv7m3/r79sWLWwp2iORzl7DWo++NGEc3A8F75v2MYbDRfl96ljBGzdPkxCL7 I4UsMXxxd3cUV1dN1hNLdy2B03ViZc6RsycQ1dr+54VYefkM/l9KZFYGzzegNpgmBwCzMWom4ltM VDGOdvbzLKQI37rUXXAu5v08D4ONPgfSH5gCPDvn8K/+9T/W3ttbJBFAW4kfT+yJlb8kIYT2kbqc OwrvNV6//kzf39+vZsvouhbDMK7StWiM335/WEBMmTo8F7/4UPS9wf39CJ7sMU0uEkGII8jFRleZ Bs9/K7Vsy1dzA6PGbIgYaF8Cz4DG/f1IwEXAAAhSAhOxpHEH1uZaPx+gOk0TrHVxRDLPKqZ8ysPh wNdiLmX/RW7+GgGUocTyodG2/JM/+T6urp4twCV7NaQ9dUUe/3oK9/U0K2KVEWSMxn5/iIEhygfQ WsbGp94HAIeDjff2vYo93tqwcWWQxxOUBojDkqve+wD6MLgsi4h6MwHLiZVAJR2DA0rnuRkcdIEh aysu+pxzGMcBTdNiHIcs5B6sgQ5SaIO6Alhj/bnfZoMwavHk1QM//fSPcTi8RtvuMAx7aNPmU53r Jr7PmC6uvJEAmNF1V3ECya7r4oQLPIlSSoHj8bgaMkbTufAe1vcm2PtK4nCgHqaibT8OYSPa4xq+ tYnVex9yB4jIQmJpsP/HMUw0Ya2LgBPAUso4cOR4PC7P8lnQJyiNY/SdcEBp6hhrx2WbsrQwKVVs 87u7P6dbjbl6vpvuP3mD89r/xSKg5l+O1KV1h7u7P8X94RNIoaBUA2PKeYKWKeSlxDAegD3YgpBh upNpSkOk93sTHR4hzXzGOAbFqW1bDMObSBA0lpB6Tds2EAI4HIj4ZMwWOhzs4sFL8YFhoOvCnvd6 a1Mvp949jm4hgsDCj8cx82Zya4CIe5rGyLbJteuispw8e9MUejYtIEUzg08TdwePyxrCE9yy7Jyf HbTeAUDT9Le30/0nRBEXO4MemhIWCcPaI0SYvTpelM9olYeI7TQs6wTSeL82rpNDVF7OIZQnSOQp VXmadP4uHrPPTbi1DLc2Bz80dq4BEvhUQspXGsl0ah6B2tz/W6uPRjOQrSbKSxhvYJaOlU3IraQy HXIFkGO3WR5CALSPHKAsnAPQ4sehYVNPJRNnnj2U1Nm4uHI61dpo3PT8tKYOEUdSrsI4AGLfoWe6 2LOJ1Yfenn4DQYege6g0Te7cCfZ9iukfj8OiE9i4ETjTNK6Il0w4muyCx/t5m62JxESTdxjfRILx bsCcuPqWGfgoAjipAzibj/fnHIAIhNa8M6YPS6svk0YPwyHOhJkAX0/IwO3mcRxjw/CeFUC1y+/1 4Etumiklo7uWuIG1M6ydMQwuKnrT5CIRBQ6Q0tXoXVQXa21k/Tz/oRzLQMDzZWlplZBTy8ktC0hn q4nSGk3eLWJiftwI4cekhTNwtivt2PKo2rSYpkPs8UIIdN0uTipBvm2+7BqVcki2iw4lHzNryt7i XDC9rPUxZJzOhWv3exI/czZyiHq+lCIGfGrBp3yCh5AKTgkeKSFmjlPPhnvcEhNYiMXblTcwta1k C0aul6R3LiiRfraQKpo2by0hhEotqTB7sJ95j0v5gUFGLR++zCROHMB7h2k6ZvMJe+8xDIfYS8ir CKRRuXSOs2eeO1Cy2uDdQ+zN1KNJL6Dj9ExS+ijmL8R6MAglnFA5HodIENbaOIlV8gfYyN34kDnn bFgBhK1NwNcO5ARm7THzdtJi0ow7ikUZO6f9P5gATlKR9zZTAsO6waQEjZEopmmIK2BOdogzX0zT AOdt5vvnjRTuD1V8+fJFNlCkLFwj54QRgjHJYUOEwVk836wNx7jLmoZ5kfbPh4OHeISNQ75evQpT J3PAmqaN3I3WR1IqXyySrw5ybkVxpRpM9rC00w7eDa/f/Nnv/2ADs7eqBJ59KOkBYSYvzdgYz9pJ y7V7NhlCmEfAxawX7z0Oh8Aiv/vd5+i6LkuoTOMRSOFKyiBN7kCAk0gYxwS2UjKyeTpPDh7aCHzn HIZhRJ6rJyIHo8Eg3/3ucwDJ7PPeRQKhbwz7Ma2raMeQKLuxeij/Xh4viPVQbWP6Z1eo62wn8bw0 I2izDMPrpZG3M3iDaNiaAXNtTXjvcDjsl+eGRnnnOXB/f7807hhBKSdd4Aph6OWOEUiaRCL05ml5 Hnf21OtZZv8k+z599zRN2O3o+TNTTHMNP9n/obOkFcpC76+1lXNTWpPRjeXSfLrp36Glxx40Uuix i0fH0rbPqpXlNuzqv7dxhczD4Q59f4NxOqKpEMP94S6ad69ff4qrq93iDTvEQRbGGEyTjT2SQru8 pJxCnv9fn6AiEVcZZbRR5k/TlOX0TdOIYTjCNN8AEEK+NzfvYBhyT19sRKbUzfMMyzpQcB0PmSld KykSO2ipTmY8bBLEUxaPBhA4wBYRkDeQ/gOIK4pT5fv+JugBMs1/Q7qAtVNGFL/+678Se2JIwAz2 exndo/9bI695a8zFMa71lqn6tUhhOrZOdBmGY3XEFF9AC0j6Al8vmHeYYbhbPdu6EbO30Qyc4U+F fzdHUTxmqtjNQtopX/M+e5lZEylxgLyhp9VEU4cD8Dd+TeD69n9DCnF6zPO8/lO7XkBwB8rGx4ry QPU6P89489nP46OPau2ydv8S6NaOUfZLtly8c1PkANSesccvlpeQGlK1gQjOfcZGeRIHmOwBRvfw s4vxACDINvL2caIYjm/QdsGBET9aKkzTsFplDEgOk2EY8Okn4djh8PMxz0/I5MZ9aOG5fA8qxZwb FJ8aR+DuDrh7nesFq9s58M5lnIA4QOSWuoO1x6wzOTdCCgUPhzkSzsoPcHF5sgiIFfNT5v8nFpYU lwnGtPBuAh9NxFfbCgRDmcDBVj4e95imER99NABoMRyBtkuJn6ExH1Hf5R6eG8DDw+X5auOxPMT9 PnCpjz4aMI5D0GmWeZN47w+rgAwRp5L9U9s5N2Ec90sHOaAcgSWlwrRwCO+GPLnhAeVJBNA2N/De Rv/+OO3RmKAGT9MxavjEBaZpWPwCh/SM9hrWjtC6YRMiz9E7eHv7Cm/evMZv//bv4Bd+4a/j1asg Lm5uNO7ubJYNlBpHxAEiNE0MkAaNBFc0TUoR0sGahi/06DM3cjmrCH/nzY3Gfh9MxR/96A7f+97v omk63Fw/r7L+9I78P9f8h+EuuogBoOue4Xh8vYmDVO0D+/1bIoBhvIPRfey9HGxeatPJS2VCnttC PNaOMIWOYO2E6+tnOBzucTzu8b3v/e6i9bdxMoqtvEG+2DRfnoWCT2Ga15BkcTjcZx45mpWTg1UO zuDvsHbEtCRvHg53aNsefX+Fjz/+80yPIbcvP5ZEIU2YGZI8uFk9TUco1QT377wePwA8Gv+3IwKm cQ/TpOzdGhHQsSDPDIAJHiFIFDJkJI7H/ZIm1sVGj6twuxGvXwffgF5MSGuHGDoldzO5VwPQDawd V8mYodQn0ErDsFJYl+Y/KB019E4pJOyStSuVwfX1s2jJcKUvLKY5RADJ9Cttf+fGVach8En+u5WJ GL/lojWD3woBeNYg07iP5mCpDIZj68mRKT4AgDk2KFKWlmQ1xsC7CcfjHawdVoERVUk316aDW1be VMvwdWfHEJV00+o+0qylUIvGbWFMj2k6rMw2a4eqpaOUQdfdxKVv+LrJYRVQUY14prSxYfl2GQmA R1ilUIEIpMKaBzwI99ROj0YfQQfgxbrQ21BwgBIg+lDl/co0pFSortstrk+/jPZtoc0UG4f2TbOL CqZ1Uzb2gH5LZTB7B6PbsLSduQ7iZ2nk2Tso8KQO/vtm1Rul1BBSQpsOdglqUV20bmNKm9YG0zQu xJNzG+r9MUay7Lnzhxxo47iP/v9p3CfCYYE4psB+cVbAOL6BXrRTKXI2y8UAfQjLYF0akvUqN0b2 TevqAjQ5koQxHawdoJWBJTOJAJZtFAu0gpmfPWRcLczEetB/vQyz5gMvjG6r/ovQ2B6zdxBSoRES QqpMc9fKQCqDttvFeQDv719nyi1P+zpXXGESxuCa7uDsMQM/EMC5KTPeDgHUZ5xeIoLTuIfSHSCJ lY4A8rXzOBEEuZcvOu29w/G4z2YdkVLh5csP8NlnBofDHbRuAzFompuAFpRq43PbBWDvLCR54sx6 yhkpJaTS8VzX7SKB8ftpUAY9i+pBdQjv7/D8nfeiF9OYDsNwn+kCHHzu9OFyv7T7eTtPdh9/ExFY ux+n493aXfg5EEC1cPlJIHoEWaWQon/r2a+DQuj9kHEDWn/Ie4c3b17j+fNXMMZgt7tF217hcHyD Fjv03TWKKdRRW5SRSpiZPA2uJAKgOX8Du07p2pR/H0fqsHkQ+u46KnR+9ui76xiXUEphv7/DNA0Z +LYImNW4DT/GzeXyXj+7lBzqrXPTgTJIP3clMHtBTE5YwHf2GC0Co/tM+6ekxlIUlGUY71modMIn n/wISuk4Cvnm5jZey2fX5ECf44h8fJ8xQQnr+6ssf/Hc/TxVm4hkv7/D4XAfI4A0LCzL96sAT72f K4BUbCXS6tyIOb5f8zF3b00HmIutPAfvLdRGxMV7h2F8U4Ytq/pASCRpYachKoUUIDoeA8vb7W5j bkDfX0XbPbiQewzDcXPCZd6Dt8bm5Rk408ovQL+pHA736PurGDGkujln8ebNp/Hd3NfPC0/55opf ShIdV+Bz2a9Ug8nfYxw/g5R6nme/hdWjCSACXRLEx/7//reX9pu/esTHr+So0TTPsvxAylZpmxu4 zEW5lsFECOQltNOwyOXFRLRhgMk4HmOvIgVRiMDqKZWMIm80MmkYjmxOnSkboUNAh2ltbczdowTO YRigtV5Sve5ZJC8ldr55k3vnaC5EKsN4n85Vcv0J+C3Fk8A/Hj9h77CYvYN1NBurPk7Tmz9EWL+G 8JqL35ullvBJA0DUQiANwqTQPYBrhDlpnjXPPvy5n3r1N/+RtcfbrnsZRg2rVgAQ1g3Qqp0BXCvd dqQ9e28hpY6sCwBE7F02EpGzA5Ru4eyA99//RbRtMDdLk7FtegAizq6RT1c3Z8kmJVvl5iSQL8dC buxpGuKSrYELkPMo7IML24RBL5wQFkAPh8/wwx/+T1ajbSy22mX2zo/T/mOtWmHdMAOYrd3PAByA 6f7+T//Dj++/9zvT/sf/Z3bjJwDeANgDOAIYEBYgtIxAMsK4lAA6RgDXgHgGzDfpP/rlmgbBzacA yPff+41vv/POX/t57wblZwspdPim2VYp03sLrSJowrqjvbn5qW86O2hqJMFNzcX7ppgmTsTD//P7 +D10joiv3AupsueV9/JSvlNIBSm1O9z/8A8ByOWbE+BCw8+W3rWZzj1Nbz75wR/9m/+4AGgBjAuw hwXoNwDu2PYGwH1BAK4ggGwQwTkCMAgzUFwB2C3bzbJdL/85Aehlk4BQWA9YOFVW5z/44G9/p2tf 3Dp3PHPrZbJvsvcw+mpWqoNzR0H/AYjl2Nn7u/aFcO6Ic9dP9v71Rx/91n99RF05SH7ZHAIBTAjg HhEIYI8c/D0SAYzICcCX7z9FALQoJBFAj0QEJAp2yzEiAAPGAXB+pGo5br1WF2zch41zX3SZN37z //OZ87Vn8o0IYFq2AQHgeyTQ37Dfh+UaIgC6f1UPfaICKCpQUuG43E9gz+y8YsdPTVy0NQqZ/94i hi8b+FNtdsn+kt/Eth3yticCIJAJaIu8t59VBC81A0n+cPAHJIA5+EQUW4sbA+cJoTYyGdjmIl9m qfXqsgNdQgy1dj/V+Uoi4ARQyvzNojcqwCvCKzAt94xIAAOJQEj+1wigxgXEmWO1jZ87uyjSF1C4 aVADfosItn6Xvb8kAFIERyRdgBMB5wBniUAXFajNJkEvd+zlkp0nwjDIFMCqHsBdbKe4wLmtdv+X Xc6Bf4oQyv8cOE4A1NYWCXROAMQh3KXvvUQEUAVsAQAXDSMSARDwl6xvX/uP4tpTIuQnhQhqrJ23 3zkucEr+1/QAzgXKjYuA7RUullISAGdnvHIOaxBKuV9j/eUa95fIci4qtn4/OPv1CyglyP7Eb2Cb A9R6LgeU5Dz1dr4RcWyx/5Uo2NIBuGynRnfFNZwlner5BNy5NW5L8VDjAvxc7RlfVtlywZa9v2Tz 557Dn0FigOsDnCNYrJVAVN6blXMigLiBL457BKAdcpOvZvufmsa8xgUu0QW27v+ySjVmgjr453SA U0TElTtODOVWio/a+wCc9gNwUVCjZHp5CXytx59i25foAcDpnv9lEcKlIJ6T/wJ1Vr3FCUpi4I4e fv5suSQfYEvB8agreA/tsec8gJcQ0U9SqQF+qTMIG+drW0kQ5e+t92XlIb75U6yZjssT159750O8 gQ/5hs+7nAKwJn/POYEEzhNPqWzS8XMK5qMa75y9DtQBOue/LytF7uRz9/2kOIDKUnMIAXUwBNYs uiYGSmIAtrkDNs6fLA9txHOy95Scf+jzfxJ7+6XlErb+lOec6+GXPv/RDXoJG3/s+049+yex55el ptSV5y99zkPOXQw6L2+rMd8mKD/pAD+1PAqoz+tZn3dj/0UH84sqb5NosvL/AI7n5T6jFLf/AAAA JXRFWHRkYXRlOmNyZWF0ZQAyMDE3LTA2LTAxVDIyOjQxOjIyLTA0OjAwfrzwSQAAACV0RVh0ZGF0 ZTptb2RpZnkAMjAxNy0wNi0wMVQyMjo0MToyMi0wNDowMA/hSPUAAAAASUVORK5CYII= "
     preserveAspectRatio="none"
     height="32"
     width="32" />
</svg>
