<?xml version="1.0" encoding="UTF-8" standalone="no"?>
<!-- Created with Inkscape (http://www.inkscape.org/) -->

<svg
   xmlns:dc="http://purl.org/dc/elements/1.1/"
   xmlns:cc="http://creativecommons.org/ns#"
   xmlns:rdf="http://www.w3.org/1999/02/22-rdf-syntax-ns#"
   xmlns:svg="http://www.w3.org/2000/svg"
   xmlns="http://www.w3.org/2000/svg"
   xmlns:xlink="http://www.w3.org/1999/xlink"
   xmlns:sodipodi="http://sodipodi.sourceforge.net/DTD/sodipodi-0.dtd"
   xmlns:inkscape="http://www.inkscape.org/namespaces/inkscape"
   version="1.1"
   id="svg2"
   width="22"
   height="22"
   viewBox="0 0 22 22"
   sodipodi:docname="input-caps-on.svg"
   inkscape:version="0.92.1 r15371">
  <metadata
     id="metadata8">
    <rdf:RDF>
      <cc:Work
         rdf:about="">
        <dc:format>image/svg+xml</dc:format>
        <dc:type
           rdf:resource="http://purl.org/dc/dcmitype/StillImage" />
        <dc:title></dc:title>
      </cc:Work>
    </rdf:RDF>
  </metadata>
  <defs
     id="defs6" />
  <sodipodi:namedview
     pagecolor="#ffffff"
     bordercolor="#666666"
     borderopacity="1"
     objecttolerance="10"
     gridtolerance="10"
     guidetolerance="10"
     inkscape:pageopacity="0"
     inkscape:pageshadow="2"
     inkscape:window-width="640"
     inkscape:window-height="480"
     id="namedview4"
     showgrid="false"
     inkscape:current-layer="svg2" />
  <image
     width="22"
     height="22"
     preserveAspectRatio="none"
     xlink:href="data:image/png;base64,iVBORw0KGgoAAAANSUhEUgAAAEAAAABACAYAAACqaXHeAAAALHRFWHRDcmVhdGlvbiBUaW1lAG5l ZCAyNCB0cmEgMjAwNSAyMDo0OTo1MyArMDEwMLQaw2kAAAAHdElNRQfVBBgUBDC3kACIAAAACXBI WXMAAAsSAAALEgHS3X78AAAABGdBTUEAALGPC/xhBQAADnJJREFUeNrtW3tQVtUW34oWZL5QQ0UQ 34AIKmCCVzEfBCWopFbkpJk2dM1pbGJyysg/ut2aO2PlNJnNOGPTg0wkRStDSFNRRHwgJiLKwxeh mCJKPoB9f78t+5sDfE/4sG63NXPmO699zt6/tdZvrbX3+YT4W/6/pd29fuHWrVsHXrx40ZP7nTt3 vjpw4MDjwcHBdX95ANauXRuRnZ09ZdeuXdPOnDkzhOfc3d0vhoaG7hg9evQubLunTZtW/JcDICUl JWD37t2PpaenzykoKAi2dN+IESOyH3744UxYw67AwMB948aNq77XYDhVoG23d955Jx4azsSh1FvH jh3lyJEjpb+/v3RxcZHGa9y6du1aGR0d/eUbb7yRsHHjxuF/9DhaJB999NFjs2bN+uT++++vMQ7O 19dXfvDBB/KXX36RRUVFElYhFy1aJHv16tUMCG5Dhw7NW7hw4b/QZvqOHTt6tUVfneoCX3zxxZis rKyoLVu2zDt37txAfd7Dw0M8/fTTIiMjQ/Tt21fAzMWTTz4pHnroISGlFFevXhU///yz+Prrr8XB gwfFjRs3Gj33vvvuu0muGDt2LF1kp5+f3+FRo0bVtwUgLZJt27Z5v/766/8MCQnZKQwafPDBB2Vs bKz87rvv5KlTp2RERIRMTU2VxcXFcvr06fLQoUOyvLxcVlRUqO3s2bMSmpZLliyRXl5eZl0E54vm zp278t13333qxx9/9Gpt31tlAbm5uR23b98+GwA8BQ3G6PPwcwFWFy+++KIICwtTx+3btxft2rUT AEPs27dPgPFFeHi46NChg+ma3urq6sRvv/0m9u7dK7755htx4MABddxUwCV7QZY/BAUF7YVF7IGV 3L5nAKxZs2YKtDV906ZNC27evPmAPg+/FfPnzxcxMTHigQfunjYOUO+fP39epKWlidLSUhEQECDi 4uIYFhvdR/f4/fffxenTpxVw3377rSgrKxO3bt1q1JcePXpUTJkyJeWRRx7ZnJCQsL1NAYBGghDW Hv/+++/j0TETS/fu3VsN4tlnn1W+XV9frzSZlJQk4Lti5syZzQBYunSpiIqKEr/++ivDpdK0q6ur uHLliuINo1Xcvn1bXLp0Sd3De8kVfIZRBg8efOzVV19dChAyWqpYq/Lhhx/GwM93CINPosNyxowZ Em4gS0pKlK+fPHlSnjhxQmJwiuEzMzMlNC2hPeXnIEiJzssLFy4oTmBYTExMlABCcQYAlKtWrVLP qaqqkteuXZPXr1+XIEe1z3YgW7lixQoJN5KwNFN/JkyYsGXDhg2BTh88OvS4p6dnsX4RNCmhWQlX UIMmsRUWFqqBs+Mc9KRJkyQiggRoMjIyUi5btkwePny4EQAkQf4SIFiJRJSQAFqBAbNWBGoEoKam RsItJNxOInrI48ePy5UrV0qEXBMItAJ7x+Vi743QyiKaPveHDBkiwNQCAxLDhw9Xpn7nzh3ls9pk u3XrJqBN5Q4Mcc8884w6Xrx4MU1VuYy+F2zPUCf69+8vXnrpJRUWP//8cwGCFagbCL6ora0VqBsU r2hXYhvyRpcuXQQAEkeOHFF9xb0dP/7442yE1ctOAQDk4/vpp58moWM9O3XqJFavXq1Ijh0hSREA itFnjRsZn53bvHmzyMvLE/369RPI9FReAGtQA+NzCQp/CTC0r/gEtYOKJEicBBQgYFUqcvC5sAJx 9OhRtYEIxc6dOxVQsK4BeOYJ3H/A1tja2wMAHwj/9uU+3IDhR503Dt6WgCfUoBE5lDUg5VVh8oUX XhDLly9XQJAU4TKmNtQuwWZkoYZRIwiYurpWWVmpwOHgaX08/+ijj5rasuiC+wxwCgAYvJ/eZydo 3hwACE6xNrXhqCBrFPB/8eabb4r4+HgVLZAaq0zRKHQPJE1i3bp14vnnn1eA0xroVuCORveCAFV/ KHv27InOycmZ1GoAYEbd9u/fP0UfI5tTnaK4ubkpEGh+9EdHhZzw3nvvKasiiK+88ooKpSiiBMi0 2f20AoZB9EdUVzcvFskPdBEtCJUTQLpWtdPBVicRe/uifh/MfZoZzZ+dJeFp0uN5AsAEhZ1kDuCI kBTXrl2rnoXEStUNgwYNMl3ne6ht8oe5jFAL29MKkCIrS4G7zWAZjkvrLbWxaQGcvdEAMDnx8fFR HTJ2TgtB6N69O2d6FEvbkjqAVZ2cLGoLC/kgdY5ESYvSQv/Oz89XabG1wWuha2qOQtjsAmuZjNS7 U4sBaMj2lBmxikOBYxq4Hrxxn8Lcn6FJ84PxmpZaDP4sTP1iYqKoQmVY99Zboj3M3gXAsS2FGSHr BsT6ZumvxQGhPSOUdlPkI0+QD1oEALIthaA+RuFhytHNDV7v62NaBMMaf+kWRteoQAi89OWXMIM6 UQ8yrPvkE9ERuYVLSYlqzxqBWqfpmwPQmjD3YH1BQSbpjhA8DpWn2ZBvFQBkY146/BHR8ePHN7re 1BUsgcG4TcLkL3N6xmoPxPk+CQmiA2I/pR2qxzsrVogbffqonAEdVnzSEmFfSbDaDVmpGhVpFKsk iBq9H3J35f9kaiYwtrTe9LrxmB2iW5CgbqOTvRD3USUJF3CAy5gxogIgHQfDX75sM4GzKUyq2Gf0 nznGIJTuE3E63SELQLwdoffp/wwz9gzUGjhaQ4ofAMhtdPIWrKEUZIe47ZTB63cw+dICK5iGuqWZ FVgEAA3cs7Ozp+rjyZMnmxIeewZq7rjpNVoEXYPPpa/TPZwlfCZTam21KNhGNFiBfQAYwx/RJAFa Gpg9VmDtfgJhT9h0VEi+jAhayAXJycmNpuYtvhW+Mwg1gJrYZJVGn3LU3O2xAmN7ZwutwNfX12QF KNODmqbHFgEAE/9D70+cONGUYztCeuYGb097ZwqtgNmhFlSMsampqf5WAUD66Ikqa6w+1vl1S0nP EaCcLXQtEjgLOApqg38guTJxm1kA6P9lZWVDuc+GnOG119zNmbSjQDlbmhZJP/30UxznOCwCAF8J RBqqVmKGDRsmevbs6dBgHCVJCpOkthJaASdVtBWwSkRVOckiADQTvT916lTVOUd839yxtfa6omxL YUpOLtNSWVnZ2ywAqMaGovgI4b4Ofy3x/daEyrYSFmlaUGUqxJvZHRISHz3f7+3trcJISxm8JaHS 2cICjFN3XFRhcaUFbl1uFgDU0J31fmhoqCpNW0t65gZ6L/IA1hysKrnoiqTOdD4iImLLmDFjMs0C YBRWbZys5Dyds83dUntnCJ/H+YNt27ZxPqBRir1gwYJ/R0dHJ8+ePTufx81q5MWLF9cXFxf7cya4 oKBAIGloNCfvDNIzBw5ne65du9bqwVPrXGrjFBvnDvWsNTLZMy+//PKyOXPmrAYAZ/X9ZicMk5KS Fr799ttr4D8mkuyDOv25555T83UMi/ZmesZja/dwAZSla2u0zukzTpVzIbWmpsZ0DYVcamxs7DoA sKVpO7OzJO+///4RmH0pNNK9vLzch+c4OcGFCU5ackFCW0TTTrTUCjj91VILINFx4ZRaJwAEgtK1 a9fLS5YsWT5//vz/xMfHHzTX1uqUMbMlMGdURkbGE8bcQFsEEFU1N+cJbWnYFji0APKNo8LBcqWY rlpVVWU6T5KDn69JTEzcYK29XSsaLB6QP0eaA4Jhkut5TJhY29tj7ubOgXccAoBa54DXr1+vptD0 s6CMmlmzZq3y8/Pb/Nprr+0XdxdMWwdAUyA4356bmxthvIYXqqUurulpsnQEjJKSErsBILFxppjh jUtkhj6cDAgI4PL4bhxyGvkStjJsV9is1QA0iPvcuXNjkS9MPnbsWHhRUdFA40UCQddg2qkzL3us wB4AeC+5iGsHTGo0wyNjrY+KikrDb3ZaWlrTJaXaBgAIBJOfRqs2jgDA0fhg45KNSiNnzpwZgE6M QLgMNQLBgTOJ4sInfFEd27KCiooKteZnTev8POazzz5TYU7LgAEDzuBdmzZu3LgD91gyd1oDH14q mliCPQDwHlaG/Ly1h7k2Goj8/PwwaNLbCERISIhISEhQv7qoMmcFNOVCrhCZ0bqlpAbhbTuYfg9c M89K/7mcVICt0txFWwBwSYlLzN4NFmBV4uLigtDZ0WDlcGjJ9GEjgeB3QrSIUaNGqSKrqRUwjKEM b/Q8Eh1T2eTk5EapLCLQpfHjx2/IysrahYTtpoXu0PRLsJ1usACL2rUk7Ru0zolRh4p1hJ8QcEQQ gAiDaZsmEwgE1/C5zM0FUeMqEwHQLsBjZp9cAueXZMZlMVSn+5CjZILocq10gQkF0eT6eauiAEFw F3d938MRIFxdXdvHxMQEV1dXj8zJyQlHqttdX2Ntzmn2efPmqVVgWoQGgFrnZzFfffVVI5fw8PCo hNY3IVzuPXTokKVVUhLcuYbB3xB2iL0k2GIg4KMdIiMjg5HphSKTnABtmj4kIBCcqiIQtA5GAa7/ 8+NIYyoL/jjs4+PzQ0pKSo6VV3HAp7Axn7b7/weOhkECQU32bdhc7W3o5eXlFhYWFgqXCEYuEQ4y M3EKgWDFybqd3/5pbkApfh0J1npY0dH09PQyC4/mzRexHRd3Td8hac2nspw36I/N0xEgkDl2DgwM HA0gRjcFwihIaAr8/f23whqyrDyO5ECSK8V2pyWDcMbX4hoIzrF1sreRBgIF0NC8vLxQ/KoPD7y9 vc8PGzYsF1xwBARYaOURVsPbvQRAi5u46xb9G0CxS5C7u4SHh3u5sZAQakm+EnX8JStNqOlSYSO8 /REAaKE7eDoKhJ1CH6ev0+edMo3Ulv8ZIhCaLEmcrVn9JKuT3cnydoW3PwMAWhgyGTp9xN1Q6igQ HDDjOuO70/8lci//N2gEghZh6zNdmviFhsG3frLwTwCAEQgC0F9YTqp0eGMuX9uWnfkjANBiKbtk WGN4s/1R4P84AE2BIFlS86XCCeHtb/lb7JP/Av9rsxMrFDhzAAAAAElFTkSuQmCC "
     id="image10"
     x="0"
     y="0" />
</svg>
