/* XPM */
static char * bottom_active_xpm[] = {
"1 4 5 1",
" 	c None",
".	c #4B58A2 s inactive_shadow_1",
"+	c #3678E5 s active_shadow_1",
"@	c #4C7BA6 s active_color_1",
"#	c #000000",
".",
"+",
"@",
"#"};
