/* XPM */
static char * stick_active_xpm[] = {
"12 21 6 1",
" 	c None",
".	c #FFFFFF s active_color_1",
"+	c #4B58A2 s active_shadow_1",
"@	c #ACB5C4 s inactive_hilight_1",
"#	c #3678E5 s inactive_mid_1",
"$	c #8E96A4 s inactive_shadow_1",
"            ",
"            ",
"            ",
"............",
"............",
"............",
"...++++++...",
"...+@@@@+...",
"...+@##$+...",
"...+@##$+...",
"...+$$$$+...",
"...++++++...",
"............",
"............",
"............",
"            ",
"            ",
"            ",
"            ",
"            ",
"            "};
