/* XPM */
static char * maximize_toggled_pressed_traditional_35p_xpm[] = {
"27 27 6 1",
" 	c None",
".	c #040004",
"+	c #ffffff",
"@	c #837f83",
"#	c #575557",
"$	c #000000",
"..........................+",
".@@@@@@@@@@@@@@@@@@@@@@@@@+",
".@@@@@@@@@@@@@@@@@@@@@@@@@+",
".@@@@@@@@@@@@##@@@@@@@@@@@+",
".@@@@@@@@@@@#$$#@@@@@@@@@@+",
".@@@@@@@@@@#$$$$#@@@@@@@@@+",
".@@@@@@@@@#$$$$$$#@@@@@@@@+",
".@@@@@@@@#$$$##$$$#@@@@@@@+",
".@@@@@@@#$$$#@@#$$$#@@@@@@+",
".@@@@@@#$$$#@@@@#$$$#@@@@@+",
".@@@@@#$$$#@@@@@@#$$$#@@@@+",
".@@@@#$$$#@@@@@@@@#$$$#@@@+",
".@@@#$$$#@@@@@@@@@@#$$$#@@+",
".@@#$$$#@@@@@@@@@@@@#$$$#@+",
".@@#$$$#@@@@@@@@@@@@#$$$#@+",
".@@@#$$$#@@@@@@@@@@#$$$#@@+",
".@@@@#$$$#@@@@@@@@#$$$#@@@+",
".@@@@@#$$$#@@@@@@#$$$#@@@@+",
".@@@@@@#$$$#@@@@#$$$#@@@@@+",
".@@@@@@@#$$$#@@#$$$#@@@@@@+",
".@@@@@@@@#$$$##$$$#@@@@@@@+",
".@@@@@@@@@#$$$$$$#@@@@@@@@+",
".@@@@@@@@@@#$$$$#@@@@@@@@@+",
".@@@@@@@@@@@#$$#@@@@@@@@@@+",
".@@@@@@@@@@@@##@@@@@@@@@@@+",
".@@@@@@@@@@@@@@@@@@@@@@@@@+",
"+++++++++++++++++++++++++++"};
