/* XPM */
static char * hide_active_35p_xpm[] = {
"35 35 7 1",
" 	c None",
".	c #390000",
"+	c #ffff55",
"@	c #dcbf2b",
"#	c #eeb50b",
"$	c #b87f00",
"%	c #ffffff",
"...................................",
".++++++++++++++++++++++++++++++++@.",
".+###############################$.",
".+###############################$.",
".+###############################$.",
".+###############################$.",
".+###############################$.",
".+###############################$.",
".+###############################$.",
".+###############################$.",
".+###############################$.",
".+###############################$.",
".+###############################$.",
".+###############################$.",
".+########%%%#########%%%########$.",
".+########%%%%#######%%%%########$.",
".+########%%%%%#####%%%%%########$.",
".+#########%%%%%###%%%%%#########$.",
".+##########%%%%%#%%%%%##########$.",
".+###########%%%%%%%%%###########$.",
".+############%%%%%%%############$.",
".+#############%%%%%#############$.",
".+##############%%%##############$.",
".+###############%###############$.",
".+###############################$.",
".+###############################$.",
".+###############################$.",
".+###############################$.",
".+###############################$.",
".+###############################$.",
".+###############################$.",
".+###############################$.",
".+###############################$.",
".@$$$$$$$$$$$$$$$$$$$$$$$$$$$$$$$$.",
"..................................."};
