/* XPM */
static char * title_2_inactive_35p_xpm[] = {
"4 35 6 1",
" 	c None",
".	c #000000",
"+	c #b3b7b9",
"@	c #5e6264",
"#	c #5e6264",
"$	c #090d0f",
"....",
"++++",
"+@@@",
"+@@@",
"+@@@",
"+@@@",
"+@@@",
"+@@@",
"+@@@",
"+@@@",
"+@@@",
"+@@@",
"+@@@",
"+@@@",
"+@@@",
"+@@@",
"+@@@",
"+@@@",
"+@@@",
"+@@@",
"+@@@",
"+@@@",
"+@@@",
"+@@@",
"+@@@",
"+@@@",
"+@@@",
"+@@@",
"+@@@",
"+@@@",
"+@@@",
"+@@@",
"+@@@",
"#$$$",
"...."};
