/* XPM */
static char * title_4_active_35p_xpm[] = {
"4 35 6 1",
" 	c None",
".	c #000000",
"+	c #c0f0f4",
"@	c #80b0b4",
"#	c #6b9b9f",
"$	c #407074",
"....",
"+++@",
"###$",
"###$",
"###$",
"###$",
"###$",
"###$",
"###$",
"###$",
"###$",
"###$",
"###$",
"###$",
"###$",
"###$",
"###$",
"###$",
"###$",
"###$",
"###$",
"###$",
"###$",
"###$",
"###$",
"###$",
"###$",
"###$",
"###$",
"###$",
"###$",
"###$",
"###$",
"$$$$",
"...."};
