/* XPM */
static char * title_1_active_xpm[] = {
"1 21 5 1",
" 	c None",
".	c #000000",
"+	c #4B58A2 s active_hilight_1",
"@	c #90B8DC s active_shadow_1",
"#	c #3678E5 s inactive_color_1",
".",
"+",
"@",
"#",
"#",
"#",
"#",
"#",
"#",
"#",
"#",
"#",
"#",
"#",
"#",
"@",
"+",
".",
" ",
" ",
"."};
