/* XPM */
static char * top_left_active_xpm[] = {
"3 21 4 1",
" 	c None",
".	c #000000",
"+	c #4B58A2 s active_hilight_1",
"@	c #90B8DC s active_shadow_1",
"...",
".++",
".+@",
".+@",
".+@",
".+@",
".+@",
".+@",
".+@",
".+@",
".+@",
".+@",
".+@",
".+@",
".+@",
".+@",
".++",
"...",
"   ",
"   ",
"..."};
