/* XPM */
static char * shade_pressed_traditional_35p_xpm[] = {
"27 27 6 1",
" 	c None",
".	c #1c0a00",
"+	c #fffff3",
"@	c #9b8973",
"#	c #000000",
"$	c #635a4f",
"..........................+",
".@@@@@@@@@@@@@@@@@@@@@@@@@+",
".@@@@@@@@@@@@@@@@@@@@@@@@@+",
".@@@@@@@@@@@@@@@@@@@@@@@@@+",
".@@@@@@@@@@@@@@@@@@@@@@@@@+",
".@@@@##################@@@+",
".@@@@##################@@@+",
".@@@@##################@@@+",
".@@@@@@@@@@@@@@@@@@@@@@@@@+",
".@@@@@@@@@@@@@@@@@@@@@@@@@+",
".@@@@@@@@@@@@@@@@@@@@@@@@@+",
".@@@@@@@@@@@@@@@@@@@@@@@@@+",
".@@@@@@@@@@@@$$@@@@@@@@@@@+",
".@@@@@@@@@@@$##$@@@@@@@@@@+",
".@@@@@@@@@@$####$@@@@@@@@@+",
".@@@@@@@@@$######$@@@@@@@@+",
".@@@@@@@@$###$$###$@@@@@@@+",
".@@@@@@@$###$@@$###$@@@@@@+",
".@@@@@@$###$@@@@$###$@@@@@+",
".@@@@@$###$@@@@@@$###$@@@@+",
".@@@@$###$@@@@@@@@$###$@@@+",
".@@@@###$@@@@@@@@@@$###@@@+",
".@@@@##$@@@@@@@@@@@@$##@@@+",
".@@@@@@@@@@@@@@@@@@@@@@@@@+",
".@@@@@@@@@@@@@@@@@@@@@@@@@+",
".@@@@@@@@@@@@@@@@@@@@@@@@@+",
"+++++++++++++++++++++++++++"};
