/* XPM */
static char * maximize_toggled_active_xpm[] = {
"14 20 5 1",
" 	c None",
".	c #4B58A2 s active_shadow_1"
"+	c #90B8DC s active_hilight_1",
"@	c #3678E5 s active_color_1",
"#	c #000000",
"              ",
"              ",
"              ",
"..............",
".++++++++++++.",
".+@@@@@@@@@@+.",
".+@######@@@+.",
".+@######@@@+.",
".+@#@@@@#@@@+.",
".+@#@@@@###@+.",
".+@#@@@@#@#@+.",
".+@######@#@+.",
".+@@@@#@@@#@+.",
".+@@@@#####@+.",
".+@@@@@@@@@@+.",
".++++++++++++.",
"..............",
"              ",
"              ",
"              "};
