/* XPM */
static char * top_left_inactive_xpm[] = {
"3 20 4 1",
" 	c None",
".	c #000000",
"+	c #4B58A2 s inactive_shadow_1",
"@	c #90B8DC s inactive_hilight_1",
" ..",
"..+",
".+@",
".+@",
".+@",
".+@",
".+@",
".+@",
".+@",
".+@",
".+@",
".+@",
".+@",
".+@",
".+@",
".+@",
".+@",
".+@",
".+@",
".+@"};
