/* XPM */
static char * top_right_inactive_traditional_35p_xpm[] = {
"4 35 6 1",
" 	c None",
".	c #000000",
"+	c #868b90",
"@	c #434648",
"#	c #31363b",
"$	c #000000",
"....",
"++@.",
"##$.",
"##$.",
"##$.",
"##$.",
"##$.",
"##$.",
"##$.",
"##$.",
"##$.",
"##$.",
"##$.",
"##$.",
"##$.",
"##$.",
"##$.",
"##$.",
"##$.",
"##$.",
"##$.",
"##$.",
"##$.",
"##$.",
"##$.",
"##$.",
"##$.",
"##$.",
"##$.",
"##$.",
"##$.",
"##$.",
"##$.",
"$$$.",
"...."};
