<?xml version="1.0" encoding="UTF-8" standalone="no"?>
<svg
   xmlns:dc="http://purl.org/dc/elements/1.1/"
   xmlns:cc="http://creativecommons.org/ns#"
   xmlns:rdf="http://www.w3.org/1999/02/22-rdf-syntax-ns#"
   xmlns:svg="http://www.w3.org/2000/svg"
   xmlns="http://www.w3.org/2000/svg"
   xmlns:xlink="http://www.w3.org/1999/xlink"
   xmlns:sodipodi="http://sodipodi.sourceforge.net/DTD/sodipodi-0.dtd"
   xmlns:inkscape="http://www.inkscape.org/namespaces/inkscape"
   viewBox="0 0 64 64"
   height="64"
   width="64"
   id="svg2"
   version="1.1"
   sodipodi:docname="kmail.svg"
   inkscape:version="0.92.1 r15371">
  <sodipodi:namedview
     pagecolor="#ffffff"
     bordercolor="#666666"
     borderopacity="1"
     objecttolerance="10"
     gridtolerance="10"
     guidetolerance="10"
     inkscape:pageopacity="0"
     inkscape:pageshadow="2"
     inkscape:window-width="640"
     inkscape:window-height="480"
     id="namedview6"
     showgrid="false"
     inkscape:current-layer="svg2" />
  <metadata
     id="metadata8">
    <rdf:RDF>
      <cc:Work
         rdf:about="">
        <dc:format>image/svg+xml</dc:format>
        <dc:type
           rdf:resource="http://purl.org/dc/dcmitype/StillImage" />
        <dc:title></dc:title>
      </cc:Work>
    </rdf:RDF>
  </metadata>
  <defs
     id="defs6" />
  <image
     y="0"
     x="0"
     id="image10"
     xlink:href="data:image/png;base64,iVBORw0KGgoAAAANSUhEUgAAAIAAAACACAYAAADDPmHLAAAACXBIWXMAAAsTAAALEwEAmpwYAAAg AElEQVR4nO19eXRc1Z3md99Su1SlzbIk2/IibNkGL2EJwdCYdCAEQjqQAAM9y5n09ElmcqbTnXN6 0n16JuOThCykaSBMOkAIgZjNBhIwNpjF2MbGmySvkmVt1i6rVFpq395y54/3btWrUmmvkmVSHzy/ 0qtXb7vf/X7LXR6QRx555JFHHnnkkUceefwZo7u7e+XlvoY8LiMCgUB9W1vH73p7e6+53NeSx/yA 09cEAIlEIt1Wq+WL8bh0oK+v7422trbP6d/l8RkFB73wAfAFBQV7qqoqq6OxaCwQCN7qsNtPdHd3 v93Z2fl55InwmQQjAA+Ar6+vP0wpVdfW1i4OBPzCJbfbZzKZ7hYE4UhPT8+7HR0dNyNPhM8UCAAB GgFEAHw8Hj8giuImVVXVQ4cOSWaLxbe8urpEkiSeEEIBfCzL8k9WrFhxEAC9nBefx9xhVAABgHl0 dHQ/AHAcx23ZskX0eb3Fra1tXkEQYgAIpfQveZ7f39fXt//ixYu3I+lH5HEFghGAg0YA0+HDh4+x LwVB4LZu3coHAv6i883NEUJIlOO08lZV9VZRFD/o7e091NXV9ZVt27bliXAFggAwAzABsAKwV1VV FXZ2du4TRbGE7RQKhehHH30Ei9UaWltbSwRBsCuKoh2AJFyCOlmWH3nxxRf3bNu2TZ7n+8hjliDQ Ct8MwAbAAcDR39//i8rKyi8bd/T5fHTfvn2w2WzxmpqaqN1ud8qyVs6MBIQQUEpPq6r607179771 7W9/W5rXu8ljxmCyTZF06Lj6+vpj6Ts6nU6ydetWBINBU1tbm23M6/WLokgBgFLtp5RSEEI28Ty/ 8+677z7Z3d39H999913zfNxIHrMDh2Thq/pCn3nmmVOqqo6T8eLiYrJlyxYEAgGhq7PLMTg46BNF UQVSSaDjakEQtm/YsOFMb2/v3+zcudM6HzeUx8zAwkARmg/gAOAE4BweHn66pKRkfaYfdXV10ePH j8PpdKKkpCS4dOlSiyzLoq4A2oHHrztkWX5sbGzsDxs3bgzl/M7ymBaYAqgAFACyvigtLS11E/1o +fLlZPPmzfB6vRgeHi7o7OyUCOHiHMeNUwLDepUgCP9eWlp6vre393uHDx8uyOmd5TEtGE2AAgMJ 9u7dOyEBAGD16tVk/fr18Hq98Hq9tq6uTlVRlBjP85ORAISQZTzPP7Fq1aoLvb29/1hfX+9EPrt4 2ZBoB4AWDdgAFABw2e32Yo/H86rVai2b7AB1dXW0vb2duFwuFBQUyFVLlsQtFotNkZMuxERmQf88 RCl9cnh4+DcbNmzwIp9dnFcYowAVWu2XAEihUCjW19d3cqoDXHfddWTZsmXU6/UiGAwKfb295mAg EBEEgU6mBAYsIoQ8smjRotZLly79sLm5uQR5RZg3ZIoCFOgkOHHixPGpDkAIwU033YSysjLq9XoR CoV4t9ttGRkZiZhMJpXtNxUZKKWlhJBtLperbXBw8MdnzpxZhDwRcg72gDmkmoFCAK6bbrppyaFD h3ZyHGea6kCyLNP3338fgUCAmQNaWFgYKysrExVF4VlBTxIlpK99qqo+E4vFnli+fPkg8qYhJyCG NWsRZOGgC4BrcND9q/LyRRunc7BYLIY9e/YgHo/D5XLB4XDAUVAQX1RWxlFKhVmQAAAClNLngsHg 4zU1NX3IEyGrMDbgpIeDEgDpwoXmE9M9mNlsxp133gkA0H0ChIJBk9vtppRSied57URTmwPjuoAQ 8g+FhYXNbrf7Kb3fYt40ZAnpqeBx4eCuXbvqMINaZ7PZcNddd0GWZfh8PgQCAYTDYdHj8XDxeDwu CIJ2wpmRAJRSOyHku1artdHtdj/T0dGxGnkizBkk7TPzA6zQw0GLxVLk8XhedjgcFTM58OjoKHbt 2gWr1Qqn04mCggLYbDbV6XTKdrtdlCSJADM2B8YQMgZgh6Iov6ioqGhG3jTMCult+OPMQDQajff2 9p6a6YGLi4vx5S9/GYFAwKgEnM/nE/3+gCSKItVbD7UTz3ANwEwI+c+CIJz2eDyv9vX1bUReEWaM dB8gU1pYPnzkyNHZHLyiogJf+tKX4PP5jCQgoVBQ9Hq9siAI6hTp4+msRQAPWq3W+qGhoTcHBgau Q54I00b6g2KNQylZwauvvrry1KlTrwuCYJnNSS5cuICDBw/C5XIZzQGsVqvicrlAKeUVRZm1OUhb q5TS91RVfaS8vPwY8qZhUmTqxmVMCMkApMbGRp/H42mc7Ulqa2txww03YGxszKgEiEQi/NjYGCil iiAIc1UCtuYIIXcLgvDp8PDw3qGhoVuQV4QJkckHAJJp4cTS1NR0glKK2S6bNm3Chg0bxpEgGo3y fr+fSJIkswgBmDMJQCklAO7gef7g8PDwvsHBwS8iT4RxyKQAxrRwIh/w5ptv1iWS+7PEF77wBVx1 1VWZlIALBoN8LBZTWC8jYO4k0D8TQshtoijuGx0dPeh2u++Y4L7/LDERAcZFA08//XSX3x/onYsK UEqxdetWVFVVwev1pisBCYfDXCgUygUJ2PoWURTfHxkZ/dTj8dx9//3381l6jlcsJqoJmaIBqaen +9RcCQAAd955J4qLizOSIBaLCYFAQBUEgTLnLsskACG4kef53c8888xxt9t937Zt25K2588M01YA ANLBgwdnFQ6OOynH4Z577oHNZksPERGJRCBJEu/3+ynHcSobh5BtEui41mQyvfm9732v3uPx/Ied O3dO2ej1WcNETpExHLRCbx1ctWrVonONjW+IgmDPxsmj0Rhee+1VqKoKp9OZHiKC53nV4XCAEMKl j0OYQwZxsu+aFEX55blz53bcdttt0Wzc40LHZM7QuHCwo6Mj5B4cnHU4mA6LxYxvfvObiXaDdCVQ FIULBAJElmVlDm0IKespvlsvCMILmzdvPjMyMvK39fX1tmzd60LFZD5AJjMgnz137uhc/QDjYrfb cf/99yMajWYkgaqqJBwOc7FYTJ1r+ng6JNDXq3mef7ampqZxdHT0u01NTY65PuiFiqnCIWM4KAOQ Xn3llTpVpWo2SeByuXDfffchGAxOSAI9SqDzSAIAWMHz/P9bsmTJ+bGxsX9oa2srxGcslzDZzRg7 ibBhYy4ALrd76HmXy5nV+YQIIejq6sLbb78Np9OJwsLCcT4Bx3HgeV4tKCggiqIQVVVz6hNk2HeQ UvpEZ2fnM5s3b/bhM5BmnkoBmClIaRzq6upsyKYCUEqhqiqqq6tx+x13wDs2Br/fn0kJoCgK5/f7 QQihrAu6McTMhRIY9l1MCPn5qlWrWnw+3780NTUV4wpXhMkIkO4HJDqL7tu371i2CcBIsLa2Frf8 xV9gbBISqKpKAoEApZRSYy+jeSIBKKWLCCE/XrZsWavP59s2MDBQiiuUCFNdtHHoWKJ1cNGiRWWt ra07TSaTMxcXxfM8Dh06jIaGehQVFU1oDggh1GazUVEUOUnSBiITQubLHBi3jVFKn45EIk+Wl5cP 4QoyDdPJiatIMwNDQ0MRt9t9LhcqQCmFLMu45ZabsXbt2kmVgFJKwuEwicVi1GQyJZzDeVQCti4i hPyzzWZv8fv9v+jt7a3CFaII0/UBxmUFGxoaspIVnAiSJOH2229HdXX1lCSIRCIwRghAbqODifel TkLIP7pcrguBQODxgYGBaixwIky3VWycH/DSSy/VK4qi5EoFAECWZXzta19DWVnZpCQAQGKxGOf3 +3H5SQAAcBBCvud0Os8HAoFfu93uVVigRJjORaWPGSiAHg729PQ8W1RUtDqH15fA9u3bEQwG4XK5 JvQJAIDneVpQUABVVYlOjsvhE6Svo5TSV/x+/y8rKytbsIB8hOkqQEYz0N7RUZcrBUhfHnroIYii CV6vdzIlgKIoxOfzAQCd5TiErCmBYW0hhHzL6XSeCQaD20dHR6/GAlGE6RCAGpYUAnz04YfH54sA HMfh4YcfhkrplCSglJJAIABZlulc2xCyvK+JEPLXFovlZCgU2jk2NrYZl5kI0z15xnDQ6XSWtLa2 7jCbzcW5usCUiyAEfr8fL7zwAiwWy6QZQx3UZrPBbDZDlmVC6aQzmEy6zva++meFUrpbluWfOp3O GQ3AyRZm0jVqXOugz+eLDgwMnJkvFVBVFQUFBXjooYcQCoXg8/kmVQIAJBwOIxQK0ZjKU0IIRA7g OQCXVwnYZ54Q8lcmk+loKBTaMzo6ugXzrAjT7QkzoRloaDh1pLq6+rYcXd/4C6EUpaWl+MY3voGd r78+4X4GJSCNHb3y998NCzeur4ASCqPKwWFdpQ1XLbaiqtgCu1kAzxHIKgWg5RJYTsG4ZufP9N1s 9mX7QOvJ/BWr1XpnKBTap6rqTwoKCj7BPCjCTNhmHEJuh24GtmzZUr3r7bdfAyFiLi5wIvA8j5bW Vryza1eiM0kmcyAKAp5447D6xsVFnMVmwYbaRRgcjmDQEwRVJFgFiopCATWLLFhXacPaKjuWl9lQ 4jDBLHJQVEDViyHH5iB920FFUX7scDg+Rg6JMBMCZAoHnQBcra2tvykuLl6Xg+ubFIIg4NTpM/jo ww8Sg07SSWCzmumDjx2ER1hFKFXB8xyuWVeBmGJG32AAqiwDVIWqyFAVCZIsw0RUFNk4LC8xYW2l Heuq7Fi92I7KYivsZgEggKomSyWHJAAh5NNYLPaTxx9//INt27YlbFu2MFMCsDmFLUhOKefas2fP f7vhhhv+a7YvbjowmUzY9d6HaGk8BadzPAncY0H633d6CG8v0+2+Jr9rriqHvbAEFwfCUCQFlCqA qoCqKkAVUFUGVRWosgxZlgAqwy4ClS4RaxbbsK7KgXVLCrC8zIYihwkmnodC6Ti1yBIJQCk9oarq T/bs2fPuAw88oGTr+c20WzQjASOCCMBUUlKi3nrrrXdTbTDGvIJAxbP1cYhqBGpgCECyMYjnOOyp 7yItkQpwhAMIAXQbPDwShMArWFldBn8UUCGCCCZwgklfm7XFZIZgskAwWUE5M7wxDu0eCZ+2BfBm 3RBePtKPPx0fwMHzHlx0BxGKyuB5AruZh0XkQQhSBHwOJKjiOO6h2trar/7gBz8YXb58edvu3bvn rAgzLTBmBoxjB50Wi6W4tbX1NbPZPOmMYrlAOCbjrkfrULliOa6XPoUQvJTwCVzOQjyy141h61rN 2dIXCgrtf4rSUgfWrV2JjksywtG0ikW1fyhVAapqa1UBVBVUVUCprKmGIoOqMlRFhiRJ4KgMh4lg abEJayocuHpZIdYvcWJZmQ0uhxkCz0FVZ6YW6dsopecopT+/ePHiG+vXr4/P9vnNhgActJrPzIAL gOvIkSP/Z+XKlXfM9kJmi7r2UfzPlztgK67AqhXluGboTXDhYRQWFkImIp46WwLOUQ6tIAGt5FM/ 2x1mfG5zDXpHOHiD8hQul04enRSauVABVQalKqhqIAWVQXUTosoSTDzFogIBNeU2rF9aiGuWuVBT UYDFRTZYzYIe6k7sW0ywrVlV1UcHBwdfW7FixYx7Ms9Gso1+gB16l/Enn3zyzgcfeGDbfGYyeI7g 3/a04Y0zEZgLF0GwF2P1Uiuu6ngeghRE0wiPo8oN4DhBr/VMAZDwB5gymMw8Pre5Bt64DUOjcdAZ 3QgjFTUQwuhXaP4EdKWgigxFkSBLEjgoKLRwWFZiwfolhbh6mRO1S11YvsgBp80ETlcLOokZ0dEu y/K/+ny+7ZWVleHpXvlsCTBuRrFNmzYt2b1797RmFMsWeI7goaca0B91QCwoA291gTdZULtIwoq2 3+JPrQL8rus0+U4QAMnPYCQAQCk4geCaq6tBLKXoHYpDVedAZ0Y2phQ6IaiqLdBJQVUZUBTdhGik UJU4LDxQ4TKhZrEDG6pdWF9dhJqKQiwussEkCgClUKmWt2DQTUM3pfSxjo6O369fvz441WXOhgDp 4WDCDJw9d+5XJcXF05pRLBsYC0n4+uOnIBSUQ3CUgLc6QTgBHAesLQ2h7shxhIkLxpoOYFI1IACu Wl2BksVLcXEgDlnJkqYl/Amq+xOGqIMRIaEWsq4WClRF0sLTeBw8UVBk5VFdZsPVy1zYsLwYq5cU YUW5Aw6LCYQjOjEASmk/pfTx/v7+51atWuVnV5CO2RIg3Qw4Abh27NjxX7Zs2fLt2T2hmePAeQ/+ 95/6YHMtBu8oBmd2gBAtuy3wBMtKFZypb0Q8JmuFnigAJD9PsG3JkhKsXH0V2gdkxOJq9hO0zAdh 51TVBDGoomimRCcBdFIw8wFVhiJLUKQ4VEWCVQSqiixYU1mIa5YX4+rlJVhV4cRilxW8ILgB9Um/ v+83RUUrvOmXMdvbSrxjCAY/4Fvf+taGH/3oR7+dj3BQ4Al+9GYrPmyXYSpYBN7mAmeywnhLokCw tFjC6fpGyJJiyMMnC50VuFENmEIUlziwcdM6XPQQhMJZC72ngEGtdH8iqRZJ05HwJwykUBUJiiRB kmIQiYpih4CV5Q5cU12M1UuKPEUO8+PL7AVPrV+/KGEaZltQxnAw0UlEEISixsaml20264xmFJvV BRDg/idPYYy6INh1+RdS3Q8KwGoiWFwYxan685pNTwkFkyFhwgwY/qaUwuYw4/rr12MgYMGY/zK9 CokmTQcoC0GTpEgxHwZHE4oEqsoQeAqHTZBdNu7jlWXi3z/33dsv6I9n2o1BGS8Laa2DsizH+/v7 Gmpqar4697ueHJdGo3AHFJidAsALoByXsPFGRGIU7oAFGzevxumGCwlTkHQC9VtJSdiwAB0IB6M4 cvg0rr2uFtbSEgzOOELIAgjRaypvuDxD1EFVzZHUSaGqCjgosJqAEgcZtdHQDm6k9bk/bvvWhY+1 suKgd/adLQHY0xs3o9jx48eP5poABEBDpxeUNwG8CHA8SGoJpiAcVTDC2XHNhlU4d7oNFNAzdCTp GLI0MTMFCZJoHVSPH2/Ehg01WF6xBN2DcagqLl9XDqL9w0hBKABBUy+RBwqtBE4hdIEONu88+9wv 3uo+f3QEQBSa425s2Z3TLbBOIikzitXW1lbu3rPndYHnZzWj2HQg8AT/9GozjvXzEB2l4K0uEHHq d1O5HDysqgdNZy/qBEiNAowh4Th/QadFzVVVqFhRi45LEmR5vqUgMwgBzCYOxQ7ETcHeEyP1f9r1 6UuPngTkCIAIgLC+RKBNsBmHVmHVuc6MMW7w6IULF3wjw8ONZWVl16UlKrKGWFxBY18YnFAMcAIw gfynwxuQwTnLsLo2jpbmHnAsUa+vEtnB1EoCksj+UbS39CEUCmPthk1oG6RahHAZQAEIHGCzcCg2 R0eknrqDTb997OPepqMeaAVsQmpPbvaKYOMLw8lcfQAggxlobr5wrKys7DqaC2NJgc6hMEYjFFan AMLxYJ04poMRr4RFRZVYtUrCxY4BPZumySeBoeanWRRKmO8AXOrzIBw6iutvvA6doyYE5ylCYGkf USAocnDUGr/UOtrwzkcfvv7Y6WhgNAatHIzODQyfjbUx8XmuCsD8gJQZxd5/f2/9LbfcnJqmyhII AU50jIETRK32E14/y/TJNjQmoaKkGkvjEnp7hrRGQt0c6P10EofL6BuAwDsawOEDR/D5m66Fx+TE iC+HEQIFCAfYzATFNjUC97nj3e88d6Dx49e6kUGFoSlAFEm5l/RFNSyA5gXNCZnCQSeAojNnzvzB brcvnePxx0HgCf7uhSY0jZggFJSCt+jh3wzNDQFQVSZiuLsZg5fG9K3jw0QGmmE7pSoEkcf1n98I yVqFgWEJc8keZ4LAAwVWHk7ONxBq++TgmR0/P+rpuRDA+ME6MrTCZksMGgmMC/suQYZszI6VKRqQ ent769esWZN1AoSiCloGoyAWm177iRYfz1BsKIB+TwxLl6+BFG/EyLAfzBikK6gmAqrhl9qagECO Kzj26UlcszGIlZW16HJLUObgFjAVMpsIiuycbAp2NrkP7vjo0M7HmxVFkpHhWSNZ62OGdSxtG9tP RrLMZh0GGq93XD4AgHTs2LGjq1evuXcm0jwdtF4KIBgHrDYhkfZNpHL18GjaF0+BXreEZWvWQZbO wOcNJ35O0toHkvKvrw1NylSlOHvqAlYGgli9/lq0D6qQJDozTlLNl7VZCIotkl/qb/i0ZfsTBy+e +NCN8e9zMhZ8ekGnL8YZXxUkB/tiZk9rYhjDQTajmHPJkiWL33//g9cFgc/KjGIAwBGC3+3vxqsn QzA5SsHbisAJ5mTBE+bczvC4HFBdzqHt9GmEQhFtozFLaFintB8kvmKEoCivLMGmz9+EDg+PSGx6 5BcFoNDO0wLZ0+k9t3d/3Ws/rQ8OX4pi8tqeXuPjhu8kjC/0xKuBYSBAtiZIHMfQvr6+4PCw52x5 efkXshUOcgSou+gDz1sATpN/lap6kZPkMsPTKSrQ7aZYvfEaNDecRDQqQXP8koWbMAVG3yDhIAIU 2nW4B4Zx9ON9+PytN6Mv4IA/NN4eUP1ezCJBiR0xfqzlZP+uF/Z/9PbT7Ui17ZMVfHqNN0o8+32m Qk9hZbZ8AKMZSIwgbm5uPlpeXv6FbIWDYyEJFz1RcDYHwPGa6qd77yCabztTEigUPR4OtZs3oLH+ FOS45tUTJGu8ljtKLXwYlAD69QS8ARx6fx9u2noTLGI5PD4l8ROBB+wWApcQGo52HvmkYefPDl1q OelF5oI31uqJpD5TbTeGg+lOTQqyNVcuq348kn0FTACk22+//evIUjh4usuL95v8EK0OEJMNhBOg FQLL5LA9Z0c4RaUIx3isWlmK4UuDqZ6/IdRkpCBGhzDxvbbIkoKerh4sK7fAVVqGmERRWsipJerA hWDd73fsf/Thl1v3vdQcHLkURrKWs5ptzN6FAYTS/k7P6rHazwg0ZcEzZCtON3YSSZlR7MSJE887 HI45zyjGcwRPvNuBPeejEBwlEKyFIDwL/7hkg0nC3HCzvjurhUe5I4TGujPJZmNm5wFD7TdEDRTj /AZKNeJ87vr1cFn4I2de/7e9zQff6MPUtX0y+26s7dOS+cmQzUmS2QWkTCzZ09Nbt27d2rlPKUcp Tnb5wPF2EMKDIj38I3pgppsBos46zRGOyBgidqzdtBbnTzYlzs8SQoAxKjDmCwxOI1MICrSdb/X3 vPL3v5eigTgyx+5TyTx7ngpSC35aMj8ZsjVvfiY/QAYgHT16LCtDyN2+KPrHYprzZ5xAOtE7V6sI mo1O/p35OU29hEISxuQirLlmtdbcakwAGRxDQnVSUEOhG9WCI0B46IwUDTDJjkCT9BCAAAA/AB8A r7726dv8AIJIlfsYUh094w3OCtl8cUImBZC2b3+xKR6P++dS+KAUZ7u9kClL/eqTQakqqEq1blRU 1f/WF/Y31TpmzniBCr8/hhBXhpq1K0FVJWn7E8TTHUR2+wnyJX0FUeAgDTQdgVZ4zJ4HkFroXiQL PQCt4FlLntEEZKr9c0K235yRcUYxj8dzei4H5XmCo62jEEQx0fiTUvMNfeq0fnV6YVBV304xg8qf 8mjHfDHI1iqsuKpaG3ZO03aiWq1niaOECdCvxWwigcGTe05DK/wgkjXeuAT0hTl7LI9vdO7mXNsz IRcKMC4r2HT+/JwmmJZkFWd7/Frhs+yfqtV6labXeG1R51L7UxYKz2gUnGs5liyv0MwBNUg9kHT+ UqIDCo4j4GK+hnhwzA+tcBkB0mt7CFptZ/l6o8yzZ5rVgmfIxbtzxuUDdr399klK6azaTCko+kfC 8ATkJAF0j5vV8JQab6j1ie2qQSlmubiHo7AuXo3yilLdJ4DWEyfN4UuWEwUv8qBDLZ8gGdYFDUt6 oTNnbyLPPifINgGMKpDIQe/fv9/t9/vbZ1P7CQVOXhzRbT+vl326rVeS9n7cNtVwPHXG5zcug54o qtZupGUlDiSdzTRToMs/AWA18cGBul0N0Ao5PYZPl/l0r3VekAsFyGgGurq7p/0WciN4nuBY2yh4 QdDln9O6RafUdtZ1mtVytlZAWU/gcd/NbOEFjq4oVpWv2FuUGxcrlPkDxEACo9NKCMDHffVhrzuA 1CZZo1M3LzI/GXKlAOOigWNHj85qSrlIXMb5voAu/3qDLaUG208TiqBSY41PKoCqDw1LfAf978n+ YwrEURQUCPTrK7zq3y5r58o4v3DtUjM4PfOXjACQVABd/uXhiwcxceo2PT69LMiVAqSrgLx9+/bm WDw+OtODdbmD8EUUrecv4cFG5CaGa1PFUFNVfaiVmrINurlI8RMmUwJVU2LRxNPrlhD1nzcM4tZF Y7woikQQRZQV8GRlifZqu4T3j6QKAIDVzAcHjr9dj/EtdFkN4+aKXL0uzdg6mJhRbMjtObV0adVf TvcghAB17SMgHA8KTvex9AwfQbL5l9JkShjQ1jS9eZgDpSTZHZxQTJQr5niCcpeI/7RexsaiMInF eSJJFnC8Ap7noSgKbq6xo30omphxzNgoRTgCLh5sCI/1BzA+V79gCh/IrQKMMwNNTU3HZnIgniM4 0eoBL4ggHKcdUk3ad+iJoNRcANVre+q2pK/AVCHVH2CtfWYzj2Umd8PGgZeeuX6xEjKZLcRiscBq tcJsNsNiscBkMuH6FQUwCxwFTRiBxO3zAgd5pOMTJAs+vfAXDHL15kxW9VKmkvH5vJF77vnafYRM 77zhmIynP2iHylvACRaAYxORUSRaABPI9FxZnaQZdqMpa17gUOaQh+0tO5//5Kn/sbvu2KcDPT09 Z2677baNFovFxvM8CCHgOA4cx8Fq4kjHUASXvDFCCGsh1I5ns5nC7v3P/ioeDviR9PoTffEnuNjL gly9QzdTOCjV1dUNe73elukepKXfh1BM1bt+ET3mT3r+rGZTlSZrdKKmq0klSP/OEDJyhMJh4+Ql 0oX3e5554P9++sqjDdDzGHv37u37zne+89NoNNpjsVgSU89ZLBaYzFbcsaEUihF7CpgAAAfzSURB VB5lsPYBQgg4KXQyMDzgx8Qp3AWDXL5EOVM4KHd3d00rHOQIwYmWIS384zjNv054++kZPiU1L0BZ GwFNZAy1v5Pfg1KIIofFtkin+fhjjxz4179+daC3m9nsRI+bhoaGoQcffPBnHo/nnNVqBVssFguu rSmFyy5ozqB+y7zAQR3tPIDUHjoLruYz5FoBjH6ADED65JNPThBCpnwQmgM4DI4T9MukhsJLL3A9 tDPU/EQDEfSQEIZazwGuAhKu9B97teHRux6p3/tKO5J96ccNperq6vLdc889j7e3tx80ksDpsJEt tWXJ2B8UVrMQGWx4tw7ju2gtKOePYT4UwNhXUHr55ZfbIpGoZ6ofjwWj6BoK6U2/rPEnPfzTZd0w v1/SsTNu1z4TUJgtPCpMwyd9b37/hwf//e/ei4bDLCvHUrUBw5JI2QYCgfBdd9313LFjx96y2WxU MwMWfO2GZVD0fuCEI+Dk8KmAu9OHiQmwoJBLAgAZ/IBoNBp3uwdPTvXDxq5RxGSabPyhVJPxlJqv GFK8SvJ79tmQGOIFDsUFymhx91u/PvKzv/pVZ+ORQSSbaMNIts0bW+tYgw3L28cefvjhN956660X zGazbLFYsGlVOZaU2ShAwfM85NGugzCYPCxg+QdyFwUwpPcVNAEwrVu3zrpmzZqtE14UR7DzYBs6 hmPgRAsILxo6feqgbIC07ulTdkK2TdvOcYDNalJKpfZ9fa99/zctR969iGT/Oyb5rINGen875sAl DwiQ9957r9tisfTceOONm0wm0eQNxVDf6iZ2uyXqPvKHX8UDY179eCz1u2BJMF8EMIaD4tDQUOje e+/9BiEk4/kJCJ565yxCCg8imAFeMBzOuIZeLMYonCYes2gWUGKNd9OG3/361Gs/OxD0+8IYb+tD aYtxGJVRvlPu6dChQ0Mej6fpttu+uLm6vMj86oEW2ESpof/wjj1IEokdJ/0YCwa5ygQypKeFJQBy U1OTd2xs7HxJScmmTD8aHAthYDQCweaEFv5RUEL1jrl6Fo9okQEBAVQ2zFvrHMqJApwOMWIbObX7 7G9/8kE0HIgidSQNK2TW6ya90FlhCcg8uEIFQLdv394+MDCwbfsfXvxfG2sWV3Y0HT+A8V21VSzQ wgdy7wMAmcNBqbOzc8Jw8HTHEBRKQMHsP/P6laTXn9Lcq2f4CIXJKqJMHDs7uueHPzzx/A92R8MB VhOZ1Bv74Rk7ZbD9jC12xt+xdnzmE4QARPbt29d/191f/Zcbalznhs58eByZ2/YXnPfPkGsTACRN QEpW0OFwyDffcss9SEvICzyHFz9oQu9YHJxoBuEFwGDrUwaA6B8JIeBNPIocnNfU/eHvz7z4T28E PP0sEcNqfLrUG2U6U2dLmmGdcRkcHAwfO/DB/pCnZwRJVWHZvwUr/0AOxu9PcI6MM4odOnRou81m qzLuTCnFfT96Bz7ZDM5kNwz9JlpGMDEOAAA4cAIPq8OsOsJ9B/rffeyPI4PdfqQOlWa1OF3yp9Pn jpHXONjFAm3sg12/H5O+n4LUTp8hwzkWpAMI5N4HYBhnBmRZjg8ODp5auXJlCgF6h/wY9scg2ixg 6V9tBgcOFCpIwgfgIZoFOM1yb/TU9u1nP/1TC5J+BpPwSNoyUYeMiWR6wlqv/0YCYIZGEgVJtVmQ LX+ZMB8EyNg/AIB88uTJoytXrkzMKEYIUNdySUv+GDp/aEdhRCDgBBEOhxi1jJ7f0/7q43t1J4/V +smcvEy13lioE12/mva3Mb8RB0tVJhXHKP0LtvCB+VWA9GhAevnll0/fe++9EZ7nrQAgcByOnu8H z+w+63eHpAkw28xwkGDj2Me/fqm95cQlpMo9G3iRSe7Te+PMpHYaSTAZARSkNgAtWNvPMF8EAJIP PZEVvHjxYmB0dLSxrKzsegCIxCQ0dY8CxJwY/KH9hANvEuCwCz70Ht7RvPfZI4bjGGt9JrnP1mga ozPI/mZkZtGUcVTUgpd/YH4VAMhgBjo6Oo4zArT1j8EXjsNst+q/UsHxAswOi2qLXjo09M6zb4wN dvuQOpo2Xe6Nw6jSa+NcC4X9jmUHFSSnXWPfp0cOCxrzqQDGxqFEPmDv3r11N954I+UIIcfO94Hj BT3BAwhmEXYL7Y80/nF7S93uZiRrnFHujZJvTOjkqiXO6DMQJG1U+ndXBOYjDDSeK9OMYq4jR468 6CosqP6bX76D5oEwBLsTtkJHTPR1vNvz4W/fk8K+CKbn5KXPi5PrnrcTPb8rhgDzqQDABNFAf/+l k4QXq9sGvDAVFMNhVs77jj2/faS1bgCZJ0/ItpM3l/u5ojHfJiBjWri+vv5IWCi4l1itftPI+R0X D/7hsGGfdCfPWPg5GTL954T5SAWng6WFeeip4Z6e7lDVms9VHXrtyV+OnP+EJXRYTG2cJsWYxjWO q7si8u4LEfPpA7DzcUimVB3QppUrLCsrK/J4PIwYLMs2ma1f8N2trgTMNwGA5HsH2etmHNAcQjuS eXUV42X/cjh5n3nMtxPIwOw0c+7YdbA3YDLbP9GAyvly8j7zuBwEMKZRGQFYY4o+71uK85dJ7o1p 2TzmgMtFgPRcOkUypWpMsU7UXJsv+CzhcpkAIwGAZIGznh9K2pIv+BzhcjiBDCwcNPYYAlIVIu/k 5RiXkwDs/MaFIb3zRR45wuUmAPAZyKfnkUceeeSRRx55XGn4/5y4ilt/Q22CAAAAAElFTkSuQmCC  "
     preserveAspectRatio="none"
     height="64"
     width="64" />
</svg>
