/* XPM */
static char * maximize_active_xpm[] = {
"12 21 4 1",
" 	c None",
".	c #4B58A2 s inactive_shadow_1",
"+	c #3678E5 s inactive_color_1",
"@	c #000000 s active_color_1",
"            ",
"            ",
"............",
".++++++++++.",
".++++++++++.",
".++@@@@@@++.",
".++@@@@@@++.",
".++@++++@++.",
".++@++++@++.",
".++@++++@++.",
".++@@@@@@++.",
".++++++++++.",
".++++++++++.",
"............",
"            ",
"            ",
"            ",
"            ",
"            ",
"            ",
"            "};
