/* XPM */
static char * title_4_active_xpm[] = {
"9 21 6 1",
" 	c None",
".	c #000000",
"+	c #ACB5C4 s inactive_color_1",
"@	c #F48B54 s inactive_shadow_1",
"#	c #3678E5 s inactive_color_1",
"$	c #CFCFCF s inactive_mid_1",
"........ ",
"+++.@@@. ",
"###.@@@. ",
"###.@@@. ",
"###.@@@. ",
"###.@@@. ",
"###.@@@. ",
"###.@@@. ",
"###.@@@. ",
"###.@@@. ",
"###.@@@. ",
"###.@@@. ",
"###.@@@. ",
"###.@@@. ",
"+++.@@@. ",
"........ ",
"         ",
"         ",
".........",
"$$$$$$$$$",
"#########"};
