/* XPM */
static char * top_right_active_xpm[] = {
"3 20 6 1",
" 	c None",
".	c #000000",
"+	c #4B58A2 s active_shadow_1",
"@	c #4C7BA6 s active_color_1",
"#	c #3678E5 s inactive_color_1",
"$	c #CFCFCF s inactive_mid_1",
"...",
"++.",
"@@.",
"@@.",
"@@.",
"#$.",
"#$.",
"#$.",
"#$.",
"#$.",
"#$.",
"#$.",
"#$.",
"#$.",
"#$.",
"#$.",
"#$.",
"#$.",
"#$.",
"#$."};
