/* XPM */
static char * menu_active_xpm[] = {
"32 44 121 2",
"  	c None",
". 	c #4D4F52",
"+ 	c #4C4E51",
"@ 	c #4B4D50",
"# 	c #4B4D4F",
"$ 	c #494B4E",
"% 	c #4A4C4F",
"& 	c #4C4D50",
"* 	c #4A4C4E",
"= 	c #46484A",
"- 	c #45474A",
"; 	c #484A4C",
"> 	c #4F5053",
", 	c #595B5D",
"' 	c #5A5C5E",
") 	c #525456",
"! 	c #4D4F51",
"~ 	c #46484B",
"{ 	c #838486",
"] 	c #88898A",
"^ 	c #686A6C",
"/ 	c #545658",
"( 	c #484A4D",
"_ 	c #434548",
": 	c #606264",
"< 	c #A0A1A2",
"[ 	c #B4B5B5",
"} 	c #9C9E9F",
"| 	c #7E7F81",
"1 	c #57595B",
"2 	c #7D7F81",
"3 	c #B4B4B5",
"4 	c #A0A0A2",
"5 	c #47494B",
"6 	c #414345",
"7 	c #646667",
"8 	c #B0B1B1",
"9 	c #DEDFDF",
"0 	c #EFF0F0",
"a 	c #CACACB",
"b 	c #6E6F71",
"c 	c #424346",
"d 	c #46474A",
"e 	c #47494C",
"f 	c #474A4C",
"g 	c #424446",
"h 	c #EFEFEF",
"i 	c #DEDEDF",
"j 	c #B0B0B1",
"k 	c #646567",
"l 	c #424547",
"m 	c #5D5F61",
"n 	c #97999A",
"o 	c #CCCCCD",
"p 	c #FAFAFA",
"q 	c #EBEBEB",
"r 	c #9F9FA0",
"s 	c #6C6E6F",
"t 	c #545557",
"u 	c #6C6D6F",
"v 	c #EBECEC",
"w 	c #FAFAFB",
"x 	c #97989A",
"y 	c #494B4D",
"z 	c #7C7E80",
"A 	c #BCBDBE",
"B 	c #E0E0E1",
"C 	c #E9E9E9",
"D 	c #C5C5C6",
"E 	c #747577",
"F 	c #4A4B4E",
"G 	c #727375",
"H 	c #C3C3C4",
"I 	c #E3E3E4",
"J 	c #BFC0C1",
"K 	c #7D7E80",
"L 	c #56585B",
"M 	c #3B3D41",
"N 	c #505255",
"O 	c #838587",
"P 	c #BABBBC",
"Q 	c #F5F5F5",
"R 	c #EDEDEE",
"S 	c #A3A4A5",
"T 	c #7C7D80",
"U 	c #A1A2A4",
"V 	c #ECECEC",
"W 	c #F5F5F6",
"X 	c #BDBEBF",
"Y 	c #86888A",
"Z 	c #515356",
"` 	c #3B3D40",
" .	c #797B7D",
"..	c #C3C4C5",
"+.	c #E6E6E7",
"@.	c #E1E2E2",
"#.	c #DFE0E0",
"$.	c #E2E2E3",
"%.	c #E6E7E7",
"&.	c #C4C5C6",
"*.	c #7A7C7E",
"=.	c #3B3E41",
"-.	c #8D8F91",
";.	c #C0C1C2",
">.	c #EDEDED",
",.	c #FFFFFF",
"'.	c #EEEEEE",
").	c #C1C2C3",
"!.	c #8E9091",
"~.	c #545558",
"{.	c #454749",
"].	c #545657",
"^.	c #7D7F80",
"/.	c #56575A",
"(.	c #949597",
"_.	c #565759",
":.	c #444649",
"<.	c #5B5D5F",
"[.	c #636567",
"}.	c #414346",
"|.	c #3E4043",
"                                                                ",
"                                                                ",
"                                                                ",
"                                                                ",
". . . . . . . . . . . . . . . . . . . . . . . . . . . . . . . . ",
". . . . . . . . . . . . . . . . . . . . . . . . . . . . . . . . ",
". . . . . . . . . . . . . . . . . . . . . . . . . . . . . . . . ",
". . . . . . . . . . . . . . . . . . . . . . . . . . . . . . . . ",
"+ + + + + + + + + + + + + + + + + + + + + + + + + + + + + + + + ",
"+ + + + + + + + + + + + + + + + + + + + + + + + + + + + + + + + ",
"+ + + + + + + + + + + + + + + + + + + + + + + + + + + + + + + + ",
"+ + + + + + + + + + + + + + + + + + + + + + + + + + + + + + + + ",
"@ @ @ @ @ @ @ @ @ @ @ @ @ @ @ @ @ @ @ @ @ @ @ @ @ @ @ @ @ @ @ @ ",
"@ @ @ @ @ @ @ @ @ @ @ @ @ @ @ @ @ @ @ @ @ @ @ @ @ @ @ @ @ @ @ @ ",
"@ @ @ @ @ @ @ @ @ @ @ @ @ @ @ @ @ @ @ @ @ @ @ @ @ @ @ @ @ @ @ @ ",
"@ @ @ @ @ @ @ # $ $ % % @ @ @ @ @ @ @ @ % % $ $ # @ @ @ @ @ @ @ ",
"# # # # # # & * = - ; $ # # # # # # # # $ ; - = * & # # # # # # ",
"# # # # # % * > , ' ) ! # * # # # # * # ! ) ' , > * % # # # # # ",
"% % % % % $ ~ , { ] ^ / @ ( * % % * ( @ / ^ ] { , ~ $ % % % % % ",
"% % % % % ; _ : < [ } | 1 - ( $ $ ( - 1 2 } 3 4 : _ ; % % % % % ",
"* * * * * 5 6 7 8 9 0 a b c d e f = g b a h i j k 6 5 * * * * * ",
"* * * * * e l m n o p q r s / ; ; t u r v w o x m l e * * * * * ",
"$ $ $ $ $ y e + 1 z A B C D E # F G H C I J K L + e y $ $ $ $ $ ",
"$ $ $ $ $ $ % - M N O P Q R S 2 T U V W X Y Z ` - % $ $ $ $ $ $ ",
"$ $ $ $ $ $ $ ( - ( N  ...+.@.#.#.$.%.&.*.Z ( - ( $ $ $ $ $ $ $ ",
"$ $ $ $ $ $ $ $ * - =./ -.;.>.,.,.'.).!.~.` - * $ $ $ $ $ $ $ $ ",
"y y y y y y y y y ; {.y ].K D C C D ^./ y {.; y y y y y y y y y ",
"y y y y y y y y y y y {.` /.(.3 3 (._.` {.y y y y y y y y y y y ",
"( ( ( ( ( ( ( ( ( ( ( e :.@ <.[.[.<.@ :.e ( ( ( ( ( ( ( ( ( ( ( ",
"( ( ( ( ( ( ( ( ( ( ( ( y ~ }.|.|.}.~ y ( ( ( ( ( ( ( ( ( ( ( ( ",
"; ; ; ; ; ; ; ; ; ; ; ; ; e = {.{.= e ; ; ; ; ; ; ; ; ; ; ; ; ; ",
"; ; ; ; ; ; ; ; ; ; ; ; ; ; ; ; ; ; ; ; ; ; ; ; ; ; ; ; ; ; ; ; ",
"e e e e e e e e e e e e e e e e e e e e e e e e e e e e e e e e ",
"e e e e e e e e e e e e e e e e e e e e e e e e e e e e e e e e ",
"5 5 5 5 5 5 5 5 5 5 5 5 5 5 5 5 5 5 5 5 5 5 5 5 5 5 5 5 5 5 5 5 ",
"5 5 5 5 5 5 5 5 5 5 5 5 5 5 5 5 5 5 5 5 5 5 5 5 5 5 5 5 5 5 5 5 ",
"5 5 5 5 5 5 5 5 5 5 5 5 5 5 5 5 5 5 5 5 5 5 5 5 5 5 5 5 5 5 5 5 ",
"5 5 5 5 5 5 5 5 5 5 5 5 5 5 5 5 5 5 5 5 5 5 5 5 5 5 5 5 5 5 5 5 ",
"= = = = = = = = = = = = = = = = = = = = = = = = = = = = = = = = ",
"= = = = = = = = = = = = = = = = = = = = = = = = = = = = = = = = ",
"= = = = = = = = = = = = = = = = = = = = = = = = = = = = = = = = ",
"= = = = = = = = = = = = = = = = = = = = = = = = = = = = = = = = ",
"{.{.{.{.{.{.{.{.{.{.{.{.{.{.{.{.{.{.{.{.{.{.{.{.{.{.{.{.{.{.{.{.",
"{.{.{.{.{.{.{.{.{.{.{.{.{.{.{.{.{.{.{.{.{.{.{.{.{.{.{.{.{.{.{.{."};
