/* XPM */
static char * title_3_active_xpm[] = {
"12 48 18 1",
" 	c None",
".	c #000000",
"+	c #6D7077",
"@	c #4D4F52",
"#	c #4C4E51",
"$	c #4B4D51",
"%	c #4C4D50",
"&	c #4B4D50",
"*	c #4A4C4F",
"=	c #494C4E",
"-	c #494B4D",
";	c #484B4D",
">	c #484A4C",
",	c #47494B",
"'	c #46494B",
")	c #46484B",
"!	c #46484A",
"~	c #45474A",
"............",
"++++++++++++",
"@@@@@@@@@@@@",
"@@@@@@@@@@@@",
"@@@@@@@@@@@@",
"@@@@@@@@@@@@",
"@@@@@@@@@@@@",
"############",
"############",
"############",
"############",
"############",
"$$$$$$$$$$$$",
"$$$$$$$$$$$$",
"%%%%%%%%%%%%",
"%%%%%%%%%%%%",
"&&&&&&&&&&&&",
"&&&&&&&&&&&&",
"************",
"************",
"************",
"************",
"============",
"============",
"============",
"============",
"------------",
"------------",
";;;;;;;;;;;;",
";;;;;;;;;;;;",
";;;;;;;;;;;;",
";;;;;;;;;;;;",
">>>>>>>>>>>>",
">>>>>>>>>>>>",
">>>>>>>>>>>>",
">>>>>>>>>>>>",
",,,,,,,,,,,,",
",,,,,,,,,,,,",
"''''''''''''",
"''''''''''''",
"))))))))))))",
"))))))))))))",
"!!!!!!!!!!!!",
"!!!!!!!!!!!!",
"~~~~~~~~~~~~",
"~~~~~~~~~~~~",
"~~~~~~~~~~~~",
"~~~~~~~~~~~~"};
