/* XPM */
static char * bottom_right_active_xpm[] = {
"4 3 5 1",
" 	c None",
".	c #3678E5 s inactive_color_1",
"+	c #CFCFCF s inactive_mid_1",
"@	c #000000",
"#	c #90B8DC s inactive_shadow_1",
"..+@",
"###@",
"@@@@"};
