/* XPM */
static char * maximize_inactive_xpm[] = {
"14 14 3 1",
" 	c None",
".	c #D5D6D5i s active_color_2",
"+	c #FFFFFF",
"..............",
"..............",
"..............",
"......++......",
"......++......",
"......++......",
"...++++++++...",
"...++++++++...",
"......++......",
"......++......",
"......++......",
"..............",
"..............",
".............."};
