/* XPM */
static char * stick_inactive_xpm[] = {
"14 14 3 1",
" 	c None",
".	c #D5D6D5 s active_color_2",
"+	c #FFFFFF",
"..............",
"..............",
"..............",
".....++++.....",
"....++..++....",
"...++....++...",
"...+......+...",
"...+......+...",
"...++....++...",
"....++..++....",
".....++++.....",
"..............",
"..............",
".............."};
