/* XPM */
static char * title_1_inactive_xpm[] = {
"8 21 6 1",
" 	c None",
".	c #949594 s inactive_shadow_2",
"+	c #FFFFFF s inactive_hilight_2",
"@	c #D5D6D5 s inactive_color_2",
"#	c #B4BAB4 s inactive_mid_2",
"$	c #000000",
"$$$$$$$$",
"++++++++",
"++++++++",
"@@@@@@@@",
"@@@@@@@@",
"@@@@@@@@",
"@@@@@@@@",
"@@@@@@@@",
"@@@@@@@@",
"@@@@@@@@",
"@@@@@@@@",
"@@@@@@@@",
"@@@@@@@@",
"@@@@@@@@",
"@@@@@@@@",
"@@@@@@@@",
"@@@@@@@@",
"@@@@@@@@",
"@@@@@@@@",
"@@@@@@@@",
"@@@@@@@@};
