<?xml version="1.0" encoding="UTF-8" standalone="no"?>
<!DOCTYPE svg PUBLIC "-//W3C//DTD SVG 20010904//EN"
"http://www.w3.org/TR/2001/REC-SVG-20010904/DTD/svg10.dtd">
<!-- Created with Inkscape (http://www.inkscape.org/) -->
<!-- 
Created By Andrew Fitzsimon.
Much of this document has been manually cleaned and crafted in a text editor so that only the colour definitions and basic presentation related data remain in the XML. 
Changes to this document may compromise the structure of this palette.
-->
<svg
   version="1.0"
   x="00"
   y="00"
   width="128"
   height="128"
   id="Etiquette"
   sodipodi:version="0.32"
   inkscape:version="0.40"
   sodipodi:docname="xfce4-backdrop.svg"
   sodipodi:docbase="/usr/share/icons/etiquette/scalable/xfce"
   xmlns="http://www.w3.org/2000/svg"
   xmlns:cc="http://web.resource.org/cc/"
   xmlns:inkscape="http://www.inkscape.org/namespaces/inkscape"
   xmlns:sodipodi="http://sodipodi.sourceforge.net/DTD/sodipodi-0.dtd"
   xmlns:rdf="http://www.w3.org/1999/02/22-rdf-syntax-ns#"
   xmlns:dc="http://purl.org/dc/elements/1.1/"
   xmlns:xlink="http://www.w3.org/1999/xlink">
  <metadata
     id="About">
    <rdf:RDF
       id="RDF232">
      <cc:Work
         rdf:about=""
         id="Work233">
        <dc:format
           id="format234">image/svg+xml</dc:format>
        <dc:type
           id="type236"
           rdf:resource="http://purl.org/dc/dcmitype/StillImage" />
        <dc:creator
           id="creator1291">
          <cc:Agent
             id="Agent1292">
            <dc:title
               id="title1293">Andrew Fitzsimon</dc:title>
          </cc:Agent>
        </dc:creator>
        <dc:date
           id="date1295">2004-12-25</dc:date>
        <dc:title
           id="title1297">Etiquette Icon</dc:title>
        <cc:license
           id="license1299"
           rdf:resource="http://creativecommons.org/licenses/by/2.0/" />
        <dc:rights
           id="rights1308">
          <cc:Agent
             id="Agent1309">
            <dc:title
               id="title1310">Andrew Fitzsimon</dc:title>
          </cc:Agent>
        </dc:rights>
      </cc:Work>
      <cc:License
         rdf:about="http://creativecommons.org/licenses/by/2.0/"
         id="License1300">
        <cc:permits
           rdf:resource="http://web.resource.org/cc/Reproduction"
           id="permits1301" />
        <cc:permits
           rdf:resource="http://web.resource.org/cc/Distribution"
           id="permits1302" />
        <cc:requires
           rdf:resource="http://web.resource.org/cc/Notice"
           id="requires1303" />
        <cc:requires
           rdf:resource="http://web.resource.org/cc/Attribution"
           id="requires1304" />
        <cc:prohibits
           rdf:resource="http://web.resource.org/cc/CommercialUse"
           id="prohibits1305" />
        <cc:permits
           rdf:resource="http://web.resource.org/cc/DerivativeWorks"
           id="permits1306" />
        <cc:requires
           rdf:resource="http://web.resource.org/cc/ShareAlike"
           id="requires1307" />
      </cc:License>
    </rdf:RDF>
  </metadata>
  <sodipodi:namedview
     id="base"
     pagecolor="#ffffff"
     bordercolor="#666666"
     borderopacity="1.0"
     inkscape:pageopacity="0.0"
     inkscape:pageshadow="0"
     inkscape:zoom="3.7321320"
     inkscape:cx="60.284751"
     inkscape:cy="58.636799"
     inkscape:window-width="751"
     inkscape:window-height="768"
     inkscape:window-x="308"
     inkscape:window-y="32"
     inkscape:current-layer="Etiquette"
     showgrid="false"
     gridspacingx="8.0000000pt"
     gridspacingy="8.0000000pt"
     gridoriginy="0.0000000pt"
     gridoriginx="0pt"
     inkscape:grid-points="false"
     gridtolerance="40pt"
     showborder="false"
     inkscape:grid-bbox="false"
     gridcolor="#3f3fff"
     gridopacity="0.082352941"
     gridempspacing="2"
     gridempcolor="#3f3fff"
     gridempopacity="0.082352941" />
  <defs
     id="Gradients">
    <linearGradient
       id="linearGradient2341">
      <stop
         style="stop-color:#ffffff;stop-opacity:0.15686275;"
         offset="0.0000000"
         id="stop2342" />
      <stop
         style="stop-color:#ffffff;stop-opacity:1.0000000;"
         offset="1.0000000"
         id="stop2343" />
    </linearGradient>
    <linearGradient
       id="linearGradient2347">
      <stop
         style="stop-color:#ffffff;stop-opacity:0.0000000;"
         offset="0.0000000"
         id="stop2348" />
      <stop
         style="stop-color:#ffffff;stop-opacity:0.47058824;"
         offset="1.0000000"
         id="stop2349" />
    </linearGradient>
    <linearGradient
       inkscape:collect="always"
       xlink:href="#linearGradient2347"
       id="linearGradient3415"
       gradientUnits="userSpaceOnUse"
       gradientTransform="matrix(1.043391,0.000000,0.000000,0.718032,-4.655542,-8.616859)"
       x1="89.696322"
       y1="145.41280"
       x2="89.696322"
       y2="29.382998" />
    <linearGradient
       id="linearGradient2372">
      <stop
         style="stop-color:#000000;stop-opacity:0.47058824;"
         offset="0.0000000"
         id="stop2373" />
      <stop
         style="stop-color:#000000;stop-opacity:0.0000000;"
         offset="1.0000000"
         id="stop2374" />
    </linearGradient>
    <linearGradient
       inkscape:collect="always"
       xlink:href="#linearGradient2372"
       id="linearGradient3413"
       gradientUnits="userSpaceOnUse"
       gradientTransform="matrix(2.138091,0.000000,0.000000,0.549583,0.000000,-17.43192)"
       x1="23.875151"
       y1="219.55704"
       x2="37.456448"
       y2="226.49693" />
    <linearGradient
       id="linearGradient2363">
      <stop
         style="stop-color:#ffffff;stop-opacity:0.0000000;"
         offset="0.0000000"
         id="stop2364" />
      <stop
         style="stop-color:#ffffff;stop-opacity:1.0000000;"
         offset="1.0000000"
         id="stop2365" />
    </linearGradient>
    <linearGradient
       inkscape:collect="always"
       xlink:href="#linearGradient2363"
       id="linearGradient3412"
       gradientUnits="userSpaceOnUse"
       gradientTransform="matrix(4.740851,0.000000,0.000000,0.158028,-4.655542,-8.616859)"
       x1="7.7594029"
       y1="801.04424"
       x2="21.452467"
       y2="801.04424" />
    <linearGradient
       id="linearGradient3057">
      <stop
         style="stop-color:#000000;stop-opacity:0.19191919;"
         offset="0.0000000"
         id="stop3058" />
      <stop
         style="stop-color:#000000;stop-opacity:0.14141414;"
         offset="0.34210527"
         id="stop3059" />
      <stop
         style="stop-color:#ffffff;stop-opacity:0.0000000;"
         offset="1.0000000"
         id="stop3060" />
    </linearGradient>
    <radialGradient
       inkscape:collect="always"
       xlink:href="#linearGradient3057"
       id="radialGradient3411"
       gradientUnits="userSpaceOnUse"
       gradientTransform="scale(2.855494,0.350202)"
       cx="28.016157"
       cy="415.83115"
       fx="28.016165"
       fy="409.64447"
       r="23.200878" />
    <linearGradient
       id="TransparentWhite">
      <stop
         style="stop-color:#ffffff;stop-opacity:0;"
         offset="0"
         id="stopwhitefull" />
      <stop
         style="stop-color:#ffffff;stop-opacity:1;"
         offset="1"
         id="stopwhitetransparent" />
    </linearGradient>
    <linearGradient
       id="WhiteTransparent">
      <stop
         style="stop-color:#ffffff;stop-opacity:1;"
         offset="0"
         id="stopWhiteFull" />
      <stop
         style="stop-color:#ffffff;stop-opacity:0;"
         offset="1"
         id="stopWhiteTransparent" />
    </linearGradient>
    <linearGradient
       inkscape:collect="always"
       xlink:href="#linearGradient2341"
       id="linearGradient1297"
       gradientUnits="userSpaceOnUse"
       gradientTransform="matrix(1.939954,0.000000,0.000000,0.489183,-0.115530,5.616789)"
       x1="36.732960"
       y1="173.60512"
       x2="37.126789"
       y2="232.27026" />
    <linearGradient
       inkscape:collect="always"
       xlink:href="#TransparentWhite"
       id="linearGradient1935"
       gradientTransform="scale(1.343102,0.744545)"
       x1="13.424465"
       y1="48.322319"
       x2="145.21112"
       y2="42.414890"
       gradientUnits="userSpaceOnUse" />
    <linearGradient
       inkscape:collect="always"
       xlink:href="#WhiteTransparent"
       id="linearGradient1943"
       gradientTransform="matrix(1.224554,0.000000,0.000000,0.845503,-1.357986,-0.914568)"
       x1="70.459831"
       y1="87.961166"
       x2="-17.924658"
       y2="-56.903572"
       gradientUnits="userSpaceOnUse" />
    <linearGradient
       inkscape:collect="always"
       xlink:href="#TransparentWhite"
       id="linearGradient1954"
       gradientTransform="matrix(1.138160,0.000000,0.000000,0.736843,3.949296,3.830589)"
       x1="75.969444"
       y1="67.614769"
       x2="75.969444"
       y2="114.96928"
       gradientUnits="userSpaceOnUse" />
    <linearGradient
       inkscape:collect="always"
       xlink:href="#linearGradient2363"
       id="linearGradient1926"
       gradientUnits="userSpaceOnUse"
       gradientTransform="scale(1.130960,0.884205)"
       x1="45.608681"
       y1="30.109610"
       x2="30.970743"
       y2="16.618420" />
    <linearGradient
       inkscape:collect="always"
       xlink:href="#WhiteTransparent"
       id="linearGradient96"
       gradientTransform="scale(1.133893,0.881917)"
       x1="97.112358"
       y1="78.205666"
       x2="60.090755"
       y2="28.835091"
       gradientUnits="userSpaceOnUse" />
    <linearGradient
       inkscape:collect="always"
       xlink:href="#TransparentWhite"
       id="linearGradient125"
       gradientTransform="matrix(1.336393,0.000000,0.000000,1.314144,-26.88195,-14.50001)"
       x1="21.289787"
       y1="59.806057"
       x2="116.17096"
       y2="59.806057"
       gradientUnits="userSpaceOnUse" />
    <linearGradient
       inkscape:collect="always"
       xlink:href="#TransparentWhite"
       id="linearGradient532"
       gradientUnits="userSpaceOnUse"
       gradientTransform="matrix(1.973616,0.000000,0.000000,0.804991,-28.63377,-16.55356)"
       x1="61.080898"
       y1="68.733429"
       x2="61.080898"
       y2="30.723587" />
    <linearGradient
       inkscape:collect="always"
       xlink:href="#linearGradient894"
       id="linearGradient526"
       gradientTransform="matrix(1.180824,0.000000,0.000000,0.846866,0.000000,1.500000)"
       x1="64.281364"
       y1="82.391357"
       x2="64.281364"
       y2="165.81207"
       gradientUnits="userSpaceOnUse" />
    <linearGradient
       inkscape:collect="always"
       xlink:href="#MaterialSoftShadow"
       id="linearGradient502"
       gradientUnits="userSpaceOnUse"
       gradientTransform="matrix(0.952353,0.000000,0.000000,1.050031,-2.499999,-2.261904)"
       x1="31.319887"
       y1="156.12636"
       x2="77.756599"
       y2="84.253471" />
    <linearGradient
       inkscape:collect="always"
       xlink:href="#MaterialSoftShadow"
       id="linearGradient447"
       gradientTransform="scale(1.732051,0.577350)"
       x1="68.409271"
       y1="57.359093"
       x2="61.494499"
       y2="64.408142"
       gradientUnits="userSpaceOnUse" />
    <linearGradient
       inkscape:collect="always"
       xlink:href="#MaterialSoftShadow"
       id="linearGradient432"
       gradientTransform="matrix(0.577350,0.000000,0.000000,1.732051,0.000000,-5.000000)"
       x1="154.70367"
       y1="5.2953830"
       x2="148.01166"
       y2="12.737786"
       gradientUnits="userSpaceOnUse" />
    <linearGradient
       inkscape:collect="always"
       xlink:href="#MaterialSoftShadow"
       id="linearGradient105"
       gradientUnits="userSpaceOnUse"
       gradientTransform="matrix(1.338026,0.000000,0.000000,1.312539,-30.04226,-17.62500)"
       x1="31.319887"
       y1="156.12636"
       x2="77.756599"
       y2="84.253471" />
    <linearGradient
       id="MaterialSoftShadow">
      <stop
         style="stop-color:#000000;stop-opacity:0.215;"
         offset="0"
         id="stop2619" />
      <stop
         style="stop-color:#000000;stop-opacity:0.098;"
         offset="0.50000000"
         id="stop2621" />
      <stop
         style="stop-color:#000000;stop-opacity:0;"
         offset="1"
         id="stop2620" />
    </linearGradient>
    <linearGradient
       inkscape:collect="always"
       xlink:href="#linearGradient894"
       id="linearGradient277"
       gradientUnits="userSpaceOnUse"
       gradientTransform="matrix(1.442711,0.000000,0.000000,0.512341,0.454331,-8.408674)"
       x1="51.763980"
       y1="89.771413"
       x2="51.993750"
       y2="146.47236" />
    <linearGradient
       id="linearGradient894">
      <stop
         style="stop-color:#eedfa7;stop-opacity:1.0000000;"
         offset="0.0000000"
         id="stop895" />
      <stop
         style="stop-color:#eed680;stop-opacity:0.0000000;"
         offset="1.0000000"
         id="stop896" />
    </linearGradient>
    <linearGradient
       inkscape:collect="always"
       xlink:href="#TransparentWhite"
       id="linearGradient2346"
       gradientUnits="userSpaceOnUse"
       gradientTransform="matrix(1.404740,0.000000,0.000000,0.643993,1.002501,0.857146)"
       x1="61.080898"
       y1="68.733429"
       x2="61.080898"
       y2="30.723587" />
    <linearGradient
       id="linearGradient1239">
      <stop
         style="stop-color:#ffffff;stop-opacity:0;"
         offset="0"
         id="stop1240" />
      <stop
         style="stop-color:#ffffff;stop-opacity:1;"
         offset="1"
         id="stop1241" />
    </linearGradient>
    <linearGradient
       inkscape:collect="always"
       xlink:href="#linearGradient85"
       id="linearGradient276"
       gradientUnits="userSpaceOnUse"
       gradientTransform="matrix(1.269573,0.000000,0.000000,1.248436,-25.12486,-13.68750)"
       x1="104.54238"
       y1="95.854668"
       x2="104.54239"
       y2="60.742390" />
    <linearGradient
       inkscape:collect="always"
       id="linearGradient85">
      <stop
         style="stop-color:#000000;stop-opacity:1;"
         offset="0"
         id="stop86" />
      <stop
         style="stop-color:#000000;stop-opacity:0;"
         offset="1"
         id="stop87" />
    </linearGradient>
    <linearGradient
       inkscape:collect="always"
       xlink:href="#GreenHilightGradient"
       id="linearGradient2344"
       gradientTransform="matrix(1.973616,0.000000,0.000000,0.804991,-25.12135,-13.72619)"
       x1="51.600609"
       y1="94.483551"
       x2="51.600609"
       y2="137.31894"
       gradientUnits="userSpaceOnUse" />
    <linearGradient
       id="GreenHilightGradient">
      <stop
         style="stop-color:#c5d2c8;stop-opacity:1;"
         offset="0"
         id="stop3885" />
      <stop
         style="stop-color:#c5d2c8;stop-opacity:0;"
         offset="1"
         id="stop3886" />
    </linearGradient>
    <linearGradient
       inkscape:collect="always"
       xlink:href="#AccentGreenDarkGradient"
       id="linearGradient2329"
       gradientUnits="userSpaceOnUse"
       x1="75.544342"
       y1="115.33696"
       x2="75.544380"
       y2="83.758545"
       gradientTransform="matrix(1.331023,0.000000,0.000000,1.190475,-25.05092,-13.72619)" />
    <linearGradient
       id="AccentGreenDarkGradient">
      <stop
         style="stop-color:#267726;stop-opacity:1;"
         offset="0"
         id="stop3860" />
      <stop
         style="stop-color:#267726;stop-opacity:0;"
         offset="1"
         id="stop3861" />
    </linearGradient>
    <linearGradient
       inkscape:collect="always"
       xlink:href="#BlueMediumGradient"
       id="linearGradient2364"
       gradientUnits="userSpaceOnUse"
       x1="74.097221"
       y1="19.640625"
       x2="74.097221"
       y2="56.974136"
       gradientTransform="matrix(1.334544,0.000000,0.000000,1.190475,-25.12135,-13.72619)" />
    <linearGradient
       id="BlueMediumGradient">
      <stop
         style="stop-color:#7590ae;stop-opacity:1;"
         offset="0"
         id="stop3844" />
      <stop
         style="stop-color:#7590ae;stop-opacity:0;"
         offset="1"
         id="stop3845" />
    </linearGradient>
  </defs>
  <path
     sodipodi:type="arc"
     style="fill:url(#radialGradient3411);fill-opacity:1.0000000;stroke:none;stroke-width:3.7500000;stroke-linecap:round;stroke-linejoin:round;stroke-miterlimit:4.0000000;stroke-dashoffset:0.0000000;stroke-opacity:1.0000000"
     id="path3396"
     sodipodi:cx="80.000000"
     sodipodi:cy="145.62500"
     sodipodi:rx="66.250000"
     sodipodi:ry="8.1250000"
     d="M 146.25000 145.62500 A 66.250000 8.1250000 0 1 1  13.750000,145.62500 A 66.250000 8.1250000 0 1 1  146.25000 145.62500 z"
     transform="matrix(0.968712,0.000000,0.000000,1.253843,-13.31977,-62.77843)" />
  <path
     style="fill:url(#linearGradient3412);fill-opacity:1.0000000;fill-rule:evenodd;stroke:none;stroke-width:1.0000000pt;stroke-linecap:butt;stroke-linejoin:miter;stroke-opacity:1.0000000"
     d="M 32.130630,116.88891 L 32.130630,119.05280 L 97.047405,119.05280 L 97.047405,116.88891 L 32.130630,116.88891 z "
     id="path3397"
     sodipodi:nodetypes="ccccc" />
  <path
     style="fill:#666666;fill-opacity:1.0000000;fill-rule:evenodd;stroke:#000000;stroke-width:2.5000000;stroke-linecap:butt;stroke-linejoin:miter;stroke-opacity:0.24999996;stroke-miterlimit:4.0000000;stroke-dasharray:none"
     d="M 47.277878,99.577770 L 47.277878,108.23334 C 47.277878,114.04862 32.130630,111.07362 32.130630,116.88891 L 32.130630,119.05280 L 97.047405,119.05280 L 97.047405,116.88891 C 97.047405,111.07362 81.900158,114.04862 81.900158,108.23334 L 81.900158,99.577770 L 47.277878,99.577770 z "
     id="path3398"
     sodipodi:nodetypes="czzcczzcc" />
  <path
     style="fill:url(#linearGradient1297);fill-opacity:1.0000000;fill-rule:evenodd;stroke:none;stroke-width:1.0000000pt;stroke-linecap:butt;stroke-linejoin:miter;stroke-opacity:1.0000000"
     d="M 47.246913,99.946829 L 47.246913,108.14625 C 47.246913,113.65507 32.072572,110.83684 32.072572,116.34567 L 97.105463,116.34567 C 97.105463,110.83684 81.931123,113.65507 81.931123,108.14625 L 81.931123,99.946829 L 47.246913,99.946829 z "
     id="path3410"
     sodipodi:nodetypes="czzzzcc" />
  <path
     style="fill:url(#linearGradient3413);fill-opacity:1.0000000;fill-rule:evenodd;stroke:none;stroke-width:1.0000000pt;stroke-linecap:butt;stroke-linejoin:miter;stroke-opacity:1.0000000;opacity:0.67924528;"
     d="M 47.277878,99.577770 L 47.277878,108.47722 C 54.851501,102.12047 73.244588,102.12047 81.900158,105.93452 L 81.900158,99.577770 L 47.277878,99.577770 z "
     id="path3399"
     sodipodi:nodetypes="ccccc" />
  <path
     style="fill:none;fill-opacity:1.0000000;fill-rule:evenodd;stroke:none;stroke-width:0.86555700pt;stroke-linecap:butt;stroke-linejoin:miter;stroke-opacity:1.0000000;"
     d="M 79.465778,97.402630 C 68.934832,97.402630 58.403894,97.402630 47.872948,97.402630 C 47.664608,100.40082 48.289532,106.31052 47.565727,109.22129 C 46.698941,112.01594 43.211707,112.06967 40.850000,112.89047 C 38.397626,113.60475 35.641978,114.01545 33.530651,115.43479 C 32.247887,116.59797 32.986259,117.24701 34.671447,117.08086 L 96.452335,116.80549 C 96.886524,114.26608 94.642334,114.10828 92.303348,113.92746 C 89.247871,113.09080 85.996553,112.47511 83.158175,111.13478 C 80.386186,109.37266 81.563941,105.68900 81.299115,102.95976 C 81.278203,102.23322 81.385593,98.598860 81.215355,98.000050 C 81.045108,97.401245 80.597235,97.067780 79.465778,97.402630 z "
     id="path3400"
     sodipodi:nodetypes="ccccccccccsc" />
  <path
     style="fill:none;fill-opacity:1.0000000;fill-rule:evenodd;stroke:#ffffff;stroke-width:0.86555700pt;stroke-linecap:butt;stroke-linejoin:miter;stroke-opacity:0.18421049"
     d="M 15.901436,16.267905 L 113.27660,16.267905 L 113.27660,82.266626 L 15.901436,82.266626 L 15.901436,16.267905 z "
     id="path3401"
     sodipodi:nodetypes="ccccc" />
  <path
     style="fill:#dddddd;fill-opacity:1.0000000;fill-rule:evenodd;stroke:#000000;stroke-width:1.2500000;stroke-linecap:butt;stroke-linejoin:miter;stroke-opacity:0.29605263;stroke-miterlimit:4.0000000;stroke-dasharray:none;"
     d="M 4.0000275,8.6942810 C 4.0000275,6.6541430 6.2876773,4.3664958 8.3278125,4.3664958 L 120.85022,4.3664958 C 122.89036,4.3664958 125.17801,6.6541430 125.17801,8.6942810 L 125.17801,95.249981 C 125.17801,97.290116 122.89036,99.577770 120.85022,99.577770 L 8.3278125,99.577770 C 6.2876773,99.577770 4.0000275,97.290116 4.0000275,95.249981 L 4.0000275,8.6942810 z "
     id="path3402"
     sodipodi:nodetypes="czzzzzzzz" />
  <path
     style="fill:none;fill-opacity:1.0000000;fill-rule:evenodd;stroke:#000000;stroke-width:2.4243219;stroke-linecap:butt;stroke-linejoin:miter;stroke-miterlimit:4.0000000;stroke-opacity:0.74074072"
     d="M 16.088383,16.379615 L 113.08966,16.379615 L 113.08966,82.154915 L 16.088383,82.154915 L 16.088383,16.379615 z "
     id="path3406"
     sodipodi:nodetypes="ccccc" />
  <path
     style="fill:url(#linearGradient3415);fill-opacity:1.0000000;fill-rule:evenodd;stroke:none;stroke-width:0.86555700pt;stroke-linecap:butt;stroke-linejoin:miter;stroke-opacity:0.33552632"
     d="M 14.819490,15.185958 L 114.35855,15.185958 L 114.35855,83.348572 L 14.819490,83.348572 L 14.819490,15.185958 z "
     id="path3403"
     sodipodi:nodetypes="ccccc" />
  <path
     style="fill:none;fill-opacity:0.75000000;fill-rule:evenodd;stroke:url(#linearGradient1926);stroke-width:2.1499896;stroke-linecap:butt;stroke-linejoin:miter;stroke-miterlimit:4.0000000;stroke-opacity:1.0000000"
     d="M 6.5392995,11.122329 C 6.5392995,7.8973443 7.6142943,6.8223501 10.839278,6.8223501 L 118.33875,6.8223501 C 121.56374,6.8223501 122.63874,7.8973443 122.63874,11.122329 L 122.63874,92.821932 C 122.63874,96.046917 121.56374,97.121911 118.33875,97.121911 L 10.839278,97.121911 C 7.6142943,97.121911 6.5392995,96.046917 6.5392995,92.821932 L 6.5392995,11.122329 z "
     id="path1925"
     sodipodi:nodetypes="czzzzzzzz" />
  <path
     style="fill:#314e6c;fill-opacity:0.83552629;fill-rule:evenodd;stroke:none;stroke-width:0.86555700pt;stroke-linecap:butt;stroke-linejoin:miter;stroke-opacity:1.0000000"
     d="M 14.819490,15.185958 L 114.35855,15.185958 L 114.35855,83.348572 L 14.819490,83.348572 L 14.819490,15.185958 z "
     id="path3405"
     sodipodi:nodetypes="ccccc" />
  <path
     style="fill:none;fill-opacity:1.0000000;fill-rule:evenodd;stroke:url(#linearGradient1943);stroke-width:2.4485693;stroke-linecap:butt;stroke-linejoin:round;stroke-miterlimit:4.0000000;stroke-opacity:1.0000000"
     d="M 13.238904,13.845834 L 115.58558,13.845834 L 115.58558,84.511919 L 13.238904,84.511919 L 13.238904,13.845834 z "
     id="path3407"
     sodipodi:nodetypes="ccccc" />
  <path
     style="fill:none;fill-opacity:0.75000000;fill-rule:evenodd;stroke:url(#linearGradient96);stroke-width:2.1499896;stroke-linecap:butt;stroke-linejoin:miter;stroke-miterlimit:4.0000000;stroke-opacity:1.0000000"
     d="M 6.5392995,11.122329 C 6.5392995,7.8973443 7.6142943,6.8223501 10.839278,6.8223501 L 118.33875,6.8223501 C 121.56374,6.8223501 122.63874,7.8973443 122.63874,11.122329 L 122.63874,92.821932 C 122.63874,96.046917 121.56374,97.121911 118.33875,97.121911 L 10.839278,97.121911 C 7.6142943,97.121911 6.5392995,96.046917 6.5392995,92.821932 L 6.5392995,11.122329 z "
     id="path3408"
     sodipodi:nodetypes="czzzzzzzz" />
  <path
     style="fill:url(#linearGradient1935);fill-opacity:1.0;fill-rule:evenodd;stroke:none;stroke-width:1.0000000pt;stroke-linecap:butt;stroke-linejoin:miter;stroke-opacity:1.0000000;"
     d="M 14.819490,15.185958 L 114.35855,15.185958 L 114.35855,30.333206 C 68.916803,31.415152 35.376469,50.890185 15.901436,70.365217 L 14.819490,15.185958 z "
     id="path3409"
     sodipodi:nodetypes="ccccc" />
  <path
     style="fill:url(#linearGradient1954);fill-opacity:1.0000000;fill-rule:evenodd;stroke:none;stroke-width:1.0000000pt;stroke-linecap:butt;stroke-linejoin:miter;stroke-opacity:1.0000000;opacity:0.51479290"
     d="M 18.465230,18.848956 L 41.402127,18.848956 L 87.275922,18.848956 L 110.21282,18.848956 L 110.21282,33.698276 L 110.21282,63.396914 L 110.21282,78.246234 L 87.275922,78.246234 L 41.402127,78.246234 L 18.465230,78.246234 L 18.465230,63.396914 L 18.465230,33.698276 L 18.465230,18.848956 z "
     id="path1946"
     sodipodi:nodetypes="ccccccccccccc" />
  <path
     style="fill:none;fill-opacity:0.75000000;fill-rule:evenodd;stroke:none;stroke-width:3.7500000;stroke-linecap:butt;stroke-linejoin:miter;stroke-miterlimit:4.0000000;stroke-opacity:1.0000000"
     d="M 104.30192,50.021103 L 31.961181,12.420897 C 28.412778,10.576560 26.463347,11.260561 26.987715,13.136367 C 27.512084,15.012174 40.597553,36.470574 40.484467,50.220762 C 40.371384,63.970952 26.694401,91.600104 26.222268,93.460595 C 25.750130,95.321091 27.436179,95.764833 31.556811,93.627159 L 104.25345,55.914042 C 108.12416,53.906021 108.26582,52.081399 104.30192,50.021103 z "
     id="path2493"
     sodipodi:nodetypes="czzzzzzz" />
  <path
     style="fill:none;fill-opacity:0.75000000;fill-rule:evenodd;stroke:none;stroke-width:1.2500000;stroke-linecap:butt;stroke-linejoin:miter;stroke-miterlimit:4.0000000;stroke-opacity:1.0000000"
     d="M 104.30192,50.021103 L 31.961181,12.420897 C 28.412778,10.576560 26.463347,11.260561 26.987715,13.136367 C 27.512084,15.012174 40.597553,36.470574 40.484467,50.220762 C 40.371384,63.970952 26.694401,91.600104 26.222268,93.460595 C 25.750130,95.321091 27.436179,95.764833 31.556811,93.627159 L 104.25345,55.914042 C 108.12416,53.906021 108.26582,52.081399 104.30192,50.021103 z "
     id="path2496"
     sodipodi:nodetypes="czzzzzzz" />
  <g
     id="g1258"
     transform="matrix(0.772838,0.000000,0.000000,0.527888,14.43105,15.07321)">
    <path
       style="fill:#9db8d2;fill-opacity:1.0000000;fill-rule:nonzero;stroke:none;stroke-width:0.33413577;stroke-linecap:round;stroke-linejoin:round;stroke-miterlimit:4.0000000;stroke-dasharray:1.3365431 1.3365431 ;stroke-dashoffset:0.0000000;stroke-opacity:1.0000000"
       d="M 1.5695481,1.7500030 L 99.917392,1.7500030 L 128.01679,26.750004 L 128.01679,92.375006 L 1.5695481,91.035721 L 1.5695481,1.7500030 z "
       id="path2322"
       sodipodi:nodetypes="cccccc" />
    <path
       style="fill:url(#linearGradient2364);fill-opacity:1.0000000"
       d="M 1.5695481,1.7500030 L 99.917392,1.7500030 L 128.01679,29.875004 L 128.35130,102.94048 L 1.5695481,102.94048 L 1.5695481,1.7500030 z "
       id="BlueMediumGradientBox1"
       sodipodi:nodetypes="cccccc" />
    <path
       style="fill:url(#linearGradient105);fill-opacity:1.0000000;fill-rule:evenodd;stroke:none;stroke-width:2.5000000;stroke-linecap:butt;stroke-linejoin:miter;stroke-miterlimit:4.0000000;stroke-opacity:1.0000000"
       d="M 1.5695468,1.7500040 L 1.5695468,126.75000 L 128.35130,126.75000 L 128.35130,37.464291 L 88.314951,1.7500040 L 1.5695468,1.7500040 z "
       id="path6776"
       sodipodi:nodetypes="cccccc" />
    <path
       style="opacity:0.42011830;fill:url(#linearGradient532);fill-opacity:1.0000000;fill-rule:nonzero;stroke:none;stroke-width:0.33413577;stroke-linecap:round;stroke-linejoin:round;stroke-miterlimit:4.0000000;stroke-dasharray:1.3365431 1.3365431 ;stroke-dashoffset:0.0000000;stroke-opacity:1.0000000"
       d="M 8.2422710,25.559529 C 8.2422710,10.678576 33.264983,7.7113995 61.624058,7.7023833 C 89.983132,7.6933695 128.01679,10.493705 128.01679,25.410719 L 128.01679,61.125005 L 8.2422710,61.273815 L 8.2422710,25.559529 z "
       id="path2345"
       sodipodi:nodetypes="cscccc" />
    <path
       style="fill:#267726;fill-opacity:1.0000000;fill-rule:nonzero;stroke:none;stroke-width:0.33413577;stroke-linecap:round;stroke-linejoin:round;stroke-miterlimit:4.0000000;stroke-dasharray:1.3365431 1.3365431 ;stroke-dashoffset:0.0000000;stroke-opacity:1.0000000"
       d="M 1.5695468,79.130958 C 48.155367,49.369054 74.775833,91.035721 128.01679,79.130958 L 128.01679,126.75000 L 1.5695468,126.75000 L 1.5695468,79.130958 z "
       id="path208"
       sodipodi:nodetypes="ccccc" />
    <path
       style="fill:#46a046;fill-opacity:1.0000000;fill-rule:nonzero;stroke:none;stroke-width:0.33413577;stroke-linecap:round;stroke-linejoin:round;stroke-miterlimit:4.0000000;stroke-dasharray:1.3365431 1.3365431 ;stroke-dashoffset:0.0000000;stroke-opacity:1.0000000"
       d="M 1.5695468,79.130958 C 41.500249,49.369054 74.775833,105.91667 128.01679,82.107149 L 128.01679,126.75000 L 1.5695468,126.75000 L 1.5695468,79.130958 z "
       id="rect2320"
       sodipodi:nodetypes="ccccc" />
    <path
       style="fill:url(#linearGradient2329);fill-opacity:1.0000000"
       d="M 1.5695481,85.083340 L 128.01679,85.083340 L 128.01679,126.75000 L 1.5695481,126.75000 L 1.5695481,85.083340 z "
       id="AccentGreenDarkGradientBox1"
       sodipodi:nodetypes="ccccc" />
    <path
       style="fill:url(#linearGradient2344);fill-opacity:1.0000000;fill-rule:nonzero;stroke:none;stroke-width:0.33413577;stroke-linecap:round;stroke-linejoin:round;stroke-miterlimit:4.0000000;stroke-dasharray:1.3365431 1.3365431 ;stroke-dashoffset:0.0000000;stroke-opacity:1.0000000"
       d="M 1.5695468,91.035721 C 28.260441,49.369054 74.634981,109.93452 128.01679,86.125006 L 128.01679,126.75000 L 1.5695468,126.75000 L 1.5695468,91.035721 z "
       id="path2340"
       sodipodi:nodetypes="ccccc" />
    <path
       style="opacity:0.088757344;fill:url(#linearGradient276);fill-opacity:1.0000000;fill-rule:evenodd;stroke:none;stroke-width:1.4375000;stroke-linecap:butt;stroke-linejoin:miter;stroke-miterlimit:4.0000000;stroke-dashoffset:0.0000000;stroke-opacity:0.58823532"
       d="M 1.5695481,1.7500030 L 1.5695481,16.593754 L 18.253558,16.593754 L 18.253558,1.7500030 L 1.5695481,1.7500030 z M 18.253558,16.593754 L 18.253558,31.437504 L 34.937567,31.437504 L 34.937567,16.593754 L 18.253558,16.593754 z M 34.937567,16.593754 L 51.621576,16.593754 L 51.621576,1.7500030 L 34.937567,1.7500030 L 34.937567,16.593754 z M 51.621576,16.593754 L 51.621576,31.437504 L 68.305585,31.437504 L 68.305585,16.593754 L 51.621576,16.593754 z M 68.305585,16.593754 L 84.989595,16.593754 L 84.989595,1.7500030 L 68.305585,1.7500030 L 68.305585,16.593754 z M 84.989595,16.593754 L 84.989595,31.437504 L 92.540423,33.000000 L 95.000000,16.593754 L 84.989595,16.593754 z M 84.989595,31.437504 L 68.305585,31.437504 L 68.305585,46.281255 L 84.989595,46.281255 L 84.989595,31.437504 z M 84.989595,46.281255 L 84.989595,61.125005 L 101.67360,61.125005 L 101.67360,46.281255 L 84.989595,46.281255 z M 101.67360,46.281255 L 118.35762,46.281255 L 118.35762,31.437504 L 101.67360,31.437504 L 101.67360,46.281255 z M 118.35762,46.281255 L 118.35762,61.125005 L 128.36803,61.125005 L 128.36803,46.281255 L 118.35762,46.281255 z M 118.35762,61.125005 L 101.67360,61.125005 L 101.67360,75.968756 L 118.35762,75.968756 L 118.35762,61.125005 z M 118.35762,75.968756 L 118.35762,90.812506 L 128.36803,90.812506 L 128.36803,75.968756 L 118.35762,75.968756 z M 118.35762,90.812506 L 101.67360,90.812506 L 101.67360,105.65626 L 118.35762,105.65626 L 118.35762,90.812506 z M 118.35762,105.65626 L 118.35762,120.50000 L 128.36803,120.50000 L 128.36803,105.65626 L 118.35762,105.65626 z M 118.35762,120.50000 L 101.67360,120.50000 L 101.67360,126.43750 L 118.35762,126.43750 L 118.35762,120.50000 z M 101.67360,120.50000 L 101.67360,105.65626 L 84.989595,105.65626 L 84.989595,120.50000 L 101.67360,120.50000 z M 84.989595,120.50000 L 68.305585,120.50000 L 68.305585,126.43750 L 84.989595,126.43750 L 84.989595,120.50000 z M 68.305585,120.50000 L 68.305585,105.65626 L 51.621576,105.65626 L 51.621576,120.50000 L 68.305585,120.50000 z M 51.621576,120.50000 L 34.937567,120.50000 L 34.937567,126.43750 L 51.621576,126.43750 L 51.621576,120.50000 z M 34.937567,120.50000 L 34.937567,105.65626 L 18.253558,105.65626 L 18.253558,120.50000 L 34.937567,120.50000 z M 18.253558,120.50000 L 1.5695481,120.50000 L 1.5695481,126.43750 L 18.253558,126.43750 L 18.253558,120.50000 z M 18.253558,105.65626 L 18.253558,90.812506 L 1.5695481,90.812506 L 1.5695481,105.65626 L 18.253558,105.65626 z M 18.253558,90.812506 L 34.937567,90.812506 L 34.937567,75.968756 L 18.253558,75.968756 L 18.253558,90.812506 z M 18.253558,75.968756 L 18.253558,61.125005 L 1.5695481,61.125005 L 1.5695481,75.968756 L 18.253558,75.968756 z M 18.253558,61.125005 L 34.937567,61.125005 L 34.937567,46.281255 L 18.253558,46.281255 L 18.253558,61.125005 z M 18.253558,46.281255 L 18.253558,31.437504 L 1.5695481,31.437504 L 1.5695481,46.281255 L 18.253558,46.281255 z M 34.937567,46.281255 L 51.621576,46.281255 L 51.621576,31.437504 L 34.937567,31.437504 L 34.937567,46.281255 z M 51.621576,46.281255 L 51.621576,61.125005 L 68.305585,61.125005 L 68.305585,46.281255 L 51.621576,46.281255 z M 68.305585,61.125005 L 68.305585,75.968756 L 84.989595,75.968756 L 84.989595,61.125005 L 68.305585,61.125005 z M 84.989595,75.968756 L 84.989595,90.812506 L 101.67360,90.812506 L 101.67360,75.968756 L 84.989595,75.968756 z M 84.989595,90.812506 L 68.305585,90.812506 L 68.305585,105.65626 L 84.989595,105.65626 L 84.989595,90.812506 z M 68.305585,90.812506 L 68.305585,75.968756 L 51.621576,75.968756 L 51.621576,90.812506 L 68.305585,90.812506 z M 51.621576,90.812506 L 34.937567,90.812506 L 34.937567,105.65626 L 51.621576,105.65626 L 51.621576,90.812506 z M 51.621576,75.968756 L 51.621576,61.125005 L 34.937567,61.125005 L 34.937567,75.968756 L 51.621576,75.968756 z "
       id="path275"
       sodipodi:nodetypes="cccccccccccccccccccccccccccccccccccccccccccccccccccccccccccccccccccccccccccccccccccccccccccccccccccccccccccccccccccccccccccccccccccccccccccccccccccccccccccccccccccccccccc" />
    <path
       style="opacity:0.31952664;fill:url(#linearGradient125);fill-opacity:1.0000000;fill-rule:evenodd;stroke:none;stroke-width:1.4375000;stroke-linecap:butt;stroke-linejoin:miter;stroke-miterlimit:4.0000000;stroke-dashoffset:0.0000000;stroke-opacity:0.58823532"
       d="M 1.5695481,1.7500030 L 1.5695481,16.593754 L 18.253558,16.593754 L 18.253558,1.7500030 L 1.5695481,1.7500030 z M 18.253558,16.593754 L 18.253558,31.437504 L 34.937567,31.437504 L 34.937567,16.593754 L 18.253558,16.593754 z M 34.937567,16.593754 L 51.621576,16.593754 L 51.621576,1.7500030 L 34.937567,1.7500030 L 34.937567,16.593754 z M 51.621576,16.593754 L 51.621576,31.437504 L 68.305585,31.437504 L 68.305585,16.593754 L 51.621576,16.593754 z M 68.305585,16.593754 L 84.989595,16.593754 L 84.989595,1.7500030 L 68.305585,1.7500030 L 68.305585,16.593754 z M 84.989595,16.593754 L 84.989595,31.437504 L 101.60558,31.437504 L 101.60558,16.593754 L 84.989595,16.593754 z M 84.989595,31.437504 L 68.305585,31.437504 L 68.305585,46.281255 L 84.989595,46.281255 L 84.989595,31.437504 z M 84.989595,46.281255 L 84.989595,61.125005 L 101.67360,61.125005 L 101.67360,46.281255 L 84.989595,46.281255 z M 101.67360,46.281255 L 118.35762,46.281255 L 118.35762,31.437504 L 101.67360,31.437504 L 101.67360,46.281255 z M 118.35762,46.281255 L 118.35762,61.125005 L 128.36803,61.125005 L 128.36803,46.281255 L 118.35762,46.281255 z M 118.35762,61.125005 L 101.67360,61.125005 L 101.67360,75.968756 L 118.35762,75.968756 L 118.35762,61.125005 z M 118.35762,75.968756 L 118.35762,90.812506 L 128.36803,90.812506 L 128.36803,75.968756 L 118.35762,75.968756 z M 118.35762,90.812506 L 101.67360,90.812506 L 101.67360,105.65626 L 118.35762,105.65626 L 118.35762,90.812506 z M 118.35762,105.65626 L 118.35762,120.50000 L 128.36803,120.50000 L 128.36803,105.65626 L 118.35762,105.65626 z M 118.35762,120.50000 L 101.67360,120.50000 L 101.67360,126.43750 L 118.35762,126.43750 L 118.35762,120.50000 z M 101.67360,120.50000 L 101.67360,105.65626 L 84.989595,105.65626 L 84.989595,120.50000 L 101.67360,120.50000 z M 84.989595,120.50000 L 68.305585,120.50000 L 68.305585,126.43750 L 84.989595,126.43750 L 84.989595,120.50000 z M 68.305585,120.50000 L 68.305585,105.65626 L 51.621576,105.65626 L 51.621576,120.50000 L 68.305585,120.50000 z M 51.621576,120.50000 L 34.937567,120.50000 L 34.937567,126.43750 L 51.621576,126.43750 L 51.621576,120.50000 z M 34.937567,120.50000 L 34.937567,105.65626 L 18.253558,105.65626 L 18.253558,120.50000 L 34.937567,120.50000 z M 18.253558,120.50000 L 1.5695481,120.50000 L 1.5695481,126.43750 L 18.253558,126.43750 L 18.253558,120.50000 z M 18.253558,105.65626 L 18.253558,90.812506 L 1.5695481,90.812506 L 1.5695481,105.65626 L 18.253558,105.65626 z M 18.253558,90.812506 L 34.937567,90.812506 L 34.937567,75.968756 L 18.253558,75.968756 L 18.253558,90.812506 z M 18.253558,75.968756 L 18.253558,61.125005 L 1.5695481,61.125005 L 1.5695481,75.968756 L 18.253558,75.968756 z M 18.253558,61.125005 L 34.937567,61.125005 L 34.937567,46.281255 L 18.253558,46.281255 L 18.253558,61.125005 z M 18.253558,46.281255 L 18.253558,31.437504 L 1.5695481,31.437504 L 1.5695481,46.281255 L 18.253558,46.281255 z M 34.937567,46.281255 L 51.621576,46.281255 L 51.621576,31.437504 L 34.937567,31.437504 L 34.937567,46.281255 z M 51.621576,46.281255 L 51.621576,61.125005 L 68.305585,61.125005 L 68.305585,46.281255 L 51.621576,46.281255 z M 68.305585,61.125005 L 68.305585,75.968756 L 84.989595,75.968756 L 84.989595,61.125005 L 68.305585,61.125005 z M 84.989595,75.968756 L 84.989595,90.812506 L 101.67360,90.812506 L 101.67360,75.968756 L 84.989595,75.968756 z M 84.989595,90.812506 L 68.305585,90.812506 L 68.305585,105.65626 L 84.989595,105.65626 L 84.989595,90.812506 z M 68.305585,90.812506 L 68.305585,75.968756 L 51.621576,75.968756 L 51.621576,90.812506 L 68.305585,90.812506 z M 51.621576,90.812506 L 34.937567,90.812506 L 34.937567,105.65626 L 51.621576,105.65626 L 51.621576,90.812506 z M 51.621576,75.968756 L 51.621576,61.125005 L 34.937567,61.125005 L 34.937567,75.968756 L 51.621576,75.968756 z "
       id="rect236"
       sodipodi:nodetypes="cccccccccccccccccccccccccccccccccccccccccccccccccccccccccccccccccccccccccccccccccccccccccccccccccccccccccccccccccccccccccccccccccccccccccccccccccccccccccccccccccccccccccc" />
  </g>
</svg>
