<?xml version="1.0" encoding="UTF-8" standalone="no"?>
<!DOCTYPE svg PUBLIC "-//W3C//DTD SVG 20010904//EN"
"http://www.w3.org/TR/2001/REC-SVG-20010904/DTD/svg10.dtd">
<!-- Created with Inkscape (http://www.inkscape.org/) -->
<!-- 
Created By Andrew Fitzsimon.
Much of this document has been manually cleaned and crafted in a text editor so that only the colour definitions and basic presentation related data remain in the XML. 
Changes to this document may compromise the structure of this palette.
-->
<svg
   sodipodi:docbase="/usr/share/icons/etiquette/scalable/xfce"
   sodipodi:docname="ss.svg"
   inkscape:version="0.40"
   sodipodi:version="0.32"
   id="Etiquette"
   height="128"
   width="128"
   y="00"
   x="00"
   version="1.0"
   xmlns="http://www.w3.org/2000/svg"
   xmlns:cc="http://web.resource.org/cc/"
   xmlns:inkscape="http://www.inkscape.org/namespaces/inkscape"
   xmlns:sodipodi="http://sodipodi.sourceforge.net/DTD/sodipodi-0.dtd"
   xmlns:rdf="http://www.w3.org/1999/02/22-rdf-syntax-ns#"
   xmlns:dc="http://purl.org/dc/elements/1.1/"
   xmlns:xlink="http://www.w3.org/1999/xlink">
  <metadata
     id="About">
    <rdf:RDF
       id="RDF232">
      <cc:Work
         id="Work233"
         rdf:about="">
        <dc:format
           id="format234">image/svg+xml</dc:format>
        <dc:type
           rdf:resource="http://purl.org/dc/dcmitype/StillImage"
           id="type236" />
        <dc:creator
           id="creator1291">
          <cc:Agent
             id="Agent1292">
            <dc:title
               id="title1293">Andrew Fitzsimon</dc:title>
          </cc:Agent>
        </dc:creator>
        <dc:date
           id="date1295">2004-12-25</dc:date>
        <dc:title
           id="title1297">Etiquette Icon</dc:title>
        <cc:license
           rdf:resource="http://creativecommons.org/licenses/by/2.0/"
           id="license1299" />
        <dc:rights
           id="rights1308">
          <cc:Agent
             id="Agent1309">
            <dc:title
               id="title1310">Andrew Fitzsimon</dc:title>
          </cc:Agent>
        </dc:rights>
      </cc:Work>
      <cc:License
         id="License1300"
         rdf:about="http://creativecommons.org/licenses/by/2.0/">
        <cc:permits
           id="permits1301"
           rdf:resource="http://web.resource.org/cc/Reproduction" />
        <cc:permits
           id="permits1302"
           rdf:resource="http://web.resource.org/cc/Distribution" />
        <cc:requires
           id="requires1303"
           rdf:resource="http://web.resource.org/cc/Notice" />
        <cc:requires
           id="requires1304"
           rdf:resource="http://web.resource.org/cc/Attribution" />
        <cc:prohibits
           id="prohibits1305"
           rdf:resource="http://web.resource.org/cc/CommercialUse" />
        <cc:permits
           id="permits1306"
           rdf:resource="http://web.resource.org/cc/DerivativeWorks" />
        <cc:requires
           id="requires1307"
           rdf:resource="http://web.resource.org/cc/ShareAlike" />
      </cc:License>
    </rdf:RDF>
  </metadata>
  <sodipodi:namedview
     gridempopacity="0.082352941"
     gridempcolor="#3f3fff"
     gridempspacing="2"
     gridopacity="0.082352941"
     gridcolor="#3f3fff"
     inkscape:grid-bbox="false"
     showborder="true"
     gridtolerance="40pt"
     inkscape:grid-points="true"
     gridoriginx="0pt"
     gridoriginy="0.0000000pt"
     gridspacingy="4.0000000pt"
     gridspacingx="4.0000000pt"
     showgrid="true"
     inkscape:current-layer="Etiquette"
     inkscape:window-y="32"
     inkscape:window-x="0"
     inkscape:window-height="639"
     inkscape:window-width="694"
     inkscape:cy="65.421364"
     inkscape:cx="100.04989"
     inkscape:zoom="2.1435469"
     inkscape:pageshadow="0"
     inkscape:pageopacity="0.0000000"
     borderopacity="1.0"
     bordercolor="#666666"
     pagecolor="#f8f8f8"
     id="base" />
  <defs
     id="Gradients">
    <linearGradient
       id="TransparentWhite">
      <stop
         id="stopwhitefull"
         offset="0"
         style="stop-color:#ffffff;stop-opacity:0;" />
      <stop
         id="stopwhitetransparent"
         offset="1"
         style="stop-color:#ffffff;stop-opacity:1;" />
    </linearGradient>
    <linearGradient
       y2="30.723587"
       x2="61.080898"
       y1="68.733429"
       x1="61.080898"
       gradientTransform="matrix(1.404740,0.000000,0.000000,0.643993,-4.241857,-4.142856)"
       gradientUnits="userSpaceOnUse"
       id="linearGradient532"
       xlink:href="#TransparentWhite"
       inkscape:collect="always" />
    <linearGradient
       id="linearGradient924">
      <stop
         id="stop925"
         offset="0.00000000"
         style="stop-color:#ffffff;stop-opacity:0.00000000;" />
      <stop
         id="stop926"
         offset="1.00000000"
         style="stop-color:#ffffff;stop-opacity:1;" />
    </linearGradient>
    <linearGradient
       id="linearGradient3970">
      <stop
         id="stop3971"
         offset="0.0000000"
         style="stop-color:#ffffff;stop-opacity:1.0000000;" />
      <stop
         id="stop3972"
         offset="1.0000000"
         style="stop-color:#ffffff;stop-opacity:0.0000000;" />
    </linearGradient>
    <linearGradient
       id="linearGradient486"
       inkscape:collect="always">
      <stop
         id="stop487"
         offset="0"
         style="stop-color:#000000;stop-opacity:1;" />
      <stop
         id="stop488"
         offset="1"
         style="stop-color:#000000;stop-opacity:0;" />
    </linearGradient>
    <linearGradient
       id="MaterialSoftShadow">
      <stop
         id="stop2619"
         offset="0"
         style="stop-color:#000000;stop-opacity:0.215;" />
      <stop
         id="stop2621"
         offset="0.50000000"
         style="stop-color:#000000;stop-opacity:0.098;" />
      <stop
         id="stop2620"
         offset="1"
         style="stop-color:#000000;stop-opacity:0;" />
    </linearGradient>
    <linearGradient
       gradientUnits="userSpaceOnUse"
       y2="51.599213"
       x2="74.861580"
       y1="11.005426"
       x1="118.16164"
       gradientTransform="scale(0.962223,1.039260)"
       id="linearGradient437"
       xlink:href="#MaterialSoftShadow"
       inkscape:collect="always" />
    <linearGradient
       y2="66.194740"
       x2="76.516380"
       y1="197.54245"
       x1="-59.549145"
       gradientTransform="scale(0.960547,1.041074)"
       gradientUnits="userSpaceOnUse"
       id="linearGradient439"
       xlink:href="#MaterialSoftShadow"
       inkscape:collect="always" />
    <linearGradient
       gradientUnits="userSpaceOnUse"
       y2="22.218750"
       x2="101.95312"
       y1="17.296875"
       x1="106.87500"
       id="linearGradient443"
       xlink:href="#MaterialSoftShadow"
       inkscape:collect="always" />
    <linearGradient
       gradientUnits="userSpaceOnUse"
       y2="3.9652903"
       x2="123.05903"
       y1="241.99133"
       x1="-216.37779"
       gradientTransform="scale(0.962223,1.039260)"
       id="linearGradient489"
       xlink:href="#linearGradient486"
       inkscape:collect="always" />
    <linearGradient
       y2="10.392305"
       x2="155.88457"
       y1="10.392305"
       x1="138.56406"
       gradientTransform="matrix(-0.149429,0.557677,1.673033,0.448288,109.6129,-53.76240)"
       gradientUnits="userSpaceOnUse"
       id="linearGradient131"
       xlink:href="#MaterialSoftShadow"
       inkscape:collect="always" />
    <linearGradient
       y2="10.392305"
       x2="155.88457"
       y1="10.392305"
       x1="138.56406"
       gradientTransform="matrix(-0.557677,0.149429,-0.448288,-1.673033,176.7624,13.38705)"
       gradientUnits="userSpaceOnUse"
       id="linearGradient132"
       xlink:href="#MaterialSoftShadow"
       inkscape:collect="always" />
    <linearGradient
       y2="70.234375"
       x2="128.21733"
       y1="53.076424"
       x1="121.58344"
       gradientTransform="scale(0.677208,1.476652)"
       gradientUnits="userSpaceOnUse"
       id="linearGradient663"
       xlink:href="#linearGradient924"
       inkscape:collect="always" />
    <linearGradient
       y2="32.239483"
       x2="116.88215"
       y1="37.529274"
       x1="115.30505"
       gradientTransform="scale(0.654465,1.527966)"
       gradientUnits="userSpaceOnUse"
       id="linearGradient664"
       xlink:href="#linearGradient924"
       inkscape:collect="always" />
    <linearGradient
       y2="51.483600"
       x2="185.22380"
       y1="50.709235"
       x1="216.72390"
       gradientTransform="matrix(0.303891,0.000000,0.000000,0.768394,24.25655,27.91287)"
       gradientUnits="userSpaceOnUse"
       id="linearGradient665"
       xlink:href="#MaterialSoftShadow"
       inkscape:collect="always" />
    <linearGradient
       y2="67.791361"
       x2="118.07529"
       y1="16.079463"
       x1="99.916230"
       gradientTransform="matrix(0.389373,0.000000,0.000000,0.511218,24.87095,32.00095)"
       gradientUnits="userSpaceOnUse"
       id="linearGradient666"
       xlink:href="#linearGradient3970"
       inkscape:collect="always" />
    <radialGradient
       gradientUnits="userSpaceOnUse"
       r="55.617432"
       fy="64.955132"
       fx="69.333870"
       cy="64.955132"
       cx="69.333870"
       gradientTransform="scale(0.948683,1.054093)"
       id="radialGradient96"
       xlink:href="#linearGradient3970"
       inkscape:collect="always" />
    <linearGradient
       y2="27.734512"
       x2="120.78609"
       y1="36.668407"
       x1="118.38375"
       gradientTransform="scale(0.654465,1.527966)"
       gradientUnits="userSpaceOnUse"
       id="linearGradient129"
       xlink:href="#linearGradient924"
       inkscape:collect="always" />
    <linearGradient
       y2="51.483600"
       x2="185.22380"
       y1="50.709235"
       x1="216.72390"
       gradientTransform="matrix(0.347191,0.000000,0.000000,0.877879,18.97523,22.40405)"
       gradientUnits="userSpaceOnUse"
       id="linearGradient130"
       xlink:href="#MaterialSoftShadow"
       inkscape:collect="always" />
    <linearGradient
       y2="67.791361"
       x2="118.07529"
       y1="16.079463"
       x1="99.916230"
       gradientTransform="matrix(0.444853,0.000000,0.000000,0.584059,19.67718,27.07462)"
       gradientUnits="userSpaceOnUse"
       id="linearGradient133"
       xlink:href="#linearGradient3970"
       inkscape:collect="always" />
    <linearGradient
       y2="51.599213"
       x2="74.861580"
       y1="11.005426"
       x1="118.16164"
       gradientTransform="scale(0.962223,1.039260)"
       gradientUnits="userSpaceOnUse"
       id="linearGradient92"
       xlink:href="#MaterialSoftShadow"
       inkscape:collect="always" />
    <linearGradient
       y2="3.9652903"
       x2="123.05903"
       y1="241.99133"
       x1="-216.37779"
       gradientTransform="scale(0.962223,1.039260)"
       gradientUnits="userSpaceOnUse"
       id="linearGradient93"
       xlink:href="#linearGradient486"
       inkscape:collect="always" />
    <linearGradient
       y2="66.194740"
       x2="76.516380"
       y1="197.54245"
       x1="-59.549145"
       gradientTransform="scale(0.960547,1.041074)"
       gradientUnits="userSpaceOnUse"
       id="linearGradient94"
       xlink:href="#MaterialSoftShadow"
       inkscape:collect="always" />
    <radialGradient
       r="55.617432"
       fy="64.955132"
       fx="69.333870"
       cy="64.955132"
       cx="69.333870"
       gradientTransform="scale(0.948683,1.054093)"
       gradientUnits="userSpaceOnUse"
       id="radialGradient95"
       xlink:href="#linearGradient3970"
       inkscape:collect="always" />
    <linearGradient
       y2="22.218750"
       x2="101.95312"
       y1="17.296875"
       x1="106.87500"
       gradientUnits="userSpaceOnUse"
       id="linearGradient96"
       xlink:href="#MaterialSoftShadow"
       inkscape:collect="always" />
    <linearGradient
       y2="10.392305"
       x2="155.88457"
       y1="10.392305"
       x1="138.56406"
       gradientTransform="matrix(-0.557677,0.149429,-0.448288,-1.673033,176.7624,13.38705)"
       gradientUnits="userSpaceOnUse"
       id="linearGradient97"
       xlink:href="#MaterialSoftShadow"
       inkscape:collect="always" />
    <linearGradient
       y2="10.392305"
       x2="155.88457"
       y1="10.392305"
       x1="138.56406"
       gradientTransform="matrix(-0.149429,0.557677,1.673033,0.448288,109.6129,-53.76240)"
       gradientUnits="userSpaceOnUse"
       id="linearGradient98"
       xlink:href="#MaterialSoftShadow"
       inkscape:collect="always" />
    <linearGradient
       y2="67.791361"
       x2="118.07529"
       y1="16.079463"
       x1="99.916230"
       gradientTransform="matrix(0.444853,0.000000,0.000000,0.584059,19.67718,27.07462)"
       gradientUnits="userSpaceOnUse"
       id="linearGradient99"
       xlink:href="#linearGradient3970"
       inkscape:collect="always" />
    <linearGradient
       y2="30.723587"
       x2="61.080898"
       y1="68.733429"
       x1="61.080898"
       gradientTransform="matrix(1.404740,0.000000,0.000000,0.643993,-4.241857,-4.142856)"
       gradientUnits="userSpaceOnUse"
       id="linearGradient100"
       xlink:href="#TransparentWhite"
       inkscape:collect="always" />
    <linearGradient
       y2="51.483600"
       x2="185.22380"
       y1="50.709235"
       x1="216.72390"
       gradientTransform="matrix(0.347191,0.000000,0.000000,0.877879,18.97523,22.40405)"
       gradientUnits="userSpaceOnUse"
       id="linearGradient101"
       xlink:href="#MaterialSoftShadow"
       inkscape:collect="always" />
    <linearGradient
       y2="27.734512"
       x2="120.78609"
       y1="36.668407"
       x1="118.38375"
       gradientTransform="scale(0.654465,1.527966)"
       gradientUnits="userSpaceOnUse"
       id="linearGradient102"
       xlink:href="#linearGradient924"
       inkscape:collect="always" />
    <linearGradient
       y2="70.234375"
       x2="128.21733"
       y1="53.076424"
       x1="121.58344"
       gradientTransform="scale(0.677208,1.476652)"
       gradientUnits="userSpaceOnUse"
       id="linearGradient103"
       xlink:href="#linearGradient924"
       inkscape:collect="always" />
    <linearGradient
       y2="70.234375"
       x2="128.21733"
       y1="53.076424"
       x1="121.58344"
       gradientTransform="matrix(1.097528,0.000000,0.000000,2.393157,-35.26492,-44.71543)"
       gradientUnits="userSpaceOnUse"
       id="linearGradient104"
       xlink:href="#linearGradient924"
       inkscape:collect="always" />
    <linearGradient
       y2="27.734512"
       x2="120.78609"
       y1="36.668407"
       x1="118.38375"
       gradientTransform="matrix(1.060669,0.000000,0.000000,2.476321,-35.26492,-44.71543)"
       gradientUnits="userSpaceOnUse"
       id="linearGradient105"
       xlink:href="#linearGradient924"
       inkscape:collect="always" />
    <linearGradient
       y2="51.483600"
       x2="185.22380"
       y1="50.709235"
       x1="216.72390"
       gradientTransform="matrix(0.562680,0.000000,0.000000,1.422747,-4.512424,-8.405967)"
       gradientUnits="userSpaceOnUse"
       id="linearGradient106"
       xlink:href="#MaterialSoftShadow"
       inkscape:collect="always" />
    <linearGradient
       y2="67.791361"
       x2="118.07529"
       y1="16.079463"
       x1="99.916230"
       gradientTransform="matrix(0.720957,0.000000,0.000000,0.946564,-3.374800,-0.836540)"
       gradientUnits="userSpaceOnUse"
       id="linearGradient108"
       xlink:href="#linearGradient3970"
       inkscape:collect="always" />
  </defs>
  <path
     sodipodi:nodetypes="cccc"
     id="path7498"
     d="M 78.566713,42.500485 L 77.994027,87.865782 C 69.168532,85.533677 64.833268,76.346107 64.833268,65.358235 C 64.833268,53.673620 68.899495,44.032052 78.566713,42.500485 z "
     style="fill:#000000;fill-opacity:1.0000000;fill-rule:evenodd;stroke:#000000;stroke-width:1.4539453;stroke-linecap:butt;stroke-linejoin:miter;stroke-miterlimit:4.0000000;stroke-opacity:1.0000000" />
  <path
     id="path1720"
     d="M 79.150114,45.659908 C 79.150114,45.659908 68.111758,46.711175 67.060491,62.480285 C 66.009207,78.249376 88.085942,71.416089 87.034672,63.005919 C 85.983401,54.595729 86.509034,45.134273 79.150114,45.659908 z "
     style="fill:url(#linearGradient108);fill-opacity:1.0000000;fill-rule:evenodd;stroke:none;stroke-width:1.0000000pt;stroke-linecap:butt;stroke-linejoin:miter;stroke-opacity:1.0000000" />
  <path
     sodipodi:nodetypes="cczzczzccc"
     id="path7401"
     d="M 126.47516,79.500899 L 117.64856,79.500899 L 84.330935,112.81851 C 82.109768,115.03970 77.667416,112.81851 77.667416,106.15499 L 77.667416,66.173840 L 77.667416,26.192692 C 77.667416,19.529155 82.109768,17.307987 84.330935,19.529155 L 117.64856,52.846794 L 126.47516,52.846794 L 126.47516,79.500899 z "
     style="fill:#333333;fill-opacity:1.0000000;fill-rule:evenodd;stroke:none;stroke-width:1.7600212;stroke-linecap:butt;stroke-linejoin:miter;stroke-miterlimit:4.0000000;stroke-opacity:1.0000000" />
  <path
     sodipodi:nodetypes="czcc"
     id="path3348"
     d="M 87.184506,29.633632 C 101.81097,46.510340 117.97784,49.791971 118.52702,65.423066 C 119.07618,81.054160 100.69923,86.572620 87.197894,101.19909 L 87.184506,29.633632 z "
     style="fill:url(#linearGradient106);fill-opacity:1.0000000;fill-rule:evenodd;stroke:none;stroke-width:1.0000000pt;stroke-linecap:butt;stroke-linejoin:miter;stroke-opacity:1.0000000" />
  <path
     sodipodi:nodetypes="czzccz"
     id="path2971"
     d="M 81.486567,24.983998 C 81.499923,23.501769 85.439360,23.007609 90.380354,27.948589 C 95.321332,32.889568 115.09087,52.836030 116.32050,65.747100 C 117.55014,78.658176 106.93264,82.793507 105.20329,85.758086 L 80.745427,107.25136 L 81.486567,24.983998 z "
     style="opacity:0.84375000;fill:url(#linearGradient105);fill-opacity:1.0000000;fill-rule:evenodd;stroke:none;stroke-width:1.0000000pt;stroke-linecap:butt;stroke-linejoin:miter;stroke-opacity:1.0000000" />
  <path
     sodipodi:nodetypes="czzzccz"
     id="path2797"
     d="M 81.724434,65.941640 C 80.479193,75.488504 81.476545,82.087600 81.724434,94.824861 C 81.994372,108.69349 91.605535,98.625276 96.926137,94.824861 C 102.24670,91.024426 113.64798,81.447915 113.64798,72.022325 L 113.64798,49.219788 L 86.284950,30.977768 L 81.724434,65.941640 z "
     style="fill:url(#linearGradient104);fill-opacity:1.0000000;fill-rule:evenodd;stroke:none;stroke-width:0.95254269pt;stroke-linecap:butt;stroke-linejoin:miter;stroke-opacity:1.0000000" />
  <path
     sodipodi:nodetypes="ccccc"
     id="path7551"
     d="M 40.663459,9.3392068 C 23.462036,20.573089 16.107552,41.143852 16.107552,64.719554 C 16.107552,86.276467 21.569665,105.32168 36.371588,117.02197 C 14.161892,111.48631 1.7604266,89.677959 1.7604266,63.596236 C 1.7604266,35.860717 16.335543,12.974683 40.663459,9.3392068 z "
     style="fill:#000000;fill-opacity:0.19736840;fill-rule:evenodd;stroke:none;stroke-width:1.6250000;stroke-linecap:butt;stroke-linejoin:miter;stroke-miterlimit:4.0000000;stroke-opacity:1.0000000" />
  <path
     sodipodi:nodetypes="ccccc"
     id="path7552"
     d="M 53.520000,25.948042 C 40.766759,33.856804 36.201432,48.338803 36.201417,64.936372 C 36.201432,80.112637 39.363737,93.520653 50.337960,101.75777 C 33.871572,97.860605 25.564391,82.507310 25.564391,64.145523 C 25.564391,44.619456 35.483139,28.507448 53.520000,25.948042 z "
     style="fill:#000000;fill-opacity:0.19736840;fill-rule:evenodd;stroke:none;stroke-width:1.6250000;stroke-linecap:butt;stroke-linejoin:miter;stroke-miterlimit:4.0000000;stroke-opacity:1.0000000" />
  <path
     sodipodi:nodetypes="ccccc"
     id="path7553"
     d="M 68.728178,34.458893 C 57.356458,40.509803 54.006254,51.589867 54.006254,64.288511 C 54.006254,75.899748 56.105424,86.158121 65.890851,92.460286 C 51.208223,89.478583 44.521499,77.731888 44.521499,63.683458 C 44.521499,48.744203 52.645200,36.417053 68.728178,34.458893 z "
     style="fill:#000000;fill-opacity:0.19736840;fill-rule:evenodd;stroke:none;stroke-width:1.6250000;stroke-linecap:butt;stroke-linejoin:miter;stroke-miterlimit:4.0000000;stroke-opacity:1.0000000" />
</svg>
