/* XPM */
static char * close_pressed_35p_xpm[] = {
"35 35 4 1",
" 	c None",
".	c #000000",
"+	c #313154",
"@	c #ffffff",
"...................................",
".+++++++++++++++++++++++++++++++++.",
".+++++++++++++++++++++++++++++++++.",
".+++++++++++++++++++++++++++++++++.",
".+++++++++++++++++++++++++++++++++.",
".+++++++++++++++++++++++++++++++++.",
".+++++++++++++++++++++++++++++++++.",
".+++++++++++++++++++++++++++++++++.",
".+++++++++++++++++++++++++++++++++.",
".+++++++++++++++++++++++++++++++++.",
".+++++++++++++++++++++++++++++++++.",
".++++++++++@@@+++++++++@@@++++++++.",
".++++++++++@@@@+++++++@@@@++++++++.",
".++++++++++@@@@@+++++@@@@@++++++++.",
".+++++++++++@@@@@+++@@@@@+++++++++.",
".++++++++++++@@@@@+@@@@@++++++++++.",
".+++++++++++++@@@@@@@@@+++++++++++.",
".++++++++++++++@@@@@@@++++++++++++.",
".+++++++++++++++@@@@@+++++++++++++.",
".++++++++++++++@@@@@@@++++++++++++.",
".+++++++++++++@@@@@@@@@+++++++++++.",
".++++++++++++@@@@@+@@@@@++++++++++.",
".+++++++++++@@@@@+++@@@@@+++++++++.",
".++++++++++@@@@@+++++@@@@@++++++++.",
".++++++++++@@@@+++++++@@@@++++++++.",
".++++++++++@@@+++++++++@@@++++++++.",
".+++++++++++++++++++++++++++++++++.",
".+++++++++++++++++++++++++++++++++.",
".+++++++++++++++++++++++++++++++++.",
".+++++++++++++++++++++++++++++++++.",
".+++++++++++++++++++++++++++++++++.",
".+++++++++++++++++++++++++++++++++.",
".+++++++++++++++++++++++++++++++++.",
".+++++++++++++++++++++++++++++++++.",
"..................................."};
