/* XPM */
static char * close_active_xpm[] = {
"18 18 3 1",
" 	c #CECFCE",
".	c #FFFFFF",
"+	c #848284",
"                  ",
" ...............+ ",
" .              + ",
" . +++++++++    + ",
" . +        .   + ",
" . +       . +  + ",
" . +      . + . + ",
" . +     . +  . + ",
" . +    . +   . + ",
" . +   . +    . + ",
" . +  . +     . + ",
" . + . +      . + ",
" .  . +       . + ",
" .   +        . + ",
" .    ......... + ",
" .              + ",
" .+++++++++++++++ ",
"                  "};
