/* XPM */
static char *bottom-right-active[] = {
/* width height ncolors chars_per_pixel */
"5 5 4 1",
/* colors */
"  c black",
". c #90B8DC s active_mid_1",
"X c #4B58A2 s active_shadow_1",
"o c None",
/* pixels */
" ..X ",
"...X ",
"...X ",
"XXXX ",
"     "
};
