/* XPM */
static char *maximize-inactive[] = {
/* width height ncolors chars_per_pixel */
"14 20 17 1",
/* colors */
"  c black",
". c #E5E2DC",
"X c #F0EEEA",
"o c #EDEBE6",
"O c #EBE9E4",
"+ c #EAE8E2",
"@ c #E8E6E0",
"# c #E6E4DE",
"$ c #E3E1DA",
"% c #EEEDE8",
"& c #D1CFC8",
"* c white",
"= c #EAE8E3",
"- c #A39E90",
"; c #F1F0ED",
": c #8A877E",
"> c None",
/* pixels */
">>>>>>>>>>>>>>",
">>>>>>>>>>>>>>",
">>>>>>>>>>>>>>",
"&&&&&&&&&&&&&-",
"&***********&-",
"&*;;;;;;;;;;&-",
"&*X::::::::X&-",
"&*%::::::::%&-",
"&*o::::::::o&-",
"&*O:OOOOOO:O&-",
"&*+:++++++:+&-",
"&*@:@@@@@@:@&-",
"&*#:######:#&-",
"&*.::::::::.&-",
"&*$$$$$$$$$$&-",
"&&&&&&&&&&&&&-",
"--------------",
">>>>>>>>>>>>>>",
">>>>>>>>>>>>>>",
">>>>>>>>>>>>>>"
};
