/* XPM */
static char *title-1-inactive[] = {
/* width height ncolors chars_per_pixel */
"2 20 4 1",
/* colors */
"  c black",
". c #4C7BA6 s inactive_color_1",
"X c #B5E5FF s inactive_hilight_1"
"o c None",
/* pixels */
"  ",
"XX",
"..",
"..",
"..",
"..",
"..",
"..",
"..",
"..",
"..",
"..",
"..",
"..",
"..",
"..",
"..",
"..",
"..",
".."
};
