/* XPM */
static char * bottom_right_active_xpm[] = {
"3 3 6 1",
" 	c None",
".	c #DDDCD7 s inactive_color_1",
"+	c #D5D4CF s inactive_color_1",
"@	c #A5A5A0 s inactive_shadow_1",
"#	c #CFCEC9 s inactive_color_1",
"$	c #A2A29D s inactive_shadow_1",
".+@",
"##$",
"$$$"};
