/* XPM */
static char * maximize_active_xpm[] = {
"19 22 61 1",
" 	c None",
".	c #90B8DC s inactive_mid_1",
"+	c #4B58A2 s inactive_shadow_1",
"@	c #DAD9D5",
"#	c #F7F6F3",
"$	c #FAF9F6",
"%	c #FBFAF7",
"&	c #F9F8F5",
"*	c #F2F1EE",
"=	c #F5F4F1",
"-	c #F8F7F4",
";	c #EAE9E6",
">	c #EFEEEA",
",	c #F2F1ED",
"'	c #F5F4F0",
")	c #F6F5F1",
"!	c #EEEDE9",
"~	c #E0E2E0",
"{	c #E8E7E2",
"]	c #ECEBE6",
"^	c #EFEEE9",
"/	c #000000 s inactive_shadow_1",
"(	c #EBEAE6",
"_	c #DFDFDC",
":	c #E5E4DF",
"<	c #E9E8E4",
"[	c #E8E8E3",
"}	c #DCDCD9",
"|	c #E1E0DB",
"1	c #E6E5E0",
"2	c #D8D8D6",
"3	c #DEDDD8",
"4	c #E3E2DC",
"5	c #E6E5DF",
"6	c #E8E7E1",
"7	c #E5E4DE",
"8	c #E2E1DB",
"9	c #D5D5D3",
"0	c #D9D9D4",
"a	c #DDDCD7",
"b	c #E0DFDA",
"c	c #E3E2DD",
"d	c #D1D2CF",
"e	c #D5D4CF",
"f	c #D9D8D3",
"g	c #DBDAD6",
"h	c #D8D7D2",
"i	c #CECECB",
"j	c #CFCFCA",
"k	c #D2D1CD",
"l	c #D4D3CE",
"m	c #D6D5D0",
"n	c #D1D0CC",
"o	c #C8C8C6",
"p	c #B4B5B3",
"q	c #CAC9C5",
"r	c #CCCBC7",
"s	c #CDCCC7",
"t	c #CBCAC6",
"u	c #C5C4C0",
"v	c #C6C5C0",
"                   ",
"                   ",
"                   ",
"                   ",
"                   ",
"   .+++++++++++.   ",
"  .+@#$%%%%%&#@+.  ",
"  +@*=-&&&&&-=*@+  ",
"  +;>,')))))',!~+  ",
"  +{]^///////^(_+  ",
"  +:<]///////][}+  ",
"  +|1{/]]]]]/{:2+  ",
"  +345/66666/789+  ",
"  +0ab/ccccc/bad+  ",
"  +efg///////@hi+  ",
"  +jklemmmmmelno+  ",
"  +pqrssssssstqp+  ",
"  .+puuvvvvvuup+.  ",
"   .+++++++++++.   ",
"                   ",
"                   ",
"                   "};
