/* XPM */
static char * hide_pressed_35p_xpm[] = {
"35 35 4 1",
" 	c None",
".	c #004400",
"+	c #00c308",
"@	c #121224",
"...................................",
".+++++++++++++++++++++++++++++++++.",
".+++++++++++++++++++++++++++++++++.",
".+++++++++++++++++++++++++++++++++.",
".+++++++++++++++++++++++++++++++++.",
".+++++++++++++++++++++++++++++++++.",
".+++++++++++++++++++++++++++++++++.",
".+++++++++++++++++++++++++++++++++.",
".+++++++++++++++++++++++++++++++++.",
".+++++++++++++++++++++++++++++++++.",
".+++++++++++++++++++++++++++++++++.",
".+++++++++++++++++++++++++++++++++.",
".+++++++++++++++++++++++++++++++++.",
".+++++++++++++++++++++++++++++++++.",
".+++++++++++++++++++++++++++++++++.",
".++++++++++@@@+++++++++@@@++++++++.",
".++++++++++@@@@+++++++@@@@++++++++.",
".++++++++++@@@@@+++++@@@@@++++++++.",
".+++++++++++@@@@@+++@@@@@+++++++++.",
".++++++++++++@@@@@+@@@@@++++++++++.",
".+++++++++++++@@@@@@@@@+++++++++++.",
".++++++++++++++@@@@@@@++++++++++++.",
".+++++++++++++++@@@@@+++++++++++++.",
".++++++++++++++++@@@++++++++++++++.",
".+++++++++++++++++@+++++++++++++++.",
".+++++++++++++++++++++++++++++++++.",
".+++++++++++++++++++++++++++++++++.",
".+++++++++++++++++++++++++++++++++.",
".+++++++++++++++++++++++++++++++++.",
".+++++++++++++++++++++++++++++++++.",
".+++++++++++++++++++++++++++++++++.",
".+++++++++++++++++++++++++++++++++.",
".+++++++++++++++++++++++++++++++++.",
".+++++++++++++++++++++++++++++++++.",
"..................................."};
