/* XPM */
static char * close_xpm[] = {
"18 21 4 1",
" 	c None",
".	c #000000",
"+	c #3678E5 s active_hilight_1",
"@	c #FFFFFF s active_shadow_1"
"..................",
"++++++++++++++++++",
"++++++++++++++++++",
"++++++++++++++++++",
"++++++++++++++++++",
"++++++++++++++++++",
"++++++++++++++++++",
"++++++++++++++++++",
"+++++@@++@@+++++++",
"+++++@@@@@@+++++++",
"++++++@@@@++++++++",
"++++++@@@@++++++++",
"+++++@@@@@@+++++++",
"+++++@@++@@+++++++",
"++++++++++++++++++",
"++++++++++++++++++",
"++++++++++++++++++",
"++++++++++++++++++",
"++++++++++++++++++",
"++++++++++++++++++",
".................."};
