/* XPM */
static char * title_1_active_xpm[] = {
"1 21 3 1",
" 	c None",
".	c #000000",
"+	c #3678E5 s active_color_1",
".",
"+",
"+",
"+",
"+",
"+",
"+",
"+",
"+",
"+",
"+",
"+",
"+",
"+",
"+",
"+",
"+",
"+",
"+",
"+",
"."};
