/* XPM */
static char * title_2_active_xpm[] = {
"8 31 41 1",
" 	c None",
".	c #21380E",
"+	c #9FDA6D",
"@	c #A1DB6F",
"#	c #7ACC33",
"$	c #79CB32",
"%	c #6BB42D",
"&	c #6CB62D",
"*	c #6EB92E",
"=	c #6FBB2E",
"-	c #71BE2F",
";	c #70BC2F",
">	c #72BF2F",
",	c #74C330",
"'	c #75C431",
")	c #77C731",
"!	c #76C631",
"~	c #7BCC35",
"{	c #7CCD36",
"]	c #7ECD3A",
"^	c #80CE3D",
"/	c #7FCE3B",
"(	c #84D043",
"_	c #88D14A",
":	c #87D148",
"<	c #8FD453",
"[	c #94D65B",
"}	c #93D55A",
"|	c #98D762",
"1	c #9DD96A",
"2	c #A3DB72",
"3	c #A9DE7B",
"4	c #AEE083",
"5	c #B4E28D",
"6	c #BDE59A",
"7	c #C2E7A2",
"8	c #C3E8A3",
"9	c #C8EAAB",
"0	c #D0EDB6",
"a	c #ADDF82",
"b	c #65A92A",
"........",
"++++@@@@",
"######$$",
"%%%%%%%%",
"%&&&%%%%",
"*====***",
"------;;",
">>>>>>--",
",'''',,,",
"))))))!!",
"$$$$$$))",
"~{{{{{##",
"]]]]]]{{",
"^^^^^^//",
"((((((((",
"______::",
"<<<<<<<<",
"[}}}}}[[",
"||||||||",
"11111111",
"22222222",
"33333333",
"44444444",
"55555555",
"66666666",
"77878888",
"99999999",
"00000000",
"444444aa",
"bbbbbbbb",
"........"};
