<?xml version="1.0" encoding="UTF-8" standalone="no"?>
<svg
   xmlns:dc="http://purl.org/dc/elements/1.1/"
   xmlns:cc="http://creativecommons.org/ns#"
   xmlns:rdf="http://www.w3.org/1999/02/22-rdf-syntax-ns#"
   xmlns:svg="http://www.w3.org/2000/svg"
   xmlns="http://www.w3.org/2000/svg"
   xmlns:sodipodi="http://sodipodi.sourceforge.net/DTD/sodipodi-0.dtd"
   xmlns:inkscape="http://www.inkscape.org/namespaces/inkscape"
   viewBox="0 0 16 16"
   version="1.1"
   id="svg6"
   sodipodi:docname="align-horizontal-baseline.svg"
   inkscape:version="0.92.1 r15371">
  <metadata
     id="metadata10">
    <rdf:RDF>
      <cc:Work
         rdf:about="">
        <dc:format>image/svg+xml</dc:format>
        <dc:type
           rdf:resource="http://purl.org/dc/dcmitype/StillImage" />
      </cc:Work>
    </rdf:RDF>
  </metadata>
  <sodipodi:namedview
     pagecolor="#ffffff"
     bordercolor="#666666"
     borderopacity="1"
     objecttolerance="10"
     gridtolerance="10"
     guidetolerance="10"
     inkscape:pageopacity="0"
     inkscape:pageshadow="2"
     inkscape:window-width="640"
     inkscape:window-height="480"
     id="namedview8"
     showgrid="false"
     inkscape:current-layer="svg6" />
  <defs
     id="defs3051">
    <style
       type="text/css"
       id="current-color-scheme">
      .ColorScheme-Text {
        color:#f2f2f2;
      }
      </style>
  </defs>
  <path
     style="fill:#3daee9;fill-opacity:1;stroke:none"
     d="M 5 2 L 5 12.9375 C 4.8932753 12.957229 4.8114453 12.980739 4.6992188 13 L 4.9082031 14 C 4.9399277 13.994555 4.9685215 13.986116 5 13.980469 L 5 14 L 6 14 L 6 13.753906 C 9.7507108 12.739299 11.449219 10.179239 11.449219 8 L 10.341797 8 C 10.341797 8.69264 9.9919381 10.029962 9.3925781 10.544922 C 8.7807381 9.9651118 8.0431244 9.067795 7.8652344 8.015625 L 6.9726562 8 C 6.9726562 9.42386 7.9799481 10.602552 8.7363281 11.326172 C 8.0523326 12.020993 7.2394493 12.425193 6 12.732422 L 6 2 L 5 2 z M 9.3320312 2 C 8.464444 2.0182 7.798691 2.1551085 7.3144531 2.3554688 L 7.5859375 3.2558594 C 7.8179654 3.1829593 8.6964376 2.9296875 9.2109375 2.9296875 L 9.28125 2.9296875 C 9.9975157 2.9569875 10.046875 3.1924961 10.046875 3.7480469 L 10.046875 3.9667969 L 9.6738281 4.0214844 C 7.9386425 4.2491747 7.0117187 4.4403864 7.0117188 5.6425781 C 7.0117188 6.4804693 7.6874489 7 8.6660156 7 C 9.3419282 7 9.7862701 6.744518 10.240234 6.3984375 L 10.380859 6.9082031 L 11.449219 6.9082031 L 11.449219 3.5390625 C 11.449219 2.5099211 10.66372 2 9.453125 2 L 9.3320312 2 z M 10.046875 4.6777344 L 10.046875 5.796875 C 9.6736166 6.0245653 9.392441 6.1894531 8.9082031 6.1894531 C 8.4744095 6.1894531 8.2617188 5.9437367 8.2617188 5.5976562 C 8.2617188 4.9419154 8.8970271 4.832602 9.6738281 4.7324219 L 10.046875 4.6777344 z "
     class="ColorScheme-Text"
     id="path4" />
  <path
     style="opacity:0.95999995;fill:#ff6600;fill-opacity:1;fill-rule:nonzero;stroke:#ffffff;stroke-width:0.0495356;stroke-opacity:0.94117647"
     d="M 8.1832817,6.9285565 C 7.6362889,6.8008969 7.2242741,6.4702074 7.1014518,6.0602629 7.0051629,5.7388792 7.0304191,5.3166146 7.1629552,5.0319737 7.4029962,4.5164503 7.9146671,4.2922415 9.2978328,4.0964932 10.136934,3.9777419 10.066413,4.0155985 10.060697,3.6869819 10.053749,3.2875478 10.010806,3.1724885 9.8209132,3.0445195 9.6801169,2.9496369 9.5895367,2.9325763 9.2285878,2.9329565 8.8546685,2.9333503 7.9730548,3.0876144 7.6813047,3.203699 7.6023774,3.2351034 7.5731658,3.1645095 7.362088,2.4322681 7.3443598,2.3707681 7.4196902,2.329763 7.699352,2.248683 8.5618916,1.9986142 9.9126178,1.9691641 10.486687,2.1879104 c 0.354472,0.1350698 0.75819,0.5181698 0.862972,0.8189007 0.05257,0.1508924 0.07408,0.6385687 0.09017,2.0450619 l 0.02114,1.8469194 -0.534594,-0.014102 -0.534595,-0.014102 -0.06294,-0.2177203 c -0.03462,-0.1197463 -0.07201,-0.226792 -0.0831,-0.2378793 -0.01109,-0.011087 -0.160378,0.07047 -0.3317581,0.1812376 C 9.3963777,6.9307714 8.736059,7.0575663 8.1832817,6.9285565 Z m 1.5239203,-0.9306614 0.333665,-0.1675545 0.014,-0.5869137 0.014,-0.5869137 -0.2616761,0.033902 C 9.3470532,4.7500275 8.8105868,4.8704662 8.6612824,4.9476745 8.1621984,5.2057608 8.0948177,5.8935476 8.5459311,6.1251194 8.8030021,6.2570826 9.299348,6.2027049 9.707202,5.9978951 Z"
     id="path4483"
     inkscape:connector-curvature="0" />
</svg>
