<?xml version="1.0" encoding="UTF-8" standalone="no"?>
<svg
   xmlns:dc="http://purl.org/dc/elements/1.1/"
   xmlns:cc="http://creativecommons.org/ns#"
   xmlns:rdf="http://www.w3.org/1999/02/22-rdf-syntax-ns#"
   xmlns:svg="http://www.w3.org/2000/svg"
   xmlns="http://www.w3.org/2000/svg"
   xmlns:sodipodi="http://sodipodi.sourceforge.net/DTD/sodipodi-0.dtd"
   xmlns:inkscape="http://www.inkscape.org/namespaces/inkscape"
   viewBox="0 0 16 16"
   version="1.1"
   id="svg6"
   sodipodi:docname="code-function.svg"
   inkscape:version="0.92.1 r15371">
  <metadata
     id="metadata10">
    <rdf:RDF>
      <cc:Work
         rdf:about="">
        <dc:format>image/svg+xml</dc:format>
        <dc:type
           rdf:resource="http://purl.org/dc/dcmitype/StillImage" />
      </cc:Work>
    </rdf:RDF>
  </metadata>
  <sodipodi:namedview
     pagecolor="#ffffff"
     bordercolor="#666666"
     borderopacity="1"
     objecttolerance="10"
     gridtolerance="10"
     guidetolerance="10"
     inkscape:pageopacity="0"
     inkscape:pageshadow="2"
     inkscape:window-width="640"
     inkscape:window-height="480"
     id="namedview8"
     showgrid="false"
     inkscape:current-layer="svg6" />
  <defs
     id="defs3051">
    <style
       type="text/css"
       id="current-color-scheme">
      .ColorScheme-Text {
        color:#f2f2f2;
      }
      </style>
  </defs>
  <path
     style="fill:#3daee9;fill-opacity:1;stroke:none"
     d="M 4 4 L 4 5 L 8 5 L 8 4 L 4 4 z M 9 4 L 9 11 L 14 11 L 14 4 L 9 4 z M 2 6 L 2 7 L 6 7 L 6 6 L 2 6 z M 3 8 L 3 9 L 6 9 L 6 8 L 3 8 z M 5 10 L 5 11 L 8 11 L 8 10 L 5 10 z "
     class="ColorScheme-Text"
     id="path4" />
  <path
     style="opacity:0.95999995;fill:#00ff00;fill-opacity:1;fill-rule:nonzero;stroke:#ffffff;stroke-width:0.0495356;stroke-opacity:0.94117647"
     d="M 4.0074303,4.4928793 V 4.022291 H 5.9888545 7.9702786 V 4.4928793 4.9634675 H 5.9888545 4.0074303 Z"
     id="path8"
     inkscape:connector-curvature="0" />
  <path
     style="opacity:0.95999995;fill:#00ff00;fill-opacity:1;fill-rule:nonzero;stroke:#ffffff;stroke-width:0.0495356;stroke-opacity:0.94117647"
     d="m 2.0260062,6.4990712 v -0.495356 h 1.9814241 1.9814242 v 0.495356 0.495356 H 4.0074303 2.0260062 Z"
     id="path10"
     inkscape:connector-curvature="0" />
  <path
     style="opacity:0.95999995;fill:#00ff00;fill-opacity:1;fill-rule:nonzero;stroke:#ffffff;stroke-width:0.0495356;stroke-opacity:0.94117647"
     d="M 3.0167183,8.5052632 V 8.0346749 H 4.5027864 5.9888545 V 8.5052632 8.9758514 H 4.5027864 3.0167183 Z"
     id="path12"
     inkscape:connector-curvature="0" />
  <path
     style="opacity:0.95999995;fill:#00ff00;fill-opacity:1;fill-rule:nonzero;stroke:#ffffff;stroke-width:0.0495356;stroke-opacity:0.94117647"
     d="m 4.9981424,10.486687 v -0.470588 h 1.4860681 1.4860681 v 0.470588 0.470589 H 6.4842105 4.9981424 Z"
     id="path14"
     inkscape:connector-curvature="0" />
</svg>
