<?xml version="1.0" encoding="UTF-8" standalone="no"?>
<svg
   xmlns:dc="http://purl.org/dc/elements/1.1/"
   xmlns:cc="http://creativecommons.org/ns#"
   xmlns:rdf="http://www.w3.org/1999/02/22-rdf-syntax-ns#"
   xmlns:svg="http://www.w3.org/2000/svg"
   xmlns="http://www.w3.org/2000/svg"
   xmlns:sodipodi="http://sodipodi.sourceforge.net/DTD/sodipodi-0.dtd"
   xmlns:inkscape="http://www.inkscape.org/namespaces/inkscape"
   viewBox="0 0 16 16"
   version="1.1"
   id="svg6"
   sodipodi:docname="database-index.svg"
   inkscape:version="0.92.1 r15371">
  <metadata
     id="metadata10">
    <rdf:RDF>
      <cc:Work
         rdf:about="">
        <dc:format>image/svg+xml</dc:format>
        <dc:type
           rdf:resource="http://purl.org/dc/dcmitype/StillImage" />
      </cc:Work>
    </rdf:RDF>
  </metadata>
  <sodipodi:namedview
     pagecolor="#ffffff"
     bordercolor="#666666"
     borderopacity="1"
     objecttolerance="10"
     gridtolerance="10"
     guidetolerance="10"
     inkscape:pageopacity="0"
     inkscape:pageshadow="2"
     inkscape:window-width="640"
     inkscape:window-height="480"
     id="namedview8"
     showgrid="false"
     inkscape:current-layer="svg6" />
  <defs
     id="defs3051">
    <style
       type="text/css"
       id="current-color-scheme">
      .ColorScheme-Text {
        color:#f2f2f2;
      }
      </style>
  </defs>
  <path
     style="fill:#3daee9;fill-opacity:1;stroke:none"
     d="M 2 2 L 2 3 L 3 3 L 3 2 L 2 2 z M 4 2 L 4 3 L 9 3 L 9 2 L 4 2 z M 12 4 L 8 10 L 10 10 L 10 14 L 14 8 L 12 8 L 12 4 z M 2 5 L 2 6 L 3 6 L 3 5 L 2 5 z M 4 5 L 4 6 L 9 6 L 9 5 L 4 5 z M 2 8 L 2 9 L 3 9 L 3 8 L 2 8 z M 4 8 L 4 9 L 7 9 L 7 8 L 4 8 z "
     class="ColorScheme-Text"
     id="path4" />
  <path
     style="opacity:0.95999995;fill:#ffff00;fill-opacity:1;fill-rule:nonzero;stroke-width:0.0495356"
     d="M 10.016099,11.933127 V 9.9665635 H 9.0501548 c -0.5312694,0 -0.9659443,-0.011232 -0.9659443,-0.024959 0,-0.013727 0.8804954,-1.3455858 1.9566565,-2.9596856 L 11.997523,4.047192 v 1.9926943 1.9926943 l 0.966039,0.013431 0.966039,0.013431 -1.913124,2.8730654 c -1.052218,1.580185 -1.932756,2.894241 -1.956751,2.920124 -0.0252,0.02718 -0.04363,-0.783426 -0.04363,-1.919505 z"
     id="path4487"
     inkscape:connector-curvature="0" />
</svg>
