<?xml version="1.0" encoding="UTF-8" standalone="no"?>
<svg
   xmlns:dc="http://purl.org/dc/elements/1.1/"
   xmlns:cc="http://creativecommons.org/ns#"
   xmlns:rdf="http://www.w3.org/1999/02/22-rdf-syntax-ns#"
   xmlns:svg="http://www.w3.org/2000/svg"
   xmlns="http://www.w3.org/2000/svg"
   xmlns:sodipodi="http://sodipodi.sourceforge.net/DTD/sodipodi-0.dtd"
   xmlns:inkscape="http://www.inkscape.org/namespaces/inkscape"
   viewBox="0 0 16 16"
   version="1.1"
   id="svg6"
   sodipodi:docname="distribute-horizontal-left.svg"
   inkscape:version="0.92.1 r15371">
  <metadata
     id="metadata10">
    <rdf:RDF>
      <cc:Work
         rdf:about="">
        <dc:format>image/svg+xml</dc:format>
        <dc:type
           rdf:resource="http://purl.org/dc/dcmitype/StillImage" />
      </cc:Work>
    </rdf:RDF>
  </metadata>
  <sodipodi:namedview
     pagecolor="#ffffff"
     bordercolor="#666666"
     borderopacity="1"
     objecttolerance="10"
     gridtolerance="10"
     guidetolerance="10"
     inkscape:pageopacity="0"
     inkscape:pageshadow="2"
     inkscape:window-width="640"
     inkscape:window-height="480"
     id="namedview8"
     showgrid="false"
     inkscape:current-layer="svg6" />
  <defs
     id="defs3051">
    <style
       type="text/css"
       id="current-color-scheme">
      .ColorScheme-Text {
        color:#f2f2f2;
      }
      </style>
  </defs>
  <path
     style="fill:#3daee9;fill-opacity:1;stroke:none"
     d="M 5 2 L 2 4 L 5 6 L 5 2 z M 7 2 L 7 6 L 10 4 L 7 2 z M 2 5 L 2 7 L 2 13 L 2 14 L 3 14 L 3 13 L 7 13 L 7 7 L 3 7 L 3 5 L 2 5 z M 9 5 L 9 7 L 9 13 L 9 14 L 10 14 L 10 13 L 14 13 L 14 7 L 10 7 L 10 5 L 9 5 z M 3 8 L 6 8 L 6 12 L 3 12 L 3 8 z M 10 8 L 13 8 L 13 12 L 10 12 L 10 8 z "
     class="ColorScheme-Text"
     id="path4" />
  <path
     style="opacity:0.95999995;fill:#ff6600;fill-opacity:1;fill-rule:nonzero;stroke:#ffffff;stroke-width:0.0495356;stroke-opacity:0.94117647"
     d="m 7.0439628,4.0223824 c 0,-1.062589 0.011318,-1.9319799 0.025151,-1.9319799 0.013833,0 0.6714711,0.4310336 1.4614181,0.9578526 L 9.966799,4.0061076 8.5053809,4.9802349 7.0439628,5.9543622 Z"
     id="path4487"
     inkscape:connector-curvature="0" />
  <path
     style="opacity:0.95999995;fill:#ff6600;fill-opacity:1;fill-rule:nonzero;stroke:#ffffff;stroke-width:0.0495356;stroke-opacity:0.94117647"
     d="M 3.5142781,4.9929489 C 2.7308462,4.4678683 2.0787683,4.0271687 2.065216,4.0136164 2.0516638,4.0000642 2.6982263,3.5506103 3.5020215,3.0148301 l 1.461446,-0.9741459 v 1.9567477 c 0,1.0762112 -0.00557,1.9552765 -0.012384,1.9534783 C 4.9442724,5.949112 4.29771,5.5180294 3.5142781,4.9929489 Z"
     id="path4489"
     inkscape:connector-curvature="0" />
</svg>
