<?xml version="1.0" encoding="UTF-8" standalone="no"?>
<svg
   xmlns:dc="http://purl.org/dc/elements/1.1/"
   xmlns:cc="http://creativecommons.org/ns#"
   xmlns:rdf="http://www.w3.org/1999/02/22-rdf-syntax-ns#"
   xmlns:svg="http://www.w3.org/2000/svg"
   xmlns="http://www.w3.org/2000/svg"
   xmlns:sodipodi="http://sodipodi.sourceforge.net/DTD/sodipodi-0.dtd"
   xmlns:inkscape="http://www.inkscape.org/namespaces/inkscape"
   viewBox="0 0 16 16"
   version="1.1"
   id="svg6"
   sodipodi:docname="distribute-horizontal-baseline.svg"
   inkscape:version="0.92.1 r15371">
  <metadata
     id="metadata10">
    <rdf:RDF>
      <cc:Work
         rdf:about="">
        <dc:format>image/svg+xml</dc:format>
        <dc:type
           rdf:resource="http://purl.org/dc/dcmitype/StillImage" />
      </cc:Work>
    </rdf:RDF>
  </metadata>
  <sodipodi:namedview
     pagecolor="#ffffff"
     bordercolor="#666666"
     borderopacity="1"
     objecttolerance="10"
     gridtolerance="10"
     guidetolerance="10"
     inkscape:pageopacity="0"
     inkscape:pageshadow="2"
     inkscape:window-width="640"
     inkscape:window-height="480"
     id="namedview8"
     showgrid="false"
     inkscape:current-layer="svg6" />
  <defs
     id="defs3051">
    <style
       type="text/css"
       id="current-color-scheme">
      .ColorScheme-Text {
        color:#f2f2f2;
      }
      </style>
  </defs>
  <path
     style="fill:#3daee9;fill-opacity:1;stroke:none"
     d="M 5 2 L 2 4 L 5 6 L 5 2 z M 6 2 L 6 6 L 9 4 L 6 2 z M 4.3203125 7 C 3.4527252 7.0182 2.7869722 7.1551085 2.3027344 7.3554688 L 2.5742188 8.2558594 C 2.8062466 8.1829593 3.6847187 7.9296875 4.1992188 7.9296875 L 4.2695312 7.9296875 C 4.9857971 7.9569875 5.0371094 8.1924961 5.0371094 8.7480469 L 5.0371094 8.9667969 L 4.6640625 9.0214844 C 2.9288769 9.2491747 2 9.4403865 2 10.642578 C 2 11.480469 2.6757301 12 3.6542969 12 C 4.3302094 12 4.774551 11.744517 5.2285156 11.398438 L 5.3691406 11.908203 L 6.4394531 11.908203 L 6.4394531 8.5390625 C 6.4394531 7.5099211 5.652001 7 4.4414062 7 L 4.3203125 7 z M 9.5234375 7 C 9.5234375 8.42386 10.528776 9.6025519 11.285156 10.326172 C 10.386066 11.239492 9.27789 11.65197 7.25 12 L 7.4570312 13 C 11.977561 12.22418 14 9.38164 14 7 L 12.892578 7 C 12.892578 7.69264 12.542719 9.0299619 11.943359 9.5449219 C 11.331519 8.9651119 10.591952 8.067795 10.414062 7.015625 L 9.5234375 7 z M 5.0371094 9.6777344 L 5.0371094 10.796875 C 4.663851 11.024565 4.3807222 11.189453 3.8964844 11.189453 C 3.4626907 11.189453 3.25 10.943737 3.25 10.597656 C 3.25 9.9419156 3.8872615 9.832602 4.6640625 9.7324219 L 5.0371094 9.6777344 z "
     class="ColorScheme-Text"
     id="path4" />
  <path
     style="opacity:0.95999995;fill:#00ff00;fill-opacity:1;fill-rule:nonzero;stroke:#ffffff;stroke-width:0.0495356;stroke-opacity:0.94117647"
     d="M 6.0037152,3.9966906 V 2.0294727 l 0.1362229,0.088627 c 0.074923,0.048745 0.7410502,0.4917184 1.4802836,0.9843855 L 8.9642825,3.9982436 7.6269694,4.8895243 C 6.8914471,5.3797286 6.2253195,5.8220033 6.1466857,5.8723567 l -0.1429705,0.091552 z"
     id="path4487"
     inkscape:connector-curvature="0" />
  <path
     style="opacity:0.95999995;fill:#00ff00;fill-opacity:1;fill-rule:nonzero;stroke:#ffffff;stroke-width:0.0495356;stroke-opacity:0.94117647"
     d="M 3.5142781,4.9929489 C 2.7308462,4.4678683 2.0787683,4.0271687 2.065216,4.0136164 2.0516638,4.0000642 2.6982263,3.5506103 3.5020215,3.0148301 l 1.461446,-0.9741459 v 1.9567477 c 0,1.0762112 -0.00557,1.9552765 -0.012384,1.9534783 C 4.9442724,5.949112 4.29771,5.5180294 3.5142781,4.9929489 Z"
     id="path4489"
     inkscape:connector-curvature="0" />
</svg>
