<?xml version="1.0" encoding="UTF-8" standalone="no"?>
<!-- Created with Inkscape (http://www.inkscape.org/) -->

<svg
   xmlns:dc="http://purl.org/dc/elements/1.1/"
   xmlns:cc="http://creativecommons.org/ns#"
   xmlns:rdf="http://www.w3.org/1999/02/22-rdf-syntax-ns#"
   xmlns:svg="http://www.w3.org/2000/svg"
   xmlns="http://www.w3.org/2000/svg"
   xmlns:xlink="http://www.w3.org/1999/xlink"
   xmlns:sodipodi="http://sodipodi.sourceforge.net/DTD/sodipodi-0.dtd"
   xmlns:inkscape="http://www.inkscape.org/namespaces/inkscape"
   version="1.1"
   id="svg2"
   width="16"
   height="16"
   viewBox="0 0 16 16"
   sodipodi:docname="document-print-direct.svg"
   inkscape:version="0.92.1 r15371">
  <metadata
     id="metadata8">
    <rdf:RDF>
      <cc:Work
         rdf:about="">
        <dc:format>image/svg+xml</dc:format>
        <dc:type
           rdf:resource="http://purl.org/dc/dcmitype/StillImage" />
        <dc:title></dc:title>
      </cc:Work>
    </rdf:RDF>
  </metadata>
  <defs
     id="defs6" />
  <sodipodi:namedview
     pagecolor="#ffffff"
     bordercolor="#666666"
     borderopacity="1"
     objecttolerance="10"
     gridtolerance="10"
     guidetolerance="10"
     inkscape:pageopacity="0"
     inkscape:pageshadow="2"
     inkscape:window-width="814"
     inkscape:window-height="480"
     id="namedview4"
     showgrid="false"
     inkscape:zoom="1.3828125"
     inkscape:cx="8"
     inkscape:cy="8"
     inkscape:window-x="0"
     inkscape:window-y="0"
     inkscape:window-maximized="0"
     inkscape:current-layer="svg2" />
  <image
     width="16"
     height="16"
     preserveAspectRatio="none"
     xlink:href="data:image/png;base64,iVBORw0KGgoAAAANSUhEUgAAAIAAAACACAYAAADDPmHLAAAAAXNSR0IArs4c6QAAAAlwSFlzAAAL EwAACxMBAJqcGAAAAAd0SU1FB+EDHgwbAqiIaykAACAASURBVHja7b15rG35Vd/5+Q17OtMd3/xe 2WVXUdg02IGA7bKNA3YSNxhwBFiNlMYiA8KNAoSmCYJ0i3S3+YOERiER2A0ycgelkVrQchJQG0iw UNrGNjFujOdnlwFXuepN995zz7CH39B/7P3bd5/9zh2qbFPP+G1p67x37hn22Wv91vqutb5r/eD+ cf+4f9w/7h/3j/vH/eP+cf+4f9w/7h9fRof4K3Cd/oTX+fsi/tJXAPEleF+/ZBRP3qMCF821SUC8 4hWvUMAzPeWa87S/P9Pzrmu/v7qe2fW0N3J/f/+9m5ubL9vb28v39/f/du+axY0bNx6vqgoA55y/ cOHClbAClVL+1q1bT925c+cwvME558+dO7flvfcA1lpz+/btmbXWL5dLY6018/m8/QJjzImrWYj6 cpIk8Wmaeu894/HYb29v843f+I17PYvg7yvA2YQfVqba29ube+/J85zBYLD25ncP59zK8+teo7Ve tdf+brlYa0+/YCHu+vzlckkcxyilGI/HCWAbwft7UQH0PaiQwTRHQBRFUVhhd91sKc/mwfrvc86d +p7wvScd/c/x3rO1tUVQ2M79tfcqPtD3kOBFxz/HQAqkQgi892itMcacunK7SuG9v2uVeu/PJFzv /drPP82SKKXw3odrTYEieJN7EQPoe2z1y+aaEmAAjIwxeO+RUrYrLgh03UruuoCgPOssQvf5dW6i b+KFEMe6l/5j53Vpz/zbe80K6Hto9dNRgLhRgA3vPc659uwK5qQVus4/nxgOrXEn4fO739dXnPB8 97GjmING6Oa+BThbSNq1AENg4pzDGLNyY/sr7jiff9zfg5nuvn4d6DtNifoWIpzOufD5g8YFFJ3f Z+8rwMkuoIsBRtbaFQU4TbhnEd4619F/bd/Ur/usdQoQPr9RgLQBs6qTcxH3XcDJVqAbBaTB7Fpr WwU4i/BPsxB9C3CcO+kL+ax/az4vau6xulezmveaAnRDQQ1E1lrCedIq7fryrjCllHe9riiKuz6n jwGO++yTLEeIMMqyDNfQX/n3McDTAIWqe33rwrnjwreTEkNnDfnOCiD712SM6Sqr6oHc+xbgaeQD xDO5YX3/flq0cBYMcJxyHfcaa22wFqJ33s8EnlHo3efWrvzjwrJ1CvCMLuoM7zvOTXQsQH/1i3sN COpnWfD9EHClYnf+/PlEa421dm1Wb50QTornT3MfX8hjuVzSUWq5Rvj3hBLoZ1n4be7/Pe95z/9a VZVZLBbpwcHB4ODgYDSbzcaDwQBjzJl8+XFo/BiE/rTM+zrrsu4oy5Ioirh69Wo3qtGd6OaeKgzp Z0n4ovP96g//8A+/9md/9mf/8Z07dxgMBpRlSZqmPPLII0RR1K5qpdTTFuRZXnNWq3AW66KUwlpL WZb+O77jO/4fKWVbwxBCEEXRu3/jN37jb3CPpIX1s/zdCoiLovgbh4d1yf7w8JA4jqmqirIsEUKg lEJKeaoAjsvonYYT+uDxOHxxXF2h+++qqrDWMhwOxZ07d9Ba911Xwd1VQv/logDdEC9k/LLr168n wXSOx+M2nBoOhzjnkFKilFpbfj0NAzzT13w+kUGwVOPxuP0d8/kcYwzb29svb343PSV4VhTh2XIB ssmSJcDw4x//eBby88vlkqqqUEoxnU4BSNMUY8yZiBwnxfYnvS8oV/jbSa/pK0T4rn5W8ODggCRJ ODw8bMPDg4ODkObuYgH3bFmBZ9MC6OZGjP70T/803dvbawVsjCFN09YFCCHQWj8tNP90FaBr4k9K C5/2fd1CU57nbQo7AMQsy6AudAXBh/OvvAsQvZAvahRg+JnPfGbQXeHOOcqyZD6ft6AqjuO7CCFn yQg+XcAXBHka2WSdogXiSuAoTqdT4jhucUeIZh588MGtxx57rALKxgW4Z8sK6C+QUE97rgXJHJV8 gwIMjDGjPM9b4kfIpC2Xy9an9iOA04T/dBWgbwHOEvJ1X99NUAVFnc1mRFHUfnZVVRRFwaOPPvrr jz322H/dAELDEW9QdnIEnAEb+HvBAohj4vu7FlDzvOaI9JEAWZKkV2/evNUK3hhDFEUURdmYXXEs eOvfCdH+DXz3/nRSL/7oA9qnW3/evMA5B8GnH/OL6wTVygXVoV7sGgWYrzCZrLVorXjssc9ca5R/ 2dwL17lKv0bA65JGX5Bkkn6GAr+Lvv393//9+rvf8N8878aNG74sSzEejwfeO8qiqLRWVFXl5/M5 0+lUP/HEE8l0Oh3dvn1768knnxw99NDDjw4Gw3blhceHHnqYvb2Do/p6B3T178vdKeLVBdI30ydZ ij75ZH00IHDOriSopJRUVYXWmpnO+aqv/hqKPCdurEA4tre3xXd/9xsenkwmBzs7u4vd3Z0ySWIT RZEPn9PkP7wQIlDcq9/5nd97/N/8m7dXPQDpj1GeZ2zCz5K9a6nbh7PF+65fv/7Q448/LqIoSmst 10RRhFKKSMs2jg9I2BhDlmXM53PqVK/z1joRbrpzjjRNKYqC/f39lmWbDQatoMKN75rqLjVrxTr0 THUIKbskk+Oyhd2/BRd1HBcwrPayLDl//jxSyhoTlOXK5w8GA/b29kiSBK01ZVmi1FFJOrwvlMEb Opw31he3b9/2SZL45z//+b/51178NX+/F0U87f4D8QxWfttV87u/959+ZzqdPrpcLtnc3CSOY0aj UVtfV0ohhb9LAay1KKVapq/3IKVa8b2hZj+bzVpkLZobFATZYd7cBd7W+efwGIo13fCtH2IeJ+Tu Y1CGrnC11kynU5IkYTQa1XigV8dI03TlXgyHQ6qqWPnMrmLXJWaDdYL5fM5yuWzzI3Ec/6dve923 fEujBCGn4L6QCtBd+cF/6/e9733/14f+9CN/c3t7WwyHQ6IoIk3T1nylaUqSJHhnkVK0qyNYCGMM VVURRRFaR1SVWRFsWZZorVtFKoqCvChWBBrAVljF4aauE3z3313SSHel91O64bV9S9AXevffSZJg rW0wTIEUoo0E+tnC8XjcXq9SR5xCKWVjFVSrmNYaFsuSqqpYLBbM53OKomBvb89fvHhR/Myb/5fJ e97znoKn2YginsbKD8JPPvjBD771wx/+8HcilBwOh2xubjIajdq8/XA4JE1TnHPMDg8YjUaNlld0 c+OrCZRVoQQ6eBBwwADdlV40ChH+Hs4g4LCSQjXxuPCwn8Q5jg8YVmf389edXaUBkJ3n+99z9Jmr z1VVRZ7nTCaT5nc6KgNFkbdWoKoqbt++jXPOP/nkkz/9Iz/8j34OqJ6OEugzCr9L1sw++clPngfk eDxmMBgwGo0YDAat78+yjCRJcM5RlTmj0Yg4jtsV3VWAWsAea1czcXEcr7gE748wfRC41poubug0 ZBwr6OOwQVeA64S/ToB9QXYjlfbzeooT3ET/fd7blWuI4xjnHFmWtQoXWY9SR4WxxWLBxsYGN2/e FFtbW//s7f/Hr43e+L1/96eD5/hCRQHB74e4feS9f1UcxyRJ0gKZ4Oe7cW9t7uqQ7qRGDCkFQsie UrgVYNVF+OGxiy3CYz+S6HP31wHGdWb+OL9/2nPraOL913f5jessQFM1bNPfRVE0z9eCj6IIay2j 0agGx1nGYrHwTzzx+KUmtO42onzeFmClWeOtb33rt5VlycbGRrui+8g7rEQhBHm+bH1aV0DHuYAu UOuu7K4L6IK/fpWuSyDp44PjVv9Jwj1NEbpCPE55ZO99XQtw1EtgVqKMkAgLuKZ+zdFvCK/rFNDE 7u65vwv8eC+7eGKuQJ/R/LftWhcuXfnx2eGhF1KLKIoaEKfbbF1QinD6RihVVfVMnl+J2btCdc4d If8OIvanZPGCVQhRRiBo9oUdEHTfBfRN+DrrsG5l911AX2FU729BoO1rRf2a7nOhfzGAYADZ/L7g +gJG2NvbI47jUGdIGxxg1oSHa7NzJwm/W7hJLl68tDGdzUdOauGkQgh1V1hWFEWL9JVS+GMQ+kk+ uNdds7Ya1wV9XUvSZQ8F3LGOu99/bxdLhFP0QGcfbB6HL+567Jb9QjgrRC2VXttZ+J5g/vf391ul 6bfJhfsUCmXOOd76lrf8emOtNWdgI5/WX73aqSPEqCzLQfBDx+XHoyhqK2EhGuiGVl/UilMPX2it 2379rjk9a5XvL+U45pZEUcTh4eGxZJju4mnwkJdSXusowKl9CfKM/j8Ckrf96q/+A2NMY5KO77sL Gr2/v89wOOrEuuovhZDZr+AF99QFjV8KRxzHHBwcNL/h+EpkcB1RFAmEGO/u7o56CvC0LEB/zk0b AVy5fOW7QrLnuAkaAaHGcczNmzcZjoatuTrrQIcv2MLqmMxuguo4y3GvKUbXAoQo6TRFl1KOtre3 x40CyNPszGkSUd3K3ac+9ak2vg++p1846TZz7u/vt36zWyb9ohMPejF7P67v8g5CvqEsS4bDIWVZ Esfxsy587z1ZlgV6+bFl7T5+Ukrxqle96ms7bqBLTX/GLiB++ctfcW6xWLRIu48B1vHq9vf30Q2C PWtX7xcaAxyHC0KCZTabMRwO2d3d5fDwkMFgwGw2uycUIKD9KIqO7Wi+K+JQyj/66KP/+hgXIM4a Bq4UfYD4Fa985dfOFws/mkRCN+HfcRceXEQgRNxLpjUosBCCvb09/uzP/gzvPVevXuXSpUs45xgO h2caEvXFPJxzJEnS3r/ThmGER6WUKMuSNUDQPV0M0CVvRp/73OeUtVaE3Lbn5HbqkCw6zXf9ZR/B FYWCTBRF3Llzh8985jPEcdyWqJ/tawxudnNzswaCZxiG0cFZ/gd/8Adf24sCzgQCxTFJoEhrPRAd sGQqcyIgMcZw7ty5tdm3L+bqPun5sJKiKCKOY3Z2dkjTlCtXrvDKV76ydQHT6fRZt1ohFzCZTGog qOSZ3J7zAueFKIoqLN5gxc8UBvqeCwgmJHr96//OfxcAkxDi2AsKsfZ8Pm/m+q1W6Z4xBujV34MZ 7/5/XZTRTa2GMwDV0WjEi1/8Yr7u676OPM9bEJum6bOaGwhKGnDAE088gXP+WGsboqwoikDV59e/ 7NEf6yiAOC4cPMkC0HUB0+lUNHJo8tvrFSCY1Zs3b3L58mWc8097YNMzWe2nrdh1nT7dzF9QoHsh HOx2OE0mEx5//PEz3b+aJCjRUYS17sJZcgEnYQDVsQLRdDpt49GTBBpA1pNPPsnOzs6xWOFewwWh hrFOWZ7NYzQa8dRTT535eqSs5dIwqrojatZGAvKUEFAB+p//85/79lDMOS7G7mvv3t5e7S6+BIZ9 d13Is54W7iyicFRVdSaaev1bjpJ0//Jf/9IP9xTg1DBQrAGAWkf64WBhQmWrX9INWbeQag1FobPK /7gCy7q/H8f576ZFu3/v/3+dmQ/vW0cy7eKJ43ILx7GHj5sj2CWa0pSM15WdQ5dU/X7X1jLWNrDK mqmstQaBL8ryYicZFM6V6qA+YfW3aeDZ4Uxsbm2Fq2ou3HXo10c/OIoiDg4OWCwWZFnK7HB64qze +geIu8xvv++uRrirwu8Ojuje3GOrcicoWDd13G3w7LOCu79hBX13yCfr2MLHUceOPtvg/dHfQjpd SsnOzg53bt9msrm9kvnrN6QIjgCxkkosTSW5uyh0aiKoa/4VoI21OqDu/g9TapUQUhQFBwcHnD9/ nun0EK0UXfmvG+NqrVslfkCHBOFWVkpXSOvCvP5jv+Nn7QqEFZ7fOnB53ICqdSyjvsXq1/9D+bYb GdX3SXbHz7fdRA888ACz+bxVgG6b2br6wXy5IE5irm1e+5uszil8WpnA1gVIKQcrfe7NqTrCDTc2 TdMWAAJNXeDuJMfqjRQn3uT+ChY9ZlBXcbpI/rTHvhC78326mKd7c4+7zv742i6RRPbIHuvO+j6t KmYoY1+7do2PfvSjPP+hr8AY05534xWPDOQRIcmXy1aGHDOwSp/g/1sQePnSpRcIKRv+fkN0FILp 7JBYKzYmE7IsI8syJpMJaZLwVV/1QjY3xs8AANH1NL0QZ7Wk5er+r7YLyNeUIXzzb+9d+x6Px7vV 7zhSAo+UiqLIm4KVWFHsdXn3uzl9onlf18T3+IHBT9v693kBSqxvBrTWoZTE40mShI997ONMxkO8 d+R5cRf59UiER6l4vA2RgDwuGaTPEgY6RyyA8XgDazxVZUmSlK3NCZONDQ6nU97/gT/m5s2bfOQj H8Fay3Q6rZs7PUhxJFQh5ApuyPMcpQT0/HGYCRBCmtFoxHK5bAsjgTcf7l694iR5ZdACpPBI4fDe IpWkMg4VJ1TGo9QQ744aBT0W0QBYQQ20SpMzHg8pimKFcdO1OFmSURUVznviJMbYsr75vgqorGYB GUcaxWgvyJc5SgiiYYbQiqWpUJFCuPoeBCWVUuK8A+Fx3qOE5rfe+bukWcZznvMcHn7oIS5fvkw2 GjM9PGT/cAZCorRoq5x7d27TiwLucgNniQIU1BmpPM9Jsqzx71N+7L//H/jk9U9weHjI1tYWaZqy XC5Xsm7C3c25N8YQxzFFUdQNH/kSa6q1qdBu1q9PzUqSpG8AqaxD4pDeg6hz/ptbWxgUs2VB5SyV tSipj9qxvKMoliRxTJomCAuurNrvD6ssSRLyPG+rdIt5zng0brh5Y6yvqMqKpp0P7x0FBhdrsiRh cThnYzhhNj1kMtkkTTOU0gwHQypTHTuWJpxpmjKdThkMBuR5zsHBAVmW8cY3vpHv/M7vZDab8ed/ 8dl6IslsFkgkag0IbHto9ZrkgOiFDdo1KcnFYsG15zyHH/qhH+LJJz9HEkVsbm62desg2H4Kt2tK Q3qzKAp2dnb4+q//etI0IUsThsMho9GINE2J47gdEZMkSdvPF9rIgyXor8yiNOAc3lU4HM7BvCjZ 2DlPbh3GeLS14B34JguIJ04iTFVRFQXjyYRlvmhLx4EFVVUVOzs7hLL4xUtXePKpG4yGQ5w1bExG WGOQAoT3VKakyufgK24c7DOdL8it5c7elGVuKOZL3vvuP0Ry4rzh9pjP54zH43ZbmmvXrlFVFe94 xzt4y1vewmtf+1p+6Id/hE9+8pM4Z0O2tgsAxUkWoN/122pOQKsPPfQQ3/Zt38bFy1eI4hjV6eHP smxljEu4eC3VXf4zAByAnZ0dBlnKaDRkY2ODra0thsMhOzs7RFHE8573PGazWdsNs7u7i/eeGzdu rHT+HDVSCrw3WGOwzpBXlsFkkz/9+HX+yU/9M+LBCOMUQmi0lmgJkdZcvnyRy5cukiQpzlS8+qUv 4oUPP7hSmt3a2uJtb3sbr371q7ly5Qpv/7f/lpe/4pWMRiOuXb6MFqCFJNYSYT2L5ZzhwSF/8o7/ wO7OFuL8VT5zeMD2cMKtwzmPP3GDwhgq6Yl7962fZ+kqQei9CKNn4jjm3LlzvPvd7+Y9730f//tb 38oTTzyO0gru3tXsVAzQfXGNAaxjMBjwAz/wAzzyyCNMZ3PiKMaUBcaa1ueEmX4ryJr1VGqtNQcH B+R5zng8ait0aZoyGAxQSpGmKS972cv46Z/+ab7hG76BLMv48R//cQDe/OY3M5vN2h6E4HKUjDC2 xCiFtRoZC0rrsV7w+u/6boZb5zjUIwwC720zSMBRVQWjbMCVK1dIY8Vi+jhZmmKbOkGgkr3kJS/h woULaK159Wtew8758wyzQf3dwqOEQkuJaIpgH/9/388v/8//lNvA3/lv/wEPvuplFMUCaT139m6T jgYooaDTCtfvcg7PdynhYQpJcLvDYd1en2YD3vSmN/GWX/olPnTrJqyfwHoiBuDukrDn1q3b5HlO 3Kz4oiygEXwcx21/QEhetOiYo/aoIPzRaERRFFRV1Wa5sixrTX/Q8O3tbd70pjfxwhe+sFWK173u dSRJwng8bnsDQw+A8w6JRrlOpcw6hlnKC77yEcZb55FpykFJmzRBgkIQqbo5Q0pJrDTP/8rLKFeh mpVZVRVJknDu3LnWJWVZxtbGJlVVEUcR0juUkAglyJKYvMx58AWP8Le/5Q3Ic5s8/PKXsBhmxNKT GoMtLZcvXKLMC2KtVvoe+jT1bko4tIxXVdVeV1mWiAYwSyl5x797By97yUv6CsDTiQJaLtnO7i7v e9/72draoqgqvFQMB0NirRC9lqZwcYGkGOloJf4NNKz3vve9Lbr/4R/6Rzz55OeYzWatWZNS8oEP fIDhcMgf/dEftSY+9NP/5m/+ZnuDwo0wxiBUhBYCJR1CqRoYeoFBYpTGWUitRXkPollpeCpn0VqS phlZNuDmTBM1Vm0wGLQziiaTSesSNkcTivkSARwuc2xVUBYlztTCKMsCIXMe/offycJY9mPNzcMZ ejLiXDbkP77znZSLgqvXHuDhF3zF2lR3FwAH3BNS1uH/oVHUO4dUitFwyB++5z38rde8+lTq30mJ oJZIOBqNuHPnDsPhEHN4iNQRUgrKskBptdIdFC6w7XP3Ht+Mfulm4bz3LBdzfvu3f5sHHrhGliYc HBywt7fHbDZjOp2ytbXF4eHhSnNHyBKGWDesiDBnwAuJlpJIgVRN0klKvIoxCHQcY8pFk8/wSO8R EpSsw9VBNmA8HLG1fYFI18A0KEBZlozHY6IoatyPINJNWFoULPN5cy0l+TKvWVhaMCsWOOuQQjI/ nJMlKR/5048x258ikdy68RTPf+ShFb8vOzWXkKWsqmqF6RyKPmmatt1XHkFRFJiq5PjhNqcrwF1Z mMViwaIJ8QCMtQyyDC88SqqVzp9uY2fgD3TDQK01zlpAUJUlP/+//Qv6rGUhFNvb2+zt7d1VjAmo XCoFbTpVgpAgFcI3cT0W7w0oiUdivEQoTawSJBIpwsAgj3OGSNb9d6Y0ECscHmNsOwpmMBwyPzzE ujokc5VrK3BxrCmqnDhO0LFqRsVIJIK9vf02EI9RVNh6IpTQlFTodHPtfgj9Psiw8ruFq6D8ASN4 IbHGkOcF9oiF/Yx6A49eFEmE8HVcW+boqEbw1lm0kGgl25EwWuu2TbzWStOYb9Oujjpn49GRwrqy McWynqTRJK00gq/+r17EH3/wg8hYkecFcTxqXUvbuycEMpRylWRZVCghUErUqzoUpMVREcUJj1CK WEdopZBCYCqD9HXSxTuB0AqlNbGU4Gv3Y6zFXhCUFoz3SCXxwuEQ9WuVxjtLrCXYkixSWFNxsHeA wxNJRe4sCgkCjK+HRmml0UJivGvxjA8ZTs9KU2g3nd6tfLajZLyt8xXL5Zm4GPoUggkABwcHt7Is 2/VuNf0onMdLf1eBpuvLRqNRBwOAEI7ZbA5YjCkIxCLPUZ5W4pA64dKly/zxn/wJaTZARClKpoi2 ACVbAkStFLWbiDNVm3cpUKJG5lLVlkg3TCYjS6SSRDpCK42Sso6ZrWvCSIeQmkhrIi2Q3jcjWhyV VeTGUTkw3mBweC9QSqMjRSQ9qRIoZ0i0wNkK19xKK5puzZAoonaP1pRn4jeu64e8u8fRt4OqIh19 XgrQKsHenTv7Gxsbu7WpWW2k7JZg+02LdbNojpQ1TogijZSqaWeuP71OnbqVr6xHZQmuXr2GUjFx OkIjiaM63BJSNoJXrQVQUiKUwiGQyNoCCIXSgkiCUppI1+8VUZ1nj1RtraSQNdhxru1Udl4SRYok 0s2OT57KWqrKs7CO0lgqC8bVqlsrgCaJIFGeVEIkTdsX0U2ChXu3run0WBpbb+5B/99HZ60Ag0FG dIYGF32C4NvpU9PpYb6xsVH7+Mbfd31+l0jRV4Bu8aUuVNDGsirSJElMUeYIqZBOIHzt/6M4YnN7 h/HWDqPxJs4r4nSAFLJZsbXZlVLWLkDVK98JeaQUQBxp4igi1oooqoHqaBIhBMShrT0QPezRnKLS WJIoJk00kazH/BtrKUrPvDIUlaWowDiBwyMjjdYCrTyRMEyyCEHJ9mgCHE08CSFuqGf0CSt9v38c +aYbInYmieEcaC0Zj8fdfkJxVgXoDy/2gM2L3GZZVrc2B+JEr0TbDU+6DZhSqhUCZhiu6L1rY/46 gxjVwveA0MRxwmAwYffcZaJkRGk9MopRoqkzhOFLshZ2sApxMkSIurqnJCRRTBIr4igmiTVKSc6f GyKlIGowi2qygTiDc02be2VI45gsiYmjuirnLOSV4TCvyEvDbOkoqvpmKS2JYo13BVpZtoYx3hVc 2NoG6tFwRVGsjI4N9yQUm/rZ0m75e11r+l2DsFw9DyJ0Pp2FjqVP8P3tIOPlMreXLl2uZ9tlA6SO SJOkzcD1y6PdFmzv6QC3pgzqa1M7Gg0Rgqbf0CMRaCXIc8tkc4OLl6+QDjZQyQhhIUriJj4N41I0 UskWeCqlkFGKlAqtBFrWADWOY2ItidOUjcmYwcCxMRkRR1Ft5pO4xh0IpKwBaWksEk+kJZGqXUpl HJX1VF5y5+CQ2dLjZTPyTXikEnhfEWmP9AWTUcLV3d2VBFj4dyiGhYxeiDbCcKzuwurXPLqrPjyG YRiBPX7x0iVu3rjxsY4s10YDes3qh94k6zRNfBzHuDBfr/nCQJvqxqTdVPARb12uuIC2TqDrFamk hIYOpZUAUXHu/AUsgjgZIOIJsY5x1LF0sACByKkijdaqXvVRTKSjen5RHIGvS8JZNmBra4MsidkZ SzY2RiSJJo40WZaQxnFdQm6iyaKskELUtQJVW1HnPZUVGKEYbczZPyyonEIohVAa4yxFmaOkRUvH xfM7bGYx165ebQk0wXV2WUHO+zbUXDe4ou/v+8LvugBPnYzb3dnl8SeeuM0zmBHU3+3aSimX9VYu FYPG3FRVheoMauqPVDni2IUBTg7nFKq5mUIIkiQhjiOkkHXoJXydkkXy0Fc8wsF0TpSNETIjzkZY XzV9/rrFEULQWACFlBEqrvvp0iQhTur0LMB4PGCyvU0kJIOxZzwek6UxSRIxGGakkW4UwINoJnkI gfS1JRDCg5BYp7AyIslGJIMFy9Kih12aagAAGjZJREFUkwwdp0znS/IyR3mPlI7xZJftScrznv/8 tnjV7ZAOeKA7yqavBC2W8h5jDd75/gTR1f/7mmNx6dJFDqcHp+5JoHuEm/7q94D7n/7Hf/p//7t/ /1uvMKZCALa5SLuGIdOd7xdcQJfiHDpcghlMkriOda1HCOoViOChh57P5558ijjKqFyE85I4Ha7k GELGMdK6BYRxOkBI2QK8JNGMBhkb4zFxEpHoiEGyZDgcMxykpGnEYJiiBXX6WNbuJU7iOi/hHaKx IlJHOKfwGuJsgEpiZnlFkg6Jsgy/FzGwY6QHW5V4YsaTARcvXmwTWiES6GYzQ47/NAtgzarQu8TY 9jkEBwcHbG1tcef2rVPHyOpj/P+KBQCctRWT8QhTVTV5kaMRpt7X00CVElhb4X2tP967Glx5C16t 4AGJ4IGr1+pkirMYWzXZLEF6WPCc5z6XD/x/14niGGuaAVRSE6uYLE4JY+pCFKC0QgpJFGdIJZFa EEnJcJQwHg3Isrj297FkqGOSWJJltQIoqeuEjpAI7xEevAS8RArq6IRmuogUGO+JhSJRMS7RJGmC igRZqmu+gVIs5xahNFLCpUuXuHXrVjv9NHQgL5dLDg4OmE6nWFthrWssZXdsvW2fx9YcBm9tw3lw VEWJlAJvTVN5BS08gywlkisy9KdhgONAYO0GhODcuV1u3rxd5+ZROGHqUiawWMzxPmv8um97AgUN t81LlFe4GgW2zaP1AAQHIswRkghVMplMKBtWjtIZUZIQK1mHdM2ZhMpjE8pJUf9dSEEUK7IsZjCI iSKJVA4dK5QGLwXWe2xzs62rp4r5DonFwRGzR4L0DU/Qg3OiAa2qSS7V2cZEqYbYWWceo6gGvg8+ +CB/8Rd/0Q6f6PYgjkYjHnvsscZqhpXfWfUrIV6DBTomX0nRcjKklFhTF6PSSIWpYesmivvTFGBF +IBVSrG1tcWTT96o36gkSkjyPF+pSoWhUK0/c8E6HM3oca7mF9y8eZPbt2+zublBWS0bNqtm/3DO zvZ5TFVzDdI4YTgYECmacWgpSRKTJGl3NApSSpIkQjUFksnGCN2EcFortIjQCEQUY2RE6QURtTWy zc3UsskuehDCgvBIXyuFsRIrBIWFwjuskDghcF4iFegkRgsoiqpO7+p6Ce7u7nLz5s2VfQP64+hD u/pq/sTfDfKaxdP1/SGSEELUya4Gj00mk+6wSHcaCPS91d9VBFNVFQ8//DDXr38apRSxTojS2pcV RUGSJG1Y0y3dWsOKAoTmkSzL8N6zubmJ1gpECjiU1MSF4eKlS1gHk/GEaDBiOBqihW0VIJBHukOg hIRE1dgiSzOS6OjnaR8hrMJ5SRVJfFGXgT2WLJakUcOcVJJIeoSvf75omLZOKApjMUJSOM/SeEor qKraQvjkiP3qqbOIICgKePjhh1uzH+YAV1XFcFiTTtM0XcEBAR/0hb8O+BljCEk6Ywzj0YCNjY3w +ScBQH+aCwjTJg3gyrLkFa94Bf/5P7+7JmrKmOG4poFfv369HQQdwsGAbpUUeC/ummfzohe9iIOD gyZvrdqvldKTLwvO7Z4HBBsbmziVEkcpSpQtASVJkhUFCDUB6QsGg3qEraks3guk0jgrwUu8lMyn JQJHFAnGRcxkEBFvjZrycE15R4D3zWpqsg+ldzg8pRNUCArrKStHKQwDq/GAMXVCRkU1l3A+t+zu 7jKfz1cmqCqlWu7DC17wApZ5uWLyi6I4JtN3dIYW9zDnYDab4WzdSNJY4j4I9M8oFQzY69evv/ub vumbHg1ZpjhKSQcJk8mEzc1NPvWpTzGbzVq6dpgcrtXdTRCDQY2MP/rRjzIe16zaehUUaJ3w2c8+ QZbphowxxKsJQmtSXfv3srSYaolzAiUVQgomkwnL5YJz2yO8lxR5RVUZQNU+1RZ1nkBpptWSLE3Q 0uKNJZKS+bxADmOiWFI5T7UwDEcxi7yqrYHUeDSVhcJ4KuuxXrEwFuEd05s543GCtYY4UggvUHiG o5SySLl16xZZlrXRS0Dv3nte9KIX8fFPXF/ZQ6Cf6QtRlrW2JYVeuXKFBx+seYs3b96sJ7KXOd/+ 7d8eeBQfOW7ln0UBVnDARz/60esPPPDAoz/6oz/KW97ySzVDdrjdMmWvXLnSrsiWn6cUSh41K4R8 weHhIR/72Meoqor5fM5isWS5XDb9cCXWOuIYROClitqKVJVta/9Swny2xHuIIs18tiRNEg4zh6IE JM56qqrAuHo1RzomiSA3hkjHyEiB0FgnyCuPLgxIQSQF6JhZDsu5QylBlMh6dTcUMu8FlROUlQDn cVgWhSWKJXU6xuOFx/laePP5vN02LlhLpRSz2YyiKHjd617XJtUCWOzXBUK+INzHxaJmLl+/fp0L Fy4wnU4p8gUvfelLmc/nvPSlL/1dVrel888kEWQA82u/9msf/p7v+Z47k8nm9jd8w0v4+Ec/iVKK 3d3ddn+/6XS6Ml2jdhWiJYV0J3V86lOf4ubNm03iSKB11HDfa2q5tbBYLPHRHK8UXkToprEkmHzR gNBAnbpy9Qp7B0XbuIqXGFNzEaTUpKnHeIijmDQUeiINIuJwWVBazdBYkjQm9or5ElzpiaQnqSxe iYYbAdKKWsGcwnmLxUFRoeMEXN1s0qgBcRyzXNZKnud5uzFm2F3kqaee4rkPzlba64/bCyH0Q5Rl We/HMJvx0EMP8dnPfpbZbMbP/MzP8KEPfYg3v/nN/6SzgI/dm1CeYv5Nc5ZA9a3f+q2/euPGDfv3 /v7f42WPPsrh4WHbCBJy3f0++25I001s3Llzp90LKM9zDg8PWyqYVnXuoKoqyqKkKAuWec7BwYzp wZyD/RkHewumBwvms4J8WZImA5xTTA8L9vaX3Nmfc3A4Z5FXFEZgvMRLjWjqGFmcEEmNrRxFUbJc GmbzJQfLknlumS5h/6CiqCIWuWdvf4EtHN41fDlXU8lq1olqZvPUiS8nwmBrB56WRFqWJdPplMVi wWw24+DgAGstjz32mZX9lAK1rl8D6O6qFp7vNtj85E/+JEop3v/+9//7D3/4w3c42jyivy+hP0s1 MGhPSb2/XQ7k/+pf/cvf+pEf+cff/gNv+oe84Ku+gt///d/nYP8ACF2w3WbOJqBoVmhgu4Qhkq2i tJfjkAKywZBZadlfGlJZonSO9QpnJGCJoxjnbc011IKtzQ1G4zHeW4qixFqP9xYjPbGuS7CREu2p tMdgcF7gK0fp6mqetAqvNCgFpWdZqZpOZsEbQ+IgETStZ44sEegCjPUoFSFQeCex3qIacr3DIZRE aIVUsmZRaY3zDmddA94Omc9nrWCD+T+q8tXxSh0Z2Hr1W0dlKrI048LFC/zUT/0kN27c4FPXP3Hn 53/+59/dyKzklB1ETsoDmObNZSP8BbB417ve9Wevfe1rP/6c5zzwyNd97V/jDd/9XSwWC9797nfz oQ99aGXIYnd8e6CMzedzDg4OWg6bUoqqrJBhQz9jGAzHzI1lZussoDYWU1XkzuGdYDxQzGZLslQz UAlxGmNEWd90Z5mM6/g/X9S5hSTWZLEm0RIhDCpJKJ1pjKIAC9LUOQZZxbilJi+qmrqmIYl03UcQ gZUeW0AkQWeS6LDAekskIoRXOFOTROJUIWWd4TSqvqWVtYiGACMQ7W+3wnD1ymWSJGE+n6/MJ+h3 VcVxzGKxYGdnhxe/+MW86lWv4saNG3z6058myzK+93vf+MtBVo3c+qPjT+UDiI4SVM2HzIEZcAiM fuInfuIPtNb+la985VfevHmT7e1tvvmbv5nXvOY1Kxd+3K7cb3vb21qeexzHqEGENxVZrFguCi5d usif//mM5SJHa8M8zymWOSobEMmoLptWSwbb5zl/bgshwZYVS2uJk6ROymjNZDKpSRg6QkcaqTVC KIrcYcMGDUIgmgRSN0yrM5QerTK2JjHzucK5OszL87LmEeZ1SVoY1wyvqK3eUW2krs/HWpEMhiyW BWkc163nHWMsheANb3gDL3zhC9ukTnefgHXHYrHg8PCQPM+ZzWZkWcYv/uIv/hYwbWQ1p96Ysugo gHs6UUDw/2H1HwIHQAbEP/ZjP/Ye4CNvfOMbHzHGyO/7vu97QYhdu8mZULwJP2owGPAHf/AHbG1t HWXByop4OGAQaxCKq9eu8cTjT5GXJakDaz1CarAOS0WkBePxgGvXLjFIIopijlKSNMtARmQNjTv0 DPiGgOnLOrunqrr9WkhPmsbEuu4XqBtA62HXi8WCLI2pqhIhYwSSRW5I4hQvNAezGTJVRFojK4W1 Na/ROkGsZdPxbBu/HdXdzfMFcbgfvqm+NS3t73rXu1rBhsxgN97vgsAwuyDwIMbjMe985zvf8yu/ 8isfbBTgoFGCRWPBu9vTclYX0LcAU+rdKJLO3Bne/va3fwTIBoPB6Nq1a9d2d3dJkqTt9AlRQbjY nZ0dPvGJT4Q8dT2keTxESYEUjtFoxPbWhPligXU1sydJNZHSlKZCAqPxkEGyzYXdbfJ8zmC4gZYS pRVCJyRRjFSKqrRUpltcKXFeMEoVzlniOCKOUobDhKKo3cVwGDGfe6qiZDwaYo2jLGsWsPKeReGx xjNflqQR6LSZzGVrqrd3splpqMCJ1n+Px2OW8wWu2RZXrA464NOf/jSvf/3r2yggNKWGpo+qqloA GcbwGGNMmqaffdOb3vQfgTvAHrDfKMBhYwHKjgU4cx6ADg4oG02KuXsnihYn/PIv//L7gA+umU3X 331EPvrooy8fDAZHW8RL8K5mx0o0u+d3mc3nVNYxny+5uHuZyWjInTu3KMqcJJJcvHyOO3tPcW53 GyE9cRQjvGS6WNQ7kw4HGGcoihLj6jK08zWDt8odmxsbaB2hlEapMJQ5xrm6iBOaQbSCvHBYIyiF I7Z1EkjIBK2ale/qTOcgjTBVWRNHF4ZEg4vqPf82NzeZH85wVUUUxysKIDz8wi/8wn/5uZ/7uTlH mz+u20e4uzgDMJ81gr/dPN7puIG8Fwk87WqgaQQZvkj1FCRECCNg0FiIaM1kKtmZOaiVUm2vX13N kyAs3sRUlWdnd4cPf/I63kmcl+R5RRpZkjhmOEjZ3B5jyjmRhjhuKF0eKutaMn1oJc+LCql0swTq cm+U1MUbRN0UmheB6exZLk1bto50BMI2be8JcazIC0teVAgV4RGUhcNag1KCsirrjiR5tL+wlHX9 /3nPex43n7rBcGOjJrL0FODlL3/517zrXe/6vZ6w+krgOnLJmxU+7SjArcYCTDv+v+KEnURP6wsI bkCsIYyUzZcsGgUYdVxE1BN82HQiAtIoilqAVocDAmuKOqV6MOfCpSv8+n/4LRyeylgO5zk4j5Il z33uVZIowpoFaRKjFAzSlHyZ17E5R/sTlWUtPCkkTraSYTSKGY1rFpFSHu8MebEkzxOKIq+xS9Mw 4qmre2k6RCpYzkpM1UwU91BVvm2eMa5Ep0nDIKpvmbWeyhgefvhhPvBH/6XdCDIogAB83WkUNYKr mtOvid1dJzkXsNm0EfqdRgn2OwCwWqNQZ64F0MkGVr3hQqajAPOOBRh03ITurvpGOTJgEHa4KssS JSVOQVkppPcczpacv3CZzz11ExGfpzKekoL9Mmd7M2UyGSOFr2Nr6SnyBblWzGd5MyJFYp3DOkeS xFgkvqkBCKVrP5QI0kySJHVUoJRivhBtw6X3oFVMviwQymNcSVnGlKXHWk88GBClkiKnVhQpEPVo PpTWKO+a9nCBNRZjHLu7u+3mmkqplShANBFRI8S8g9y7ZVzXk0fRAecB+O13IoDiJPD3tBpDOgmh bnq47ADEIPykAxK7ChA3fx8BEyllCwK11qA9UQLKwV6SsbG1hXEgZYRxFuM8pirY2DpPnEToyGMr i3MVy+UcKRTz+YI4yeo5QKVBOE+WJSAUxoJUGqkjEHB+M+XczoRsmCFEzQWsljMGScxgkGGqult4 vqiLLh5JvvRYuyBONaNMobUnt66O97WksiVZpImoqW3C16QS7wVRlDAcjhmPRl4KSZLEdwmkLEsJ PNWJ38te6NZPzxe9EH1d6HcsE+jpKoDrgZDuRSw6pn+d8MOOowNgA6je//73/5/OuSEw8N4n9aga p4VU8vatO17Ho79+uHAMBhFUnnEWceHSNpvnN8j9ElVCpAVJnGGKkrysiNKEwWCMFxLncqq8YHs4 JqamWmkd4bzHlhVqWfDc3aukAyhLSAcCvxyzXFQoE+EKgxoqbO7IS0GWTFjOSoZZxDCyDGODNSXj UYRxjkRKBr5iM4sxrkJGEbOlZVE5bBRRWsmVyw/we+/8nd/vJdiWnfB6vzkPO+Gb7YHCboa26ijB smM5il727/NqDeuHDbaXKSw7ShD1hN/1/Vmz+kvA3bx58xPAFjAGhr0II5psbFAUJUlhcA4ODw54 4UMPoIXEG4/FEuuYUTbCRg5rHKPhBuPxhGVpcUIhVFETNFS9wo1zGOOoTInQCelQMBzD4rZhngui LEJGCYtFgdN12Gd9QxJptnYdjzJGA8NkoLFGUliPRyLxeB8RxYDVGAeVtzXd2wNesFv3B8ybe9C1 noeN4AOKP+yZ8D6zl87qrjrKVHVyN1+wzaOPI4v6niaqNePIZM//Fz002kWzadeKlMs69ZsmEdOD nO3dc8SRqgmQONJYN3mGAUoqDvZmJMkA6wTGW5AgZF3mbbXVeUwzoG9WLLlzWLF0msefulmzgHSK VCmFM1ReUjmF8bRESyU9o4FknEVMUo8zkkVlQAnKsu5XEHUjMfOywDiP14rS5ORFO9FsP9RUOvjp sBF8OGcdRTHHsHq7VT7bEbo7IYz8vBSAY8IR0Xyh7AHFlRlDnVCkq0BB+INOCDkAhpEyDJOIREk2 x0OuXTmHFqZG5ZXBynoYkxCS4XDE4UHNCzjYn1Jw1MFsvaGyBmubkXModBxROcGtO3PcnuepW/tk aQayYpAJclPPFESD8xJXF/tQ3hEpSLQjlQovocKilKbyFYh6rl9hHfN8idAJUaKJKsVkkrKY6gDy Zp1c/aL5/0Fzhvh92XEB7phcwEr3Vu/ennnW/TPZHMf3+gi6F9kfRBTcQP+H2Eb4h0HozTkBzMH+ IVubGyhKrly9ysWdMZNhilO2JqEqgRQwPdirKdwe9vb3MZXhsJyjlSZJU8AiRU3W0FIgJGxubOLs gv2pozA5e3sV1ThFRZAXC5zTeCHBl/XcAwFp4jHLHCVTBpmsm0a8R3uBMZ7lbMl4c5NlaZkeLurU tbBoPJHWeA/j8ZhOmNYFbPPO/+eNUnTjd3cGa8xxvP8vhgJwjIlZtyGB64GRbg5hEcLCjvBLAG8K LuxOSDY2ed6DlxhmggvnRhTWcNvlpIkEXxHHEc4ZymrBbFFiKoOXBhlFCCewhcZYS2UMUmkG8QB8 SVE49g8KPBZrNULElIWvc/cNMzkWtm5EVQJsjPQlSlREOsEZAxaE0BQLS1k6jIc8t3UyqsEM0lZ4 bykLzXg8DAoQMnXzDnjrPpa91e9Pscaf184WX8jtsfrjfMWaRIbvpDEXndzAMAgfiPNiwdbWiGvP fw4PXDlPKhy7WxkHi5x8qdne3SCKYsrKcDjbY7FcUpV136ISFRvjMZubk3pknDHMl44sTdjcHFMW hkooiqIkjiWT0YTJeIP9g/06t+BEzekXnkhCrD24JUkiEcLWDTG27hR2XrJ/sKCoBHkumOceYxVS i7o9zDuEMxRlyfAIA9zpWIG8g+ZNr3BjzyDgz3tbky/0/mh+jULQ+TGsI5l08EMCjLyzPPTQNZ73 yHMZZUMSUaHxpJHgwsUtLl+5jMdzMJ2xePIWzpX1zB0pmQwTLp/fZnd3l8pYZrM5kYIsyximmmI+ q+cIWIOSSUPxqhCyrPndQiCFxpsCVIRWgmq5IBvVRZ/Cmjp55WFZwHRu8DJif2oofJ1u1gi08Chb IV3NbLIuoePzA9LPO6vdnMbe+WIcX+wN8roXb/o8w47G0wh/CeRZqnjZX/9q4tE2aaTZu/G5uh/R WiaDlGEmmc8X2GrO7OAmZW5ROiFLUi6em3Dx/AYbk4w7d/bQFIxSQZp4MHOK+W2ybAPjDYNMI2WF sA5X7tfziTx4oZlsDkkiyWCgsUXF5niAwFDkjvFgSFlULJYVy+WCOEs5nOboJG7b5LRSSGewtqR0 Bi1H9OL2RY+x407w61+04y9jg5x1wye7EULa5Ah2gIvA1aqyb0WKem5QM/QRD6KZrd4OSFLyLlKj bcakeHxns8VmlLyoyRd1ebi3bYwURyYrULHpbFThPFIcjaZnZe+BI8BTN7ce/VgpFUVekA0ypBB/ C3iycQPzHlnjaSP4LwULwBpMIHuRhOmfxpR3bSrRbz3vztnpHn0WTX/Xcscx+xev2d7Id1qcRaez uX2u6XPshjy2oa6HHkPrDMZUzGeWbqtdt/H2pGrdXwUF4JgwRfT8XesWtra2fsp7f8F7v9NYh8R7 rzlh5Ok9cgTFroQQBTAVQtwWQjyptX78GD//l77qny0FWBctdNPKLTjM83zWhIdR8/fuVujc4wrg enmO2Zry7LMq9GdbAdatGNvJaQeknDaKUjQKoL4EFKCb+yg6Wb7DToLHcErH7peLAvTnEFSd6lgY cBfqBDEnzLy/Ry1A+D3TXtzfT/H6L0cF8D0MEErL8841lY0ydEmo9/o2pF3+RLdcHkgb3TLvPeEG nm0L0GUYFR0THwpFMau7Xn2pHJZVzmSI+09l6X45YgDbKELVcQlVYw2625+LLwELAHdXPAO2Ccpw Ikv3y00Buium60OrDuiTXyLgbx0Y7I7ZMb3He+IQ98g1dHMpogf45D10rc8E4PbH7tnO3+4rQO86 wqM85nm+BJXA9wR+z+QA7tUbK+7x6/t8FeGeOu5VZP1XQfD3j/vH/eP+cf+4f9w/7h/3j/vH/eP+ cf+4f9w/7h/31PH/A/PVzsou4Eg5AAAAAElFTkSuQmCC "
     id="image10"
     x="0"
     y="0" />
  <image
     width="16"
     height="16"
     preserveAspectRatio="none"
     xlink:href="data:image/png;base64,iVBORw0KGgoAAAANSUhEUgAAAEAAAABAEAYAAAD6+a2dAAAABmJLR0QAAAAAAAD5Q7t/AAAACXBI WXMAAABIAAAASABGyWs+AAAACXZwQWcAAABAAAAAQADq8/hgAAALrklEQVR42u3beVxVdf7H8df3 sO8osshIWeqDatT8ibs1kJZa6phb/jJRc0OdmSg1dLBFSR8lGiaVCormrj9TQDJX0FxJHXc0x2UE d1Bk9cLlnu93/gAaaJrRyuZefnOe/3wf517uPd/lzfd8HufeCwaDwWAwGAwGg8FgMBgMBoPBYDAY DAaDwWAwGAwGg8FgMBgMBoOhbhPW7sCDGjv2/Hl39+ojp6p+a7MrW1OLqie6L1zYrFlJibV7W3do 1u7A/dReeMfPK9sJxyvbFZ0r296JVcP5ovbfG+7H5gOAE944AM544/hICE544jA2DCc8cOjfAWe8 cEycQD0ex2OUIkrkMdApYuzaC4PdO1m787bP3toduB81Su1XU6uPnOwBhXAOowJJOfAtRawO6MTj mAidPYREOZTzAV3UcNVHbZu7N8L73H63gOJnEwqCs0tLrT0a22PzAZA+lm5Ef394hAqUKuOueF74 iDdA68cS+1zQj6hWFYc8LxFOPiv+fIBUVolGAc/LWyoepk0Ztfj0bDe33I88v33iDEDccvt8IxB1 4BIgG+o7cajRluqbOAzymOWW+B20XuX+UV97aLLeeWTH3qDf0yNVR+dOsq0+QH0aodQx+QGO8wtV mcyBJvsKWp1JBhgVcbKRm5u1R2d9Nh8AlakvQavR7tYXcQ9krh6uPoPGl50OtZkFwyMDDy08BC3f ddvd4wqo+vpa8ZlmUjN1s+rQP1gFyqu4JZ1gkT4T5zbCIc8tRE6B108dnef2W2uP0nps/xLgZ0lS OTUe8KWQNMAN2AfqiurJfvCPcdrZ1AJDf9No4GedYOO663nTp8HB5ncS1nYnUh+rblakhML/USi6 LckwvZnfShyYtEC/K3+rt9reYNjqw3muH6MtG9x2xr3d1h71f47NB0DF6Bm0r/HAUQpUGtAOF0KA rXKdGgVcrXy6XoRDQuABeLV+o4Gz3gLPILsBfl6wI+Vm6oLWUP4n+XnpkBZfiv/hqnZ8Ubo2Xp3R 8qKbcd3SArVuxzCvzHqurpYXlhV2uHvvnrVH/+uz+QDIGEsHau4AR8knB3gaT3JAmdQQCgHYUvN1 rvl2673nQp/kwN3RL4PnX+yS/W9D6udXr3+0G4rXVJy7feqRriKRZ+1C4puziF64+W9WA9QQ5MIF Q57b18bV9d64la7PjPz/HASbrwGkn56BVqP11dPRQAbpu9BAhcr4f3c/07GvFuaSAi+sCoge+wmE j2k8Mq4/+PRx+LqxL+jz9W76qvqn5VT9A3Up5pK6p8/AbpqvmmYph3qlr733jZOrq7Vn4ddj8wH4 pyLwYFV7Sv8EDVio/vdBbmhrR4WrfRvo2NO39SvZMGp106j5GfDICBfvp/NAvmRxknvdnlM58hmV 9qaHqifb4zzPXc3RXfEKcn71s/RBLqfhtYjdXV2XWHtWHh6bD0B1EVijXUQOSHfLapUNylUurroE PJiPCeM4NF9eL6rLUBjTPDgmIRqeuua1JqwlyI8t4SrQoZvM02+oHkOy5Ry9vzqeOFCO1XtwuHmQ EuZS7UMYFLO90MXF2rPzy9l8AKqLwBptumoPKlrfSxtQoWopi3/++z/m6zGmVQmM8XgyZMFBaP+8 7/X+3YGn5ZtaqgiSDfRi1bnHcvrKFN5b8pS+QffXc55daJlUMgJ47ZXdX0+oy0Goe0XgYW6RAzxD PbJBeckmlP/y8/jdcIl7LBxGzH8yYW4/8LxsH+z7HaR75fRZ6gDmyTK6bGXbraKUTlpS0mEtzKEd ZZPL5AdyKyq1/YDitGwXF/nGlx69HzWZrD1rD87md4B/WQQ+UlkEEqrmPcwPtT3HO0b4usHguODe HwyCfleadpviCC5xYoFXEOgHLAP0K83ayrVyFWrBOfWdpSHaaA+VaokAp9X95yWfrks7gs3vACpT T6oV00PcQAMcaYAGaoRc+Wt8q8G5wP5R9wvQ56Umqyb0Ba/mDnf9g2Bd27OlMy5C/njTnOvD/ecz SgSJhNg80lUMrh4vKn81Be0T337aBhcXe0veRtnfZCq29iz+a7a/AwRalqicWm0SOSC9K4+Vm5qu fkoR+BPZf621dkyGrlmNuw9rDt3aNs4YMxyERSp7R5BnLR+rqZ6+coT+qMoZOlS1lZ3UTZ/Ncoc+ V92w9uw9wPis3YH7kQ1/cCcwgGsqDXgMPxECykPG80bVcxG/QgdCWawq4FjnG0/u7Ad7cy+3Wt8a KuZY3rF0AJzwwsVsFr3EJLZtv85OEcZLBedZryK5aO3Zuz+bD4DK/EERmMlVcgBvfMkGUtXvKQRm c/Jhnlc6qlGWa7C34+XGX8bBsneO73i3FHIdS+Zkh4G2QfTU8krOiiFiq2gYX66aiw1qb2wkPZmL Q3ngpjOvtSu3+f21DgSguvj7nh9X0AB3/NFAuciHWgSax+h/NJXB1ibnxiU5wZqvTo77cBcUdS5L zFsOYp3YY/f0nYtqpdiO84xiVUgiIuEk6RwTXqbRX/1+2LqyMmvP2oOz+QComMo7f9/LVDloQAcR gAZqojpQFYDnfsl5SnXz34oawIahpy7GTYCUxKxxnzqAKbeiWYkJtGCx2K7zlWK1kqU4RS9WL4g7 yLU+LGcIWN7+etyIlLq08NVsPgAy5gcfB2eymDSgDZWPd5HuzAZ+5rd7Clqa3s4dByuyjqTHDIft X5xbs3wjVDjI3uWDQYTwhXbpzFbVVBRjP2mH1sehHWrrchli2Qbq9hYxemJdXPhqNn+Vkn6VReD3 bYPKO4EyWM8gBNRgNe/n3Am8sbCo26VC+HT+nouRS2Hz5azvknzBHF/RqdyFIrrom8Xag33U+3Kd Gjry0paZR4rK7m2Js9QvW41Z3d4iRjetywtfzeZ3gB8pAv3JAdxpSDaoSNnyp4zi4m/ydp7oDAv3 7E2NCoDjt6+F7MoEEc5osV6dIEWkiWNb4ugoXlRFkxqIDHlCvH72Dy/Etgx3PAXbHh+XXNbiwc9n 62w+AD9SBF5CAzwIRAPlqg5V1QDDfvQNFpFOLBwPvuL9TTAsfGtPedRION8iN/JoIxAx4kktz9Kc CyJBxK/x4hs2YIn2U7tFT+F6NUUlVHwIkB41Kdm83Nqz8fDZfABUjL60VgD2qwtVReBjaECe3AxA 1g9e56MOyXdhn9P54NQ3ISFtz8rob+Ha5bsRFyRoQVof7QmTvbpIvHhqwVE1X7THMvMMOUyD/Fcz mkzsVf4QPmOwdTYfABljmVqrCNxHNGlAL2LUNVDXVCwNAQgDqDipJ5s7wrbyU2dWnIAly/bNmr4H 7rQqGX5jEGjhYpPWt2CbylJTxOOzNoqlohd8alJ9mQylr+76U9SR/4aFr2b7AfDTp9a6E+ir/qpS AR/RRPQFFiiNNDC3093KW8O6gsy2c0fAmqEHe82ZCCVzy4oKx4NoozXR4m82Vu/Rh6/eSVQxIlPd XDGP47xEsjnjm+7RWebXrT3a/zybD4DKtCytVQQeYilXQewWjUQmFKwqaXD7K1jcPyPi/bdg4/bD u+bfgvKiii6mHSBixHmt/Pwlmqll/DWqo35dtFDjN4WL08ynRObufePdrIr/woWvZvMBkIH6jlo1 QChFhICw4ywtYVPUkeClKVD8vulA/h/APMsyobw+iABxR2v2l668J7ZSNuEV+3z7mzjsKZMFFiHe Jndvp+kbzZHWHp312X4A/C1Vv/xFAT4EYCeCcKSMClkCeT4FXW9cABHEIJHCi+IJEavN3DlRTRRb KJu4Ro+2XIST/nKTvgzgwIAZz5jN1h6V7bD5AKjL+iYABPag8tApQ6lVgBJuwA16C/RvVaT4I2zo QZLwhsmOTMYNLvurHPYDHBgw48/Gwv8zmw8A76g0ACRmuBWNA15wNBSBBh16oGOC1aHkKUeY/rLy xwPyfpfpE3u7asEHWnsItsz2A+BC4D8O7hRUtpFzK9t6kyoDkdWXIF6GUufMzNhY4z/dYDAYDAaD wWAwGAyGH/V3fZko9J4vEGkAAAAielRYdFNvZnR3YXJlAAB42isvL9fLzMsuTk4sSNXLL0oHADbY BlgQU8pcAAAAAElFTkSuQmCC "
     id="image10-3"
     x="5.328969"
     y="-2.7103109" />
</svg>
