<?xml version="1.0" encoding="UTF-8" standalone="no"?>
<svg
   xmlns:dc="http://purl.org/dc/elements/1.1/"
   xmlns:cc="http://creativecommons.org/ns#"
   xmlns:rdf="http://www.w3.org/1999/02/22-rdf-syntax-ns#"
   xmlns:svg="http://www.w3.org/2000/svg"
   xmlns="http://www.w3.org/2000/svg"
   xmlns:sodipodi="http://sodipodi.sourceforge.net/DTD/sodipodi-0.dtd"
   xmlns:inkscape="http://www.inkscape.org/namespaces/inkscape"
   viewBox="0 0 16 16"
   version="1.1"
   id="svg6"
   sodipodi:docname="draw-spiral.svg"
   inkscape:version="0.92.1 r15371">
  <metadata
     id="metadata10">
    <rdf:RDF>
      <cc:Work
         rdf:about="">
        <dc:format>image/svg+xml</dc:format>
        <dc:type
           rdf:resource="http://purl.org/dc/dcmitype/StillImage" />
      </cc:Work>
    </rdf:RDF>
  </metadata>
  <sodipodi:namedview
     pagecolor="#ffffff"
     bordercolor="#666666"
     borderopacity="1"
     objecttolerance="10"
     gridtolerance="10"
     guidetolerance="10"
     inkscape:pageopacity="0"
     inkscape:pageshadow="2"
     inkscape:window-width="640"
     inkscape:window-height="480"
     id="namedview8"
     showgrid="false"
     inkscape:current-layer="svg6" />
  <defs
     id="defs3051">
    <style
       type="text/css"
       id="current-color-scheme">
      .ColorScheme-Text {
        color:#f2f2f2;
      }
      </style>
  </defs>
  <path
     style="fill:#3daee9;fill-opacity:1;stroke:none"
     d="M 8.1308594 2.0039062 C 5.2311494 2.1223362 2.8303544 4.66121 2.9589844 7.65625 C 2.9831844 8.21886 3.1173938 8.7510325 3.3085938 9.2578125 L 4.7714844 8.7714844 C 4.6260844 8.4198044 4.5222606 8.04906 4.4941406 7.65625 C 4.3397206 5.49901 6.0545894 3.6528013 8.1308594 3.5195312 C 10.456709 3.3702513 12.438483 5.30969 12.564453 7.65625 C 12.703573 10.24776 10.634179 12.451212 8.1308594 12.576172 C 5.9526894 12.684912 4.0575238 11.242932 3.3085938 9.2578125 L 2 9.6914062 C 2.92184 12.239646 5.3516994 14.092144 8.1308594 13.996094 C 11.403899 13.882984 14.116914 11.03165 13.996094 7.65625 C 13.883034 4.49694 11.247609 1.8766063 8.1308594 2.0039062 z M 4.7714844 8.7714844 C 5.3255044 10.111504 6.6402094 11.069487 8.1308594 10.935547 C 9.7358694 10.791317 11.059146 9.33494 10.878906 7.65625 C 10.731236 6.28093 9.5139394 5.1424894 8.1308594 5.3496094 C 7.0721394 5.5081694 6.1844112 6.53225 6.4257812 7.65625 C 6.4631812 7.83039 6.5376656 7.9996369 6.6347656 8.1542969 L 8.1308594 7.65625 C 8.8588994 7.65625 8.5850994 8.530305 8.1308594 8.734375 C 7.5462494 8.997035 6.9530456 8.6611569 6.6347656 8.1542969 L 4.7714844 8.7714844 z "
     class="ColorScheme-Text"
     id="path4" />
  <path
     style="opacity:0.95999995;fill:#ffffff;fill-opacity:1;fill-rule:nonzero;stroke:#ffffff;stroke-width:0.0495356;stroke-opacity:0.94117647"
     d="M 7.0934985,10.828502 C 6.4450269,10.655419 5.7803884,10.224296 5.3588223,9.7032896 5.1051471,9.3897766 4.7862139,8.8393795 4.8318035,8.7937899 4.8463639,8.7792295 5.2538761,8.6367205 5.7373862,8.4771034 L 6.6164954,8.1868904 6.7819692,8.3802093 C 6.8729798,8.4865347 7.0695824,8.6332854 7.2188637,8.706322 7.8604586,9.0202252 8.5795666,8.6763893 8.5795666,8.0557125 8.5795666,7.8856973 8.5537235,7.823395 8.4490472,7.7410566 8.3772616,7.68459 8.2705438,7.6383901 8.2118965,7.6383901 c -0.058647,0 -0.4348931,0.1099701 -0.8361017,0.244378 L 6.6463245,8.1271462 6.5374557,7.9199199 C 6.4505808,7.7545576 6.4283105,7.627632 6.4272186,7.2916409 6.4260088,6.919394 6.4442147,6.8316856 6.5842828,6.5349714 6.7827667,6.1145116 7.1321848,5.7668232 7.5756615,5.5485004 7.8916255,5.3929518 7.9368241,5.3845201 8.454686,5.3845201 c 0.5284075,0 0.5583884,0.00595 0.933919,0.1852568 0.90863,0.4338559 1.469599,1.3463831 1.469599,2.3905946 0,0.8097196 -0.26007,1.4209866 -0.866794,2.0373084 -0.4330624,0.4399131 -0.8563155,0.6918051 -1.3985148,0.8323031 -0.3747603,0.09711 -1.1328201,0.09636 -1.4993967,-0.0015 z"
     id="path4487"
     inkscape:connector-curvature="0" />
</svg>
