<?xml version="1.0" encoding="UTF-8" standalone="no"?>
<svg
   xmlns:dc="http://purl.org/dc/elements/1.1/"
   xmlns:cc="http://creativecommons.org/ns#"
   xmlns:rdf="http://www.w3.org/1999/02/22-rdf-syntax-ns#"
   xmlns:svg="http://www.w3.org/2000/svg"
   xmlns="http://www.w3.org/2000/svg"
   xmlns:sodipodi="http://sodipodi.sourceforge.net/DTD/sodipodi-0.dtd"
   xmlns:inkscape="http://www.inkscape.org/namespaces/inkscape"
   viewBox="0 0 16 16"
   version="1.1"
   id="svg8"
   sodipodi:docname="edit-table-insert-row-above.svg"
   inkscape:version="0.92.1 r15371">
  <metadata
     id="metadata12">
    <rdf:RDF>
      <cc:Work
         rdf:about="">
        <dc:format>image/svg+xml</dc:format>
        <dc:type
           rdf:resource="http://purl.org/dc/dcmitype/StillImage" />
      </cc:Work>
    </rdf:RDF>
  </metadata>
  <sodipodi:namedview
     pagecolor="#ffffff"
     bordercolor="#666666"
     borderopacity="1"
     objecttolerance="10"
     gridtolerance="10"
     guidetolerance="10"
     inkscape:pageopacity="0"
     inkscape:pageshadow="2"
     inkscape:window-width="640"
     inkscape:window-height="480"
     id="namedview10"
     showgrid="false"
     inkscape:current-layer="svg8" />
  <defs
     id="defs3051">
    <style
       type="text/css"
       id="current-color-scheme">
      .ColorScheme-Text {
        color:#f2f2f2;
      }
      .ColorScheme-Highlight {
        color:#3daee9;
      }
      </style>
  </defs>
  <path
     style="fill:currentColor;fill-opacity:1;stroke:none"
     d="M 12 2 L 10 6 L 14 6 L 12 2 z M 2 7 L 2 13 L 2 14 L 14 14 L 14 7 L 13 7 L 13 9 L 10 9 L 10 7 L 9 7 L 9 9 L 7 9 L 7 7 L 6 7 L 6 9 L 3 9 L 3 7 L 2 7 z M 3 10 L 6 10 L 6 13 L 3 13 L 3 10 z M 7 10 L 9 10 L 9 13 L 7 13 L 7 10 z M 10 10 L 13 10 L 13 13 L 10 13 L 10 10 z "
     class="ColorScheme-Text"
     id="path4" />
  <path
     style="fill:currentColor;fill-opacity:1;stroke:none"
     d="M 2,7 2,6 3.281,6 2,4.719 2,3.281 4.719,6 l 2.563,0 -3,-3 -2.281,0 0,-1 7,0 0,1.719 L 8.282,3 5.719,3 8.719,6 9,6 9,7 3,7 Z"
     class="ColorScheme-Highlight"
     id="path6" />
  <path
     style="opacity:0.95999995;fill:#ff6600;fill-opacity:1;fill-rule:nonzero;stroke:#ffffff;stroke-width:0.0495356;stroke-opacity:0.94117647"
     d="m 10.016099,5.9791119 c 0,-0.049037 1.956753,-3.938245 1.981424,-3.938245 0.02467,0 1.981424,3.889208 1.981424,3.938245 0,0.013532 -0.89164,0.024603 -1.981424,0.024603 -1.089783,0 -1.981424,-0.011071 -1.981424,-0.024603 z"
     id="path4489"
     inkscape:connector-curvature="0" />
</svg>
