<?xml version="1.0" encoding="UTF-8" standalone="no"?>
<svg
   xmlns:dc="http://purl.org/dc/elements/1.1/"
   xmlns:cc="http://creativecommons.org/ns#"
   xmlns:rdf="http://www.w3.org/1999/02/22-rdf-syntax-ns#"
   xmlns:svg="http://www.w3.org/2000/svg"
   xmlns="http://www.w3.org/2000/svg"
   xmlns:sodipodi="http://sodipodi.sourceforge.net/DTD/sodipodi-0.dtd"
   xmlns:inkscape="http://www.inkscape.org/namespaces/inkscape"
   viewBox="0 0 16 16"
   version="1.1"
   id="svg6"
   sodipodi:docname="activity-fork.svg"
   inkscape:version="0.92.1 r15371">
  <metadata
     id="metadata10">
    <rdf:RDF>
      <cc:Work
         rdf:about="">
        <dc:format>image/svg+xml</dc:format>
        <dc:type
           rdf:resource="http://purl.org/dc/dcmitype/StillImage" />
      </cc:Work>
    </rdf:RDF>
  </metadata>
  <sodipodi:namedview
     pagecolor="#ffffff"
     bordercolor="#666666"
     borderopacity="1"
     objecttolerance="10"
     gridtolerance="10"
     guidetolerance="10"
     inkscape:pageopacity="0"
     inkscape:pageshadow="2"
     inkscape:window-width="640"
     inkscape:window-height="480"
     id="namedview8"
     showgrid="false"
     inkscape:current-layer="svg6" />
  <defs
     id="defs3051">
    <style
       type="text/css"
       id="current-color-scheme">
      .ColorScheme-Text {
        color:#f2f2f2;
      }
      </style>
  </defs>
  <path
     style="fill:#3daee9;fill-opacity:1;stroke:none"
     d="M 3 2 L 3 14 L 10 14 L 13 11 L 13 8 L 12 8 L 12 10 L 9 10 L 9 13 L 4 13 L 4 3 L 9 3 L 9 2 L 3 2 z M 12 2 L 8 5 L 10.699219 5.9003906 L 10 8 L 14 5 L 11.300781 4.0996094 L 12 2 z "
     class="ColorScheme-Text"
     id="path4" />
  <path
     style="fill:#ffff00;fill-opacity:1;fill-rule:nonzero;stroke-width:0.0495356"
     d="M 10.077812,7.8241486 C 10.213555,7.4551237 10.715668,5.8947877 10.702365,5.8833241 10.69272,5.8750135 10.090808,5.6712866 9.3647825,5.4305977 L 8.0447353,4.9929814 9.9798764,3.5417187 C 11.044204,2.7435243 11.922131,2.09757 11.930826,2.1062648 c 0.0087,0.00869 -0.128778,0.4482876 -0.305496,0.9768729 -0.176718,0.5285852 -0.321305,0.9765707 -0.321305,0.9955232 0,0.018952 0.551703,0.2176521 1.226006,0.4415549 0.674303,0.2239027 1.266527,0.4279696 1.316052,0.4534818 0.07498,0.038625 -0.229535,0.286146 -1.820014,1.4793782 -1.050532,0.7881457 -1.923778,1.4329923 -1.940546,1.4329923 -0.01677,0 -0.02024,-0.027864 -0.0077,-0.06192 z"
     id="path4487"
     inkscape:connector-curvature="0" />
</svg>
