<?xml version="1.0" encoding="UTF-8" standalone="no"?>
<svg
   xmlns:dc="http://purl.org/dc/elements/1.1/"
   xmlns:cc="http://creativecommons.org/ns#"
   xmlns:rdf="http://www.w3.org/1999/02/22-rdf-syntax-ns#"
   xmlns:svg="http://www.w3.org/2000/svg"
   xmlns="http://www.w3.org/2000/svg"
   xmlns:sodipodi="http://sodipodi.sourceforge.net/DTD/sodipodi-0.dtd"
   xmlns:inkscape="http://www.inkscape.org/namespaces/inkscape"
   viewBox="0 0 16 16"
   version="1.1"
   id="svg6"
   sodipodi:docname="format-text-color.svg"
   inkscape:version="0.92.1 r15371">
  <metadata
     id="metadata10">
    <rdf:RDF>
      <cc:Work
         rdf:about="">
        <dc:format>image/svg+xml</dc:format>
        <dc:type
           rdf:resource="http://purl.org/dc/dcmitype/StillImage" />
      </cc:Work>
    </rdf:RDF>
  </metadata>
  <sodipodi:namedview
     pagecolor="#ffffff"
     bordercolor="#666666"
     borderopacity="1"
     objecttolerance="10"
     gridtolerance="10"
     guidetolerance="10"
     inkscape:pageopacity="0"
     inkscape:pageshadow="2"
     inkscape:window-width="640"
     inkscape:window-height="480"
     id="namedview8"
     showgrid="false"
     inkscape:current-layer="svg6" />
  <defs
     id="defs3051">
    <style
       type="text/css"
       id="current-color-scheme">
      .ColorScheme-Text {
        color:#f2f2f2;
      }
      </style>
  </defs>
  <path
     style="fill:#3daee9;fill-opacity:1;stroke:none"
     d="M 2 3 L 2 4 L 6 4 L 6 13 L 7 13 L 7 4 L 11 4 L 11 3 L 2 3 z M 12 7 C 11.61083 8.27687 10.63869 9.37115 10.21875 10.25 C 10.0718 10.5113 10 10.80798 10 11.125 C 10 12.16375 10.892 13 12 13 C 13.108 13 14 12.16375 14 11.125 C 14 10.80798 13.89698 10.5113 13.75 10.25 C 13.33006 9.37115 12.38916 8.27687 12 7 z "
     class="ColorScheme-Text"
     id="path4" />
  <path
     style="opacity:1;fill:#ff0000;fill-opacity:1;fill-rule:nonzero;stroke:#ffffff;stroke-width:0.0495356;stroke-opacity:0.94117647"
     d="m 11.526935,12.916538 c -0.361598,-0.09237 -0.509643,-0.159849 -0.769936,-0.350922 -0.489087,-0.359023 -0.7794409,-1.002281 -0.723382,-1.602601 0.03892,-0.416795 0.225991,-0.809014 0.853766,-1.7900412 0.474314,-0.7412123 1.060605,-1.8264776 1.060605,-1.9632542 0,-0.036677 0.02229,-0.066685 0.04953,-0.066685 0.02725,0 0.04986,0.027864 0.05025,0.061919 0.0016,0.1416546 0.513558,1.1102087 1.014553,1.9195046 0.295151,0.4767802 0.616563,1.0340558 0.714247,1.2383898 0.161765,0.338377 0.177402,0.409077 0.17529,0.79257 -0.002,0.360071 -0.02308,0.464098 -0.145663,0.718266 -0.398379,0.826014 -1.376402,1.273498 -2.279263,1.042854 z"
     id="path4487"
     inkscape:connector-curvature="0" />
</svg>
