<?xml version="1.0" encoding="UTF-8" standalone="no"?>
<svg
   xmlns:dc="http://purl.org/dc/elements/1.1/"
   xmlns:cc="http://creativecommons.org/ns#"
   xmlns:rdf="http://www.w3.org/1999/02/22-rdf-syntax-ns#"
   xmlns:svg="http://www.w3.org/2000/svg"
   xmlns="http://www.w3.org/2000/svg"
   xmlns:sodipodi="http://sodipodi.sourceforge.net/DTD/sodipodi-0.dtd"
   xmlns:inkscape="http://www.inkscape.org/namespaces/inkscape"
   viewBox="0 0 16 16"
   version="1.1"
   id="svg6"
   sodipodi:docname="format-text-superscript.svg"
   inkscape:version="0.92.1 r15371">
  <metadata
     id="metadata10">
    <rdf:RDF>
      <cc:Work
         rdf:about="">
        <dc:format>image/svg+xml</dc:format>
        <dc:type
           rdf:resource="http://purl.org/dc/dcmitype/StillImage" />
      </cc:Work>
    </rdf:RDF>
  </metadata>
  <sodipodi:namedview
     pagecolor="#ffffff"
     bordercolor="#666666"
     borderopacity="1"
     objecttolerance="10"
     gridtolerance="10"
     guidetolerance="10"
     inkscape:pageopacity="0"
     inkscape:pageshadow="2"
     inkscape:window-width="640"
     inkscape:window-height="480"
     id="namedview8"
     showgrid="false"
     inkscape:current-layer="svg6" />
  <defs
     id="defs3051">
    <style
       type="text/css"
       id="current-color-scheme">
      .ColorScheme-Text {
        color:#f2f2f2;
      }
      </style>
  </defs>
  <path
     style="fill:#3daee9;fill-opacity:1;stroke:none"
     d="M 6.3828125 2 L 2 13 L 3.3574219 13 L 4.546875 10 L 9.4746094 10 L 10.626953 13 L 12 13 L 7.7480469 2 L 6.3828125 2 z M 11 2 L 11 7 L 12 7 L 13.5 7 C 14.32843 7 15 6.32843 15 5.5 C 15 4.9667 14.73181 4.48473 14.3125 4.21875 C 14.42796 4.00621 14.5 3.75888 14.5 3.5 C 14.5 2.67157 13.82844 2 13 2 L 12 2 L 11 2 z M 12 3 L 13 3 C 13.27614 3 13.5 3.22386 13.5 3.5 C 13.5 3.77614 13.27614 4 13 4 L 12 4 L 12 3 z M 7.0625 3.328125 C 7.17566 3.704205 7.773975 5.4100894 8.859375 8.4433594 L 9.0839844 9 L 4.9414062 9 L 7.0625 3.328125 z M 12 5 L 13 5 L 13.5 5 C 13.77615 5 14 5.22386 14 5.5 C 14 5.77614 13.77615 6 13.5 6 L 12 6 L 12 5 z "
     class="ColorScheme-Text"
     id="path4" />
  <path
     style="opacity:1;fill:#00ff00;fill-opacity:1;fill-rule:nonzero;stroke:#ffffff;stroke-width:0.0495356;stroke-opacity:0.94117647"
     d="M 11.006811,4.5210478 V 2.0408669 l 1.176471,4.839e-4 c 1.134106,4.667e-4 1.185574,0.00472 1.429271,0.1181958 0.682401,0.3177477 1.014344,1.0816762 0.78226,1.800282 l -0.07949,0.246128 0.225077,0.2315862 c 0.713481,0.734119 0.50911,1.9455779 -0.403849,2.3939081 L 13.855108,6.9696594 12.43096,6.985444 11.006811,7.001229 Z m 2.818044,1.3558423 c 0.191622,-0.161239 0.24198,-0.3983571 0.130418,-0.6140936 -0.131061,-0.2534458 -0.313221,-0.299329 -1.188357,-0.299329 h -0.769393 v 0.5201238 0.5201239 h 0.838305 c 0.827185,0 0.840304,-0.00168 0.989027,-0.1268251 z M 13.270367,3.9254036 c 0.10623,-0.064773 0.177685,-0.1612434 0.217255,-0.2933153 0.0515,-0.1719016 0.0468,-0.2176208 -0.03717,-0.3613911 C 13.306398,3.0240349 13.180595,2.9835936 12.554799,2.9827736 L 11.997523,2.9820433 V 3.5021672 4.022291 l 0.557276,-1.833e-4 c 0.46496,-1.535e-4 0.583497,-0.016174 0.715568,-0.096702 z"
     id="path4487"
     inkscape:connector-curvature="0" />
</svg>
