<?xml version="1.0" encoding="UTF-8" standalone="no"?>
<svg
   xmlns:dc="http://purl.org/dc/elements/1.1/"
   xmlns:cc="http://creativecommons.org/ns#"
   xmlns:rdf="http://www.w3.org/1999/02/22-rdf-syntax-ns#"
   xmlns:svg="http://www.w3.org/2000/svg"
   xmlns="http://www.w3.org/2000/svg"
   xmlns:xlink="http://www.w3.org/1999/xlink"
   xmlns:sodipodi="http://sodipodi.sourceforge.net/DTD/sodipodi-0.dtd"
   xmlns:inkscape="http://www.inkscape.org/namespaces/inkscape"
   viewBox="0 0 16 16"
   height="16"
   width="16"
   id="svg2"
   version="1.1"
   sodipodi:docname="im-user-busy.svg"
   inkscape:version="0.92.1 r15371">
  <sodipodi:namedview
     pagecolor="#ffffff"
     bordercolor="#666666"
     borderopacity="1"
     objecttolerance="10"
     gridtolerance="10"
     guidetolerance="10"
     inkscape:pageopacity="0"
     inkscape:pageshadow="2"
     inkscape:window-width="640"
     inkscape:window-height="480"
     id="namedview6"
     showgrid="false"
     inkscape:current-layer="svg2" />
  <metadata
     id="metadata8">
    <rdf:RDF>
      <cc:Work
         rdf:about="">
        <dc:format>image/svg+xml</dc:format>
        <dc:type
           rdf:resource="http://purl.org/dc/dcmitype/StillImage" />
        <dc:title></dc:title>
      </cc:Work>
    </rdf:RDF>
  </metadata>
  <defs
     id="defs6" />
  <image
     y="0"
     x="0"
     id="image10"
     xlink:href="data:image/png;base64,iVBORw0KGgoAAAANSUhEUgAAADAAAAAwCAYAAABXAvmHAAAAAXNSR0IArs4c6QAAAAZiS0dEAP8A /wD/oL2nkwAAAAlwSFlzAAALEwAACxMBAJqcGAAAAAd0SU1FB9oFCw06BT2LJD0AAAt7SURBVGje 7ZlLjB1XWsd/p86pW3Wf7dvX7b632/2I7XicAcU2MxiJEEXCY5KZGCQQQhBFAjKzABagARFYBDIS IMGC3bAAsmEDihIQZCSCAkiRQjADyTivibFjO7Y7dj/v+1HvOixu1Z1y48TttqPMYo5UqlbrVp3/ /3zn+3//7xT8YPxg3NUQn/J7ReZKh85cZO7fNwQEYGQumdzTueLkijL3XRMRnwJ4Ccjf/I2nfjWv rF+7ev3G0YLS7J+fY7E+R7fb/f0LH155+y//9u/PAAEQZsjcMQn5Kay8+vqvf/Wb04X8HzZbrXqr tUV93xz9fpdev4edM79k5syfa/aGL2xuNb3dAk+HcY8jIH/2K48ttVutr202N1GxS+j0aW6tMlXM YylBu9ulOxgWTvzIsXeAEpAHzN1iuZcEDED2/dC8sdXBjANOHD7Mw4cPMOh1ePV/3uTKRzcgDhmN +mitAcqADajdYlH3eguNRiNzsT7Njx87Rui7VMtFfqg+jYhjiAMEPjmpiMd4S4CbXH5CIvpMCXj9 trTrU1gG+IMBhrTYWyry4Bx81BnQ2WrRdCLW++FzQC6z+p95BAAMS8fGgblZel7A5RurFCxJMV+g kc+ztDSPE5u88OrrzlvvX/52BrTYbSLf6yTm0upGuzbTOI+hWOv0ubSySm844tvnLuNEJtV9DWxf n+/2B51ERqO7kdF7HQHWm22/Vik28wi+eORzmPkCBbuItAvMNhpM1xd5+ey7f5HseT9D4jMnoFMQ /cEImdPklEnRtrHyRT534POYeXDCAMADnEzyhsmzn1kOiEwhI1fZS+w2Gbp92pvrFCsVypU9mPkK nsqTgPYyEQg/ywhkwctqtbpPFMvHWivn2NjYxB861IKIWPsU6vv4539/9W8SwOHd2oi7TWKR8T7m 0tJS9cSJE2cajcYb1dl6wRE5pGVhCAPTVNiFAiPfoDo9/cvLy8sHb+FWxW68mbFbvU+A5wALKDzw wAPf2draOtzv9wH4wmM/jyxNAxAaGlmsUzt0hOeff55arfZsuVyuJRYil9xVxrXumIjcJXDVaDT2 HThw4InFxcX/KJVKv3f9+vVyEAT4vk+1WuVHf+wEM8sHuba2TqiKfOkXnqDd7/Piiy8SRZE5Ozv7 S41G47H5+flwdXX13LaI7NgtG3cIXgHWgw8++HelUunN4XD4zdXVVXrdLlEYEgQBWmteeeUVHMdB IvBvbKJdn3ylguu6hGGI67oMBgNardbB4XD4p8ePH//ver1+PGPurIzB+8SIyDsBf/jw4S8vLS29 0+t2HhgOR6V0xYVhEMVjFYzjmH6/z+LiItrxiC5cJr90CLu2j82NVV5++eXJi8MgwPM8XNet2Lb9 K8vLy79Yr9f9tbW1928h0bsiMAF/6NChU1EUvdBut5Xn+cRxTBRFxHFMHMcYhkEcf0/Kr169yg8v LkKrycyRo1TqM7z7zlnOnDmDEAIhBLHWk/f4vo/rOFNhGD66vLz8+bW1tX/ZSetp7DDRlRDiW6Ph 0ArDcAI0vWutiaJo8reUkpWVFb779lnQGst1EULQbDa/R1SPiYdhCFoTBAFBGOI4Dv1+//TRo0d/ eluvIHZDIJVJy/d9gjBEaz0BnIIxDGMCPiWmtebt97/LcNhjeP0qgeuxsbFBGIbj34vxM1LKydKm CxKGIaPRqAAUknyQH0dA7ZCASoGnINMJt4MXYjyPUoq13pAgChm11mm3xombjZiRbKP0uZSA53kM h0M7aXjSYqcTPNmip40d5oB5U0bp2xfNKIroeS4fuQGeO2LUWqPb7d70mxR8dnGiKCKKIpaXl/MJ gWISiXymf5B3EgEDkEqpyWRCCAzDIAzDm1YumwNaa6I45j+vXuFwtUZr9QppkdNaYwhBkGzDyWRC kM/n2b9/P6dOnXr2mWeeeVZrTT6fp1gs8vDDD+9NPFSQRCHaqRcypByTNgyDgwcPcvLkSd544w3e e+89XNedAEjzIo7j8TbqdGg5I/rnL0wiYCSymwUPMDU1xdNPP025XMZ1Xa5du4bWmvvvvx/P80ii ITLOd0cEJsmTgms0GiilOHnyJKdOfZn19Y84d+5/Wb2xSqvdYjgc3hSR81trdNdWcV1nkjumaaLj mCAMqVQqPPLIIzz55JMIIVhdW5usulIKKSVvvfXWHwOVBHhqBD9xC2VdpuF5HkIIpJRMTU3hOA6b m5sYhoHWMcePH+fRn3qUnJVjbW2838+e/Q7vvvseFzY2mSqUiePxPk+1Px1PPfUUp0+fptls0u/3 GQ6HKCkxDIOpqSmklHS73VySB6OsKqkd1ABjYWHh34IgQErJ448/zv6FBVzHoVKZIpcziaIIz/M4 f+E8hUKB+fl5FhYWeOihh7h48SKXLl0iDEOOFgrU63VmZmYAeO2111haWuL06dM4bohpmoxGI5Q0 kFJSKBSoVCp4nuevr6062wzfbZPYAOTi4uKjYRjOe56HUoqDBw9iWTaVchlhSKzcWKBs20YphSEA YSCEwHEcDt9/iCNHjuD7PkEQTKT3vvvu48SJExPFMhU4jsbzPHKmSRSPxSKXy9Futzf+6q+fe+dW vkjdTn36/f5XpJS5MTjB+vo6hw4dQhgm6HFhy+VyKDnOD2FIBJpSuUyxWARhomMf27YxTRMhBEEQ UCqViOMY3/dJq3scBQRBwMaVa+hBi7laDWvqIcrFYvZU+6YG6HYRUHnbfkLrGIRBbe8MCwvL5PP5 pIpaSClRSqG1ZjgcEhBgGAaW7+P7Pu12m2q1ilKKwWCAlJJGozHxPwB+EKGkoNtp8/6Z19HtFZRh YHn76V25SLhnhiRp/W1d3McSSA+alOO62LZNrVbjG3/yR8zX51j58DJBGBKGIZ7nYZomnU6HbreL ZVlUq1WkYdDr91lZWcEwDGZmZgiTZ1LbrbWmUCjgui5xLGg3m2gDyvkSttRMFYus9zq4mDcy+n9H EZBCCMIwRIcB62/+Fxf7Q+TsHHumayilaDabDAYDlFITGxFFIb7vUygUWFxcpFQq3aQ6WmtM0ySO 4wR84oE0FGfnqdgH8HotmF/k0trmK9/43T94LnOCEeyEwEQ+pZTNKIpqnu8TS8meaomVC2/z4cAl ypcoVms05uYnEjveThBFMZZtMz09jRACpRS+74+LWBShlKLT6WCaJpZlATA7O8v+/ftpt9tsbZX5 6m/9zteBNjDMHMNkvdHH9gMi7b6UUq6U8iddz+XCpcvYRkxva5NBr0tv1CcybKxEgYQQWJaFYRjk rByp/chWaCkltm0jpZwUtNSWlMtlgiCg0+mQz+d56aWX/gnoAp3kPkiIBLfLgTTrw16v9w+1Wu0x rfmJ65tNnv/X1ynaOQypOPaFLzI3P480xuBd1yX1LrlcDsuyEEKMq27ioaIoIgxDbNtGa41Saqxe iadqtVoIISgUCiRgh8k1yuRBfLt+IJWrEHCbzeZva63/UUpJrDV9x2PguPR6Per1OpWpMkqpm1bc T1QoiiKCIJj0DxMzZxjkcrnJ71MDWCgUmJmZSYudn2yb7CneTUl8OwJB8uCg3W7/+ebm5s/s3bt3 1bIsL45jtra2MAwD0zQplUoopTBNc1zQDAPf9/FcbywCWqMTgzfpZ6Ukl8thmuakh9izZw/lcjn9 Xwre2/Y9bUcdWZw85AD9JJnaH3zwwdd83/+zcrmM53kUC0VGo9HYvyiV5MC4mAVBgOu5OI5DFEX/ r6lN+4pJl5aQSnMms/JZCc32yZ947jI5dUtMVCFpMMqJK0wbjdytPMpdjDABPkiSdytZvEFGhXbc Ukbb/o4y+7KY6ZLMu/nKcgsCXibyzrbV33FPnPag0bYP1EEywTDzgU5x7z6WxBnbkKqQvxsC2bOY KNMFpS83t51p3ksC6TxB5kPIXX1P/r4d/weo1de/wUtnLgAAAABJRU5ErkJggg== "
     preserveAspectRatio="none"
     height="16"
     width="16" />
  <image
     y="0"
     x="12"
     id="image10-6"
     xlink:href="data:image/png;base64,iVBORw0KGgoAAAANSUhEUgAAAIAAAACACAYAAADDPmHLAAAABHNCSVQICAgIfAhkiAAAAAlwSFlz AAAN1wAADdcBQiibeAAAABl0RVh0U29mdHdhcmUAd3d3Lmlua3NjYXBlLm9yZ5vuPBoAACAASURB VHic7L13eFzltS/823X6jGY0o1FvlmTJli25yWYcY4Ntmgm4XFogAQIJJYEAN3BDkvMAJychlCS0 UEwx5stJAQMOpplmG7Aw7lWWbVld0zTS9D577/vHnr01Y0u2JMuEc78sP6+3pu3yrvWuvtZLCIKA f8P/f4H+V9/Av+G0QP/Xf/3XbzQazSKtVlum1WpzALDBYJBgWTZEUdRRrVa7ZsWKFS8BSIz15MS/ OcC3F+65556/NjQ0XJmbm0tVVFTAYrZAr9eD53kIggCSJBEOh9Hv6UdbW5uwb9++3mAwePkjjzyy Z7TX+DcBfAvh7rvvLsvPz99fV1ennzFjBnRaHYLBIHx+HyKRCKLRKDiOg1qthkajgV6vh1ajBcMw 2L1nN7Zs2bLroYceahIEgT/dtf5NAN8y+MUvfjGvrq5ua21tLTlt6jR0dHXA6XTiq6++6vzggw8+ 7O7u3i4Iwpd9fX0dFRUV3+c47qrGxsamCy+80NjY2Ijy8nIwNIO//f1v4ba2tslPPfVU36mu928C +BbBQw89pC0oKBicOnUqM7VuKg4cOoCdO3fGH3/88Rv7+vr+dqrfWq3WeqVS+enPfvazvIULF6Ku tg4bP9rINTc3T3/sscdaRvrdv5XAbxGo1erD+fn5zPRp07Fj5w6sX79+29NPPz1/NKzc5XIdBGAt Kip6fevWrVfccccdWLpkKcXz/N7zzjtPv2nTptiwPxQE4d/jWzDuu+++Oa+99prQ2toqbNu2TfjF L37hH++5KioqLpo3bx732WefCeFgWHj66acdI333/ykRYLPZGgHYAMwAUABAA0CVHkoALIAYgDCA EIAAAD+AdgCfA/iiubl5zKbURMDDDz/cWVRUVLb4/MX45NNP8Ktf/aqpt7d3x3jPV15e/mhlZeW9 Tz75JKonVePn9/38zmeeeebpE7/3P5IAbDabFsA1AC4DMIMkSTPLsoqcnBxYrVZYLBaYzWbk5OTA ZDJBp9NBoVAgFAohEokgFoshGo0iHA4jGAwiGAzC7/djcHAQTqczHo1GByASxfsAXm5ubnaf7Wd6 +OGHk/Nt82mVSoVf/8evnatWrfpg1apVv8rNzXWM95zFxcVt11133aSf/exnaG9v5+bPn3+SyP8f QQA2m40EcCuA79M0PUWhUOhra2sxY8YMlJeXw2g0QqvVQqVSgSRJEAQhHzOHxPYy4USWyPM87HY7 jh07hsOHD2P//v3o7+8PATgIYAOAZ5qbmwMT+Xw/+clPrBRFOR/+7cP4zW9/A4fTifvuuw95FosQ Dod7N27cOP+WW27pGet58/Pz8yiK6lu/fj09pW4KHnjwgRsef/zxtZnf+dYSQBrpNwG4nWXZaRaL hZozZw6mTp2KsrIyaDQa0DQNkiQRj8dlBJIkKZ+D50XdSeAF8AIPjuMAASBJEjRNAwRAURRIkpQH RVFgGEZ2tqRSKTgcDhw9ehQtLS3YvXu34PV6jwF4EcATzc3NqTN91rvvvvtHkUhk9eSaydi9dw9+ 8pOfoKCgAD6vFwUFBdi6dSt//PjxZ+69996fjfXchYWFW7/3ve/Z7rzzThw9erRlyZIlUzM//9YR gM1mqwfwnEKhOKewsJA655xzUFtbi5KSEigUCpAkiWQyiVQqJSOJoRkwDAOGZcDQDGiKlhErcQOK ouRrcBwHnuflkUqlkEyJ50wkEkgmkyBIAgqFAgqFAizLgudFAkqlUujp6cGWLVvw8ccf89FodD+A h5qbm9eP95lvvvnmh51O5y/0ej1+escdKCwsBAB4BwfR2tqK+eecg3fffx9tbW09f/zjH0vHcu6S kpI7SZJ8cv369SguKk5Z8ixM5uffGgKw2WzfBfC4yWSqWbx4MWbOnAmLxQKKopBMJgFAZuUqpUpG jIJVgGHEZ5KeRT4i/WyCiHSJIMSTSYeh14T4HwgQSKVSoq4Qi4ocBgIoigLLsmBZFhzHwe/348sv v8TGjRvR19fnAvCfzc3Nz4712efNm9ddXlFRcscdd6CoqAiAiPz33nsPyy65BIODg6ioqMCWzz/H vn37kitWrMhbuHChbzTnJgiCLisrS7z88svE3DlzodVrFciIGfzLCcBms91KEMR/5ufnWy688EI0 NDRAq9UiFoshlUqBZVmoVWqoNWooFUqolKosFi1AAM/xiEaj8ipOJpMil0gOrWzpOSmKAkVRoGla 5BT00N8My0Cj1ojcIk0IEtGlUimEI2FEIhGEw2EQJAGNRgOlUolwOIxdu3bhgw8+QFtbW5DjuCcB PNDc3Hxa+72pqenyOXPmrL/6e99DSXExgCHkX3rJJTAajQCAY21tmFRejl27dmH33r18WUVF+Wj1 gsrKyv5f//rX5su+exn+/OyfVzzwwAMyt/qXOYJsNttcmqZfLykpKb344otRV1cHpVKJZDKJaDQK tVoNtUr0davValAUJctyCcnBYBDBUBChUGhI3meu/hNoW4CAFJcaWvXA0MrHEIfRaDTQarTQ6rRQ KBTi+yQBnU4HvV4PgRfk63o8HrAsi/nz52POnDk4cOCA7sMPP/z1gQMH7rbZbHc0NzevOdU8bN++ /Z/HOzo4lmEojuMwODCADz74IAv5bpcLu3fuhMloxKyZM6FSq8lPPv20/cEHH1Q9+OCDp9VBCIKg BgcHEY/HEY/HvwPgX0cANpvNBOBNk8m06OKLL0ZjYyMUCoUse/U6PTRaDTQqcXUJwhDSo9GobLZF o9Eh7T2NbCET4ye+Tr+XiXtgiO1nvvYH/AgEAiCcoh6g1Wqh0+qg0WpAEqRMDAa9AYlEAv6AH4MD gyBIAnV1dWhoaMCBAwc0r7/++is2m+3/ALisubn56EhzotfpjnAcNyUcCuHDDz/EsosvlpHvcjqx ZcsWXHrJJaKlo9Nhen09BEGgt27bNgDAcLo5JwhCR1EUfD4fBgcHnVmffZMiwGazPcSy7K/mz59P LVy4ECqVCqlUClqtFga9ATqdDjqtDhQtrnZBEFfs4OAgBgcHkUwmwQt8tjmXRnTmexzHIZFIgOM4 JJNJUfuHaBVIVoIkChiGAcuyspJIEMSQLpDWFyRRQFEUjEYjLGYLaIYWFUxC1Cs4joM/4IfX60U0 FgVBEGBZFu+88w6am5sFn8/3OoDrhrMa2pzOWj1JtsTjccLlcMBisQAYQv6yiy+GVqsV33O5QCmV KM7PR/O2bejp69tzxx13zBxpzn/wgx/k7dy503X//fejoqICzzzzzPl///vfN0mffyMEkF71nxcV FU1dtWoVDAYDBEGQHTUGvQFarRY0Tctsnud4DHoH4fF4RMTzfNZKlxAuOXQk5450lBAvWQwngmRC siwrE4FSqYRSqYRWq5WPmXqAJC4oioLZbEZubq5obaS5AkmQEAQBA4MD8Hq9CAQDUKlU6OjowHvv vYe2tjYfx3HnNzc3Z8Xrm5qapj/9zDN7qiZNIkOBAJxOcZF+8fnnWHbxxdBoNAAAp9OJr3fuxMrl yxFNJJBnsWDzli2IRKOPXn311f9nuLm/9tprf7ljx47frlmzBrFoDIuXLM7igWedAGw22xUqleov NpuNnT17NnieR05ODiwWC3IMOdDr9LKZJdnqfr8fbrcbiUQia8VLdnkgEEAgEEAwKMrhcDiMcDgs E4AkTpLJpHgOnhcRTdNIJpOIxeOgaRosy8pEoFQqwbKsrNhptVqo1WoYDAbo9Xro9eJ9ApARztCM TAgkSWYRQjKZxMDgADwDHkQiEaRSKWzatAn79+/nPR7PfzQ3N/8OAGbOnDnjgQcf3NbQ0MCqVSrw HId4NIqPPv4Y37HZoFGrZeRv37ULK5cvh0ajAcUw2LtvH+Y0NeHrr7/mEonEd5YsWbItC7kEQS5b tiwYiUTU9/78XgSDwcSVV12p+MYIwGazrTcYDJdffvnlMBqNUKvVKCgogMloglarhV6nlxHP8zwC gQBcbhfisbj8vnR/g4OD8Pl84soKBOD1ehEOhxEIBJBKJqHVasHQNEiKAkPToGlaZvNU2skDQQCX Yc8nEgkkkkkk4nEkUqm0PyAFjuOg0WjkZAtpGI1GGI1G5OTkgKaHRADLsrDkiQQtcQTJsRQKheAZ 8KDf049gMIjjx49j27Zt6Ojo2BaJRH7+m9/+dtO0+noGggACgEGvRygQAM9x6O7pQWlJCRwOB3bs 2oWVK1ZArdGAZhh0dXVhz759KC8vx8wZM3G09eixxlmNNZnzf+GFF34iCMLiFStWIJVMYdA7+NgD Dzxw31knAJvNpgRwoLS0tGrJkiVQKpUoKCiA1WqFySiyfJIkZSQnEgn09PYgEo5kIT4SiWBgYAA+ nw8ejwderxderxc+nw8MTSPHYIAp7QZmWXaIVQ8Dw0XCxGuJRyGDMCLRKPx+P7w+H4KhELRaLXJy cmQCMBqNyM3NhdlsFsVE+rpKhRLFxcVQq9VZRECSJNz9bjhdTjidTvT09GDv3r3w+Xy4+557oNfp wDIMlAoFWIUCJIBoOAwAaDl8GMfb27FyxQqo1GrQDIPOzk7s278fV119NZKJJDZt2oTpU6aj+1j3 VNsFthYAuOiiiy5XKpXrDQYDZs2ahZLiEmHFyhXkifMy4QRgs9nySJI8NH36dHNjYyMMBgOKi4uR Z8lDTk4OdFrdkBdO4BEOh9HT04NEMiHb9pFIBG63Gy6XCwMDA/B4PAiFQlCwLExpREiu4BP9/cOj XzQAJKQDkK8lefgEQZA9hNIxmUwiHIkgEAzC6/UiGApBo9HIbN9sNsNsNiMvLw96vV70OJIUioqK YDAY5NeZ3MDpcsLusOPAgQPYu3cvotEobrj+ehQWFMg6CJ9MwjM4iDyzGRqNBr19fZhUVQWaptHZ 1YX9Bw6IyI8nEQlHsG/PPhw9fhRer3fr/b+6/9wLL7zwY6VSeR4AYsmSJeBSHHr7em967LHHXjmr BGCz2aYwDLNj5syZ6pqaGhQWFqK4uBgmownGHCMUCkUWy/f6vLD32cUJF3jE43E4HA64XC643W64 3W7EolEUWK0oLi6Wgz2ivCUwMDgIu8OBGY2NIuJH4ACCIACCIBOBhHhBEMSVn+EWlpD/9fbtqJo0 CWq1WuYMkhnqdLsRjcVk5Ofl5cFqtaKgoABajRYEScBiscBqtcqcQCIEjuPgcrtgd9ixY8cO7N69 G8FgENdcfTXKSktBk6Ts2TzW3o5J5eUoLC5GwO9HLJHAwYMHs5G/dx+av2oGy7L4/MvPowRJUCRJ skVFRcjLyxO9pQrFW/fcc8+q4XA2YX6Ac8455zyKojbOnj2bqa6uRklJSRbySYoExw+tMJfLhX5P v6z12+12OJ1O2O12uN1uhEIhlBQWomL6dGg0GpBp374kz8m0fN+8ZQsWzJ8PgiTl1X8iEQhp5ENC fhrxQlon4HkevLT607GBnt5enDNvHgDIBCD5BIwmE3w+H463t8PlcsFqtcqcqqCgAMXFxSLxxmIo Li4GTdGi9ZIOVhUVFmUpodu3b8era9fisu9+F5MqKmROUFBQgB27d6PE48GUujq0d3bisssvRzQS RTKexL49+7Bt+zYoFAp82fwlBAgqnVaHgoICAIBKqQIIfDAS8ieMAObNmzeLJMmPZsyYQdfU1KCk pAQlJSUwmUzINeamJ5gHx3NIppLo7elFMBgEz/PwB/zo7e2Fw+GA3W6H3+dDUUEBmmbOhE6vB5UO 5EgBHckeJwgCep1OdAsD0KvVWaIgE/kyEZwwuLTsl1d/mhB6+vqQb7XCoNcjxXEyAUhDdE+rYDIa 4XK70Xb8uIx8SU8pLi6GIAhIJBIoLS2FUqEUzde0c8qaZwVN05g/fz54nse2bdvwxrp1WHbxxaiu roYqmYRKpcLUqfXYtm0bnE4n5s6dC6fDCT7Fo7WlFfv274Nao8aO3TtQWlYKlUqFeDwOhUKByTWT hR07d9zyzDPPvHgq3FEPPvjgmSK/miCInTNnzmTr6+tRXl6etfIzWX40FkVHRwfC4TB4gUdvby/a 2tpw/Phx2Pv6YDIYMHvWLFRVVcm2uFKphEKhkI+Zg2VZeL1ekCSJsrIyKNKBGsmul47sCa8Zhjlp 0AwDlmFA0TQOHTyIvLw8kSVnxg5oGjRFgU5/j2EYGAwG5Fut4HkenV1dCAaDiMViiMfj4DgOKpUK wWAQapVaDEFLQABqtRpKpRImkwnJZBIulwv79u9HntUKpUKBRCKJgC8AQiCw9autgsPhIFiGRdux NuzcvRMESaCltQWlpaXIMeTAYrbAmGNMOp3OZ+7/5f3nXHLJJbtPh78z4gBNTU1WkiT3NDY2Kurr 61FcXCyaeSYT9Fo9kikxiicpVB0dHYjH44hGo+jq6kJfXx86OzuhYBgssNlgys0VJzhtwtE0DZIg QFOUKAJOiN2TJIlp9fXYf/Agzl2wQNYDkHkEhuQ/zw8dMzgAd4L877XbcemyZdBotfKqz+ICySSS GUeGYaDVaFBgtcLucODIkSMIBAKyf6KsrAwcx6G0tBQGvei5lZxaep0exUXFWLJ4CVKpFDZv3oy3 3noLy5cvh0qpQsgfwtZtW4X2jvYfX73q6sCBlgN/TMaTRfF4HPsO7IuzLPv7jo6Op15//fXB8eBw 3ATQ1NSkBdBaW1urmTJlCoqLi1FUVAST0QSNSoMUl5LluyAI6OzqRDwex+DgILq7u9HV1YWenh6U FBdj1owZoh3PMOKKkwggvfr4gQEoCwpEAsgQAQRBYPr06Xj3/feh1WiGXLdktrUjIR4Z8l8+ZrJ/ nkco7VWsKCvLQrzsVeQ4pNLexUQyiWQiAYZhkEwmQTNM2r+hw76DBxEOhxEKhRCNRlFWVia6hytF p1Mm6HV6AMDSpUsRj8fx2Wef4c0338ScWXNw6NAhwel2/rilpeUlALhg2QWv33DDDbV2u/0/otHo Tzdu3OgdLw6BM+MAuwsLC3OmT5+OgoICFBQUIMeQA7VKjRSXGjK3BB69Pb0IhULo7+9HV1cXOjo6 4HK5MKOhAdOmToVCqZSdN5mslqJpEAA4goCKokCr1cMSgcVsRjAYREFhIQhgeB0AQytfUgQz7X+J AxxubcXUKVOg0WhOXvmSsyhNAEwyiSTLih7HeBwMTcviRqFUYsfOnVnu6UQiAYqiUFlZCRZsVnqa xAkuueQSJBIJfPTRR/j404/B8/wdR48efSlz4l999dVWANeeAe5kGBcBzJkz5wW1Wl09d+5cWes1 5oi2OcdzYiAH4up3u93w+rxwOp0y8kOhEJacdx4qKypkmSwhnqFpUBIBpAM09JQpCDQ3I+e887KT OtJw0UUXAQAo8iQ/R/Z3h/lcJgaOA8fzKCosREF+vvgsEvIzVn0ygwgyB8MwsleRomkUFxVBpVRi x65dOHLkiOyeTqQ5Rnl5+Un3otfrUVhQiMsuuwzRaBR9fX0YGBi4CcCfx4On0cCYlcA5c+ZcStP0 44sWLSLKyspQVlYGs9kMg8EAnkv783kOHM/B5/XB4XSgr68P7e3taG9vB0NRuPiCC1BRXg6VSgWl QgGFUgmlQpH9d1rpU6lUAIBEZyeUeXmgMtknQQAEgeKiIugNBvn1WEZmyhhN08jLy4PZYhH1EJoG LRGnpJvQNJgMxVC2UqT3MvQUpVKJ/Px8BINBdHR2ZsUz9Hox7C0Fm8THIaBRi6KsuLhYyncseOSR R3DTTTdtmSikZ8KYOMDs2bNNANY1NjYSJSUlKCwsRE5ODrRqLZKJpLjq06w/HA6jt69XRn5XVxeK Cwsx32aD0WgUNfIMDZyRJjs9sVlAEMhduBC9f/0rym688bT3OZI3cLRAkyRoloUCkHMG5dUvrfg0 F2AYRlzV6dWdyMo4Eo9z58zB4dZWHD5yRA5NA4DNZkNubm7GfYv/rHlWpFIpTJ48WYp5PGCz2f7Z 3Ny89wwf7eRnHeP3vyovL1dUV1cjLy8PuaZcOaAjJW4IgoB4Io6u7i7Y7Xa0t7ejo6MDFaWlWLhw IXIMBllO0mlTShoj+fFZhkEsFoOQSCDR3w9FOl7+TYAULWRZNosQkokEEplEkFYC5ZGW91Saa0yb Ng0ajQa79w7hkCAILFq0CDqt7qRcRWueFeFwGJWVlYjH40Q4HN5ks9ksE5GFnPV8o/3irFmz7mQY pmbatGmy+1Or04IkSKQ4MfdO0pS7u7vhcrnQ2dmJrq4u5BgMWHjuubDk5qKtrQ0Mw8ilzWq1Wg7k jARSTn/BypXoXL16dDc8DnFwukEzDJQqlZiuptFAo1ZDo1aLr9VqqKXP1Gqo0n+rVCpwHIeWw4dR XVWFutpadHR0oKOjA11dXdi2bRti8ZjsJZUGRVHIs+ShsLAQaVGbQ1HUW6PF12hhVAQwe/ZsFsCj jY2NsFqtYvBDp4dSoZQRz/EcUlwKngEP3G43Ojs70dHRAYHj8N1LLkF+fj7UGg08Hg9Wv/wyGJYF w7KiyTaKyVeqVEip1UiFQoj29Z3+N2cRKIqCUqkUiThzaDRQq1TQpIdapUIqmcSGDRtQXFQEnVaL 6fX1KC0ulnWiY8eOYc+ePVnIlwZJksiz5KGsrAwlJSWoqKi4NJ02P2EwKgLgef6fubm5ikmTJsFi scCgN0Cj1iARF9OuOI4Dz4lhXbvdjt7eXvT09CAcCmH55ZejtLRUXu1XXXUVaidPxh/+9Cc53XtU N0qK2TbF112H43/606h/R5zFQWcQgjqNcI1GA1WaQ8Tjcbz+5pu46KKLMH3aNKjUauj1esy32aBS KmUucPjwYfT09MjKM8dzCIaCiMaiyLPkwWK2oLKyEuXl5URubu646w+Gg9MSwMyZM2eRJHnhzJkz kZubC5PJBK1OK696LsNX7na70dXVhe7ubrhdLixbtgxTp06FJp1dI2XYrlq5EtVVVfjTE0+IRRij nHC1SgWyrAxRux3htrZR/WZEmCCxsHvPHjz/4ouiaEgTuVqtRjgSwWv//d9YsXy5iHyVSh4mkwkX XnABwqEQuru70d3djZ07d8qpb4lkAsFQUM5qzjXlIj8/X+ICk2w22/XjQfZwcFoCEATh7crKSiI/ Px8mk0lcyUo1klwyC/mxeAytra2w2+2w2+04f9EinDNnDgw6HTQqFWiKykLM/1q5EpUVFXjiySeR OJETnEIGczyPkhtuwNHHHjsz5E0QNDQ0oLOzE3f97/8NlmWhUqngDwbx0ssv43vXXIPG6dNFxKfj GhIRFBQU4JKLL4bL5UJXVxfa29uxe/du8DyPWEws5ZeUaq1OC3OuGaWlpSgvL0dpaemf06VzZwyn PMnMmTOXUBRVUlNTg5ycHBgMBug0OkTjUTG6J7F/gUd7e7uM/IZp07B48WKYcnPBKhQjIuGKK65A eXk5XnjxxVEjR6NWQzVvHoKHDsF/4MBEzMEZwaGWFny1bRtuv+UWWSysX78eP7rpJsxsaJBFgyp9 zPy7proa5y9aJIvNffv2weFwyOJO8hSSBAmT0QSL2YLCwkJUVlZqKIp6bCLu/5SOoOeff/7Dmpqa 3JqaGhQVFYl5fSo1konkUH2dwCMSiWD//v3o7u4GRZK4+qqrUJJ2ZJwOpk6dCgLAG2++iTfffhuT KithSufED3vDFIVwOAxWoUDvX/6ColUjhrpPglHLd4IY1di3fz9+cscdePWVV1A7ebJMwOfMm4f8 /HyQFCXmKRCEeBzGi5mbm4tYLIau7m7Z+VVZWYlUKgWaokFSYjIJTdNiwilJIhaLIRgMNqxcufJ3 o374EWBEDM2YMaOBIIjqSZMmIScnBxqNBjqNDvF4XPb1SzrA4cOH5YSOhQsWoLSk5JRm3Ynw/ocf 4pabb8ZPbr0Vq664QizKwMgI0mg0MH33u/Dt2gXv11+PGmETIR6SySRu+vGPsXnLFvz0zjuxds0a 1FRXy5///tFH8dBvfiO7fDNlv0qlEsVAhihQq9VomjMHkUgEvb29OHToEDo6OqBSqmQOwAs8QEAO sRcWFqKiokK9YMGCu0c9ySPAiBzg+eef/6CsrKxAWv0mowlKlRLxeFw2UwRegNfrxaFDh9Dd3Y1c kwlXrFoFvV4/aqQQBAGGYfDEU0/h6LFj+P611+KLL79E05w5I+sCNI1wLAYyEkHfunUoueaaM52H 0U8YRaGosBDXXX891q5Zgyl1dVmff2f+fDhdLryzYQMWnnuuXIou5SsOl7jKMgw4jsORI0fkXIeS 0hI5akiRkpuZlsVDLBaD3+9vWrly5SNn8jzDcoAZM2bkA2iUVr+UuCCZfdLqT3EpHD16VE7evHTZ MrmkaSzwnfnz8dADD+Ceu+6CwWDIWlHDAUEQUKlUyL3qKvh27YL700/HfM0zgdmzZuEf//3fePW1 1+T3EomhzjJXXXEFPty4UUY2RVGyk+gkbpA+zps7F6lUCk6nE0ePHkVXV5dMODIQkGsp8vLyUFFR YbTZbMvP5FmGdQULgvCo1WolTCYT9HrR4cMwDMKhsJzdIwgCwpEw7HY7PB4PamtqUDd58sl+/FGC yWRCIpnEwUOH8OObbz7t91UqFSJmM/IuuABHHn4YeeefPybtfiwiajhoamrC7NmzMTAwgA3vvQdr Xh4AIBaLYdPmzfjO/PknXU+hGKrJkPITkJGidv6iRfjks8/gdrvR2toqZlaZTFlFriRJwmAwwGw2 o6ioCFar9RFkFHuOFYblADzPX1ZeXi52oNRqoVQpkUgmkOJTQ/Y/z6G9vR0DAwOiw+eyy2AwnLZO 8ZTAMgxuu+WWrFj/SIOmaSiVSuRddx0Chw7BsWHDmMTOREAwGMQb69bh948+is7OTrhcLgSDQfyv Vavw+9+drJ9JRKBQKGSzUJnmAEqlEt+ZPx8KlpX9KU6n86SuJwIE6LQ6GAwGMW2trKw6XYcxLjhp uTY0NDQyDGPIy8uDTqcDy4j1+ZFIBHyKBw9ejvd3dXXB4/Fg1syZKCkp+BGtkQAAIABJREFUGffq Hy+o1GrEp02Dfvp0HHn0URRceimIjE4gZxO6urtx8NAh3HbrrSgtLcW6t97C6ueek1O6RwJJfIEg wAPikDKVBAGXX345Xn/jDdjtdnR2dqKoqAg5OTny7wVBAMMw0OvESqXCwkJCrVbfC+A343mOkziA IAiPFRQUyKVRKpUKXCpdZctzcnZvV1cXBgYGkEqlcOEFF2Td5DcFbDryZr3uOoSPH0fPP/4xcSc/ hZWwY9cufPX111h2ySUAQWDZsmVYuWIFnn3++RF/k8l9SJIULQGFImsoFArMaGiAyWiEx+NBR0eH zAWkukmpHF6qW0zXI/xwvI85nAj4TnFxsVwkydDMUE+edLIHz/Po6+uDz+dDVWUlrHl5o7L5Jwwy JlatViNn6VIorFYce/xx8MnkmL2Cw4oJDG+Cbnj3XbQcPoxrrrwy6/3LLr0Ud91556hd0lLCSFbm czrTefnll2NgYAB9fX1ydbTc6Colzr9GrYFGrYHRaER+fn5ZunXemCELaw0NDVNomlaaTCaoVCqx +RLLyGVbPCcqgJFIBP39/fD7/Zg+bZpcuz4cgkY7orFY1utINDoygjImVqVUgmZZWK+5BlG7HV2v vjrmoM5oIJVK4bkXXoBnYADXX3fdeOb6JMjsOaRI1wUqFQrU1dYiGo3C4/HA4XDA4/Gkq5iGWuII EKBUKqHT6WCxWAi1Wv3z8dxDFgEIgnBPfn6+bJ4wrNiLJ5VMZcWrBwYGMDAwAEEQUFdbC6VSOarV M9zgOQ6+/n60HT8Oh92Ovt5eeDwedHV1IZVKjQpBarUallWrQCqVaHviCXDpwsqJAr/fj9/+/vdg FQrc+IMfjDqEPZrBptPgpMGmCaGurg5er1e2sqS4gNQnQRAEuTaCpmmYTKbLxvNsJxLAYrPZDJUq 3YWLYeVqHoEXZCJwOp0IBAIoKyuDVqcb16SmUimEQiH02e3gBAGlhhzk5xegsLAIuaZcVFZUIhgQ O3gKgnBywCgDlEolGKMRlksvRXxgAO2rV08Ygjq7u/HQb3+L4pIS/PCGG05KOR8PnLgIpHxIpdSk QqHAzBkz4PP5xKRar1dudJXZHCNTDGi12snjuZcTCaA4JydHXP3pZEguxWX11YtEIhgcHEQ4HMa0 qVOhGysBpCe29ehR2O0OFBQUwmzNBxUOgVGwoFkGjIKFWquByZwLECSOHmuDy+UaEUkkRUGpUsH6 /e8DAI4/+ywS3vGny0uI+Xr7djzy6KOYOmUKbrr+epBj5G6jFTlSO5nMKqYZDQ0IBALo7++XS+Mz kS8IgmwK63Q6GI1Gtc1mM4/1WWUCmDZtWpNCoaCl1U9TNAgQSCQS6SoaTm7i4PP5IAgCptTVQaPR iH6K0a4qAIFgECaTCcFwGPF4HCRFIhUKIRmJZJVrkySJ1iOtoBlazPo9xaSqVSqoJ01Cjs2GZCCA 408/fUYIevuf/8SLL7+MWbNm4aYbbhib72AcnIZmGLE+gmXhcDhgNJlQVVWV1RAjE/lSsanUxEKn 00Gn0904bgIAcJPRaJQVEpqmRXdvujhCkj9StUthQQGMJhN4nsc9P/85/vinP+HTTz9Fv9t9yslN JZPweb2wWvLQNHs2DAY9BJ6Hfvp0uD/5BALHZY36qVPFNGqtDrFIdMQHkapt89NcoP2llxB3ucaM nGQqhWeeew4b3nsP8+bOxc0//OHYZf4YQBAEdHV34/0PPsBTTz+NX/7qV9j48cfgUinMbWpCKBSS u6MMV+CqUqpkIlCr1d8d08WR4QgSBGGaXq+HQqGQ05oFXpBbsvLpPQtCoRACgQDmNTUhR68HTVH4 w6OP4lhbG/YfOICnn30WkXAY0+rrMX3aNEytr4ci3VsHAHp7e6E3GORevVJ1DskwiDoc8gRKtfxa rTYdcCGQTDdOMBmNw5qdKo0GOQsWQFVZiWh7O4788Y+Y/uijo54Mr9eLJ59+Gt09PZg3b56I/DEi dLQwMDiIv/zlLzh27Bis+fmonzIFyy+7DCUlJYgnEoiEw5g9cybWvfkm/H6xbV08HodapR7SBSDI /Y3SfoFTB1GGgUwCKNXr9XJhptTxSpL/oiKWQCgUQiwWw+TJk+ViDIqmUVtbi9raWlx5xRUIhUI4 1NKC3Xv3wpibi4rycvmCnCCA43iQNJXR5w8AQUCRl4dAayt0tbUARI7B87wo50kCKY6DSqkc0eeg YFlQDIP8a69Fx29+g+6//AVVP/0p1KWnb6/b3tGBp//8Z/j9fsydOxc/SiP/7KAf0Gu1WLJ4MW6/ 9Va5+ZQEgiAgpVCgorISKpUKPp8PwWAQgUBALpSRxIDULlev10OlUo05EifPpCAIJrVaDYZhQBJi tUuKS2V5n6R++6lUCkajMasBcyZotVrMbWrCzTfdlIV8QESS2WyGlOotxbzf//BDHGdZbLnlFvg9 nuwTpoMmGq0my908nIjRqFSwLF8OSq8Hn0ziyCOPnFbmf719Ox557DH4/X7Ma2rCLTfdJCt8I8IE mH/19fXDZkyxCoVcyl5eVia3p41EItkiIB0lkhRItVqtONUtDwcyATAMo2QYJl3mRMrh3szWKbFY DLFYTL6508EpFa10VyxpLDn/fBQWFoLz+/H1jh3YsmUL9uzdi46ODtEblkqJSMnQxIcDpVIJWqOB 9corAQC969YheOTIsEgQALy5fj1Wv/QSkskk5jY14cc/+tHoZP5ZBKlghmUY5ObmygsvEolkd0BN K4IKhUJOul20aNHU4c5JEISSIIgnCYJ4hqKop6T3SQCor68vIkmSGKrJF9l/Kjnk/hUEAfF4HLFY DGqVCizDjMvDxioU4DjupM9ZlkVlfT3OeeQRzGBZLFq4EDMaG1FZUQFzbi4YmkY8HsfpMnuItJ+9 4NprAYqCwPM4/LvfIRwOwzMwIF8vmUzimWefxbvvvQdBENA0Zw5u+dGPzprMHw1kzh2bLpezmM2I x+MyAcjNMjM4AE3TmURw7ginZ9Rq9Z3V1dU/0ev1d6xateoqYEgHmCI1YJI6Zcu1/fxQU6VkMikq IhoNGJYd10pw9/eDpmgolBbxYdOiQALL+ecj1NYmTwjS35ESK/rsdhQVFo4ofoB0roDVCtPSpRj8 8EM43n8ft5eX47ggID8/H5decgkUSiX67HYAQNOcObj1xz8+LfJH/bQTQEQMy4JJJmHOy5M7jsTj cQAncwDJAkqHmuvFWyAYiHskkQAolUqls9lsaGhowMaNG8EwzPUA/kECogKY2bSAACGnfElHAGI+ YCoFfbov33igdvJkkJTYIzAzSVKifJJhoK+ry0K+NKEkQaK0pGRY5GeuHpqiAEHA8x0d8uc/ZFks NZthIAj02u0y8ufMmYPbbrll2C1mzkZO4ViAZhjkGsU2O4lEQp7/IfyLfzA0IyvvPM+XLViwoJJh mFcxtDGWNxaLdQeDQRw+fBjhcBjJZLIESIsAQRCKZfmf1rClyJMUipQ4QDKZhDbd2HAskMnaCIIA z3EIp2Uble7wRQAgCUKW9SRJIpg2O6WTjBY5f3jiCbx/5Aic6Sycongc13o8+D9OJ8p94l4LkUgE t41i5f+rgKFpmM1mJBIJubPpSVwAkMvRCYJAeVn5svfeee/4jTfc+L3McwmCgP3792Pbtm3o6+uD w+EoBNIigOf5QikLR5ItHM+BE7is4IPkFNJqh/rojwdycnLQ09uLWCSKktISkBQlNm/IsAokxBqN RtjtdkSjUeTn54/q/N3d3XjxpZdgVKmQe0KjaFIQ0LRjB96aNg0f79uHdzZswPLLLx/Xc4wLxjBn FEXBYjaf1Komcy8EAYJMAPF4XOxUTgooLinG0qVL5WBRKpXCe++9h2hUdKb19/ebJk2aZJA4QJ5k 66fPKgZ/MjyAUmk0AHkbtvHPAYEcgwGFhYVQsAoAhNz7L2ukM2CtedYxxRx27NwJQRBwaU4OmGGC SCTHwZyOZu7afUIjrVGy+bGkn403UgoAFotFLsABkNVfQCKCzE6kwWAQ+/bsQW93N5LJJCKRCILB oGhBZIDf70d7e7teUgJJALLJB2Ho78wwpHQDVLrg4UxArxcbI0WjUSSSSfT3u1GSUU/QZ7fDmmeF IIil0hqNZtSrp7OrC+mbHfE7xvRn3d3d31oRAEDuRC6t/lOB3+9HLBZDZ3c3HE4nOjs7QRCiB1Uq N5Mg/dpDA4AgCAHZ4ZPR6GGkEQwEkEgkoDqh29VoEZT5LXW6HbpWK3YZAQCSIkWvHkViDC0MZJhc IzbN9qfPPRxsT09I9WlS0L9xOGEOY+l296fLt4xGo7KTrqO7Gz6/H52dnSN+P5FIBARBiEpn9Wey e55Lr3oumxAkVhMMhZBMJCZ05ZhMpqzXma1TxgrS/oJUVRUc8TgKHNmbb3oVCmwdFNvq2c45Z/Qn /hdwin730KalUvv7E4HnefT394PjOAwODgZWv/DCZq/XWwOgdrhzEgSBVCrlANJKIEEQHknOyyVf 6fCvlIYktXcnCAKhUEjWRr9VkEbQJ59+iurqaggAts+ejcKtW1EUDiM/kQApCNDH4zABmP/d72Lx 4sVnftkzPsPI4Ha7R0R85oWl3EGSJFt7enouJwhiLoAmAFzG+DMAliAIcByXRQBOqbVpZvCH48Wd NqVIoMQBwuk4/pjgG1g9giDg5VdewRdffim/t3PvXvSkV/tSiM31KAA/zM/H7X/841lF3kSA2+2W bXwpUkuAkJFPgEA8HofP55MIwAsAgiB8DeDrzHMRBPEniM4hAPgnMEQAXdI+fbLGKbkb+aECRWmf nWg0ilgiMSFInSgE8DyP5154AV9v3w5AdI/e8qMfwev14qWXX8au3buxKx7HyngcqmQSDT4ftPxp t/U7OzCGeXP398umnEQEIv6HzuFyu2QzUaPRdJzidMcBKARBIAGsAYYI4FOpiaHkdJCsAckHAAFy nkA4HEY8FvvWrJ5UKoWnnnkGe/ftAyBGHG+/7TbMaGwEAFx04YUQBAH9/f3oWb0aXX/4A7hYDG3P PYf6Bx7IPtm3zCJwu91Du6SmE3UkkDiB0+mULQSSJNtHOpcgCI0nvkcCQEtLSyKVSvFSN0upBkAm grRlIKUxx+NxxE8wK74xGCait+6tt2TkK5VK3H3PPZgxY8ZJQSKtToeC730PdNoEbX/pJST9/gl1 447Fzh/NkAhAo9HIvhdiiP+D53hZ/hMEgUQi8clY7le2sXiej6d9xGIGaka7V4kIJFaUTCbFPP6T nn4M/vLxjhMgEolg4bnnir2INBrcd++9mFI7rPILlUoFVq9HQTqvPxUK4fgLL0wows4YTnhed3+/ 3EpPnd4TQXaJg0AwGEQ4HEYwGATLssKnn3665/QXGYJMAvBL4d5kKimagPyQXwCA3NeXIAh0dHSc VMxxIvj9foRCodE/+ziG1KLth9dfjwf+4z9QPWnSiN8lCbGSqOj660GmM2vann9+bHUEE0TIHM/j r3//Ow4cOoRkKjXiHPb29g71IUz7NeT2soTIIVKpFMLhMGiaHrNpJgsUgiD6wuFwfigUEhsbp5JZ cWeJA0j76x09dgwulwsV5eXyySKRCFpaWnDw0CEcPHQIBEHgB9//PqbVT2hruywgCAJ6vditlBpF capKrUbYZEL+1VfDvmYNUqEQPNu3w3r++WftHocDnudRXFyMzZs344XVq1GQn4+G6dMxvaEBpSUl AICWlhb4/X6o0+3lJA4g+V94joe73y3rboIgDJzqmsNBJgF8HgqFZkliIJ6IgxDSFJmx3420e4dU Dl1RXo5/vP469u7di3gigSl1daifOhUrV6yQ3b0Yush45+uUQBDEsJ3ChwOSJKFWq1F8883g/H5M vf9+GGtqTv/D8d7bCO+zDIOFCxZg4YIFcmbw/v378f+99hocTid+ef/9+GzTJnnDaukoKX4EQSDg D4jFMwE/KIpCNBo9Ptb7kwmAoqg/RCKRu6VtWBPxhFzqnJmwIXW36OvrQ3d3N+Y0NaFm8mQsXbr0 JG/etxXUajX40lLYXnrplIklY4ZxEjhBECgvL0d5eTkuu+wyJBIJ0DSNzzZtkjeslDK2JROQAAGn y4l4Io5gMAiCIBCPx98d67XlZXP48OG+WCyWSveekYMH8oYLvGgKSinIKpUKLa2t8PT3Y0Zj41lB /kRr1JmZRQaDQRQZZ1FBHS+wLAtHulWM0WiUij6yooocJ7bjl/I0U6kUYrHYC2O9VhbfJAjCJYUP 4/E4UslUVgt4QRBkZUSj0aCjvR1Op3NCkTOuDJxvGEHfBGzatAkKhSJrt9LMufH5fEgkE/D5fdIG FqFPPvkkMNbrZBEASZJfpfeYRzgSRiKZyPIEChDEhkdpIuiz22GXijn+ByCH53l0dHTA5/PB7/cj Ho+jt7f3G7k2MDyRjzQ+27RJ3qdYJgAMKYAOhwOpZAo+n0/q0t4ynnvKIgCaph+VChK9Xi9i8Zic HAIMiQOtVgutVguSJHHkyBEEg8EzmpizDalUCna7Hcfa2tLskkOK4+D3B8Sdyvv7IQjCmBA0njFa CAaD2LlzJ8xmMywWC8xmMxiakXcmDwQCCIaCCEfEXcnSldbrxjM3WXZTa2vrjvLy8lg0GlW63W5Y zGJn8BNjAhIB6HQ6tLa2oq2tTfS8nUUYb+j5yJEjIEkSRqMR1jyrHNACIRK0xWwGx3EYGBiAWq2G 3+9HYWHhBN/92GDL55/L281I+xMTJCFzAEc6vO3xeKRMLSEUCo1rX6GTbCeapptjsRgCgQD8Af9J qUQExPQtrVYLvV6PI0ePYu++fYhEIt+K1ZMJ4XAYsXgcPp8fJpMJrIIFRVOybUYQBCiaAsXQ6Ouz o6e3F8Z/sSUjCALWrl0Lq9UKs9mM/Px8WCwWcR5IMRQfCAbApTj0e/qlDSo7N2/eHDn92U+GkwiA oqg7pOwSt9uNaDQ6ZAlkFCNIdqlGo8GWLVtw8NChM3nuCQeO4+B0OjGpohKTJ9eIKdPy3gZDR57j QALQ63WgSQqpRDLL7B0zjFLnGYnQN27ciJbDh5Gfny9zAOkzkiDFZtIg4XA5EI/HkUgk4Pf7nx7v 7Z5EAEeOHGnheT4sWQMDgwNZ1cFSIqLEAfR6PY61tWHv3r1D6dvfAvB4PNCoNXI3LT69WaR0FNKt 2bj068rKSlRMqoRGq0UoFBoXhxpL0udwkEql8MRTT6GwsBBWq1UeEvIDgQBCwRAEQYDD4ZD2IuTf eeed0e+gcQIM6z5jWfZDadvTgYEBhMIhECBkS0AiAr1ej5ycHOh0OmzavBn7z7R9+xmunkwbub2j Ayq1GjSTVnMEcadQCQHta9bIfwvpEnVxly8KiUQSPT09o77tV155BWvXrj2zZwfwxhtvoKenR179 RUVF0GrEfZn8fj86uzoBAO5+NyKRiLQp5f4zueawBEBR1HWJREKQ0oz73f1iOphAZMUGDAYDcnJy kJOTg87OTuzZswder3fccj7g9+OXv/wlHn74YQRP0TH8dCBuuGSBLt29TEKwkF7xABA9oYWM1KcA AIw5OSgqKhrVBHZ0dMDn9+OGG244/ZdPQdTRWAx/fu45FBYWorS0FEVFRcjPzwdBEhj0DqK3t1fe l7Gvr0+MyEajiEaj947qRkeAYQmgtbU1RlHUzkgkglAohIHBAXHHb2SLAUEQZALIycnB559/jn3p uPx44PkXXsD3r7sOt/z4x1i3blxWDQCRlWY2WhbSI5FMYtPmzXj7z39G10cf4bPNm7F33z70S23Y 0r8nKBKJzAjdKYZCqURLSwteXbsWr772GgQAsXh8TL4OAsCaNWvg9/tRVFSEoqIilJaWgqZpdHZ0 wukQm0VSJAWnw4lIVBTPPM973n333THF/0+EESMoNE2vjEQiQigUQigUgsvtEmeRz8gSAmAwGGAy mWAymdBnt2PP3r1iQ6cxQn9/P6qrq7Fz1y786YknUHViuvYoxQMIsd/OcCXeCoUCSxYvxoVXXAHz ihU47/zzMbW+HiRFwZ7ufMbxvGjpZCDsVLK8qLAQd999N3bs2IGrr7wSq1evxv59+8bkBfV6vXhl zRqUlpairKwMRUVFIAgC3d3dYg+ltOkaiUbgcDqQSCQQi8UQiUTG1RswE0YkgCNHjvQC6JDEgMfj QTgUhkCkS7dAyFFCo9GI3NxcmM1mfPrZZ/hy69aRV8EwgxcEPPDggzDl5uLTzz6DQqHAueeeO+rV c+IQeB52ux2RcFjMAzjh87jdjikXXABCEMDSNMwmE4oLC2FIt7wJBoNwOhyjFjn1U6fihzfeiJ/d dRdKS0vR2Ng4JkvimWefBUVRKCkpgV6vl8vwSEKs95Pq/ux2O2KxGHw+H1KplH/9+vVnrHicMoDO MMy1kUjkq2AwCK1Wi96+XlRXV59kl2u1WhiNRgSDQXR3d+Pt9euh0+mwZMmS04Zpg6EQnn76aTz+ 2GP4ats2/PpXvzrtfgGnA4qiUDVpklzBLOkYElLiHg+M06dnITdTm9dqtTAYxhbKnj1nDmbPmQMA WLduHVxuN26/7bbT+jA+/vhj/PWvf0V9fT10Oh1MJpO43cwJyPcMeOAP+BGLizuR+/3+345hSkaE U2Ln6NGj2wAckRpD+fw+OJ1OANkhYkEQkJubK3OBtrY2fLhxI3bs2HHKi/sDAfznf/4nmpqaoNFo sGTx4vEj/wSukms2wx8UWbokzyWxQGs0IE6IBEZjMRAUJTenGq38Hg5WrlyJZCKB51944ZScoOXw Ydx7330oLS1FZWUl6urqUF5enrU/EEESiEai6Hf3g0txUuJH6J133pmQTaNOm0XBsux3otGoIOWe ufvdCKdTqKRsYUBcdWazGbm5ubBYLPj888/x2aZNOHr06LBsX0L+smXLsGTJkjHJ+NEoWFLQKhqJ oqOjQ2wxk5alTGbPQUJsNClATL/iOG7IdBwGRiPTKZLEz+68E7FoFKtXrz6pHQ4BYMDjwe233w6V SoXq6mpUVVVhxowZmDVrFurq6jClbgom10xGVWUVlEqluOE2yyAcDqO/v/+G0SB3NHBaAmhtbfUQ BLFeahApbW6USqUgqgFD5dw6nQ55eXmwWCzIzc3F22+/jc82bYI7o7wJAHw+Hx566CEsX74cixYt mqhnOWmSdVotjh9vQ2VFJZQKpVx1rEw3uJK2fKfSu3BYrVY47PYxO3DSE5A1SIrCXXfdhUg0ihdW r85qpplIJnH7T38Kr9eL6upqVFZWykeKpECRFBiGgUKhQE9PD/wBv8x9A4FAy4YNG96cqDkbVR7V 8ePHV8bj8UQoFILf70cwFITD6RB9A2llUAKLxSLvL6zVavH3f/wDn376KcJphcw7OIiHHnoIV15x Bc5dsGBicgkwMnIaGhqQ4lKIRCLgOLHRpcpkEnf1ZhhEolHwgmg6MgyDktLSCeFAgJh+9rM770Qo HMaLL74o11j+8pe/xP79+1FXV4eamhoZ+RKHIkkSJEGir68PwZDYL9nj8cDj8fAOh2PJaHA2Whh1 6S3DMPcGAgEEg0G5e+XgwGBWTwEC4lYuhYWFKCkpQWlpKViWxZtvvoktW7YglUrhq23b8L1rrsE5 mUWZZ8r+TzPE3b7ViMdicPbZIaT3PkwlkvB4POC4lLxNzUQDRVG4+667YLZYEI/H8dzzz2PDu++i trYW1dXVcn9Fg8EAkhgiAHe/G+5+NwYHB+H1edHX14eBgYFXPv74Y8fprzp6IMZirlRWVu5RKpWN ZrMZVqsVOq0O+fn5QzuFEZDzCOPxOOx2O1wuF5xOJ0pKSrB8+XKct2iRWOv//wCMhVxSqRQ++vhj 3HX33aiurkZ9fb08ysvKxQ0iKZH9+3w+dHV2IRwJw+F0SJtMD7722mvjL5keAca0yQ/LsrPC4XCY ZVkly7KgKAqeAQ9IihQzgIUhc0qlUsmBDIIg0NPTg5dffhnBQABLliyBxWKZ6GfJgolfyxizNQCI inIikcDf/vY3PPLoo6ioqMDkyZPllV9WVibvDkqRFIKBILq6upBIJjA4OCgtIN7tdjedhScaGwG0 trbyNTU1S0Kh0BcMwxAsy4IiKQyQA6ISqNUhlUqJbV8IMVgksTSKouByufD8Cy/A7/dj6ZIlqKqq mrgnOQvs+0yB4zgEQyH87ne/w9tvv43q6mpMnjwZU6dORU1NDSoqKrLYfjgcRntHOwRewMDgANz9 bvT29mJgYOCuDz/8cMwp36OBMbffOHr06FZBEFb7/X54vV6EwiGEwiEMDgzC5/fJ+wtID6bX65Gf n4+CggIUFRUhNzcXa197DW+sW4edu3aNrdX8CCMYCuHgwYMTMiGxWAyff/75GZ8nHo+jo6MDt912 G7Zu3YrJkyeL5t2UKaipqUFVVZWc4UMSJIKBINra2gABGPAOYHBwEN3d3RgcHNz81ltvjTvefzoY 1z5vx48fv7WiouJcv99fJ5WMS4PneJhMJrmSWOIE0muGYaBUKvHOhg3o93jg8/tx7oIF4+47CAB7 9uzBkaNHUT8BFUgMw2Dt2rWYP3/+mGoG5MCTICAcDmP7jh148sknodPpYLVaUVVVJbN+SeOXxKPH 40Fvby8okoLX74XH40F3dzc8Ho+3t7f3zDtYnALGvdFfR0fHlLKyMhdJknlSBwvJJOR5Hrm5uXL/ WhBiBtEJHS2xf/9+ePr7EQwGce6CBeNuC7Nnzx7YbLZTfme0Gj5N06icNAltbW2oHaHIdCTgeR5+ vx9vrFuHTz75BFVVVXC5XKivr5cJoLi4OMvN63A45C4gPr8PHo8HfX19cDqdMZfLNeWLL744q00M zminR5VKVRIOh70URakzKRoA3JwbFotFriUAAbnEObPHfX9/P9asWYP29nbMbWpCQ0PDySVlpwBB EHCopQW33nrrhJlxDdOnY9++faMmAGkjjf7+fqx+8UXZwTMwMIBUQFN5AAAK3ElEQVTa2lpUVVWh qqoKeZa8If8+CHR2dsLn84GiKHF7GE8/ent74XA4Una7ffpHH33knJAHOgWcEQG0trYmJk+ePCkU CnWTJMkAQzECDTSw2+0wm83gBV6ubGFZFvn5+VmbKPv9fnzyySfYunUrli5ditmzZmHatGlyb/xT QWdnJwrSO51NFEyfPh0vvvgirrrqqlN+j+d5hEIhuN1uvLFuHbZu3YoZM2bAarXC5/PJWv6kSZPE PoeE2O42Fouht6cX0VgUNEWLSTeefvT19cFut/MOh+M7GzduPDZhD3QKOOO9Xo8cOeKsrq6e6/f7 d0BsvwMgvduHTgu32y2XLhkMBtlPkJubKxOAVquFRqOBz+fD3/72N3zxxRdYumSJ7Bc/lX6wZ8+e M09JP4FzlJaVweV2IxaPD0tYgiDI3rm33noLmzdvRmlpKRYuXCiXatXX16O8vBwVFRWyk4kkSQwO DsLhcECAAJqk4QuIhTi9vb2w2+2C0+m89N133/36pIueJZiQzX6PHTu2p6ampiEYDO4BIDcRljY1 CgQDiCfiSCaS4obUOq2cWq5UKqHVauUS6JycHAwMDODVtWvxZZojNDY2orKyctjupHv37cONN944 JjPwdN8kCAJ1tbU43NKCmTNnyu9LiHe73diwYQO++OILFBYVYcGCBdDpdPD5fHJwp6ysDCajSdb0 BV7caznoD6a7opIY9A3KewP29vbyLpfr6vfff/+DUT/IBMCE7fZ89OjRQzU1NYWhUKiL53k1z/NI 5Yi9hjRaDSCI5UyhUAgmkwk5xhx5y1SFQgGtVotAICBnGlssFni9XqxduxbbvvoKU6dORVVVFYqK ilBYWAi9Xg+O4xCPx1FRXj7hjp85c+bI+/VJkdCBwUFs+uwzbG1uRmFhIebOmweDwQCO4xAOh+VE ztLS0ixFz+f1weVyyV1WpX5FkovX5XIlnE7ngo0bN26f4Mc4LYzJFTwaqK2tZROJRJ9arTZLNW0S i1eySoAQNe0cYw7MuWbk5OSIxRoQV57U1zYUCiEcDiMajcoKViIeh9VqRU1NDeqmTEFxURHyCwpg TrdTnQiQzDhpj5729nbs2r0bBw8eRCgUQn19PXJzc6HT6aDRaDA4OAjq/1Z3NS1yI2f4qSp9tNSf a2/PMGPPYvC4cWC9LOQUsoRckmPyE3JICIS95BfkF4Qcsn8ggT0F4iQnmwQ7ZozBEAwJMwTWEHAu s+OxW+rvbqn1kUPprVErUre6PT1OXhBVqlKPcT2PXtXn8wqBvb093Lx5ExR3QRMywMXXZ19jNp2p ybBgHqDX76HX79E4f3x6evqNR48eld+GfIl26QQgu3Xr1le2bXdo53Cj0UCtWlMjAgCwLVsegPyg hWYSSYx27qTBn0wmKmrGbDbDmzdv4DgO2u02Op0O7t27h729PViWpcLepoMyp5XN07L36Yvk2Lvd Lk5OTnB8fCzH5slWrXa7jWq1qk5Gk5AG7eCp2lV5ykgIxFGM8/Nz9Po9GX+Jy/LReIT+oA/HcXB6 egrXdc9OT08Pj46OLjfW7Rq2NQIAwO3bt78wDOPzWq3GWi0Jsm3JlTlDv9iuZVkWms0mrn94XXUU aUhJp5TSBKATMQSY4zhKuoYUTKrVqjpZe+3aNbTbbQRBANd1MRwOFy7aYx/HMjDW7u4u2u02TNNU HVXbtlGpVJRIZqvVws7ODipJFDPBZZAtmhGlTwARYjAcqHF+sq7/l/v3739/a41f0rZKAAC4c+fO t4QQj03TrJDaBb1JtpVo3oAhZjL4ETVsq9WCYRjKtVO4GgKf8um3mMQS6S2fTCYYDAaYTCZqppI8 QtZLkAQezVTSXIVlWRBCSPGsuezENptNFVxDCAFv5qHrdDEajuQUuOCKFOPJWL75/T5ev34N13WD brf7kwcPHvx2qw1f0rZOAAC4e/cuD8PwH7quf0x6N62W7ATalq1cNBFB13RUa1Xs7u6qk0c00cQ5 V2Qgt+37vpK4JbVTkrtPn2skr5IGT9M0dREBzCRsW6K6AcYYms3mwm+jKMJ4NJZqKt5MhdqjzRzz YC47j5OxWtUbDof/Pj8//+bTp0/XFnPall0JAcgODw9/quv6r03TNKm3T0NB2059FsDkMlUMGKaB Rr2BnZ0dNFtN1Ot1NUdPgNI3nBTPKdL2QhAMXEwH09Q153yBAJqmIQzlxktSRSGi0G9HoxFGQxnq hnEGwYUiBuMMcRirBbLBYIC3b9/CcZxoOBx+8fDhw59fWWOXtCslANnh4eEfTdP8gWVZjIhA31i7 Is/zMcYAlpAhSXVdh2VbaH/YRnunjXq9DsMwlPdgXIJE3iIdmJI8QHrhSgihhpLJQcsLWXzGESPG bDrDdDaFN5Maiunf00oe1ziCufQW4/EYw9EQruvCcRxMJpO/dbvd7z179qx/5Q1dwt4LAQCg0+nc 5Jw/E0J8REOqJPyp/Dab8vuLGGrTX5oMjDHlruuNuhSsqNVRrVVhVSwYpqGeT5OA5HB935dBsSge 0jzAPJgjDELMgzl8z4c/9yG4UFO4XCQdOy5D6zIuo6tPp1NMZ7Kz2uv10Ov1MB6Pz/v9/g+fPHny /L00cEl7bwQg63Q6n2ma9qWmaR/Zts2q1SroMk0TFVN2yHRDB4dU9ljwDkg+BYmCBhjUsIuioNJ9 mgzp841RHKleu1qsSeRY0l6D8mEYwvM9zKYzeL6nYvX0ej34vu8MBoNfPH78eCPFjqu2904Ask6n c1sI8Qdd1z+uVCqMxtvkEUzDVCuJ5PYB+WZmSZEmA4FIdQRkui4bM5De7nQ59Q18X3oGz/NUJPVE XfXVaDT62dHR0Z+xsE8a8f9KG+fZVgnALtZn02lemUr39/ebtVrtN5VK5buccytNAhJNNnRDeYV0 0MQFErCcK9VHIOJwSLCpnjM57AxDGTs5kWBTHc3hcKgmqDzPC3zf//vZ2dmPj4+P/4UM8Dn5onTl M9ti0UYEyACbBTXvflU+Nz04OPi00Wj80jCMTxhjGo3bLctS43lSMNc0DbqmL7h+TWgKbBKGUmQA u1BDB1SU1CCUSukUOZ0mnhIxBvi+H87n869c1/3Vixcv/oRyIC6rizeoK6xflyiFBEgwZlgO8rrl y+7z8qrs4ODg2/V6/XPTND8RQjSEEJwIQNHM02SgrWrkGbJX9mxjorWnUppwCsMwSiRzXrqu++XJ ycnvUQxw0f2mgG6SL6zLw5plxslFINJKS1590bXq+bz6MmUAwPb39z9rNps/qlQqdzRN+4BzbjLG OOdczSCmSZD8/xb27tFFYXIYY1EURX4QBD3P8/7pOM7vXr58+deCBs2mG4Gy4rmt3RMbWDI+XgUU L0jXIcRlEafwec65uHHjxnds2/5UCHFd1/W6EKLBOa8yxkzOeRSG4YwxNo3jeBIEwSiKojej0ej5 q1evnkdRFG7QqNm6Mr+/zN+9098uQ4BlRNgWAS7D4yCV5lmZt3iT+/8XAsQgApAl7jErqLEpMKue W1afrcOKfF6azS+zLBnyylYRJq9sEw+yrG7df6cQeMJ96Sgg1RGktIgcZYC7LHDzAF4G+rokyLtf lxjZtGxd2XwZovwX2Hm28TxAZpQALHqHPE+RfX4ZuOu+3ZuCvsrWJUU6/y5pUVkh4BvjuO1ZqtRe /bLAL/uOlyXAqvKyVtQ4ReCn74tIkQfksvTdpGtX2H8AOOG3Ne573IAAAAAASUVORK5CYII= "
     preserveAspectRatio="none"
     height="4"
     width="4" />
</svg>
