<?xml version="1.0" encoding="UTF-8" standalone="no"?>
<svg
   xmlns:dc="http://purl.org/dc/elements/1.1/"
   xmlns:cc="http://creativecommons.org/ns#"
   xmlns:rdf="http://www.w3.org/1999/02/22-rdf-syntax-ns#"
   xmlns:svg="http://www.w3.org/2000/svg"
   xmlns="http://www.w3.org/2000/svg"
   xmlns:sodipodi="http://sodipodi.sourceforge.net/DTD/sodipodi-0.dtd"
   xmlns:inkscape="http://www.inkscape.org/namespaces/inkscape"
   viewBox="0 0 16 16"
   version="1.1"
   id="svg6"
   sodipodi:docname="kr_comparedirs.svg"
   inkscape:version="0.92.1 r15371">
  <metadata
     id="metadata10">
    <rdf:RDF>
      <cc:Work
         rdf:about="">
        <dc:format>image/svg+xml</dc:format>
        <dc:type
           rdf:resource="http://purl.org/dc/dcmitype/StillImage" />
      </cc:Work>
    </rdf:RDF>
  </metadata>
  <sodipodi:namedview
     pagecolor="#ffffff"
     bordercolor="#666666"
     borderopacity="1"
     objecttolerance="10"
     gridtolerance="10"
     guidetolerance="10"
     inkscape:pageopacity="0"
     inkscape:pageshadow="2"
     inkscape:window-width="640"
     inkscape:window-height="480"
     id="namedview8"
     showgrid="false"
     inkscape:current-layer="svg6" />
  <defs
     id="defs3051">
    <style
       type="text/css"
       id="current-color-scheme">
      .ColorScheme-Text {
        color:#f2f2f2;
      }
      </style>
  </defs>
  <path
     style="fill:#3daee9;fill-opacity:1;stroke:none"
     d="M 4.5 2 A 1.500015 1.500015 0 0 0 3 3.5 A 1.500015 1.500015 0 0 0 4 4.9121094 L 4 11 C 4 12.105 4.895 13 6 13 L 7 13 L 7 14 L 9 12.5 L 7 11 L 7 12 L 6 12 C 5.448 12 5 11.552 5 11 L 5 4.9121094 A 1.500015 1.500015 0 0 0 6 3.5 A 1.500015 1.500015 0 0 0 4.5 2 z M 9 2 L 7 3.5 L 9 5 L 9 4 L 10 4 C 10.552 4 11 4.448 11 5 L 11 11.087891 A 1.500015 1.500015 0 0 0 10 12.5 A 1.500015 1.500015 0 0 0 11.5 14 A 1.500015 1.500015 0 0 0 13 12.5 A 1.500015 1.500015 0 0 0 12 11.087891 L 12 5 C 12 3.895 11.105 3 10 3 L 9 3 L 9 2 z M 4.5 3 A 0.5 0.5 0 0 1 5 3.5 A 0.5 0.5 0 0 1 4.5 4 A 0.5 0.5 0 0 1 4 3.5 A 0.5 0.5 0 0 1 4.5 3 z M 11.5 12 A 0.5 0.5 0 0 1 12 12.5 A 0.5 0.5 0 0 1 11.5 13 A 0.5 0.5 0 0 1 11 12.5 A 0.5 0.5 0 0 1 11.5 12 z "
     class="ColorScheme-Text"
     id="path4" />
</svg>
