<?xml version="1.0" encoding="UTF-8" standalone="no"?>
<svg
   xmlns:dc="http://purl.org/dc/elements/1.1/"
   xmlns:cc="http://creativecommons.org/ns#"
   xmlns:rdf="http://www.w3.org/1999/02/22-rdf-syntax-ns#"
   xmlns:svg="http://www.w3.org/2000/svg"
   xmlns="http://www.w3.org/2000/svg"
   xmlns:xlink="http://www.w3.org/1999/xlink"
   xmlns:sodipodi="http://sodipodi.sourceforge.net/DTD/sodipodi-0.dtd"
   xmlns:inkscape="http://www.inkscape.org/namespaces/inkscape"
   viewBox="0 0 16 16"
   height="16"
   width="16"
   id="svg2"
   version="1.1"
   sodipodi:docname="mail-signature-unknown.svg"
   inkscape:version="0.92.1 r15371">
  <sodipodi:namedview
     pagecolor="#ffffff"
     bordercolor="#666666"
     borderopacity="1"
     objecttolerance="10"
     gridtolerance="10"
     guidetolerance="10"
     inkscape:pageopacity="0"
     inkscape:pageshadow="2"
     inkscape:window-width="640"
     inkscape:window-height="480"
     id="namedview6"
     showgrid="false"
     inkscape:current-layer="svg2" />
  <metadata
     id="metadata8">
    <rdf:RDF>
      <cc:Work
         rdf:about="">
        <dc:format>image/svg+xml</dc:format>
        <dc:type
           rdf:resource="http://purl.org/dc/dcmitype/StillImage" />
        <dc:title></dc:title>
      </cc:Work>
    </rdf:RDF>
  </metadata>
  <defs
     id="defs6" />
  <image
     y="0"
     x="0"
     id="image10"
     xlink:href="data:image/png;base64,iVBORw0KGgoAAAANSUhEUgAAADAAAAAwCAYAAABXAvmHAAAACXBIWXMAAAsTAAALEwEAmpwYAAAA FXpUWHRBdXRob3IAAAiZKylPTcwGAAaBAh3BFP3WAAAMJ0lEQVRoBe1YWWxcZxU+986dzWs8ju2M 97VpltImBKNULUVqEBIIqFqeKuhDkWiFqJAoSH3oCy+EhyJQK9FKpVFJUkJKQU1L4iQ0zja2Yyeu HTte490ztmPPjD37cje+c+0xk9RL4qaJQD3y73vn3v+e/3znfOf8516iL+U+eyAUCpncbvdjIyNj mffZlA0tL2ZlZakZGRkv6Lp6bnx8/LnR0dGsDWm6Tw+JAiQej7c5nc49gUDggNlsPj85OfmT4eHh /wkgIhxnPXToUI/Vao0UFhYK09PTj4ii+Gf8bgKQF0ZGRjbdJ+fe9rL2zZs3b5ubm7uqQ0Aj9eLF iwkYr8/Ozuoej6cX5y/hev5ta7yHEzkCitfrXYCB7bxueXm5sGXLFmlwcFCORCKqyWTahmi8brFY mqempl4eGxsruIf2rbuUAQCzYq0QDYJzoba2VigqKpKuX79OAKEkEgkdqfIAQLwGMJdAs1cQFee6 2u/BBAagY8iHDx++BmNvLK0pbN++nfLz80VEQgAAVVEUPRaLEfKj2maz7QeYlpmZmVcBpuQe2Lnq EsLSHSuOzqGhobdqamq+nZrNAWlrayO/36/V1dXpKLcMmAsXoVoRQFAymXTj2ruY+zaoN5F69l4d 2SAWGSPc09Nzyfi19A/epj179hAbDjqJiJAG4zXkOsmyTNFolNGUglavSpJ0CYVgPxK/Jl3HF32e AsDcTzY0NLRjTwjxomwkDxhGe/fuJSSzwCCwczPlcGvxfgoIrjntdvsrmNeCiL0GIHWs54uWFIV4 HTs8WTUyMnq4uNi5S1XV5bU5EuztM2fOMCC9urpaxw5ucIn5BOFzzg8DMPQQ8saPa++BWm+iTPct K7vLJ6kIsFquNv6x8bHL/CPlYT4yGHiXHn/8ca5KAtoNjoQRBtxnWZ6PZE9Ry2G1Wl4C4CZE5E2f z/cQ673bkg6AXR5vcrlauepwAqcPNiw7O5ueeOIbnNSE/UAIBoMC5ixTKjWfAS0CiTGwPIB/EdRq wvx35ufnd99NEOkAOA/kI0eO9KIn8mDBmwCwcWxUXp7DiAQ4LkxMTBggkAccBZ3n4HDT4GcQNbY5 G1Xreei9AP0HMervBpB0AKxP7ujomEJ9v8qcTnk0/YiySdjkjMTGZkZoxSkcDgsMAs+sCYTzCBMy kSM/Rr6cxXPvLSws7P08QG4FwDSKdHV1tbCh6YanztnDXHnKysqovr6ekA8CQAgMAtRjOhkRSJ+f igpf43ziDRHXMhCRZ5Ej5xChvyOnntgIkJUAJI8fP94BvgZZIS+40mCAtTW19PAjjxA2QEKfJMDD AoxDJEiTRNLNJiILhgmrLJY7fdkprHMpIsBh+SGodRpAjmE8iXKeXh3XxLXSRDsUVnR2dv4FjV09 vLqmAt4n2tvbCZsgbd36AJWXleqtI2GtZdokVuRZhLJNElXmW2nLJivlZJjJZpGMksuQdAwuAUxX zjkuv4iuAnqdQrTegFNOoy8zorqaEdIKN2R4dx7UuAya1LOneIHVhAHuQhTccwvU29tL8Dwda4+L jeMWKnbmkaJbSVBClGfTqDRXpIo8E9UV2aim0E4leTYqyLWSHaDMIqKjJMgkiBIc+N14IvGdkpKS TxDR19Etn4Qtyko2rASA8yDR3NzctmvXrp/CM2bm7lqiKElqDZVRLBShxKfdQs9MNVkAZGHOR0VO dN/ZBeSNqTTrV+jKrEJ6b5IkClOuRaWCDKKqfImqC2xUW2Sn6qJMKsy1kSPbJlhtGd8iXd1XWuo8 p2vy6yRIJ+DMZLotq7k2s6qqavuJhoaj+Q5HFSftaiJCQyAq0/OHPCTnlJMz2EZXpixEokS6phqj oMhBNkcJhWOYbPzxstggl5JahX7D+1qCrIICUDoVI1p1hTZ6oDiLHixzUDFT0G52ZWXa3oCSYwBi cJs1rSSwgIoaGxv/uHPnzqfRH61KI8kkUPvIAv3q4whJ+ZVktQiUmBsh35zXYDk2BxQBhRyOHNpU XE2hJFRzRI2VP7s8z1cwXwEoVY6TjoHGhLLNKlVuzqCKAjvZxGQ7WPfSb56tb1mJQgyI+Rbh7hRt 9NOpMsg30oWvS8iPrklQR7STGb+TCY3s+WWUp8g07/MZdpowx++dJznRS4WVWymqZRtG4otCurrF c/RTJsmMhLbjdw7KLccKnMbcgVhI6eudumoJTRy1xdwefmA1AMaufPLkyc59+/b50U47OJlXkoSs U6c7TpIlz6ALLxdNCJRZUE6anKDAwoLxGJfSUCBM8sBVKq59kJLWQlSc1QsEG458RnNoIpOCxmt+ uD107V+Nk41vt0bDoREoDWAg/quLDbfKXC7XuxUVFY+uVE7Zgd5ggn529AaFMyqNxQx1htcEyjDL FHAPUDjIHfpii6GhtZAkgUprt5KQWwmwXEwxlizRSUSuWuBZmaS4bzLpudI86zrQ4uk4MwYlrIj3 J+/SiK4WAdw3aBRAOW0tLS19dKUImIF/cDpM/rhEVjv6ICbekiUwlyJJkXKc1YhEP0XCEeMWGAJ+ KzTe100lVRHKcu4ACBO8bULew+NqNEnB6z3hvpMXPWfe6gjMumehlZspNpzDyccoBiexthYAo5zi Xb9t9+7dSZRTC3M+XXSUoKsTYVKEDLKg4mgCJ+fNQY1oZsopriFtso9i0ZiREyJx06fR5PV+KopF KK/ma6BTwq9OdV/2XXrv4vjZg4PwBVOEDWejeYQxYhhcEpcNuXk13LlFMrCZbP3ggw/exwt+bXo5 NTSgYrz8/jj1xwoJNdswXhDgYgPEomoGzd61w3H+8T5KxuE4voVnNYDgbjw/xzQYunTgD1M9LZyY bDRThY1OgWBvs0OXDce5IVhtTVHwYWsO3emnvBvzhpaqSMzb6fkYjc+rxHuBis1MQ/njkqnzWNoD cIIan6SYnkF5pTUG/3EBpsAeDAlbt2/40/MwvhuWTGAMYwxhTGIw1xkQk/MzxuMaMmZt4QejaBFa EskkbP9vM2aCvoGpEAXicCgbi7Kpw1BdRf0GAAaTGgyGN6uwlqPnl1bpJqPr1ggHEtR4TJsbOI91 2OBRjCkM9j40g2vryHoAjHJ66tSpq2iXfRyFRRCLFaVzPIgV8OKjsuGLEdAYyC1RYJroAnqg3Jj+ 3LaYXp4rANNiCRWVWH/oelMX7PRjMHVu4vg69q8bAX5evnDhwuTC/HwPd54MAO8tFInL1DsVMejD nlfheSMKhufRGuA3R0AXUCfUaOjRTRN9rz4mi/WlkvjVikyOEtcA0qOzTXIyMYd1mOcr0oSNWE3W iwA/xzQK4PWxjY1nMWFljz9Kbn8S+YhWgakDz3MkjIFz7nM4ly3hkY7Y+d/t/+S3z+wfGuj7yFHo 1L75lWIx24alQZ/kTI8LKpkuvM4dC1431hW22oRPIzaU0+8jCtgcBXL1zlLjQJjM+DrHNd/wHecI TtEQk1mLeGnszOHJIz8/uDDRNxyOy8EPjx3r3rFjZ/Kxr+/e0TMZkkbd072B1kNvI1KcrDd1meta tTThdgDwVBOqkf7UU0/tw5eJAq4sf3ON0pAPvRBeRMArTAEM3vpFXZUCQ+eD537/J4/rry5F1WZw kxOTjUycOHFipKayfKGqbtvDrraO48FB10lcZ+6vm7CY8xlZayNLn6zgs6F35saNK84tW7b50Pf3 e4Lgv92gDOkS3qhgvOwbUwbOvu8+d6AZ1vigILXls4GMko/KL37564+eee7FOUfU3Y+vyRumD3St 2szxvXRhfsZ6rl1rfWjH9h9NzIYEjx9fqq2gj27mviUqzPY3+Jrf+Tji9XA5nMfgFoDLIe+eKe+y HqOy/ePgWw0457ZgQ8mL5wy53QjwovzttOvpH3xvrmdivjCGYpeJds8Uv9EVHzx91N/9707MYcO5 orD3eeu/9U2I9aRKJffLfJ8jsGG5XQC8gHL58mXPnNfb3eMOPymJik+fafvQ2/rX03I8yt5mo/nI 2/9aXmUQ3Iyx4YvJg5ONyh0BwCKhs5c6m8bHIrZExz+PBDy9g7jGNEl5nQ3jnuV2hIF8bkGlviPZ ZM/OrVNjQUdS0ZkivHuy8czlDZVBPPe55E4B8EuOAyMTg5sspkt6kuLnvZU7BcDz+YWfd3BOwA3t nnjuS/m/8cB/AA+PRFzqWklJAAAAAElFTkSuQmCC "
     preserveAspectRatio="none"
     height="16"
     width="16" />
  <image
     width="6"
     height="6"
     preserveAspectRatio="none"
     xlink:href="data:image/png;base64,iVBORw0KGgoAAAANSUhEUgAAAIAAAACACAYAAADDPmHLAAAABGdBTUEAAK/INwWK6QAAAAZiS0dE AAAAAAAA+UO7fwAAAAlwSFlzAAALEwAACxMBAJqcGAAAAAl2cEFnAAAAgAAAAIAAMOExmgAAJq9J REFUeNrtfWl0XNWV7nfuVLNUmiVblm0sPIEB2zGQEGLCEAIhA2FIhwTI1AmdJgmEMKWHTD2s9173 eq979eowpTuduTsDmTo0EAgxxgYsz7YsW4MtWVVSSaq56o5neD9ulXRLMmBjyZZNfWvdJUDFrWXv 75yz9/723oegivkK8jq/E7P1Jcrp/lNWcUwQzzMdYtrPk/6iKuYXJLh2kUoP4Bq7bCtW+neOWSBB lQDzB+UVL8HdmZVlNbW+r6y5sHNxbW3HjmSy+y9f2XIULgFo6WeZBG+aCNUjYH6gbHwZrk20m8/p bLh7zYWfamtfeLsE0tgWqdm1IBj833dt+sMWmzELgIMpIgBvkgTy6f6TVwHAXfUyABWA74bFS1u+ fNHa+xevW/v5tjs/3hDZsF6VHWdRo2FedmVLq9GbyR4Z0Yu09P+e1DFQJcDpR/ms1wD43rNoccuD F627f9Gq1Xe2fOJ2n79jESSfH77FHVACwdqaQvEdl9RGQw5jfftSSR2Vx/gJk6FKgNOLsvFVAP5V 9fV137r40rs7liz5dMvtt/n8S5eA6zq4YUI4DpS6KLTGBl/AMNZe4Pd3doTCh/8QH07iJHaBKgFO H8rGVwD4ajQt/K+XX3H7spaWLzTf/OFgaO1FEIYJYZngpgVmmhCmBUlVoNbXyz7KOxdL0toNDU2J F+LDcYsx7nn3cROiSoBTD2+IpwLwAwg+svHK953f1Pxww5Xvrou+52qAUnDTBDNNcMsEDAvcstzd gHPINRGoktzSzPnbN7a0mgcyqYGErnv9guMiQZUApxZeb18D4AMQ+MaGSzdcsbD969EL1nQ03nIT iKqC6QaEaQKWBWGa4OWfpgVhWRC2A+LToChKJMrFpe9obArmbftgTyate77vDUlQJcCpgzfGVwFo //p3777ijutWfehtTuvtYdl3UeTSixFctRLCssBLRuem6XkswHJ3AmG4vwcBJEXRQgJr19XXL6xR tQMvJ0ZzmNoFXnc3qBLg1MC78n0AfF+755KLVp4T/V/BsP/DDW2RRUoWxB6IgRsm1Lo6AMJd8YZ7 BPCSwZnl7gCuT+D6BcJxAED2C6xcXlO7tNan7doyOpLBVMbwNVElwKlBRZz/kfef2/Gui9u+pvrq LlvQea0UWLqIKK0USOnQd/bCGo6DqCqIokJQZ/II4JYFGKVjwCwTw3IdRcuGoJRohCxtC4bZ7wYP v6JT6uANsoVVAsw9Khy+NcsbGj5+4/J7fIG6m8+/9BPS8gveh3DtUpC6OgTPUSEzG0b3MIxD/aDJ JMA4ILi7ykurn5sGhDl1PDDDcCMGdycgskTkw7ncsz3pdA5uprCsH8xANRU8tyhv/SoAX5tPi97Z 1vixYBy3rb7iI/Li5e8CozYEBAKRpWD+KGo/1AqlcQ+yzx+GcfAQzCODkMNhyDUREE0DBCAcB8Jy Dc/LRwCf2umFgEI5V+EucK+yOIMEVQLMHbxOnxYNa6H71yy5o1Wo93YuuSrUufJqCOqAUguc2eDc gUQCMJUOkEuAQFCG/txhiHET1E6BplKARABSEgiFcJ9jIGtb/dvHxqZnCY+JKgHmBl5lTwWgffqj 511YHwl8vCVyYe3KWz8BcAFHL4JJDIIwcEFBmQ3OGCwehb2sE5IC0BeOgMTMqfUrXteng8loYlM8 9tSIXjRxHPmAKgHmBmWPXwWg3XRd5+JVy6Jf9kfbO1df93moNRE4+Ry4XoRwbAg/AfcBjmPBtgww asGhPhh1LSAbHSgvx6AcMUHeIKpnQhhdY2M/+Pvt27owpRa+bihYJcDso7z6FQDampWNDVdcsuDP mVDffd7bbkJD2zLYZhEUFMK2IekGSJZCBAHq53AcE5apw7ENOBQoyiFIa+sRVCcQ6bdB2LG/VAC8 N5N+6huvvvxbi7EiAAtTcvFrUqdKgNmFN95XAfi+cMfqG/x+361FA1Jq/Ajy6RGovgC4zCH8BJLO oRgWlKwNx+egGGKwHQOmWYRlFkFtBzlDQFqsop44aBzgUB1SYVECYKRY3PYPO7f/4GghnwSgY4oA r7tvVMPA2UU53tcABN67Idj6hRsCd7U0BlYZCCGRGEYuHYfPF4bqC0AoBFRikAwTJFcESefBcnnk JRu6o8M0iigWC3BsA6lsHinVgONnCBUkqGzKv8vb9pEnDuz/518fHugGkANQwBQBXrd0rEqA2YN3 5fuXLdDqvvvggs+d04Jb63263BjVAH8zUrkCUskhOLYJVfWByQJFmYIZOki2ACmVA0tnkRcWCtSA XiwgX8jBMgtIp7NISgaMEEXYUOBnMmzGMk8NHfn2P+7a8RJc4+cBmABsHEfdYJUAswOvx+8LaCT8 q28t+sh5S31fkusuChJ/K4L2ABrDFP5oOwzmQ7GQQjo5jGIhBYtaKMgMpm2AJLMgE1nwsRQytIi0 k0c+n0WxkAdjFIWiiXFaRD5gIWgrTnc89eMHt27+NeU8A9f45e3/uIpGqz7AyaMi3gcQePKb7ddc uEz7klKzIkI67gTkEJB4CoGx32OZsgP1He9A30QY48ksstkkhCAQIOCcIOjoaIwlgUwRAWKCt6ow whJsx4FDHXBGYdk2eriOhC+femEstsmgNA132zfgrnxvwejroroDnBzKxi+LPIHvPrjgkms3hL7p r2lfQjpuBwkuBiQNJLICUKNAejuMwz1QlDrQQC1yBQOWacE0DZimjgw3kBImpFQOSlaHkjGgC4ai BliOA9uiYJSCC+4ksvpvtuwe+b1hshRcAphww7/jLhmXjudDVRwTM5I9f/upphUfeHvooUCobjlZ cDNI6FxAsKnHnkAmnkWiz0Qw0InOhZ1oaaiBEByOw2BZDihjSEdk9C0JIhmWIZkO2o4WEB0pgNsU tuOAccZ13XnquU3D/5FKWxOo9PpPqF+gugO8eXg9ft+nr48u+sot9X9VFw1fRRbcCNJwKbw5GJHa ivy+nyDeU0DtujtRu/wKaFodaiIRWE4e6UwGluXAtikopdAJR9oHyCZFyGSIGBycMuR9QpgOe37z yyOPHI0XhjF17ts4jrBvOqoEeHPwKny+jRcGm/7xruZ7Wxv9N0vN10ik+erSrzlACJDvhtHzfQzv jiPQeSPqLrjBzekLQFMjqKttABM2kqkkDNOC49iglMIUHBkfIFGOiCVQYwG6Sbc/3T36L32Hs/1w jV/e+k949QNVArwZeBs4fM1RufbHf9n+iWULfHfJ9Rf7SNsHANkH1xYEMI/C7v0ejm7rgdS8EY0b PgqiaqWcvivoaGoQNYoMPdWLjGnDMGxYlgPGGEzOkJQZJMZhOWzP/3SP/tP2ocxBTMX7J3zue1GN Ak4MXo/fp8gI/vwb7R9csUj9vFy7IkDa3g/IAYBTd4U7SThHfobY9r1ggQvRsuFPIKk+CEYn30YI AS1mkX/1P9E8tB2Z4DIUFR90ncNyHFDHAQXDvgDrOTiY/JeXRzPdALJwV7+BkzA+UCXAiWB6uOf7 6dfaN67r9N2vhNob0PYhQK0DBHU/yopgsd8gsWMrdKcDLZd9HHIwCsHp1BsFAWc2UjufRKFvM1IF ht09A1DaFkDzaTBMBsehcCgd6h/MPPry/vFdqDR++dyvEmCOMT3Hr337nra1V64NPuwLNbSTtg+A +BeWjA+3gmfseUzseg6ZZASN7/wYtGgbBHNmCPTZnueR3fvfyJkMm0Z8GM4xKPkYGhbUQw1oMARP DAxmH9naNfoypjJ9s2J8oEqA48F04/vvuan+nJvfFX4wFApdQFreCxJe7oZ5JYhMF9J7fouxQYa6 t30EgdYVk9v+pKUkCcXBHUh1/RSGaWBrQsORvAxCAMY4xoeTCEQDE7GM8+2t20b/iKmV/6ZDvmOh SoA3RkWa99aNNa333VJ/X12NbyNp3AgSXYupwlsCFA8hv/8XiPdkEFl1C8JL1kPwkiJbNpUkwRrr Q/LVH8EuJrF9wof9KbXiSxnnxd7e1A+2Hsw+J4TIwF39Xpl3VuYDVAnw+qgw/urFvtq//XTTZ1vr 1RtJ9G0Sqb/M/TUvhXtWHPrBXyC25yj8i69BzYqNJUefTb4MRALNJpB85UewkkPoyajYPqaAiqn6 LQE4qbzzi219ud8wLjKYGevPivGBKgFeDxXhXl1YDn//oQUf7WhRPiHVrFRJ89WApE05fU4O1uHf ILajGyS6HtHz3wsiyRVOnyASuJVDcvvPYMT342hRxksjGkxGvL6ByOv09zv68j+xHD6BypVf9vj5 cf8p3gBVAhwbMzz+//zrhdeuXqJ9SQl1REjze1yBp2x8bsGJPY34tldhS8vQtPZDkNUgwDweP5Eg qInM3qdQPPIyxk2CTXENWbvC+NBN9urugfwT6aITh7vyi6iM9WfN+ECVAMeCV+BRAfh+9JcL3/6O 1f4H1EBDM5qvBXxNrvEJAMHBx19EousFFIp1aHz7zVBCdeDcmXwZAEAw5HpfRO7AsyhYDJtHfBjR pQrjWw4/1BMrPh5PW0dQmeVz8AalXW8WVQJUwivwaAB8f/OpplXXbQg+7A+GzyVNV4IEF015/AIQ 6R0Y3/E0UqMy6tbfCK1uwVSiBwTCPfihD+9GZvevYZoGXh7V0J+VK4xPmRg9nDAe6Y3re/Daxq8S YI7h7dzVPv/Buo7PXB99KBIKXEwaLgeJrPKEexJEsRep3f+NRL+OmvM/jGDrCs+2XzIvIbCSg0jv /CVsI4tdSQ17p3n8nItMLGl+Z8/h/FbMjPXnzPhAlQBeeAUe7ap1ocYHP9LwpYYa9T0kehFI7UUo 5+4BAljDyHf/FvH9owgufQ9CHesgKmr2CUAIaH4cqZ2/gJONoTer4tWEAod7PH4Bayxr/7irL/e0 mMrvz1qi541QJYCLinBvSata+093t3yyrVG5VapZKZP6dwBEcQUcQgAnA73vKQzv7IPWcjFqzn0n AEB42rNACLhZRHr3r2GN9WK4qGDziAaj0uNnmYLzm+19uScpE2nMQaLnjVAlwDSPX5YQ/MFXF3yo c4H6OTm4yE8aLgdkf8npIwA1YA09i+FtuyECy1G7+moQWa3IBAIEwrGR7X4GxvBupCwJm+Ia0lal x18w6Is7B/LfL5gsgUqP/5QYH6gSYPrQBt+T31z07nWdvq8ogaY6NG4E1Nop43IKmngJsW2vwOJt aFhzPSQtVKHuAQCEQH5gCwr9W1C0OTaP+BArVnr8hs137xsqPDaes4/C3fanZ/lmNdx7LbyVCTB9 XIv/8fva1r/7wsDDmj+ykNS/E8TXMiXwQICndmKkaxPymSDq114LJVwPcAeibFrhbhLFo3uQO/Ac bMfGK2Maeqd5/DYVR3rj+qODY6ZX15/u9J0SvFUJMKOD56/vaOq88Z3hhwLBwGpSfylIaLFnWycQ hUMY2/kcksMUtedfD62+o1LaLX3OHB9Adv/ToFYRe1Mqdk+oFU28lInxoXHj8QNHC9sxFe6Vdf05 9fiPhbcyASaN/yfvrmn73A3R+6IR7XJSc4FbwTu5A0uAOYzU3meR6M0gfM7VCLQsLwk83jcSONlR ZPY9Daan0JdT8PKoWuHxcyGKoxnr+7sG8pswD4wPvDUJUOHxr1/ur//Wp5ruao4qH0B4BUF0LQB5 KtxzxpE7+HvE98bgX3gJQh0Xunq/x0yEEDA9i2z303AywxjRZWweUVGkxOsW2Mmc87Ou3txvGJ/0 +E9ZuPdaeKsRoMLjb6iRQ4/f1/bRjmblDhJcpJLoeoAoJfWOACwP/cgmDO/ohRxdhfCSSwBIlauf EDDbRLbnD7DG+pCxJWyKq0gaEsjUwS9yOn12e3+uLPBM9/hP6bnvxVuJADM6eH72tfb3re7QvigH msKk/mJACcG1hSvwWLEtiL26G0xuR3T55W49n5gazk1AIBhFoX8LjNheGAzYPKLiaEH2Gh9Fi728 63Du37NFOopKj/+4O3jmCm8VAkw3vv8nf7Xwsg0rfQ8q/ppGRC8G1HqAs5LAw+CM70Js2zYYZhTR NVdA9oVdp09MvVEIoDi0E8Uj20AZR9eYikOZyr9Sy+EHeoaKj42m7cOYqe6dtpVfxluBADNKuv7h rubzr90QetjvDywltesAf5tH4BHgmQNIbH8J+ZSC2tXvghpucCt9va8UgJE4iEL/FjBqY39axY5x FcxT2EGZGBkYNR7rG9X3wTW+t5L3tDh903G2E2DGRQz33ly/6I5rah+IBLV1pOZ8ILi4IosnikMY 370ZE0MmIp1XQKtrrwz3iPtKOz2M3KFN4HYRh/MKtoyqsD0eP+Mic3TCfGLPkfwrOIXq3onirUCA yaqe924It9x7U/2X6yPKNSTUCYSXwx28Uzr3rTGkujchcSiFYPvF8Ld0ug5fxTgOAlpIInfoj+BG BglDxotxFQWnwuM3x7POj7b35Z5FZTHnafX4j4WzmQAVTRydC9Xo//3zlj9tbVBuRrBdQs15AJGn 6vloBrnelxDfG4fasBrBheeXRrFNJYNACJiRRa53E2huFDlbwotxFeOVHj9LF5xfdfVln2RcpOBm +k6pwHMiOFsJUOH0BXwk9MOvLrzpnFblk5K/yUdqLnDr+XhJ4GEG9MFXENvRDxLsQGjxOreEi5d2 BuLmBLhtIt+/FU5qCCaTsCWhTpZylyDyBv3j9v7cD4omG4O77c9b4wNnJwFmhHs//3r71WuW+u6V fTVRElkDKOHSyiYAt2GN7MTw9m7YaETt0g0giuaJ9d0Ev2AUxSNdsMZ6wQSwfVxBd6ryr8+w2c59 g4UnUnmn3LU7Xd07JQLPieBsI4C3nk8D4Hv8vrb1l68JPqz5AgtI5HxAq/ds6wxOshvx7bthFIKI LL8Ysi/shoPeeI9zGLF9MEa6IYRAT0bGjnGlwuO3qTh8MKY/MjRuHsIpquebDZxNBJhez6d965NN 53748shDAb+6gkRWAP5WTDp8EOC5ASR27UB2XCC0dB2UUP20LJ/7w0z0oTi8G+AUg3kZm6eVclMm xgbH9McODhd3o3Llewc1VQkwh5jRu/fp66Ptn7k++kBtSLmMBJcCgUUA+KQZhB7D+N5tmDiiI9C+ Dr66hZM7Q1neJQKwUsMoDu0AqIVx0y3syHlKuTkX+ZG09R8lgacs7ZY9/tOe6XsjnE0EmBR43nFe oPGrtzV+vrFWeR/8bQShZe5HSjV7wp5AqqcLowfT8DWtgq9xqVvOJUqCPgAQAjs3huJgF4RdRIFK eDGuIaFPefxCwE7mnZ939WZ/xwUymMfh3mvhbCCAdyS7VheWw9++p/Xji5qU24mvQSHh5aVpHGWB J4dc/w7E9yUg1yyGv3UFAExu/a7DT0D1DIqD28HMLBxOsHVUwUBOnibwOE939eV+YlORxBng8R8L ZzoBKoY0SQSBX31r0ftXtPs+L2mRAAkvL03rKBvfgH50N2K7j0JozQgtWA0iSR6Bx30ls3QUh3aB FibAQbBjXMW+aaXcRZNt3XU4/92cTkcwde5727fmvfGBM5sA0+v5/D/9Wvu71q/wPaD4/A0Idbrh Hmfuti4sWIn9GN45ANsJI7zkPBDFN62wg4BRC/rwbjjZERBCcCgjo2tMAfWkeS2Hd3cPFR71CDzT R7XMu3DvtXCmEmBGSdc/391ywdXrQw/7NG0xCSwFNM+0Dk7hpHsR29WLYk5BqOM8SH5X3SOeNwrG YMS7YaeOghBgOC9hc7yylNthYrh/RH90IGEcwJS0O+/DvdfCmUiAGca/75b6pR+9svahUEC+kAQW Av5mz8UKAjw/iNE9B5FNMAQWnA8lWD8Z64vSmS8YhznWCyt5BARA0iT4Y1xDxuPxMy7Sw+PGE3sH C6+gsoNnXgk8J4IzlQCTxv/gZZGWe26qv7cuIl8BrQXwLyiVc5Xm8xkjGD9wABODOnyNy6HWtLhn vtdMArCSQ7DGB0AER5ESvBjXEPc0b3IBYyxj/2h7f/45zMGoltOFM40AFWnec9u12v/zuebPttYr N0Gtk0hwUelOnVK4Z40j1deDkUNZKDUd0OraK+r53L5NAjsdh5k4BMEpKAdeSSjoz1WUcrN0wfll V1/ul56BDQbOMI//WDiTCFBh/NqQFP7hVxd+ZHGL+kmihjXX+PJUuEezyA0eQmz/BCRfE/yNiwEi PE6f27nr5CZgjh2CYBaEINidVLAnWVHKLfI6fX5nf+6HusXGcBrat+YSZwoBZpR0/exr7deev9T3 JVnx1xD/IkDyT537rIhi7BBiexPgqEGw6RwQSQZYyfilYJ7qGZiJQ+COAQKCQzkZryQqS7kNi+3c O1j4t+SUwHPSwxnnE84EAkwf2OD/3kMLLrn0vMADmqq2wr+gspiTmbAm+hHbE4dlagi0Li2pe5Xz +ZhVgJnoBbcLICCI6xJeiqvQPaXcNuX9B2P6I0cnzF5UFnOekR7/sTDfCTDjtu2/+0zTyhveHv5q QFOWE1+L27tXzvFzB05mELE9MRQyBP7mJW7vXnnbLw1r4LYOc6wPzMyDgCBjE/wxriJpTqV5KROJ IwnjkYOx4i7MbN+a1wLPieBMIMCkwPPZ99Ut+uS10ftrgvIlRKt3pV1wQBBAULBCHKP7h5EZpdAa FkMJ1pbCvdKrCMCpBWtiAMzIggAwmOvxD3tKuTkX+ZGU9d2dA/mXMLXtnzECz4lgPhOg4tzfeGGw 8eGPNdzdWCtfB6UG0BoxObBBcAgzgbGDQ5gY0qHWtEEN1Vf26wMQ1IGVGgItpgEADge2jSkVzZtC wJ7IOf+1rS/7P3Dr+bztW2e80zcd85UAFbH+wkal5l++2HrHwkb1NqIEZOJr8gg8rrqXPDyMRF8B UqAeSqQZQghPZy8BBIOdHgYtTEx+yb6Ugp2Vpdw8q9PfdfXlfuq4As9p6dk/lZiPBJg+sCHwX3+9 8MZzF2p/JslagPiaAEkBUErm0DRywzHED2Qg5DB8ta3uVl5OA8Od3OHkRuF4jN+flbF1Wil30WBb dg/k/iNv0FFUCjxnpfGB+UeAGfP5fv71RRvXdgbuUxSlHloDIPlKlbwAaA7FsVHE9qfBqA9afatb zMlKxicAhIBTGIeTHwOEW+qRMKQZzZuWzbv3DRUeG83Yg5g69+dkOON8wnwiwAyP/9v3tK67cm3w LzRVbodaB8iBKemW6rDSCcT2JmEWJWjRVkjyVDEnAYEQArQwAVoYnzR+tuTxe0u5HSqG+kb1R46M GQdQGeuf8oENpxrzhQAzSroe/JOGZTe/q+aBoF86H2rEjfXLiR5ugubHEN+fRCHNoNa0QtL8Fbq+ EAA1MqCFcQjOQQCYjOClERVDnlJuxkXy6ITxxL7BwquYKfCcNeHea2E+EWCysONjV9W0fvHG+vvq IvJGyCFAjmDSDtwG1ycw0pNCZsSGEmqA5HNj/YrBi0Zu0vgAJku5ezzNm1wIPZG2f7ijP/8HzBzY cNae+17MBwJU1PNdsMxX//U7m+9qrlM+CMknQQ27dVqCAZxC2GmM9aeQHNIh+Wsh+d2ij8llSgBu FUELExXFHt2pylJuAdBUnj65rS/7K8/AhjOqnm82cLoJUNG7Fw3L4e/ev+C2jhblE0RSVLeBg8BN 9lDAySE1mEairwAhB6H43Z3Bu/UzywArJCdTv4QAh3MytiQqSrlFXqfP7RzI/di0KwY2nNUe/7Fw OgkwvYnD//OvL7xu1WLf3bIsh6GEXXUPHOAchOWRHcki3pMDFxqUYI17jntWOXdMsGLK4wgCY4br 9HlLuXWLde05nP9OKu/EcIZ08MwVThcBZqh7P/yLhW+/ZFXwflWRmiEFpyZzCg5wHcVkHsPdWTi2 BDVYA0KkSmmXWaB6psL4ecdN8457Srlth/cejBUfi6Ws6ffunTUCz4ngdBBg+pWr/r//TPPq6y8O /4VfI52Q/ICkwk30CIAbsHJFDO/LwixwKIFaQJIrBB7BHDAjOzmwkQCwOLB1VMFhTyk3ZSJxOGE8 diimlzt4zviSrpPF6SLA5ETuL9xY3/Hp66IPRoLSehAVkFW4Z74AmAlqmIgdyKGQcty+PVmZLOki xM3vM7NQIfcyAewYVyvu4eFcZGMp8992Hc5vwTwe2HCqcaoJUHHl6jXrQ01fuaX+i3U18jUgSukK FgH33LfBHQsjh3LIjJiQVD+Iolae+ZSC2/qMgY0HM3LFPTxCwBrP2j/p6s39D3BmdvDMFU4lASrC vcUtSs3/+/PWT7U1qrcSIskgClx1jwKCQjAHYwMFTAzqIJI6zfgEglNw26iIAAgBhvLS9KncLFt0 ftfVn/sFZZMCz1lT0nWyOFUEqHD6JILgf/5V+4c7F6iflQjxA8rkdC73oUgdLbrhnpAgqao7i79c ws0ZhGNWzOcnACaMmffwFAz20s6B/PcKBkvgDG3fmkucCgLM8Ph//TeLrrrgHP+XZZlEQaSpRI/g ABiyCRMjPXkwCkiKWtL8hXtIcwZBHU/dv/sFRUqweUSruIfHtPnefUP5x8aykwLPnF7AdCZirgkw Q+B5/L629e+6IPiQppKFkzk5UfL4iUAxZSO2Pwvb5CCyUvIJSro/FxDcQcWcVriFHS+PKujzFHY4 VAz2jeiPDo6ZPahM8571As+JYC4JMEPg+cadTed++PLIw0G/tGpShZ8s0hew8hSx/VkYeQoiSe6q L7d0l3MC0+zGBbBzQq24h4dxkRwaN76zf6jQhZk5/rNe4DkRzDUBJlf+bVfVLvzT90W/UhuSL6v8 mOuqOyZD7EAWhZQNUgrchae9a/qqL39BX1bGNs89PFyI4mja+t7OgfwfUFnMWQ733vLnvhdzRYCK C5guWRWo/8adTXc1RZX3Y7JSAyjbgTscIwfzyIya7n8mU787luHLHxkuSnhxRINe8vgFQNN5+stt vblfTxN4zri27VMFaQ7eWd76FQBafUQOP3pv28c6WtQ7CCm7+0DZDkIAiYEikkP6pJc/CfHaX5C2 yPR7eERep7/f3p/7seXwM3Zgw6nGbO8AFbo+gMCT32y/YWWHdrcsITTd+ACQPFrEWF8BgnvGs0z+ +tjbvsFcj997D49usVd3DeSfSBcmBZ6zqoNnrjCbBDjWwIbL37Y88IAik8ZjGT87Wg73+DTjv7at nFLz5iGPx285/ODB4eJjI2nrMKbO/Wq4dxyYzSOgItP3j3/Wct4160MP+jSyZOojU225xbSNWHcO jsGO2/gAsDelYJfnHh7KxOjAqP7Yobi+F/NwHPt8x2wRoGLrv/fm+iV3XFP7cDggrZv6yJTxrUI5 3HOmbQzidb+gr1TK7ZRLA7nIxpLmd/YcKZSvXD3td/CcaZiNI6CiefPWjTUt991S/+W6iHTVsT7p mAzD+8vhHkqSnnjDLxjR3VLucvPmpMDTl3sG83wi93zGbO4ACuD3PXD7htsaonU3CyjS9AXIHI6R njyy5XAPOC7jZ22CTXEVE8ak08cyRee3XX25n1MmUjiLBjacaszmDqA01Wkhpq1bPkE1VcU4NDIO nzwBVcoD3MJYfwHJo/oJvdhkZMY9PKUrV79XunLVO6jptF7AdCZitqIACYDMGFMdR5Ll6GrIkWbo 6UEU9DHINAmRH8D4kc0Q3gnLbwAqgK4xBQc9pdylK1cfH8/aR1EZ7lVX/pvAyRKAeB6pJhzQCBFB f/0C1Cy9GE5xFexcAmZyGEXWBBLqB8wBHO/Jsz+lVJRyl65cfWRwbHIid3XlnyRmawcgAKS6SNCn KmrYLdJ0IEkytEgjZF8InNkwW1fDSQ9VSLnHfBkBBnKux29x1+krXbn6WOnK1de6b7dKgBPEbDqB hAtOIEkgkgxOLXBqgzkWBKPQaprhX7AacqjhdQlAAIzprtOXL93DUxJ4vFeuej3+qsBzEpgNApSP AESCflVVlBCIBE4dcOZAUBucWpAUDaH2CxFe9R5I4SYca8ESADnbzfGPlwo7hICTyju/6OrN/bY0 os278qvn/kliNlPBUiigKYqiBEAkcGaBUwuCOe5DbUhaEJGV14BEFqJw6HnQxH7A0eH28gIWw/R7 eEROp89s78v9yKJv7Q6eucKspoI5FwREAiEEgjpuyTa13d2A2mCOCc4Y1LrFCK5+P9QVN4BElwCS DMoFto+rFffw6BZ7dfeR/L9nijMmcleNP0uYrTwAAYBQQJMVRQ4CgKAWOLMhmANOLVDHArUsUNsE tQ0wSEBdJ7gSBZ84iGxsP/aldLCSLmQ5/ED3UOHRkZQ1L69cPVswq/UAfk1VZFkOAgScOhDMLq18 1xmkjksAxzZBrdJPKHCiKyEvuRINja0ABCgT8YFR47H+UaMs8FRz/HOEWY0CAEiEyG7NfmnrZ44F apcfE45lgVombMtwCUApGGeQfBEs7TgHiqJmhyfM7+w5kt+KavvWnONkCeBNBJG2xtqwJCuy4Mzt 15u+8i0DllmAqRfgmAaYQ8E5B2cClDLUR+uMlub2P/TEzecxU9evnvtzgFlNBNWE/AFCiMxtE4w5 cEwdjlGAbRZhm0U4pgHHtkAZA2ccnHPYDrXyRTMWH8/u3D8Qf3nznqHd+aI9hnl+5erZgtkUgyRf 49IlumkFpXgPHMcGdWxQ6rjbPGVgjINxDkqZk9fNsfh4Zm/3wOj2F3Yc3HdwMDFiWE4OrrNXfqrF nHOMkyFAhQ7Q0NAY0uoXX9yTCajnBLPwwwItrXLOBCjjrGhYqdFkrrt7IN714q6+fTt6huIFw8rD NbQJ96w3Sv/sXfnVkq45wmzsABIAedWqlXWBYHBF2lZwmGpYGjQhCS50086PpfI9PUdGu17YcXDX tv1HhpPZYhaugS24Gb3ySLbyiqeobvunBCe7A5QrgaQ1a9Z0KoqywLZt9BdsxJlV0IzRF7bu6vnj s68cOBQfz6SFmFzZ5Z82XINPN3rZ8NWVP8eYNTm4tbV1NWMsXCgUkM5k093d3d975ulnnjZNI4ep rd276qnn8Qo63qeKOcasRAFLlizx+3y+FcViEZlMZnDf3r2PPfXUUy8yxsrNGWXjew3vtgLPNHjV 8KcQJ0sAAYAzxmgmk9knhFB27tz542eeeWYfXIPrqNzuyyt9eoNm1einCcdZnHVMeK9xCTQ1NUU0 TQvGYjELroHLZ335nJ+u21eNPg9wMgSYPvhBhUsIwDW0g2Ov+irmEU6GAMBUF7BcekpNuihPdTjW GV/FPMLJEoAc4wFmevRVzFOcLAG87/G+q2r4MwTyyb/imKga/wzB/webRbkJyvyPAAAAACJ6VFh0 U29mdHdhcmUAAHjac0zJT0pV8MxNTE8NSk1MqQQAL5wF1K4MqU0AAAAASUVORK5CYII= "
     id="image10-3"
     x="10"
     y="10" />
  <g
     id="g4509"
     transform="matrix(0.046875,0,0,0.046875,10,10)">
    <image
       style="fill:#a93232;fill-opacity:1"
       y="0"
       x="0"
       id="image10-7"
       xlink:href="data:image/png;base64,iVBORw0KGgoAAAANSUhEUgAAAIAAAACACAYAAADDPmHLAAAfaUlEQVR4nO19W4xcV7nm96+19tqX 2rtu3V3dbbfbjoPtQDIcEi6TTDIBnROdAE6UkJGIEs0EkQQpiGCBhKI8IF5AQUghLwhpnkAgBOcg NC8j0IwYaU5GmoGDDuJwOXMmDrbTsRP3vbu6bvu21pqHvXdXudN2EhK72lX9SVvldndVrb3/b/3r X//6L2SMwT7GF2zYA9jHcLFPgDHHPgHGHPsEGHPsE2DMsU+AMcc+AcYc+wQYc+wTYMwhhj2Adwoi ooEf2cDFkd0fH7iKn2ngKmDySwNIAahdXlX+e739puvclUrX4/gHhE64VNhWftkAZP5vgUuJUBDk SgQohJ0CSPIrBhDlrzH6pLiuyXBdaYABwRdCt5AJ2gbg5q/FZQHgjLGDWusG57yutS7lf+fmv9+J EJlwW8aYDcbYktb6IoA2+iQI86s38PcJAF0M73oiwnWhAXYIXiATugNgUKA2gCqA40R0BMAsEQUA UiKKtNYR+rNZAVCMMQ0AWutCG4iBz5dE5ACQWusOES0ZYxYA/B5AC5nwuwNXOPDZBrg+iLCnCXAZ wXvIBF8IvwHgg0R0jIgqxpgugDZjrM0Y6yqluoyxiDEWaa1jznkKINVaa/TVPmOMEQDSWlvGGMkY s9M0dTjnrtbaz7VHQES+MWbVGPMnAP+EjAyd/GqjTwSNjAN79wFjjxJgxxrPkQneBRAA8JGR4K+I 6ENENG2M2WKMbTLGmsaYLQBbRNQRQvQAREQUE1FiWVYShqFyXdekaWosy9q++SRJKEkScl2Xa62F McYyxsgoimxjjGeMKWmty5zzita6rrWuEpFnjHnJGPMPAJaQEaAgRIjMTtjT2mDPEWCXWe8gE3wh /A8R0V0ABGNsA8AK53yNiDaNMS0hRFtK2WWMxfmVdrtdZdu2tm1bJ0lSzPxdv15KScYYCsNQGGOY 1lpwzmVOhpIxJtBal5MkmeCcT6VpOklEVSJ6WSn13wGsAtjKrx4yG0EDe5MEe4oAA8IvDDwPQAWZ 8I8S0UlkJFgmoiXLspaNMeuO42xxztta655SKp6YmNCcc2XbNnzfp3q9TuVymQMA53zQ8odSymxt bak0Tc3m5qaK49hEUWRs26Zms2kAUK/XY1prHkUR55w7URQ5jLEg1wQNY8x0mqbTRFTWWv9vAP8L mSZoItMGETLbYM+RYM8QYIfwbWRrfCW/PsEY+ytjzBIRvW5Z1uuMsVXbtjeNMR3OeVipVNIgCFCr 1dj09LQol8vCcRxZKpWklNJijFmcc4H+NhAAtFIq1VqrOI4jY0zaarWiZrMZr62txaurq2mr1dID ZECv12OWZfFmsylt2/aUUuUoiibSNJ0hooNpmh4AsGGM+RmARWQkaCMjQQrsLRLsCQLsInwfmeAP ENEjAGzG2HkiumBZ1kXO+RrnvCOECA8ePKir1Sqfnp4WtVrNrtVqnhDCs23bA+AwxjyllERmR4g0 TRnnnOffq9I0TYUQKYCYcx5qrbtJknS63W6r1Wp1Nzc3w4WFhShNU91qtXQYhgAyIgCgNE1tpZSX pmktSZJppdScMeYwAM8Y8/cAzgDYRN9A3FOaYOgE2LHmDwr/PUT0aQBdzvmCEOJVzvmi67pNY0zv wIEDZn5+3pqampLVarXk+37Ftu3AGBPEcVxK09QDIKrVaux5Xlqr1WLHcdJarRYNfv/6+rrTarWs ZrNptdttq9vtMsdxuoyxFhE1W63WZrvd3lxZWem+8sorURiGaRRFJooiAwDdbpdLKVmSJM7W1lYg hGjEcTyvlDqitZ4iov+qtf5nZJqghcwm2DMk2CsEYMjW/BKAKuf8mNb6EcbYKhGdsyxrwXXdZQCt ubm5dHJyUpw4caJULpcDKWWNc15NkqSSJElpYmIiPnToUPvWW2/duOmmmzrIHvb23j+/ChQewcLm EMvLy/aLL744de7cOX9paclyXbcJYD2KorVOp7Nx7ty5zsrKStRqtXSz2TSO48AYQ71ej3HOZa/X 85IkmVJKHUrT9KjWei5fDv6E/nKQANBjT4Bc+IUDxgNQBjBHRI8zxtaFEC9zzs97nrdSKpU6k5OT OHr0qDMzM1OpVCoTxpiJKIpqruuK9773veuf+MQnFqvVaoRM1Ua4vOu2uOlC+MVWs3AwOQDs119/ 3fvZz342t7CwUBJCbBDRcqfTWT1z5szmxYsXQ6WUWl5e1kRkbNumQhu02+0SgMkwDA9prY+laTpt jPkhgFeQkaCbj2fofoK9QIBi3Q8A1IjoKcZYJIR42bbtBSJaPnToUDg1NcWPHTvml0qlCSllI03T qXK5bD72sY9dvPvuu1eRCbuDbOtVWN6Fm7aY+YWvfxCFW7k4Tyh8DiXkTqezZ8/6P/rRj25cXl6G 4ziL7XZ7cWNjY+P06dPdnSQwxrDcPih1u92JNE0Pp2l6QmtdMsZ8F5k90MrHp8aWAAOzv1D9ZQCf 4pwfJqKXpJRnLctamp+f783Nzcn5+fmy53kNALNpmgb33nvvqydPnlxBNptayFRr4ZItZvzgbN8p +EvGYowZNEQL/0PhfCoDcL///e/P/frXv54VQix2u92La2trq+fPn+8ppdTKyooCgJ0kiKKo0e12 jxpjTiilXgfwM2Q+gg4ycg5VCwz7MKhY+yWAw0R0goheYoyd9zxvdWZmJpybm5PT09NV13VnwzCc nZ6eTr/0pS/9tlKpdNF3uBTbrG0DK5PpW3uw+d+Zgfep/LMKbdIGUPnsZz8bHjhwYOvHP/7xjUII 5fu+mp2dNYuLi71yuWy2trZ07kPQruui1+t1iGiNMSYBeFrr48aYOQB/Hhir2nVQ1whDIcDA7N8+ xuWc35Pv8S8IIVZLpVJnamqK1+v1qhBiemVlZfb2229fefrppxeQCaWwqjvor+9A3+v2F42tIEOu FYolpDgKju6999641+slP/zhD4/7vh/7vh+naRrbtq2Nyd42SAKtdcf3/dVer+dprQOt9d9orV/J 75shP0UclhYYZkRQYf0LAIcB+Jzzi4yxVSFEa3JyEvV63Xddd7LZbE7fcccdrz399NMvA1gHsAxg BRkJCi/bJYEa7xS5QIolJEKmBdYBbD744IOv3XzzzQvr6+uTACoHDx700jTljUZj+3lGUWSISDPG UmNMhzG2yjm/SERVAEdwaXDK0DBMAhTGFwPwb4loiTG24rru1tzcXDo1NeVKKaurq6uTx48fX/7C F77wMoANZL72DWTqWRHRbobdu4nis2P0Nc/W17/+9ZeEEHGz2aw4jlPyPI/vfGMURcZ1XS2ECF3X 3WKMrRDREoAPDtz/WBKgWAIYAJtzPsM5X5VSbmqte57nMcuyvGazWQGgvvGNb/wJ2VpfWNAxcov+ GqnOggQpMuK1AXTvv//+329tbVW73a7vOI4thGADxmR2o0TGdV3NOQ8ZY5u5F3MOmd0zGJ00FAx7 CSAANxtjmsaYDWNMu1KppEIIGcexv7a2Vrnvvvt+h2zmFet9gt23c1cbxfclyJaE3hNPPLEshNha X18vWZbl7FwGgP5SoLWOOOcdY8wGEbU458fxxrC0a46hRwUzxuYYY00hRMtxnCgIAmit5erqqqu1 7jzxxBMXkW3viqPVYQi/QGETJMidTfV6/Wy73S71ej1XCLHr88zdxib3b7SQHRYdHfybHcGt1wzD XAKA7GHWOOdtKWVPKZUYY2hra8va2NhwtdavIpttRZTNMIU/iCJgNH7yySfPtFotu91uy06nY+Xh ZW+A67racZyEMdbjnHeQnXcMeiSHgmFrAM0Yc4moUwRv9Ho9vr6+zjc3Ny3f9y8gn2lElBARIyKL iGT+KoiI0wCuxZiRCU4BiO+///5OGIa9brcrbdsWYRjuOgYiMkqpJI9O6jLGStgDZB62I6gCICai kDEWI9t9URzHotPpWC+++OIyESX5OF1khlNhORv0w7a3PX/XMDJ3W3hKqWan07EA8MuRsFgGlFIx EfXycfvIdjRDw7AIUHjefMZYmM8M7bquWV9fh1JKKKWK8O6dkb/F1lGjvxYXQZlF5G/hyLkqJBj4 aAUArVarI6WsWZbFbNu+7Ptc1zUAVLPZTBhjETICrF+NMb5VDFMDaACu1jr2PC9N01QBMHEcU5qm YIwJZA6TGNmhTAPACSKaYYxBaw1jzCKA3wFYQ0aO4qStsBeuCnLpU+6DYFJK2xhjbW1t0cTExJWW VZOmqXIcJ+12uzGyM4ZtN/QwMEwNoC3L0sYYFUWR9jzP5A8UjuOYTqcTc86nlFI2Ef2tMeYGxlho jInykG7OGDsG4G+I6LdKqf+CvpFokOUDXLWlIB/rdmaSUooBoDiOL/t9+XtMFEUKQGpZVvomQapX HUMhQOEskVIqIjKO45hSqURhGCIIAhWGYSSE2EzT9Bjn/DCyGf2H3FjsAVBpmnIAPhHVtdbvIaLH jTH/GbskaLzb2BHFxJVSFmPsTR06YRiiVCpRHMc6J7FG5swa3BVdUwxLAxAAWJa1bowhzjmTUlKt VmNra2tKCNHmnC/nMXsty7IMYyzMrecoTVNNRNyyLC9JknqSJEUc3icA/H1+X0VyxtW8BwZAGGNq yOyPKwqw0WiwjY0NCCFYmqYmiqKmMaZYMoaiBYZpA/CTJ0+2fvGLXwgppeCcc601JUmijDE9IYTR WneNMYxzrpVSsW3bcWEsxnFMnHPLsqy1MAzbURQlAE4YYwJkrtrCy3a1HmxxkMUZYxXO+UXLsraX scvBGMOklDyOY3HgwIEu+gbtUDBMArCf/vSnqtFoGNu2HcdxeJqmzHVd1ev1EillallWF8jWzjiO jeu6xeEPpJTU6/UiIko454ZzbgEoaa1vzgMvropPYJej7LrWuqS1jhljSRzHOg86fgO01lQul3mn 07G63S577bXXWldrnG8Vw/YDcNu2N4UQtjFGCiFYpVJRRKTydXE7uEMIUeylCxjP80y3241c121r rdfiOF4mognsSNu+ChjMTv4AgJ5t29vJH7vBGENa68KRZedpa/xK77kWGPZhEJ+ZmVkmopLneY7r uhzIjKU4jnVxDYZhDyI/bjVa60hK2SWiLWTbwZ3hYO/OgC+d/RKAZIzdxBhra617juMk+V7/DWg0 GkwIwSzLsjjnzsTExCb6Pg282dJxtTBsVzD78pe/fBZAIIQol0ol13EcsfNE7UogIl0ulzVjLOac 97TWhZdt0Lp+x9hh+RdFKI4SUUBELSllj3OeENFlNQ9jTGitHa11aW5u7iIG4gHGLSJo2/nx6KOP hpOTk21jTNm2bd/3fUtKSeVy+S2NzbZtAgDHcZjruuQ4TmSMwYB1/W5iUPgOY+yjnPN1ImpyzsMk SdRumqpcLrM0TXmlUvFc1/UZY+4LL7zwSv7roUYFD1MDbAdEPvLII/9CRJNSynoQBL5t28K27Tcl gTGGbNumarXKK5WK5fu+Mzk52UEW0fuuRdvsyF+wkXkm30dEdSJa8zxvK4/6eYMwizHmEUMOgHK9 Xl//4Ac/WGiKoTqChkKAgTCuBIA6derU6vz8/LoxZqZcLjfm5+eDWq1mB0HALkcCYww1Gg3GOee+ 77uNRqPseV75tttuex39Q6N3Y6yD635xNhEQ0T2c8yVjzIoQol2cZ+x8fzHGSqXiWZZVSZKkcs89 97yU//qqOaveKoZCgIEw7CL8On3++ef/YFmWa4w5UKvVZm+66abqzMyMW6/XeblcZuVymRljyBhD 5XKZNRoN5jiOOH78uHfkyJG653lTpVLJ+d73vldsAd/xg92x7hcz32OM3S+EiI0xi1LKzXz2653q v1wuFw4uWavVykRU832/981vfnMJA1XHhmUAAsPfBipkrlt58OBB+ytf+cpvv/vd795JRHa1Wi2V y+V1pdRWq9UK86RMDWQ5/rZtW/V63QFQ73a7Da317EMPPfS7Wq1WCP8dqdYB4Q/OfJ8xdrsxZs4Y 8/+klEuu67Z2m/2F6rdtWwRB4KdpWu31evVPf/rT/4h+VJHCkBNDhp0cWuynbWSxAbXFxcXGCy+8 cGu323UqlUpTStkkoi4RRVEUpUIIaK25EMKJ49gLw7C2uLhYff/733/mmWee+T2y8/UmshCyvyiC aIfwJbJj2zKyAlQPcM7PWJZ12rKsC77vbwkh0jiOt/fzg8vT/Py873nedKvVOuT7fvh3f/d3/weZ p7JIFx9qlNPQcwPzrRpHPw2rDqD285///PCvfvWrQ3EcO5zzyLKsBHmBBQAiSRIrDEPHdd3exz/+ 8ZfuvvvuV5GFjG8iTxZ5O9lBg2PK/1kIvwSgwjk/pLV+hIhek1KeBrBQrVY3lFKx53nb1v+g8A8d OuROTU1Ntdvtg+12u/qd73znH44ePbqJPkELf8XQMGwNsJMEg/UBagD8paWl4De/+c3ExsaG32q1 LABwXTep1+u9u+66a2lycrKFTOjreGM8wNt6uJcTPrKSc48yxtYZY6c9z1tI03TV87zebsIXQrCZ mRm3Wq3WLcs6sL6+fvCpp576zcmTJ19HP0V82AGuAPYAAYBLSFAki7rIDC4f/YggC33Lvsj5L3L3 iuTQojIX8M6FXxBxloj+I2NsQwjxkhBiwbKsFcuyuq7r6kL175z5k5OTNSHE7Nra2sGPfvSjp0+d OnUGmfB3ZjMNFcM2AgFcsitg6Kd095AJVg5cg+fmRXx+PPCeN80E3g2XMfgK4f8nIcQmY+zPtm1f kFKuE1HXdV1dGH67Cd+27dmtra2Dd95556unTp16FZlmKma+uooRa28Le4IAA9DAtkYoBDtYD3iQ AEVN38Gs3rf9RHcR/iUzXwixCeBlzvmClHLFtu0251wTkY6iyJTLZWbbNjmOI44cOeJVKpW6lHK2 3W7P3n777ee/+MUvnsGlZeP2VKGoPbEEDAuXEz7n/Aat9X8QQjQBvGxZ1oLnecu2bbfjONbFul8u l1kQBKxUKsnDhw+XyuXyBBFNt1qt6TvvvPPC5z73udPI7JPB0jBDX/cHMbYEuMLMv5GIHmaMLecl ahY8z1sZFH4YhqhUKhQEAZuamrLn5+eDIAgaSZLMdrvd2n333Xf6gQceeBWZ4IsKYXtO+MCYEuAK M/+o1vphIcQyY+xl27ZfLdR+IfzcuUOO44iZmRlnbm6u5jjOZJIks1pr9/Of//wfbrnllmI7uoF3 sCu5Fhg7AlxJ+ET0MGVp6qdt2z4vpVwthJ+ndiEIAub7vnXs2LGS7/sTRNQIw3BmcnIyfOaZZ/7k +/4m+mq/OJrek8IH9p4ReFWxw7df7PPL+cz/tBBikTF22nGc8wBWiajNOdczMzMAQJxzXq/X7Rtu uCEIgmAyjuPpOI6n7rjjjvOf+cxnzqGfwt7EO9iSXkuMlQbICTAo/Arn/Ma8JuGiEGJb+FLKtuu6 ulKpQEpJjDF+5MgRb3p6ui6lnFJKzRKReOyxx/7vrbfeWjihNjBQDPIv3ZlcS4yNBthxpu8gU/3T WuuHGGNLVxL+1NSUffjwYd/zvEnOeaPT6UwfPXq0+dRTT73k+/7grO8g9/BdD8IHxoQAu5zp+8hq Ej7CGGsJIf5s2/YF7BA+55w3Gg3nxhtvrNq2PZUkyUwYhv5DDz3053vuuWcRfZV/yR4fWTjatb/R vwBjQYAcher3ADic84eQHRid4Zyfl1KuElG70WgYxhgKx87ExETdsqyZbrc7U6vV0lOnTv1uenq6 mPGDfv3rQuXvxMgTYBfV7woh/toYU+ecv2Tb9nnG2Ipt2+1qtWocx0GpVLILx04u/OmPfOQji48/ /nhh6BXC37byr0fhAyNOgF0OeBwA80R0m9b6DOf8VSJaEkJ0HMcphC9vuummsuM4U1rr2SiKKp/6 1KdO33vvvUXt/yYyEgzmAVw3Kn8nRpoAOQYbTknO+Umt9UUp5XljzLLneR2lVFoul0kIIefn58uW ZU2HYXjAsizn2Wef/ef5+fkiyKSINbiuDL0rYZwIYAG4A1mvodc554sAtpRScaPRQBAE1g033FAp lUrTYRgecF2XP/fcc/8UBEEL/e1dUX6+KFE3pFt69zCyBNhh+VvI6hF+iHP+Guf8ohCiKaUMG40G KpWKmJmZ8YUQ9WazOTM9PZ18+9vf/i0yN24h/B52lKMdBYwsAXJsl4JnjH0EQGiMWeacrwshuo1G w1iWxSYnJz0pZTWKolkhBH3ta1/7PTLrfgP9QtTXpZX/Zhh1AhSeP0ZEN3POV2zbXmWMdRhjiZSS qtWqDIKgopRqpGnqPP/88/9YqVSKjl9Fh9CRWO93w7BzA68mBgNJZgBIY8xqkiRNIUTYaDSglGKl Usnr9XrVzc3N6qOPPvq7+fn5Ypu3LXzskfYuVwMjqQEG1n8CQIyx9xPRRrHuF7N/YmLCTtO0HMdx 7cSJExcefPDBZVwaulXM/CHezdXFSBJgBwyAGSLazPsJx8Xsj6LI1VqXwzC0v/rVr/4J/SDT69az 93Yx6ksAIZvFJc55RynVc103BoC8FoHTbrf9gwcPnmk0GkU7+D3Z4PFqYRw0wKwxJiKiNhFFSZIo KSVFUSR7vZ4bx7H77LPP/gv6wh+5rd6VMMoawAAwQohACNEjoqhUKinXdU2z2aQ0Ta0wDF2l1NZt t91WqP0E/SYUY4FR1wDaGFPRWkdKqSRN0xSA8X2fms2mQHYquIJ+z6E909HzWmHUNYBWSqWc80QI oYjIUFa1m2utRbPZFEqpNQwIf5xmPzDaGsAMvGqllJFSmiiKjMlavfI4jsXS0tIGMtUP7IFOntca o0wAILMBClug/58ZAShJEpkkSUhE72pBqesJo7wEDOKSWd1ut5GmKc8LSQ29b88wMZIaoJjNRKTT NFWlUonm5ubsI0eOeEEQsLW1Nf/8+fPOwsIC2batO51OUfl77DCSBMhBxhh5yy23lNI0nTx+/DhO nDhRCYIgWV5etomoHMfxxF133RX84Ac/2MQeKNg0DIwyASwA3uHDhydWV1fnXNetJknSS5JEAbCC IHA8z6t84AMfqCDrQjp43j82GGUCAAB/7LHHzq2urrJGo+FWq1VijJkkSdBqtdTZs2d7n/zkJ7vY Ax08h4VRzQwqwsBcZBm/FfR7DgGZmzdGduq3M8hzLFzABUaZAEW5md0qjAD9GoXFtefz+K4GRpIA AzWHgH5gCAZ+3llK5h1VGbmeMZIE2Mdbx7g4gvZxGewTYMyxT4Axx0j7AQZyA4Hd9/nbBtC4GX8F RtII3FEKpvAJCFzaeLqIASiCQYqij6P3QK6AkSLAgOCLdPAiI9hD5gQSyAhRdB6PkIWBD8YDjhUR RoYAuzR1KqqPB8gIEACYBVDJu3xdROYB7CJLAimqfMQYIxKMmg1QzHwPfRfwbUT0MWPMFPIZrrVm ACwiWjPG/BbA/8zft5l/zjYJRh0joQEGZv+g8KeJ6DEiOsgYWzfGbDLGukqplIg4stb1ZcZYXWvd Msb8EMCrGOg3gDEIERslAhQ1gAIAdSL6AufcJ6ILxphFIcS6EKKnlFKcc5amqZOmaVVrPcMYO6iU so0xLwBYQrYkRADUqBNglJaAwUIQf52//ivnfIFzvsw5bzHGYs/zthtPCyH8OI5XkRWKOArgQQDf Q7/7+MjHB4wKAYq4PgaAE9G/4ZyfY4z92bKs1z3Pa2mtI9d1FQA4joNer8e01h3GWFdrnQJAkiTH jDGTuDbdx/cERoUABQyAWxhja0R0QUq5VCqVmjv7+gBA3ngalmVtxXHMGWM25zzQWr9fa312iPdw TTFKrmADQDHGpjjnq0S0nieEvkH4QNZ42vM8xRhLtdZt27bXAawyxuoYo8CQUSHAYCdSIqItxljX dd3Idd1dO48D293HteM4SRRFRffxoh3NUFu6XiuMBAHyjqKF4EKtdRgEQWrb9naT6suBiEylUtET ExOKiEJkXsHEZBj5OMFRsgG4MYYmJiYiznlQKpV4qVQixhitrKxc9k158wciIlar1USSJOHa2prA Hq7x/25iVAhQlIOT73nPezaXlpamy+WyGwSB7Ha7SblcNltbW28QZtHwqVarSSGEyzkvWZa1gez8 YCy8gSOxBAyAf+tb3zpXLpeDSqVSrdfrvpTS2q0LeSH8IAgsKWUp7/NXfeCBB84imxgjr/6BEfEE ou8EKgEIHn744X/fbDYn5ubmLqRp+vrq6mp7bW0tXF9f33bs1Ot1Xq1W5fz8fNDtdhvNZnOu1+uZ X/7yl/8N/d6+I68FRokARf/hSrvdrj3++ON/K6VMZmZmlizLWo2iqN1sNiNjjCYi5nmeVSqVfCKa WFtbm15cXAyee+65/3HLLbesoN/saeS3gyNBgIEw8OIsoLawsDD1/PPP/7s0Ta16vb5pWVabcx4a YxQRcaWUTJLE39zcrKZpKp588slff/jDH34NWQ/iLeyR3r5XGyNBgBxFMoiD7DSwDqD2k5/85Ngf //jHuTAMpW3bCWNMG2MoiiJLCJHeeOONy48++ui/+r6/hn4D6rHJEhoZAuzoQr6tCZCRoby0tFQ6 ffp0tdfrWZxz/b73vW9zdna2aDq9gX6Dxx7GpEYgMEIEAN7QhVwiswlKyHoEufn/MfS9hj1kQu+i HwMwNsIHRowAAyi2fBx9jSBxaRZwiowERV7gdpGocRE+MLoEALBrjiDQ1wDAGOcEFhhpAuzjzTFq nsB9vE3sE2DMsU+AMcc+AcYc+wQYc+wTYMyxT4Axxz4Bxhz7BBhz/H9j/qA6xYXaQwAAAABJRU5E rkJggg== "
       preserveAspectRatio="none"
       height="128"
       width="128" />
    <path
       inkscape:connector-curvature="0"
       id="path4502"
       d="m 56.498193,86.562354 c -0.602025,-0.3913 -0.930008,-8.066719 -0.452723,-10.594552 1.686692,-8.933184 3.638328,-12.181649 12.618393,-21.003096 6.060298,-5.953252 8.499007,-8.770123 10.398226,-12.010647 1.142889,-1.950045 1.400209,-2.845186 1.625497,-5.654625 0.218769,-2.728091 0.134753,-3.699779 -0.459912,-5.319248 -1.054744,-2.872415 -1.988268,-4.494019 -3.357813,-5.832789 -1.554514,-1.519588 -5.235402,-3.87619 -6.054404,-3.87619 -0.348231,0 -1.203855,-0.296293 -1.90139,-0.658428 -1.011622,-0.525198 -2.436232,-0.658843 -7.040453,-0.660475 -5.677979,-0.002 -6.342437,0.102387 -10.871756,1.708176 -5.431698,1.925712 -10.897833,6.876841 -10.897833,9.871066 0,0.433874 -0.178328,0.899074 -0.396285,1.033779 -0.217957,0.134705 -0.396285,0.652094 -0.396285,1.149754 v 0.904837 l 2.972219,-0.793124 c 2.622034,-0.699678 3.231037,-0.735203 5.16895,-0.301517 2.778813,0.621871 5.047475,2.645138 5.703838,5.08687 0.511143,1.901498 0.174906,7.264598 -0.538509,8.589417 -1.429639,2.654855 -1.87026,2.989458 -6.092946,4.626883 -1.900537,0.736967 -5.939023,0.116964 -8.453218,-1.297769 -1.71859,-0.967046 -4.157451,-3.67399 -5.117954,-5.680521 -2.580372,-5.39051 -2.243948,-15.369056 0.721475,-21.399381 5.09702,-10.365025 21.426654,-16.3737733 37.735216,-13.885273 9.121142,1.391782 16.686504,5.725282 20.791302,11.909424 1.632024,2.458743 3.382073,7.558556 3.382073,9.855674 0,0.899934 0.155534,2.178553 0.345628,2.841376 0.198768,0.693063 0.194373,2.039027 -0.01034,3.167662 -0.195785,1.079392 -0.452835,2.854171 -0.571229,3.943954 -0.11839,1.089784 -0.353007,2.338081 -0.521364,2.773994 C 94.096953,46.94676 91.817356,51.2 91.534464,51.2 c -0.170331,0 -0.311563,0.22291 -0.313845,0.495356 -0.0046,0.548617 -5.654719,6.162388 -8.078314,8.026337 -0.849072,0.653006 -2.54319,1.862903 -3.764706,2.688658 -1.22152,0.825758 -2.499991,1.731959 -2.841053,2.013781 -0.341063,0.281826 -1.604161,1.239365 -2.806886,2.127871 -2.355869,1.740384 -6.257629,5.844424 -6.958714,7.31948 -1.404789,2.955623 -1.701407,4.12926 -1.940384,7.677598 -0.145559,2.161255 -0.425005,4.241631 -0.620993,4.623055 -0.298503,0.580938 -0.916876,0.692512 -3.80989,0.687432 -1.899452,-0.0032 -3.655121,-0.137083 -3.901486,-0.297214 z"
       style="opacity:1;fill:#3daee9;fill-opacity:1;fill-rule:nonzero;stroke:#ffffff;stroke-width:0.39628482;stroke-opacity:0.94117647" />
    <path
       inkscape:connector-curvature="0"
       id="path4504"
       d="m 58.170594,114.33518 c -3.396824,-0.56195 -6.09419,-4.02303 -6.464235,-8.29447 -0.583758,-6.738335 4.508437,-11.457099 10.847291,-10.051817 2.817574,0.624638 4.715871,2.043773 5.92464,4.429167 0.938651,1.85234 1.02296,2.37352 0.849098,5.24896 -0.25471,4.21252 -1.140643,5.82886 -4.326085,7.89269 -0.988377,0.64036 -4.937431,1.08869 -6.830709,0.77547 z"
       style="opacity:1;fill:#3daee9;fill-opacity:1;fill-rule:nonzero;stroke:#ffffff;stroke-width:0.39628482;stroke-opacity:0.94117647" />
  </g>
</svg>
