<?xml version="1.0" encoding="UTF-8" standalone="no"?>
<svg
   xmlns:dc="http://purl.org/dc/elements/1.1/"
   xmlns:cc="http://creativecommons.org/ns#"
   xmlns:rdf="http://www.w3.org/1999/02/22-rdf-syntax-ns#"
   xmlns:svg="http://www.w3.org/2000/svg"
   xmlns="http://www.w3.org/2000/svg"
   xmlns:xlink="http://www.w3.org/1999/xlink"
   xmlns:sodipodi="http://sodipodi.sourceforge.net/DTD/sodipodi-0.dtd"
   xmlns:inkscape="http://www.inkscape.org/namespaces/inkscape"
   viewBox="0 0 16 16"
   height="16"
   width="16"
   id="svg2"
   version="1.1"
   sodipodi:docname="mail-mark-important.svg"
   inkscape:version="0.92.1 r15371">
  <sodipodi:namedview
     pagecolor="#ffffff"
     bordercolor="#666666"
     borderopacity="1"
     objecttolerance="10"
     gridtolerance="10"
     guidetolerance="10"
     inkscape:pageopacity="0"
     inkscape:pageshadow="2"
     inkscape:window-width="640"
     inkscape:window-height="480"
     id="namedview6"
     showgrid="false"
     inkscape:current-layer="svg2" />
  <metadata
     id="metadata8">
    <rdf:RDF>
      <cc:Work
         rdf:about="">
        <dc:format>image/svg+xml</dc:format>
        <dc:type
           rdf:resource="http://purl.org/dc/dcmitype/StillImage" />
        <dc:title></dc:title>
      </cc:Work>
    </rdf:RDF>
  </metadata>
  <defs
     id="defs6" />
  <image
     y="0"
     x="0"
     id="image10"
     xlink:href="data:image/png;base64,iVBORw0KGgoAAAANSUhEUgAAADAAAAAwCAYAAABXAvmHAAAACXBIWXMAAAsTAAALEwEAmpwYAAAA FXpUWHRBdXRob3IAAAiZKylPTcwGAAaBAh3BFP3WAAAMJ0lEQVRoBe1YWWxcZxU+986dzWs8ju2M 97VpltImBKNULUVqEBIIqFqeKuhDkWiFqJAoSH3oCy+EhyJQK9FKpVFJUkJKQU1L4iQ0zja2Yyeu HTte490ztmPPjD37cje+c+0xk9RL4qaJQD3y73vn3v+e/3znfOf8516iL+U+eyAUCpncbvdjIyNj mffZlA0tL2ZlZakZGRkv6Lp6bnx8/LnR0dGsDWm6Tw+JAiQej7c5nc49gUDggNlsPj85OfmT4eHh /wkgIhxnPXToUI/Vao0UFhYK09PTj4ii+Gf8bgKQF0ZGRjbdJ+fe9rL2zZs3b5ubm7uqQ0Aj9eLF iwkYr8/Ozuoej6cX5y/hev5ta7yHEzkCitfrXYCB7bxueXm5sGXLFmlwcFCORCKqyWTahmi8brFY mqempl4eGxsruIf2rbuUAQCzYq0QDYJzoba2VigqKpKuX79OAKEkEgkdqfIAQLwGMJdAs1cQFee6 2u/BBAagY8iHDx++BmNvLK0pbN++nfLz80VEQgAAVVEUPRaLEfKj2maz7QeYlpmZmVcBpuQe2Lnq EsLSHSuOzqGhobdqamq+nZrNAWlrayO/36/V1dXpKLcMmAsXoVoRQFAymXTj2ruY+zaoN5F69l4d 2SAWGSPc09Nzyfi19A/epj179hAbDjqJiJAG4zXkOsmyTNFolNGUglavSpJ0CYVgPxK/Jl3HF32e AsDcTzY0NLRjTwjxomwkDxhGe/fuJSSzwCCwczPlcGvxfgoIrjntdvsrmNeCiL0GIHWs54uWFIV4 HTs8WTUyMnq4uNi5S1XV5bU5EuztM2fOMCC9urpaxw5ucIn5BOFzzg8DMPQQ8saPa++BWm+iTPct K7vLJ6kIsFquNv6x8bHL/CPlYT4yGHiXHn/8ca5KAtoNjoQRBtxnWZ6PZE9Ry2G1Wl4C4CZE5E2f z/cQ673bkg6AXR5vcrlauepwAqcPNiw7O5ueeOIbnNSE/UAIBoMC5ixTKjWfAS0CiTGwPIB/EdRq wvx35ufnd99NEOkAOA/kI0eO9KIn8mDBmwCwcWxUXp7DiAQ4LkxMTBggkAccBZ3n4HDT4GcQNbY5 G1Xreei9AP0HMervBpB0AKxP7ujomEJ9v8qcTnk0/YiySdjkjMTGZkZoxSkcDgsMAs+sCYTzCBMy kSM/Rr6cxXPvLSws7P08QG4FwDSKdHV1tbCh6YanztnDXHnKysqovr6ekA8CQAgMAtRjOhkRSJ+f igpf43ziDRHXMhCRZ5Ej5xChvyOnntgIkJUAJI8fP94BvgZZIS+40mCAtTW19PAjjxA2QEKfJMDD AoxDJEiTRNLNJiILhgmrLJY7fdkprHMpIsBh+SGodRpAjmE8iXKeXh3XxLXSRDsUVnR2dv4FjV09 vLqmAt4n2tvbCZsgbd36AJWXleqtI2GtZdokVuRZhLJNElXmW2nLJivlZJjJZpGMksuQdAwuAUxX zjkuv4iuAnqdQrTegFNOoy8zorqaEdIKN2R4dx7UuAya1LOneIHVhAHuQhTccwvU29tL8Dwda4+L jeMWKnbmkaJbSVBClGfTqDRXpIo8E9UV2aim0E4leTYqyLWSHaDMIqKjJMgkiBIc+N14IvGdkpKS TxDR19Etn4Qtyko2rASA8yDR3NzctmvXrp/CM2bm7lqiKElqDZVRLBShxKfdQs9MNVkAZGHOR0VO dN/ZBeSNqTTrV+jKrEJ6b5IkClOuRaWCDKKqfImqC2xUW2Sn6qJMKsy1kSPbJlhtGd8iXd1XWuo8 p2vy6yRIJ+DMZLotq7k2s6qqavuJhoaj+Q5HFSftaiJCQyAq0/OHPCTnlJMz2EZXpixEokS6phqj oMhBNkcJhWOYbPzxstggl5JahX7D+1qCrIICUDoVI1p1hTZ6oDiLHixzUDFT0G52ZWXa3oCSYwBi cJs1rSSwgIoaGxv/uHPnzqfRH61KI8kkUPvIAv3q4whJ+ZVktQiUmBsh35zXYDk2BxQBhRyOHNpU XE2hJFRzRI2VP7s8z1cwXwEoVY6TjoHGhLLNKlVuzqCKAjvZxGQ7WPfSb56tb1mJQgyI+Rbh7hRt 9NOpMsg30oWvS8iPrklQR7STGb+TCY3s+WWUp8g07/MZdpowx++dJznRS4WVWymqZRtG4otCurrF c/RTJsmMhLbjdw7KLccKnMbcgVhI6eudumoJTRy1xdwefmA1AMaufPLkyc59+/b50U47OJlXkoSs U6c7TpIlz6ALLxdNCJRZUE6anKDAwoLxGJfSUCBM8sBVKq59kJLWQlSc1QsEG458RnNoIpOCxmt+ uD107V+Nk41vt0bDoREoDWAg/quLDbfKXC7XuxUVFY+uVE7Zgd5ggn529AaFMyqNxQx1htcEyjDL FHAPUDjIHfpii6GhtZAkgUprt5KQWwmwXEwxlizRSUSuWuBZmaS4bzLpudI86zrQ4uk4MwYlrIj3 J+/SiK4WAdw3aBRAOW0tLS19dKUImIF/cDpM/rhEVjv6ICbekiUwlyJJkXKc1YhEP0XCEeMWGAJ+ KzTe100lVRHKcu4ACBO8bULew+NqNEnB6z3hvpMXPWfe6gjMumehlZspNpzDyccoBiexthYAo5zi Xb9t9+7dSZRTC3M+XXSUoKsTYVKEDLKg4mgCJ+fNQY1oZsopriFtso9i0ZiREyJx06fR5PV+KopF KK/ma6BTwq9OdV/2XXrv4vjZg4PwBVOEDWejeYQxYhhcEpcNuXk13LlFMrCZbP3ggw/exwt+bXo5 NTSgYrz8/jj1xwoJNdswXhDgYgPEomoGzd61w3H+8T5KxuE4voVnNYDgbjw/xzQYunTgD1M9LZyY bDRThY1OgWBvs0OXDce5IVhtTVHwYWsO3emnvBvzhpaqSMzb6fkYjc+rxHuBis1MQ/njkqnzWNoD cIIan6SYnkF5pTUG/3EBpsAeDAlbt2/40/MwvhuWTGAMYwxhTGIw1xkQk/MzxuMaMmZt4QejaBFa EskkbP9vM2aCvoGpEAXicCgbi7Kpw1BdRf0GAAaTGgyGN6uwlqPnl1bpJqPr1ggHEtR4TJsbOI91 2OBRjCkM9j40g2vryHoAjHJ66tSpq2iXfRyFRRCLFaVzPIgV8OKjsuGLEdAYyC1RYJroAnqg3Jj+ 3LaYXp4rANNiCRWVWH/oelMX7PRjMHVu4vg69q8bAX5evnDhwuTC/HwPd54MAO8tFInL1DsVMejD nlfheSMKhufRGuA3R0AXUCfUaOjRTRN9rz4mi/WlkvjVikyOEtcA0qOzTXIyMYd1mOcr0oSNWE3W iwA/xzQK4PWxjY1nMWFljz9Kbn8S+YhWgakDz3MkjIFz7nM4ly3hkY7Y+d/t/+S3z+wfGuj7yFHo 1L75lWIx24alQZ/kTI8LKpkuvM4dC1431hW22oRPIzaU0+8jCtgcBXL1zlLjQJjM+DrHNd/wHecI TtEQk1mLeGnszOHJIz8/uDDRNxyOy8EPjx3r3rFjZ/Kxr+/e0TMZkkbd072B1kNvI1KcrDd1meta tTThdgDwVBOqkf7UU0/tw5eJAq4sf3ON0pAPvRBeRMArTAEM3vpFXZUCQ+eD537/J4/rry5F1WZw kxOTjUycOHFipKayfKGqbtvDrraO48FB10lcZ+6vm7CY8xlZayNLn6zgs6F35saNK84tW7b50Pf3 e4Lgv92gDOkS3qhgvOwbUwbOvu8+d6AZ1vigILXls4GMko/KL37564+eee7FOUfU3Y+vyRumD3St 2szxvXRhfsZ6rl1rfWjH9h9NzIYEjx9fqq2gj27mviUqzPY3+Jrf+Tji9XA5nMfgFoDLIe+eKe+y HqOy/ePgWw0457ZgQ8mL5wy53QjwovzttOvpH3xvrmdivjCGYpeJds8Uv9EVHzx91N/9707MYcO5 orD3eeu/9U2I9aRKJffLfJ8jsGG5XQC8gHL58mXPnNfb3eMOPymJik+fafvQ2/rX03I8yt5mo/nI 2/9aXmUQ3Iyx4YvJg5ONyh0BwCKhs5c6m8bHIrZExz+PBDy9g7jGNEl5nQ3jnuV2hIF8bkGlviPZ ZM/OrVNjQUdS0ZkivHuy8czlDZVBPPe55E4B8EuOAyMTg5sspkt6kuLnvZU7BcDz+YWfd3BOwA3t nnjuS/m/8cB/AA+PRFzqWklJAAAAAElFTkSuQmCC "
     preserveAspectRatio="none"
     height="16"
     width="16" />
  <path
     inkscape:connector-curvature="0"
     style="fill:#ff0000;fill-opacity:1;stroke:none"
     class="ColorScheme-NegativeText"
     d="M 15,9.9999996 V 14 h 1 V 9.9999996 Z M 15,15 v 1 h 1 v -1 z"
     id="path6" />
</svg>
