<?xml version="1.0" encoding="UTF-8" standalone="no"?>
<svg
   xmlns:dc="http://purl.org/dc/elements/1.1/"
   xmlns:cc="http://creativecommons.org/ns#"
   xmlns:rdf="http://www.w3.org/1999/02/22-rdf-syntax-ns#"
   xmlns:svg="http://www.w3.org/2000/svg"
   xmlns="http://www.w3.org/2000/svg"
   xmlns:xlink="http://www.w3.org/1999/xlink"
   viewBox="0 0 16.000001 16.000001"
   height="16"
   width="16"
   id="svg2"
   version="1.1">
  <metadata
     id="metadata8">
    <rdf:RDF>
      <cc:Work
         rdf:about="">
        <dc:format>image/svg+xml</dc:format>
        <dc:type
           rdf:resource="http://purl.org/dc/dcmitype/StillImage" />
        <dc:title></dc:title>
      </cc:Work>
    </rdf:RDF>
  </metadata>
  <defs
     id="defs6" />
  <image
     y="0"
     x="0"
     id="image10"
     xlink:href="data:image/png;base64,iVBORw0KGgoAAAANSUhEUgAAAIAAAACACAYAAADDPmHLAAAACXBIWXMAAA3XAAAN1wFCKJt4AAAg AElEQVR4nNy9eZBkZ3Un+jvfd29mVmVlZmVtXb13q1staLXWBiRACAxiJBAeG8TghbCN8TLgYCae eZ7ncMTY8ObZjjd2zItxOOyx/QYPXh8BCFkghJYRkkAWWlpSa2lJvan37qrq2rNyvff7zvvjnO/e rFa3FlYzV5Gqzj3vd7bf+Z3znUv4X/MgAOacG/Xdwmv4PP/mvps/5xZe87/MQa/+kn/xBwGw59zO Fei5r+9XAuDlwj/39eEvA3Dn3H6sleLHVQEsgEhvFqsFSOc8Z7HaC6Q4vzUHrxFhtfUHQad6C98R 3tP/nPu+nuUP4fhxUgALoAARUDhY78d9Nw+gCyD91V/7tztvfv8Hdm7ZsmH90FBlqFQaqFWGqpui mEajKCoaMkUGwM53nE+73V4y3263jrXb7eXlpeXGiWMnTt5265ef//w//N2L+j1F5EqU6C3F6nVM AfTwY6IM/9IVgCBCL/Q9xnq/pH97ALr/46///qY3vfmqXWsm1142XKu9LY5N/fv6Szxm5xbmHp6a mnp+z2N7nv7Yxz92r/6GOPwGvfWvaU9vP9Zh4kdxWAADAKoAKgCGAIwCWA9gK4Dx99xw85seefSp /7Sw2NrDP6KjtdJ6+KknnvjsW998zZUAJvS3rdffOqS/varnYn/oq/hjeFgAZcjChcWbBLAFwNp3 XP/uq556Zv8ft7q89KMS+iscZ/c9t+8/X3XlVZcBWKe/eQ1yJa7ouf2LUoR/KSHAQKzEII/rZYiL X7z19v/5C9dff92/HRsu7nwtH+YBdLopuh2HNO0gTVI47+GJAedhrIElAhnAkCwBgUAkj5soQhxZ RFGEKLYwxryuk2m1Wnvu/+b9n/vAT37giwBqkNDQQo4XPIC2/v2RHj9qBSDkcdTr3zJEAdzDjzz7 7664atd/GCy8wicAWGqmaDW7WGm30GklMBEQG4BMBDKAJQ8YwBoLQ5CbMTAEAAZkQm5IMIZkUchK fkkEymyWEBdiRIUYr1El0qf37v3jK6+66s/03FIATQh4NPq3gx8hRvhRKkABgqoBWYwhyCK5J589 9Ds737Dtk8UoN5H+BW/3gLPzLSwsN9FutVGIDMgYRLE8H4QWASBjYa0XARsLSwwDAlmCFQ2AEVcA gjwHIvk+srBWPQRR5i0MGXh4gCEKEfUnJuc/Dr5w4E927Lzkj5ED1xXkpxdA5A/9+FEogAEw2Pfd ZYj7bzz8xL7fuuLynb9dUsGbvjckHjg51cXU2WV0O13YgoEhD2vFkiMDEBmYiGFJBWaA2BiACJFh sBEhWjCMJRiyMOQBsvJdhgAKQVq8hSgAgQgAEQgGlqAKo6QAyb8iU4B5FV3Y+9RTv3/V1Vf/CQQT tCEeAfpRLfyQw8LrC27f+1GEWDogljAKAH/2uX9860KHj19z9c7fLpxj9QtN4NF9S7j34TM4dGwB rU4KiizYi72yJzADzASwWDBzrtesztUhuHbAE2UsD2AAFuUQUVt4df8M6kvmKdNY3/eYIVEagoHn FGnqgfTCMrzyqqv+IzMf/qu/+qs3ya/BKPI0dwi5V/yhHD8sD0AQqw9s3BCA4saLLh781nce+8tN E8Nv71+yCMDJuRT7jy+isZKgQGKB1gBEDEOMOBIQRwTEkTweEcFEAuYiA8B6GBhERryBBQAr7p+g rycLAwaRYgGyAOkPtQQCCbesgjYkp2AMNFRQtoriGAxgjHqUV16UhYWFBzes3/BrrXYrhYSAhj7l Id7gB44NfhgewEIEbiAxfgSA/9uvfP2mFw8feG79xPDbA6EeAZhaTHH33rN4/MAMmq0ExhCYAM9K vLNYpndq3QR4FotmDtbpkTIANmCN1YHT1aezPx4MEEkRQAVpQPCWstV3mZkYeUwAgniJIHwyABlk T7+Gla3X6+9stpoHbv3SrT+hSzCqyxAw0Q88ZfxBe4DA2HlIrB8EkB44M/932ybr7wwCsQDmu8Dj B86i2U5gYEAiaZATgRhWpG6ByDAMAXEklkgWsIZhiBBFgCUDIoKNGKR4IDakGQFA1oJIgGFkjMR1 MGAjhQEEYwkg0TACIRIUKZ7BCFDMPYMR6zcGMIDpBzCv8Th79uw3JyYmflHXrAXBBgaSJfS+Jym8 wvGD9AADyOPZMICBj33yU5vmu+6FrX3C9wAePrqE+54+jVY7BTGBPaulc1aVSQE4vcO+r2bLDHbi BZgB55B5A+cUD3DuSz0D7DzAUh8KVSEPfV2/02XFBSTeg9T7MAJhQef10f67WNXx8fF3s+Nnf/mX P7Ze125Ynyrq/R/I8YPyAGXkFbhhAOmff/HWn/zYv/nQfwu1Wgvg2FKCPUdnRSoAyFPu573EfVKh G0DSLkX31gLGApFVqw6PERBFYqnGEIw+RpYQWcAwYA2BAg9A8jgRgRiwJoLAAIIlCT8CDo1+Dylp JCSSfITEfQvAmNUZzHdz/P3n/+7jv/DLv3ivLtMi8spk8xXf+F0cPwgFGEJekq0BaN3zxLO//xNX 7/q1APQcgH8+uoDppbbk5MHdayA2CgrIaxFewwARw4JgjQEZjygysNYjCsSOKoOJhAsQPoCF3bNA ZHOLtkbCRKTaaCiCgQMQwUYKOqHuPcN5pOmm3LPB/RvAQN0/XqfwL6Atjz7y6H+99q3X/t8Q619C XopeeT0f/2rH91sBgvBjiPBXHn3p2N9fvXXTv/L6xFwCPHDwNJynHLV5SbqMByggLnYgb2EJ4FSt mINgDCLrYWMDIo+CNVl8twagiGCIERkj3iJYrgFiK9YsnoEk11cFIbIgBkykMZ0IRhUAUAwB9RaZ FxAMETDg61EA7+V/npWdjFa/8/Chw1/dfvH2X4V41GUIc/h9VYLvpwIE4RcgBZDWM2dmvvrGyfG3 eIg7eGahjadOLSAiD2LTF5gJpHGfGDBOs3Cv7JwDiE0WEgwZcedZKPCIlRCyhmAiwBhGBAMTqTsi AsVQgYvHICL5NxGMtbARAY5hYUCRCNpCeGIyuVcQLyLWbwHAmEz4wGtXAu894AHPXrAHe8TF1bz3 2TNT/zyxbu2HkCtBKC9/X5Tg+6UA5wq/uX924e6to8NXBg/3wJlFnFpYkay6L2cLsV0Al6K1VOKx 8QGFizJYEMAS3yMbhM2wVqjbOOLMqkUJCLEVb0BEsBYgK++3tk/4ZEFW3LiNRCsjNWkDjfUmED6q BEr+EImXCfWiEPte6fDZ/wDvUrEDZrCuSSGOhNrUY2527omx8bH34wegBN+PLCDQupnlP3dm+s4g fA/g9mNncbLRApOBJ8mdvQHYEBwIjlb3XsHKa5xRTCi+Vp5TJs9pJuAdZVlBCuUDNGgzWPu0FK0r PGfFmh4Ep5kGK9qT9+YMIBPJb4V+OZHyAlpB0hXszwZeicvtD/neI+MO1AGAwej2EiTdPPMbHRvd PX1m+nYICKxCQixBFOJ7Or5XBQiNDhFU+E8dPfLFHZMTu0P69tXDx9HotcHwYHh4ZnhiuU8ObDTV I4ZXQTkwnC4pG4ZjeZ4Ng02geggJ63sDlHCqXCzvYUhKqRle1sEZqGLW9j6n9zw4JCRZCtrfJZoJ WZU4i2DmPK8558ipZ2GKvZf1YNVepRng4eHZI01StJvt7P0TkxPXHjn00j9COIIacsLoe0oRvxcF KPb9iBqA7t2PPvLHl2/ecj0gkPWrhw4hcT0YdiCkAuzIa96d5+DZjQQPyuOENAQoIngiYQBhMqVh JniQvIfl+dSF/Fz5fiakbPp4A1LhERyFfztRPmUUnVp6P+fv5SGpPyjc58AM6pEpBHJhBw4j/Nv5 vtdyOHfBP/CAYZMpF6ceraU889uybet7HvrWQ78PCQE15E2sr1Iwv/Dx3VKNoWWLANQB8J987r// ws9+4Cc/HVpk7zx8AF4tFGDASSxn7rcpn8U/Igb3FWw48KxEINKCD+W5OzNl/DwMZQwd6XuNEPcK 0Cgr9sAEfoFEiGQlhQtxXkkFA5bvU9oXROAsJTRgErwRTChYEumtv62Y0BcWGGCvMQteYz+UC2F5 PQfvJ48nnR4KJZHxps2brl4/uf7k177+tedVBh2IEoQ08XUL8vUeIfYwRAvtT//MR3b90R/84efC SX/j4LNg7+BDPS1VARNA7DWN8vCky8UGnglgLwrCThYyEO3M2cJ6qLBJgGEGY01Iz6DWqTQxMZjl 35wROXLmhAgK5oVzyICeKgSJ0olSSgpiwm+m8DtWL8z5jkwqmdw5uyMRSkKPZ1kfDobjtIXIpei1 uygMlgAAu9+0+8ann3767hdffHEOggfaEC+QfDfCfL1HYPkGIRpYXkw6Tw1GxRgA7j30NDpeRM8p wZEINw2Chs3cLbMV0MUG7KBB0IA4leocGyDVHF1RWeRtVlK0LPm4MYL645DbR4AlRhQTrHoNY+V1 USSviaQ0mD+uFcEoEpaQiBAp6SsEE61C/YrdpOkk/J5zFnSVOXoFgJr3gzUAMoO9WD2zeERiBrvg LQHHqaSnZDA0WpOPS33bxvZqiAdoI+8leF1s4evFAEXkcWcQQPf5Y4f+v3JUjGMA3zryNDq9NpD2 YFIHIgcDB4MUMYeonIA4gUTvFMQp4BLxFOzg4MFkwGGhrDCB8mMFkUs2QPAmj+es1cGQSjETXBpy bA/vZLFdqhlDiMXMfZkD9VUcAW8IMKyYQmOzWb2rpL/5Pzwespn+PWWAuH6nrp/V9bMH0Ac+wSy/ VR6GYwd4AceJT9FckMzPRGbg1IlT/wjBA4PI8djr6id4PSEgIE6C8Pv+81/42//thre/64MGwBOn n8fM8mIeA0lOndgrCvdgMIj1ZL1WXlgjJod0TV9JQFZ2YQIsZ00foTUjhGDuM0EiAmWlQ/EeDA0F wRsg0Lks7B8k2yDIhxnDGvNDvq+hIDQP9uX8Ib4HS+Jw/v03r+BPkV6wbFkDWZsMH7mwFiy5kL5P 9JqRJqlQrYUYlWpl7fat2zq3/dNteyBV17bK9DXjgdcTAkInTxVAYcelb7joueeevY8Q4eTSaew9 8TwiilXjdfFA8GwFuXuCowjOCXp2BmBnM8TOTGBVYgYBbCUOsxXXq6ZloDStEkIWghUCAxgZcZUm YsREIOVUDBlQRLDEsIbyYhK0+GM1uQ5hgABQBGOky8gaaTQxAEiLTUDu9s91/+FgL97A+lDGZK0q StB3DFj2cMywAJx6Kg5uz4f76hHB8KnH6PgITCyU09YtW9959NjR4xBvsKxf/ZpIoteqAKGBM5A9 yZHTL92/Ye3G7Z2kgwee+7ZSb4CUWK3+DS7ayHl4C2cI7CMt3xo4InjW1i6J6GCKwCyBlmAAtmK9 7EGwMA4wrNU7GFEAAfwwMSEmgCzBaCGoEAuws1aAniVGHIsiWSuCjgxAlhFB+wYVCxijuALaPWRD 7V8WJuCRsJAW5+wJ833dJ6oAWf4niwIOSuGCVwTgXe4pmOHZa2jTbME5TGyYBADMnJl6Yc26tTdC wsASBAy+pkbT1xIC+hmnGgD+s//+p7/+3utv/GkD4IHnH4Rnp6gcEttZboadhAD1i8QsyJ5DL47X ngutrKuLNcyZ6yVNESW4CkWYZYjhcykoj3wEqzIEQTGRNH8ipIqCJaTbiKWNS9NJBoMi0nSRwWxg SSkjAozRPIRWCz4sVBbv4aWvoY/sIF2IkPNnZIC+A1na7OA18/EqfAIykCiZEqPVbKFcKaNcGRqf GJtYuPMbd+6FGGoIBa+aFbwWDzCAfKNGCUC145pPF00Be489gdNzpzUvN2Bt0iOWEOBJHKMHwXOk 62Dg1Po5eAkYOBY8zRRpCDDKvFiw0w2+VuI1XKTKYSQUUCjASBeQNeIRgiuPYijSh1QKjUFkvBSA SBSBTCQFJhWsjYx0+ES6vVjTw5gI1gAwEYSWysNBTvAbwKfQfFRBgTJ+asHsAuZQTOCUFfES+8lr gch7fQzI6gXw8NojN1QdxFC9BgCeiC6HZAEd/ZuqMlzweLW6hUXOOw8A4Ae+dc//FZsYc82zOD11 BKTN+FLI0ThFRku5cvahj96xgfcEY6wgcvJAakCWYQB4Z0E2BYHAjtQ/izsXZOSRYxwjyF3JJM9W 9MUpa2fkGauJuvOMNE3g2okIynvAsOADQ4giiziOUCoVUSoWEFEBgAc5wFsLo57K6V4C8imMydnM XPhehAeGZWEYw1OGGQ6AstlwGhJMEL66fPJ5JMgAZRYa8mISg7G82MBQrQYYmG8/+K3PvOOd1/8f Kqs28o2rF9yp/GoeoKyvqQGIJtdObDtz+sR9AOGBJ29HLw07nZQSlbbdjNNnEEBq2WyQkoFX0ocR CXdvDdgZOKswyhkBg0zwFMnzIFAaKXLXYmvmISLBAUDmDaJYcvtet4U07aHb6YCQ5vm8kZ9q1fOT VVCoK+LBKBqLoaFBVKpVVGpV5QGkAmkjZJkI9BdBm1ckTnsQBKMEAQLa+KJlb4S0WHN+ylJYrVjo fWafeQPPLDxCwAIsOZMhi8nNawEAw9XqO5cajWMQ97+sX39BbuCVMED/fvwhAPZ/PvCNP9qwbsNF Lxx7EvOLpzVBZ/iQ1+qPg9a5jVZoiIQRpBQgr084wQne+yzWh2RYNmuYbIGsWh/gYTQOZrGTvaSc 2uPXS3tYWV7EwuICup0OXJrI90sxX/ABad6vjaSkH8dKKVtDYHj00gTNRgOLc7No93ooxRFsQSjZ LI2EWKwPf9nnlDbnqSDAigFD8s/az5gLG95l2QHrucGzAmYRts+yBPku5z2cc7AUoTBQwI3/6sbJ v/yrv7pb5RdKihecZPJKHmCV9W/csO4Nx08cvauXNPHgI7eCjJWTy7hyE5YDnqyCJo3hmgkwS1HH +1j+MgFkJf+nGCHnF9tQXoMkjRRaOIJu7AL3Df8wMOglCVaWm0hTLymhhgFjWDqC1RlZI+HGGIK1 2icAzrqIAYOIfFYzMAiUsgHYY3BgEGvGJ1CuVeDhYYM/dkEpQ80jNLNQqHgIx6ChEhr386zAZbyA VyUxgMT6YO1egKWHegJWg2OG9x5bdmwFAIyOjNwwv7BwCBIrl/AKXuBCHsBAAF/o6Y/vvPO23920 acuO51/8NnrdTjZ3hcMP9IroWazceOHqA49GLIGBPJTX9SJsZkH9gFqGFFwMB/uSJZUfyplbRcgC XILFxXm0llfgvZf0UM+AIAUeJoYxQiJJ3sYZwhfvIJ/HrF4CQOD6AfktpClGmvawtLyIVrOJ8uCg ZCBeXXVm76F4pSleQP4k2CDD/czI/VneCR1SRO+FOGPVMQ7EEQOOOVv7kC0m3R7KlTKuv+766uf+ +nPfVAPu6d/QTrbquJAHCMi/AgES65hbD7daS9jz+NcFnPVV+lIKri58vlTOpAInOb43BKPEsPdG qCoTgWHBZLUhw4JZawXKzjAb+CzmR5rnGRhYNJstLC23EJH6drLC4/sIJnIgY0FWe/oMIyLJ9QuR RWQJkY1grKwuwcOlHhSJskRBCTTDsFr5CQtm9HzHxyYwNlKH07gvz4l2etbPUaToVZkysJfl/S4T JrEypi6P89D+gdxbCNj2XplWz/BOwsH2S7YBkQERXQNgWgXfwAUygvNlAYS8xlEEYL/0xb/7OFDE 4YNPwZii/GCFNwwgYtFrsWuJVYCHcUbOnghW9/KRkSwg9gTnCd4E8tfICZOQPIE3IbDk4QQQEiGI 2GJ+fhZpzyEKToxIgZgCK08IrR7FchEDpRKKgyUUixFiI0oRWcBElLWYwQKcpkh6PXTaLXQ6HYnt liRpiABQaEIRrZ85O42VxiLWr9+kypRHA/Ky+pYVz3NfWdgFZcgX3iugDtgqf7yPTFCdIK/0ceYK JeSePjWFdZvX4ctf/NIvf/gj/+a/qK6u9Ml0lRc4nwcIjF+o9g02G2cfJ+LBJx+/S1OfPjcGB6bc saUswvJ97RQ5ZSI3B6ulYAtHkVh4Fvct2BiN8QT2gg28EQWCB86eXRBFgGAMgDRGR5oZGJSKgxiq DqA4OCju30CbSCNQZGCV+7exlT2ChoUOttIPGCqInW4bjYVldLsd7SQ2WYmZQlezhputW7fK52sG EKgfaTPsK/g4SQkF1QNZJStYd6gbsF/NA/j8sZBJhCzCQz1BmmDbzkuQ9LrLpaHBt0KqhKFa+DJ2 8HwYYFC1pAqAPvGrv3jzBz/80Z88un8Pet02hA4xGatFCspCtA6EjEZgfZzzTR6kkT0U0kmSSG9I cASxunOfaTkZwRPe9TB79iwAVlpYHLEwcwIdBwoF1EfqKA+UEZEVKyEgNoSBmBLuLM+m86fPNM6c PJXMnTndOTs91Vuan0enuVwrFBAPlIqJRmsDIIotKtVhDFWG0Eu6SNNELDAz5xTw4r2WFhZQGarC WKsxn3OrV9DXx+6ClPELzWci85xLFCxBOVUcHldSKTND7SqW+wZJr4fh8ZHikcNH9j39zNOHINbf wurMIDPNcxViEOIBKgDKTz3xyB9dftll73/swa/BRAY5bEHm6jWpkf9IvYL8FinvsqRVrOiNSDg0 zxL/PREIkTSIQkuviNVhGTBZOAbOzpyFZAJWMgxvAMSiAsZguD6CYjQoOAEEY2IMmGR57uShw8de eObo0aNHVtrtjidjjDEmY3LDkB/nnC8PDJgrr7pq7KIrrti0ZdfOizvgArxHZC1MbNBpNjAzPQv2 KaSB3KkXCgbA2Lr5IphCrB8uS2w1LgQFEA/hlBfgnDJ3ogzklEaGzy1d0+ZwX6xf36csIesW9Z1X XYqnnnzya1fv3v07kAygocJvoY8YOlcBwriWAP6GOensPXP0RUydOizpCQiO8iDAWUDQujpLO6dU bhkBFTjSH0gAlLuHkRQwCFWgmBECiCHUMos1Tc/MSVjQni/O0kRCsTCA4eExibtk5dZePnV478N7 n3vm2VkQ2XK53K5Wq42BgYHOwMBAr1gspsYIJ+e9N91uN2q324VmszmwsrIy1Gw2S2Dmd7/3vRvf ctN7r+7FcS0Q1yDCmekpJM2WVj3FdoSnJBiWcEBRlC0wqbwRBC9LAxOECWmYtQH8CcpDRglqqmcg lcMgcHJ+dTbgGQ4OYxNjGF87DiK6ErK9LIDBMJYms/j+I3SYVgBE//F3fuuWd7/3fe8+/MwewLG0 TAEgRzCetKZjtBUrwMK+IECaP2laZynfT0+aORiYrNgTdtxIH7+gfQJjZu6spFlaZwhonJgxNFTB cK0mVgNGwbiVw488eN/9d331ueZKc3n9+vUzF1988cnx8fHFoaGhTrVabVar1fbQ0FB3cHAwGRgY SEqlUi/cyuVyb2JiYmHdunWzURwn+198sXvv7V89MGyipS07dmzscGqYPaqVCpzzaHd6Gs0CVyHG 0FhpYrhaAWvM9n3pMutGVmTuX1A9+WBQoWEk+FUPVoYwpIYAq0Jp1iDuA077DVvNFsYnx9FsrBx9 +DvfeUGsJSsSZWGg3wOc6/6rj37725/ZdcmODx186hHAhA5Yr/ktlIGDcPoA2DLgvP4U8Q8MBqw2 eWsqDgqhwiM1YldgCwejKaG4cDYWC0sNrLS6CKQQwms8oVqto1yuaLi06C3MvnDvV778mI0it2nT ptPDw8NNZqZqtdqamJhI16xZ4+M4DmNkz+2G8gDSJEnS6elpMzMzEy0vLw8SES8uLpaPHz++np2P fu23P/3OwvjIJngpOi0trWB+/qzuIIoyAggpoVqvYGx8IoRzAYNhB1Qfoof3MFCX71WYgRIO6RC8 NouopbuABURRHFi3RqvSeI+LLtmOvXv3fult73jb70No4ZeFgX4FCOg/uP+R7krj4TMH95cWZ2cy zZbmDc7InBAItH+lz/1rHhDChWXNhFRZlKlzbJAyZMMIpAfAaaWw2/OYmZ/X4rtRPCC9ApVKVYVv YaIIJ/c++cCjD//z8Y0bN82sW7dujplpcnJyefPmza5cLg8wsx0YGHDFYtGdOnWKFhcXqdvtMgAU i0UaHh7mjRs3crvdtu122wJwrVarfezYMTs1NVUlIj59+vTo0aNHx2/52Y+8ccc73v4W5xxABsuL i5hfWoDhwANYkJN6/oaNmxAXSwDy2oBIXlyghbp6MCh0hvajfDCc8wA7cdfq/p3zWUGIgrfw2u+m uKJaq2DN+slGabD0LgBzyIdTZdlAPw8Qq5RjAGbLug1bC+WhUmN6DpFWvcTHexGWAjjJRVNl6/QH MwSowasbV4UGQFHYF4A+7p+QAPAk3oCYYQ1jZnEeMXJDkLXzKA2UMDQ0BGZp8tz37fu/cWj/wanL Lrv8aLFYdPV6vbV9+/bO0NBQhYioXq/3nnrqKb9v3z4zPT0dl8tlp8rAANDtdqndbttWqxVNTEz4 Xbt2JVdeeSUbY4Z27tzJmzZtmjt06FDJOWeHh4cbd9x2u3vH/GLz6p+6+Sdc6lAZrqPbTdBsN2EQ apUAKMLp6Wls2rBZDE7DHmXCJaQe2gmsWEJT/rCWYmFy9oE3kjqKGhNDhS+7YjjUGRxjYXYBm7Zv rozWR9bPLczPq4EHGXeBHAMQcup3EMDg//NH//mnd27e+tb5U1OQPnlCaL5jlm5bibukbHzWoBXq dQr2tEcApESJAWkvviGT7a41WbOXdOSsNFbQ7XQBMhnQIhCsiTAyNgbDHrG12P/4k/ceOXDo+GWX XfZSoVBwl1xyydmtW7fG5XJ5aM2aNb3HHnuMb7311qjVaiVbtmxpvv3tb1+44YYbFq6//vql66+/ fumtb33r8tVXX924/PLLVzZs2NAmIn/w4EF73333FQqFgrvssstcmqZDo6OjaalUWl5eXi5OTk4u PLFnDxc9N9dctHUze0a5PITG8gpSl/f8MTPS1MEYQqlYRCZ3qPf2If1Tl58VigDPkiJ6L56Bg/WD MzcvggvC189hCKuq768N1zAxNnbqa1//+vPIB1kj/A0hIIIAwBKkCDS699E9n7UmoO8AACAASURB VJkoDv7k/NSM/GBS9yI/WZ2/ngDlzGCeEOb1UUeqacRwOnpF8BIDRvb0ZfyhEvPHTp1BvoFYikAe hImJSVgqgA3h7NEzT/7zAw88ccUVVxyx1vpdu3bNjoyMDFcqFaRp2vubv/mbYr1eb+/evXvpmmuu WSkWiwlWh73zHdxut+PHH3986PHHH68tLS0N/NIv/VIviqJ4eXkZ8/Pzi/v27RtL09Tu3bt384c/ 9kvXjVy8Y6cBwSUpTp85uQqoak8stm69SGI/iSJn6B5QDIA+1C+KIJmDy/ACGODU9b2X4RzDsO49 8kIuhcZShsfIWB2zc2dv233Nm/4AEgZCw0gbyDdfnZv+jXcWm/cef+yZ4cQnWZyHZ7AJvzrbaadC B3y+ow+ZjgbHgb6iC3yY4qjvApgMUnV1iystLC43wHBwWnX0MCgPllGp1cFs0O30Zm7/uy9+bfeb dr8URZG77LLLztbr9dE1a9a448ePuy996Uv2zW9+88JNN920UC6Xw+6s13U0m83orrvuqj/xxBP1 D3/4w27jxo12ZmbGzM/Pzz/77LPjSZJET+zZs/WTn/3MhzBYrlsQ5ubn0VxpANqzGGLXaH0E1Wot z6TAQLApLYZJaPAIu4Skq0iEaZzPvAM0TRQFS7N9BhlucOIVAtO5/Q3b5gaHyu8DMIM8HewB6GYF L/TFfwCmWCgM93qpFFa8kV04xoBgQd6AEMnNh7TPwCCChc2es4hgyMhUD7I6ks3AWnldGM8US/aM iCNYitFuNmFhYGERefnUGIThahURAwVDeOiu+x68dNelJ4wxfOmll56t1+sjk5OT6eHDh/mf/umf 6AMf+MDULbfcMvvdCh8AyuVyesstt8y+//3vn7rtttvo0KFDPDEx4YeHh+uXXnrpWWOM33XZZSe+ 9v/+9f0GFgkz6rV6Fqs9oOVyYH5pGTBSwOFUXDtrviT+1IGRSsmXnRJNKn8HOCYppCmF7MFwPpUm qb4mE+9ka63SrUg6CQaKpVHkXHzAejYIHsi7mg2A4k3vfu+l7YUmDEfCtnkL8jFMakCOZFiDsyBn AEQgF4OcKAN5qwqjUd1HsBzDsoVlUQrrIhBHMBwhUiUpsEWBLFwnASUkwx0QwbKBdQaVcg0WMeAJ p46ffC6y0dFSqZRcfPHFc5VKpTwxMYHFxUXccccduPnmm6evu+660A3zvR583XXXLd98883Td955 JzebTV6zZg0NDQ2Vt2/fPlcqlZLEJYfPHHjxgO8xnAcqQxU4D3hvpcwPIEkTNFtdHVwFpA5IGPDe KD1AIYtTnyr0soT3/oYbgnMk2+LzyJApCrGR7/XQxlJCs9HG26596w6Ipw+NzJkCBM0IGUHxQz/1 029YmVsCKLQDBlgngiPWMi4syFtJz2ABjgGWC3hYvYCHRQzp7imAEEO4MiuKwFbSOI5ltBss2q2e DGxgg8iYrLhSH6oigkGpUMDeR/c+vmnTpvnR0dFmuVx2ExMT5Xq9nv7t3/6tveGGG2auvfbaV+uJ D1RF/6VeXlFZrr322pV3vetdZz//+c/ber2erlmzplytVt3IyEhz8+bN89+67SuPmCiCZ8ZQeRiO hbyRzE7c89LyEpxn9NjBa/dU6jwSB6SOkTLJpUg8kKTyuLw/7HTWYKteoMcWXvcW9BwjYUaiZ5GG YpoxWFpaxs/93Ed3It9FnO1o67/mTrhWTmHTpi0jK3ON8yyJZgGQAg5rb7a0giODhlL06Wuo0E2c rHUAgHW3BOnEbmERjInQa3dgWdhF76S7t1gsITIFeGacOn7mUK1WO8XMtHnz5uXh4eGR8fHx7pe/ /OXCjh07Zt/1rnetvIIw/fHjx4f+9E//9KJnnnlmrNlslgGgXC43L7/88tnf/M3fPLxu3bown+9l SvOe97xn5cyZM/O33nrr+Ac/+MHuwsLC8ObNm+cXFhYGhyqV42cOvXhkbONFW8kAxbiEpNuBI4KR bb5oN5vw9VF4J+tnFDNJB5DUESiQPiwrnWohKMsPtVZgIfE/dciaRohDusiwHkgNAfBYWFzEli1b xiBczzLy3cQmeAD0K8LE5ORoe0HZN8RYfVkeie/gGLJjx4rVs8R+w2LhGVbwBkQRZNqOgWGJ7sbK fdL6PnEBnACcEiIy+i3S+FErV2GZEFOMo0eOPjs+Pt5cu3ZtA4BZu3Zt3Ol0zP79+7vXXHNNAxfu gPWf/vSnr/n5n//5Gx977LHt3W531Fq7EkVRs9vtjj722GPbP/KRj7zvt37rt96CPtrhnMNdc801 jf3797eTJLHr1q2L9Dc01kxONo89+/Q+B4skBUqDZaRMsiPKi4vv9BzSJNUGD+mHkC1jOuNQRiiA 05DbUx4anIF3lO2oS302/ThLL5mNhAxP0r3sADiDZqODtevX1pEbeUj/TaBEw4MMgOrl6sVNu5R9 gRa8M/Ii0xkf92UFEoRY6+XZe41QQtkvlZ4w0WTbx4yQx0q3g8hIf4CBNIZ69hgolQGy8Oz91PTM CxcNls3atWub1Wq1WqlU0nvuuSe+9NJLZy+++OIL7YThj3/84zdNTU0Vh4eHF733//CNb3zjyf4X 3HzzzbuJ6KPPP//82l/5lV+56XOf+9zd+Ynmx8UXX9zduXPn8oMPPrjmhhtucNVqdYiIlk+fPl09 9dLhZ67g5AMMII6K2SmCQ5ZksdJqozxYBoGETLUApSytDPBItUk2eADhXiU9DA0kLgWMtUCa5uvK IngRpxfsptNQHQPDg9Udej6rFCDjbNCHB8hhHGHnLbFw//BZ40dWsLCMbKSHJ8BLPCeOweo1rIu1 SELiCbggIFKRvxSABGT22imMF+BHsLDeoGgLKMQFRGwwMz1zcuOGDSu1Wq3tvceaNWsKhUIB+/fv 723fvr2D81u/+93f/d3rWq1WqVarPf/1r3/9f7/mmmuePPdFBw4ceOKOO+74dK1We6HZbJZ+7/d+ 77oLfd727dvbBw4cSIrFItasWVNgZtRqtfa6DRsas8eOn05TLVuAkKYeLmU4nXzW6fSQOiBNGYln +ESAo+952c3sIa9POfMIYVuh03jvrUOapkiZkXoPx9IZ7FjpeZYifWCWRZB2Arn1BqNfFQICleeJ qS5dn4z8EhsQFsPqLZTTQ2klgjTOScstiIxckCEyAMUwKACwsu8fMQgxjD5uEMMY2TgaG2EHI1hY shiIBxG5GNbEaK60jhYKBYyNjbWZ2dRqtWh2djb23jcvuuiiHs5jsc8+++zE6dOnJ6rV6pkvfOEL f/KhD30In/3sZ18m1YMHD+JjH/sYvvCFL/zXSqUyferUqYl9+/ZNnEcB6KKLLuolSdJcWFiIa7Va xMw0OjraLhZL1JifPcIsAoxsAcza4+A9nAd6SZK1zzsGUlYkyrJlPYFBaggpUVYRDq91DvApgxPt gdQQ4510STMbOG90Aw6gtGCw+2FAK9a50dP5FIABFGBlrAprPyarR8iXQRUkK/mSQkoDaw0iq8MU SK7mgQKBYgJFEWxMINlfJXSwMbAUwyec4QejGKNUKMHAIEYMBz/lvTfDw8PdoaGhKI5jPnnyJMbH x3u1Wu181urvv//+S+r1OlWr1f/xqU99Cl/5ylfO8zI5Pv/5z+MTn/gEKpXKX9frdbrvvvt24Dx4 oFaruYmJid7x48dRLBZ5aGgoGh4e7nrvjXXpdM8TEi/bzaTapy3wIHS7Hp4N0mxugYdzHuzkPqcO PpUZASkDCRNSJy33KZNuqslp4kAcSoaQzy5mGDgf+i0IjlFC7v4zBegfcIGgAL1uFz4wd/1HaJnu P7TThVRBiALAN1nNnxCyBVKFsZlDCajCREanhwERAakFyBvEkZUuV1gsryzPKZ2LSqVinHNYWlry w8PDYR7DyxRgeXl5slKpLH72s589ekHJ9x1/8Rd/AQBHPvOZzywvLy+vRdb1t/pza7WaW1xc9M45 qlQqtt1uJ4VCIWmvLM/BsUJsQi+VeQURQXv6UxF42OCi9pNNDQl7ByDNHoEl9Ikk/bJ/ELrJFooP VDwEGa4ZKEhWXgAe3V6q35btrSMgz/2p/693XnwD5+Lu3+2yCtMpnFi1yxYmzFTNYAfpxlGTfRNL 27i+RDq0GBRJj2FE4nlsIUZsLMgS2t3O0kh5JGVmKhaLBMAkSZIWi8ULofbBUqkEa+3RV5T6eY5a rXbQObcb+aVdVh2lUsknScIAbLFYJGamUqmULjZWFkMTp3NG8nZP6DGrFrF6ACDSkrkJZRMXms0h Lh66O8rLe8krfdFXDAolFwPW6SMko3PCiFsWebgkI0Qz64eyNuFO9mSic1Q4mGjfC0ILMoJCqGWH iV1kSZu7TP4qna9vgAx/hoHLFIrk1qqS9YUa0t79CGCKYJi7cRw7ZkYcx/LtzGxlE2mfauraeB/X 63U2xrzuefu1Wq3HzJymqT3PRaFYLyXHACiOY+hv8obR895lDaA+CJf1whMsRA9SILEAOcl0VP+l /RzqBXx+QlkXMrRtnrWdDLLuPoUOvhJy2aaSQ0D3PCZJZsyrAnl0zgMAgE67nUa2EJns5auvnRMO k5W3FBiGnbh6/b3gDLLIZAjhkixA6LOn/LlIPEhosQqKYKwMnygNDhWjKGJmhrXWEZEZGBgwi4uL hPOchzGmUa1WYyIaO/e5Vzuq1eokgDiKosZ5PpuSJKFyuWyIyBCR09/kC8VSkRNB4s65/gqvTiMj +ERCAGnTZ7b7B2LlDgSnBFAwI9kqRsoFsaaIkDYDy9kgLd0pgLDDiFJoit0710uu8gCrnmh1u0m1 XIhyoXO+An0gwBNgZEwHxNY5RxQKDsUDBQ9h89q+zTGDjOezIGvB7EBkshyFSTp+QRbD1aEqM58B gDRNUwBmdHSUTpw4EYDNuSfJk5OTs51O5+K77rorOn36dPrxj3/8PKecH3fffTeMMbH3fvvg4OAs cuTcf5ilpSV7ySWXCBRmzgYxFCrVYZ9IHuh7DCShB0rAkbVWB1Sp9Xo5zzAFTbyFCo/CRDHdPs8A nIXhXDIGDEpz8BdadCiTmQzKbLU75y2Fh3yw/6Bu2u1xNutKbtLt60L2kQ1mkmvrUJYpBFDgwmbR MHFBb2RZ/I6RMGBIt+QYQhwXQBQBxup4d4PUJ4ijCNYQakMjE845IiJ0u92eMYY2btxoZ2dno16v 97KTA2C3b99+slqtduv1+s+8mvAB4MYbb0SlUvnZWq3W3bZt20mcZ+9Er9ejubm5aN26ddYYQ51O p0dEcM6ZQmlozHuG8w4uSQT4sWwKSb2F97LLyKeENBGXn6ZAqqxg6klSQiY4Z+ET2U7vUujUMycp IevOKibhBvqYYt/3nHAIhMT5cy9szUEBsjsQbadOs7mcv0wFpPv2gjKIOosHoCwcCqPHRnbhUqgx qvVLFhF0k5BdslMBY6EQrs7OYOUafJLA2AgmItQq1XqSJJaI0Gq1UuecGxoaQqfTGThx4sR5x6Wu Xbv2hbGxMV+pVG44ePDg7ldTgAMHDuyuVqvvHhsb82vXrn3hfK85ceJEIUmSgXK5DOeca7VajojQ 6/WMN8U6WFq1e92ukDNOGjeYHcjESFOnJWOG8yx0LzPSRDZ8+kRQf+oYifdwCZA6EabzNhc4WASt wk4zilnWOfAHHsDKSmslW9w+JThXARiAWWo2lmRwMoMpBSMFcwqQ1qgVCEqyoYSljlVT8Cr7AMKA 54jBkZPrQhjWGwDysrdD31colbSsoBs+PKHVS2FiA7IWI/X6rpVmk4mIkySJmLkBwFx++eWlw4cP X2g+nt22bduD9Xrdl8vlT01PT//rPkHixIkT2Qunp6d/amho6FP1et1v27btAVxg9/Thw4eLu3bt GgBgvPeNJEkiIuJOq8WFofLljBREDqnrwTivLS8pGB6wIsDEM5JUrD/89UxIUhWkEj9CFoksUn1d 6oDUWS0LiwKlWltItPycOmgNQj6n2WwsYXWYZCAvDoTDAbDLjcbZwCC9DDuy7KXXKW6as+oMXWLZ kat0DoEUmcojRgGjDGcAoFf3AkhBXgG8wEqgI8MEaZLAxAUM1+preu1OiZnRbrejXq83XygURq6/ /nr+8z//84Hdu3e3RkdHz4f4G5OTk9/s9XrvYuYPdDqdm40xjwI4DQC9Xm+d9/4aAGSMSeM4vh8X GLM2NzdXePbZZwd+4zd+owCg0Ol05prNZsTM6LpkiOJCnZ1H6h2878KjkDMJzIhiMQ7D6MuVOOsG C4vtOOT7IjMD6MAswHhtGWULSyJx2f0u+MppP4hnQkRCFi0tLU8h5wCCAnBQAFLNcADM1PT0qVUs EL88xwph3WuYBxhZkp/DV4Q0JfP6wfOTycavQTdXDg3W4MzpfLu3KsFKcwXD9QlQDOy8eOdblpaW 7q5UKsni4mKjWCz2BgYGaGJiorpnz572jTfeeKGUb6lQKHwVwJUANgJ4G3L9Dq7xOIC9WG0Uq449 e/YMTk5OVgcGBihJkm6z2Ww752qN5UZcm9z8FsDBWJaGVjBgEgh+j+C9R7EYSRwnA7LQqaDCh3iC NoBS9oNClpxKdNVea02YjSiB5l7IMbikjAQg0c+ampk+pQqg9WaRbD8IDApAx08ePUOATqQIM+2l ABSICgGCDtmuT5U9U9gDyGAbxr+xwFwS989a/fPE8KGaaAFbMCgVigCcbAg1cqKLS8soFESjLt6+ 421npqasMYaXlpaKzWbzNID4ox/9aPnJJ58ceuGFFwZxYQEygCcBfAXAgwD26O1BALfqcxd87wsv vDD41FNPDf3cz/1cGUDcarVOLSwsFI0xPDN9xgzUx98BJ+ffaa8g9JsQUjCS7OLWpFdE8HDw1sOz 7KhgZniSPQAeHjAOnpw8RqFxrC/sQgpJzgOOrXiRVBqMBWhCx+xGmJ05PaPn0c+acogJwQMwALfn 6adOcCQtoyn5/BYEb/Okgzn8oJCKGP0WKTPItm7qwwtBUfqWVg3es0e1Vg2nporG6PS66HV7MMZg dHR0YiAqXkpEvLCwUEySZKnX67WNMXTjjTeOPPTQQ5WpqalXmpdLkNC3AOCU3haQd8mc95iamio+ 9NBDlfe9730jxhhKkqTZ6/WWFxYWigCQRvFuUzQ12BRpr4sk6UjTh1ZzvPcoFWMwJ2BKQSwDOxwY aQQk5NEjn0149CpcuRaC9oFYwBsxGmdE8GxknVIvXUApkGcT+m9mwr59j59A3vmUybwfFDh9MH3u xX1HkIoHyByGKKH8kGwws1o1WGkvQnb9FkAKEcGVr9qCQMimfFkju4P1Gj2jIyNI+zfSQ2ji6Zkp 2Eg2qLz5yms/ePT4kZiZsbCwUFxeXj4MwF599dXFer0+cu+99w5PTU2FTRDf68FTU1OFu+++e3hk ZGT0iiuuKAKwS0tLRxYWForMjFMnTkSVibUfDKNuGisNqbNyCmnCdQAnKJWKet+Dnezu8UreeO35 Z/IAeTgSIafMSImRKtUryyszhD0U5BkHeCctaCY/6XABDA/g6acfPahfTtnCXkABegCaJ6dOLUIr Vqzun3Wid65EnN8PCD/EeyuTPcIMHg5MRxYSFPU4D8PZrgBEcYzy0IDwChm/R1hcbiBNUxgCxteN Tw6X6j8BANPT0yVm5sXFxYMAzIc//OFKHMcjd9xxR/3AgQOD36v0Dxw4MHjHHXfUy+XyyC233DIE wCwsLBxkZp6eni4REbcIN8eDxTqcA6dd9LorCC2HUvJJUYgjHS8nW7nIOsD2QDaR/ZQUdlcTPIXd VR6gVLII4wBy8JFwMd44sEllnTzgIs22oB4CmoUBWFycakL2A4SSeaYAwSyDywzXAIrfcuWb3r5h 7YZJUuNeda08GCX6TEbbIpeVHmFHT4AlcmUuolCo0GYQS/qYon4ApUIR8wsLMH1MNZFBq93CxPgE PBjjY5O79j715CPDI8PNRqMR1Wq1VpIkrVKpNLpr165is9mM7rnnHtPpdMzo6KgrlUoXKhid91ha Woofeuih6n333Te8e/fu0ZtuuqkCgFZWVg4nSdI6cuRI2Xtvjh09saG8ZvwTTB5kDOYW5gU3QeI5 McGzR60yLBjZsHb0SjFMqGC5WDU8Z4pA7CAzlnOYpr52Fb7O0aLSwEx5qq7w7MDzT+//9oNf/Rry KSHhyuTdoAAyFjO/Alh1/eT6dbuvuvqKkJqQCameoPdccDKsIcxbkHHtKlwj27wyoSMvGmUEkdFK YBgzS8DA4AAWF5fgOUVWayAgSRIUB4ooFcuICjHKg7XdUzMn7rU2ImbGwMBAK0mS5VKpNLp58+bi rl27St/4xjdo3759hUajYUulEsrlcihEnRsejPfenjp1qvDYY49VvvnNb9bOnDlT/eQnPzm6ffv2 AQC8tLR0sNfrtWZmZorLy8vx0tJSxOXifzKFqAAAnXYLrdYKmAJXLwygjSyqwxXdIk6Q0fdCBBFL xZBNviU8ELQcrC+ruIoHCVdeM8HaKCd+YTjznnIRTMJ3Hrzzvn3PProXMjLOIU9xu8FeB/VbwwaC izau23DlbX/zpf/SS3o6YNloyDYyupXOUQAVeCZsudw2olAJJKF7VylERHoJFuj1fOUqj4YIzWYL L514CRHFMModEMlI+De8cSesiQAb4/DzB47NtWZ+r1QsxZOTk+2RkZEEAMbGxrZBh1ufPn26efvt tzemp6eTDRs29EZHR9NKpZJ5hU6nYxqNhp2bm4tOnjxZWL9+ffy+972vumHDhrAuC7Ozsy8BwMzM TGF2drbkkySdbi794UCtsi4FwycOU3OzkouTg/cGzhC8Z9RHxhAXB5Bqe70MwzBIEQHOwFsDn4rH lBnKYaOoWHQ+jkdG5YRKfZSJPe8XJAqzCEWwxbiA3/nEzf/h6NGDTwJ4SQ19Xv+2ggKcuzV8E4Da A1+55yvFUimGyd29JavuWnv8SCw4WDwyF68j1zOvYPPX6WtMFJRD32NMpiDGWhw9+hKarXambFJL AApxCZe84VLFkRH273vhcCud+31DsR0bG+usWbOm65zjsbGxqjFmI/JrHPUOHDjQPXbsWHdmZibt dDqeiFAsFs3ExES0YcOG4hvf+MawFgRgxXt/YnZ2tmGtpenp6eLs7GwJgD8zP/N/Dg1XNjonNf2z 87NIdEu4bI+XYVpRoYRabVSuUAYdiGWNtnFFemWHSAGbjMV3StAaLwINl9YlZARqRqjbPtgVFIMQ CDqAe4n75Q9d/VOQdvDjOGdrWKgGBlCQ6Mm3AcSPPf3ki9dd87bLcrcduPtgkdCp4BoCMjRPyuYF 9x3GcCsLqO5fCDK9HzqPQ5IAxqZNm/H8i/tAFKn7kwVJXA+HDx/Ejh074OBwyRU7tx0/eOwPzpw9 8odzc3O8srISbdmypTU3N7fCzPsmJiYGAIwDGNmxY8fwjh07gJeHgGAMHQBTAGZnZmZaRDKV4vDh w4PdTtd2u71ys7f8u9V6ecwhhYkIc2fPIk1d/glO6W4P1GoVWErAHMFRCiDSfhyC/MNKthBFyK6G CQ8fCvk+DLkMtg5hYZlgPCNcatlmzxLAcg0SIsZzzz36AvJJYYR8hLzL3yfvLOrfcFmYgcHSwPg7 3/6Oq0SrdIs3ZExLHhbUgpn6gCIBhvTq2ooJeLX1B9yQWb/4/uyycOLuLQYGy1hcWBTvobjDKB5o ttsYHhmBZYPqWL0yGFXfd/bM2cMU+9Ozs3OD1loeHBzkZrPpms3mcq/XO1ksFqeIaF4tYhHCAcwC OO29P7a4uHiy0Wg0W62WM8aYhYWF+NixY2UmThbn598Ci98bGBwYlCubMWbnZpGmPYnXLpgnwzlg eKSGgonULHXzBsJIFzlP1qYOGf3iNXaHndJW0UBYN9FZ4kCwUZ/F51RygDhkDO67/e/vPHzguaf0 fFPkI2M7/VoP5LOBR/XztgLY8Og9D/+N1OhJ+/xUEKG5A3I5lRDfZQOpuv8+nCAz+cW8jTYjm+g8 7l+niwZ8QNbi5MnjWFhYyr7XgLRngFAcHMC27W9ApNXDNPE4sv/Q/tmFU39ZLA/MESiq1+vdkZGR pFAoeO89ZVfiONcFSO8B93o9Mz8/Hy8sLBQZSDqt5jrq4ROlSmkLUyqVOySYmppGV3dPy2gmTeU8 UBocxFC1mjdtUgy5boJiADLwuu3dhRnKemUU5hhMhJRkanqG+vXfhIANQuYtCmGB7ILbABBZi4/d eOkvQsiuI5C4P6eG3uz3AFCh98/PKQPgt1yxe/eaNZNjGfrPMoAc/EGtEsZmz5s+4eeK0Gf9NoQN wKi7y14fMIcRTnukPoKVlRWkLgEUixjtGHLOY3Z2GrVaDYVCAdYarFk3OTZcH72xt5xuay01z3Z9 ++zc3PzA4uJisd1um263a9I0pTRNKUkS0+l0bKPRiBYXF+Pp6emBs2fPxt1eN+0sti+LeubXB+LS z5SGSsNhlnHS62B6ejqfxoEE5IS6Zs8oFAqoD9cRNoSASNI60r0W0IZbVm8B6EwBVvGKdYMh1VRV 9nBxzTCKloB8WLdK1ZAM8AA8Du978tC37/mnr6iwlyBxP0HGTr283KlsdXZ5OPLs17znup+4gqFg D6sFSaseCy7/HLRv6RwlOCdjyDIFwQ7hqp/BozCA8bEJLC4uyHzc8N0kjSiGCHNzc3Cpw0h9BGCP YhxjZHJ0zcTk5PUmjd5vephYWVyx3W4nbXbaKyvNBpYbDbPcWDaNlQaarSZ1l1fWuWZ6WdHHNxWT 6N/VyrV3DJRKo2QkLweA+fmzWFxcFGF5L4JlrXV4RhQZjI6OKWsfxKl+WlE9SLgBMrIzWAgbL5PX sonbyLKBUHsBGW0fE4OTYpG8PoRfJsiFrozFHf/w375+7PCLj0LcfxeCA5z+m3PVyY+K/h1TBdgM YMN37vrWXxsb2UgFFNz/y9I/TREt+gVsV2UJRAawhCh4DisUcKYwJswTQg3+wQAAGl1JREFUVsWy 2l+omcSBlw6i0+qI0hjpHgaRUM36+ybG1mB8Yhxg6KVVWNhM59FoNNFeaSB13qedXpfJA55KZIhi S7BRLDtuewnSlAFOkbBMCJ9fnpfijBNWNEUKj0Qq/exAkcHI2IjUPDjv1XdayAFHcGE8PgiMEBZk SKaHAUwk2QDLlDSnF2zxsGBrQY7zdgp1FKEWFx4DPGzq/a/ffPUvQUreR/vcPyBZAM7nAcLmkNDL UwbAG9duvOiN2y7eKNYtqVcGCPstHSRpidU6P1kBgia4rRz85e8xq+/3P29M5hnISofBxOg4Wq0m ur2egEgjwg9hBY7RXGlgZvo0emmCYhyjWCyCvTRoFuIYxdIASqUCDQ6V48GBUlwaKFIpioRbIAdy MuC5m3SxvLCEubkZdNodgKTTh4zWQLwUsAx7FAaKGB8Z1bAA3dtIAMKIFwJIG0CdJEU+1EnCpHEC Qr9FEId4kNDird0DISXOlCDQ8qHfyuCR+776nb0P338vcvcf6kwJ8p6Al3mAc2cFVgDU67Xhd3/z q/d9xvtkVVyHEWuHCY2bEv9tZu12dThQgHhB8BesX78DFpmnIJNjiSiOcHZmBifOnERkYvEUEaml SyXRKbrmVBZ3aGgIQ+UySnERhYLWibzut+t20Uu66LS7aLfbaDaa6DRl4BM84CmBS6U069jDU09K uWAkvodarYpCuQTPiQzLhvbt6VDpsK9fkL1ePpcj6ZtkucCG1zmJoAieDFhBIyMSgVshjjxkBC05 tdaA/OGFDAKjWCjg39/81s+0m8sPQkifBiQMJDhnVOy5XcGh0tOFXCiiAWB8YWnxhaef27v/sp2X XtKvMUb/FxSWrHaHI9wo2wEUHhO8FzRYawiBB8h3jWS0ABC8jqahVlKn8TUTqNWGceT4EfQ6UuMI 4N6xUK3k89jbWGlgeXlR+HYngifPOpw5Fctmaa9i7+UqY0xIWa76IdHcIKJUN3Y4RLHBxNgakJGY njAhZocEDAuHcKFHEzgPJm25MQocxeWT89LWzf9/d1cfpHdVnZ97f++7u8luZBMEQmQqUMXOVGV0 kAo405YBa+kI9QNqmaFObatVi+1obR2mdewotrUTrVXaKSO1QwEHrBWKDv1Aq8KgGCIfyYZ8YRJI NiSYZJOw2Y/33nP6x3POvb99szEJEAjemXd2389993fPPec5z/nygo+O8fodVktpA82cZZyQyMM0 DfsMdKzBVDJ6WAPWPbxi7dTkvnV2oPfbnrbHx8w58fMtj8J4c4Dexk2PDf3WZVecK8i060ALjBnz V9K/eYIbI4MOUu/OIcwBi/3gsX7eHI8jNlbSGtAZ6GDpKaeiO9DF3j0TYMKq9cthaA1F+7o/5vhE Ar2JQJKlqGlVdinXwEkmYlM/AixAAwCCJYtHceIJS9ANETlImQgWrOW1KvuaQQjyvLA/WqUPAR6j gEEtuBapvjm8PhhXEFumQRGaWMK3wUh/z/4JARgY7OK6j/3RV/ZN7FoJcv5OAnmLuDkCEHHw8pix M0e7AYTVj47dv3HzxsdLXJ++GMpfLoe3ZSL8qbbrFww9GHqnwMTCEQRD/lQLgTJqQoUmmLYwbRAC oIKXnngiXv/61+HkpcsAoDVv106U5tKGXQFo8hSVYKfUXScY7Wr9efwbWL+6qBFLRk/AGae9HItG RhAh/FrKHoesf2Zzq24wP50K3wZOWjvskBFtgHaTM5qYEaNhBWSEQGXfBEYMIhQhWNpNTuhkhtrR EUgjQAcIXf6vW9aNbdq6af0P23sHkj4B8wySPJQGiKiAMIDNhXpr1j3aXHHZO94gBlQq0g/1dAOU 1ODRw7bLWPcSqLghNtzQ4voF8xKMFCo0cwxzfg8Wl/AJ4cMLR3DKKUsx0O0i54yp6SmUs2buk2Yp spo9CUMUJTmqVNwqJ3pBMTg0iNGXjOKkly5Bt+nCa7687QOb6HtWZ0JUZkCLN4L0dm/i2Xymr9U1 QLDh1fTfNahF+lyr0PXVRktWdYCWbCuYaWkGuviHD//+zU9P7FkJgj93/2ZBDXCQABxqcOQMqP4P AFhskrRw1ZrV96/f9NhbXnH6GWe4TWZGcKC69xONxg6xPWaiRtvvJ75dBhYMArjWcIzQlMhjbMyF 9NOPVqEpr20Jpy5eshiLT1iMJBl7JyYwsXcCTz89iZnpWQSVMtLF3UQOt0rwDkvdToPB7jCGFizE wk7XyrgzJKfCyQfATIddA+H3F2XeZcgZXQS74mYCAuD9/Jo4Cyij8ALOShEkxNAgSwDiLBQD6NIq IYVEwgyWCRSAjvYg6EIiy+22jD20fvvmxx5AjfhFVE0+b/eUfi+gveaMjQOwDMDwqacsfcvdt//P RyTnFiMINI2j/Kb68Qchf1jaeLQNNe3QmespIFgYGQ3NRseiY+5VRAChMVeK1TKc06u2WVpPsHoL a754enoWszNTSD121ZBslbcaMdCJ6ITI7hzSg/QSJDExVnKGpFkoBEl6YLZ/D6o9SMjo5R7UHstK UrgHvi5pQkI2WGJx/hwhTQNFl5HCwPm2yfp2ZTRAbOj/I0JCg6wNtGPT2GHDthCRQ4NOM4iPXnzu X89MTX0LPP3bcQRj4+bDAL6m7XnvmvUTALJ9x5OPfPue76xoEdSttxgjBkXJFUSrxNXdBX/vQeJH rdCYygiF5qxdRmGP+ekvm69aqdkC+LK1UWErlV7OaDoRgwsWYHh4GItGRrBoZBEWDC/A0NAgQohI VsFDt9r9a1f3HSvQC/ZtvUCTJol/176Y1frDuPmYYS0+rGAUmffRs9cmQJJhg0QwqT0EK80LSGg6 GSFnxKCIQRCNPupoxg/v+tq9M1NTa+2i7+rbuzIgYp4rfsjV7qPnduRpAI9f/Wcfuj2lPOvETlv9 Bwv9Bvhj0Uv/ALRVv6nOjpuFUDbc8QICE0D4huIXWjCJtp8XG478rLuq1kntbnuteE7En6uTTspn mDkqOdPF5ETWditovmyTJbMxZkBAkyPqxCS7lYCNmS3rpxRSghdwQnnGQ/nC1FocsKcImtCEhKjc 8KZJ6GgPZex2yJidnpq66dpP3AHG+0usv7V/h+qcdkgQ2BaCQfvAYRATLAEwPf7k9tlLLnrz2aIO 2q3Xt7eFmZfZC3Sv2uCxJIHwvU2LZiZcmJs/6OyjKEesaLYMefWumr7BGdkaNXiBptp/pC4w5i2I Gh+gMH4/UGFnKR4FglonTilTOXzal3f7EOUcP81U8zGxe7LmULRSGRKtbpao4TxfgkIRC3bi2Bw7 BAoEG6ETLXA00HSw/EMfvGHiqR0PgSd93PZur4m05//Nu36aBgB4iXzipH/QbgA77rzrzvsfXrNq TbsTiIeHW1gPRYsH8ITY6/l8qMXDMXpFWCGXylxf0xg1eQSumXmKrQqy7fY5yvOTD8MIbMqYzeEy 9J5hj7O1Cx+zAGtgPQMy/7ZKw00QwEfWebl0kAAk+85i/3QORWO0QSMJgmwqXoCcGHAyTyIgQZVu IEvCsnkP9p6saJDw8He/88DmsUdWgY2gPdQ7ZT9tVPqh1+EEAKj2wwVgj33oxst/5123ptnejO8x PzC0THv7NwNyPhih/afD3F+DSwxAlWteAj1FdtSoJ8kOrp8qy7PPzvKVE67QnGnPM8wUpFL15OYB yqKMMq69lYlTrIUGU+90vwIikKpnAAFCZqQvlvuERVHsv1MY1mAZT4RAc+LYXWszGySz4gMCH8gd NCFY8siBiX2TX/yLa/4DwAZQW0+gHtb23h1yHYkAODUM0L5EMGUqAVh/9Z//yY3dpgvL+S7NIjhk AkCndXIjKt1bsoH5hGcPoWmqxnBeGW5Z41zVr23U72c+t8bp+OZXm09OXlvm1rN3vfBNymd5vZ1a Q6Zy2gFm1KvlJSQXhlifQxX6gICoHXcYrXC2Y8/m0h42tEbHeD+gAgIN1Hp9VdMBrn3/B64HEz0z OCY2okb6Ssj3p63DYQBfGQwQZcwdQdrb8vgWOfGkEzuve83Zr6jEjzV4aNz1c5rXbXmcSyI1jgOa ahpaSSftfAKFVtXfPrlQoDU5Q8twRfDkAzxIcJud4aNbSodu68oN0xjI1t3DEb0qZwSLstAlKYGo +vA8/5vcJLHN9OEaJH24J6FMW2U1UNAG2pDWhU9NAzFAdOfCHmsGOrjx76+7dWzlgw+CmT4TODjn /7CnHzgyDeDrgG28Bxf2gFpg3cc/+YlvPbpu7Tq0VXdZARz2HMvd4s05wm69y9V/QCiuH0kfO/25 qmcFbLiWCYVYIMhVvyg02WuVXrr64AWhFpGCC1qj2jLgI1fUwGNt62YJV8mS75Wxew58MsAmgOaA YJ5DyIEhYAWgJI0gwSjmYI/3EN1bEWXtoCqimakoShcQigfvuW/l/93xzRUA1oJ2fo/tifczOqir 2aHW0QiAoJqCffbe7aBWGLvknW+9ZWLv7p/MoXodHDaVA/asNgeCxIUBsFQw2OlHi/Vz6fAxq4qW 6i9uHXPy7FC3XivVFGQ/5RQca9nAx3zogp1cNsewf1sB5u7x/6L3Gc00uFmgSeBvsXqVht4jApA7 8MgnWUM2ww4OMDSjVPN5Szi/j4yoivHHNz3++Y9/+jYAa+yJJ20v9trezOAwwK+9jkYAAC9crdml AgrBNIB1v3zJRdcnlVlSt6jI35ZTudU1QPEgyAHVVzuNjEg7K16o6q67z9CDEzemGbKRQY7t/IRb mXt74oYzh2qYgM/l4iVAq1BkZWhIVa2skdy9GlBUMUFOBgwzAO+WXrQgA0oR9Bg6IcJbiDHbOiOq gT8IYk6AKoJmBEmYnNy//5o/+Oj1oNqfsWsvthcuLUfVEu9oBQCoCPMAqH5mQPdjx/79+zf8+tt/ 4zpQQRovgLk5AdH+WfPx6RVak4MS8atmga0SpSDzAvzclTY/PZs76ICOL7B8vdLjgNIjyT0IKcLE 8C21hL+/4AF48qfUq6aWkl06dporWEK09Awg3hYbVP/ZRuUI8/o76BAUmsdQCCExUGhF/jNTUwfe f8V7lwPYCrKyu+zae5JHe2+OeD0TAXA3I4CmQEEQMglg04YNG9a/46rL/ynExtR4K7QbW9LQLyEt VV8KUbxm0O3qHNTvJzjBKH9T9YAmrareridTuckUiuYC+EQoPKLJOPzqPRQaLVUR4GeyiJVTw4Od Pfb15/vZxFlJIiBrY0JhJs3aqqgYq6id0n+TM5h6xSOIItDZXu9977p6OYj0N4O23l2+fTgCwudQ 60i9gP7lJq4B1f9CUAAWAtgzvn28uf/BFZsv/813vj6UOd1NcfuiJYQwdaxTw8nuITjrF0IFc4ae /bQCfqBNhYtphRbVK87SmTC4kLgm8Lk6tPEKH7dWBjQ6aeT5Bc4KSm6ZaYPomtnkUUGNEwJ9+RA4 6p6yUHkOJWBgLSELPiveifRSEDE9PTP5nis//BnJ8hSAMVDF77CP2mP74bTvUa9nogF8ufpxDRBA GjIBWH3vvfeuu+Qdb/0ioAkh+Nhfqx+oqWCm7fm4BaeDIX/A3Da0VL/76cLgSRv1k+3zHgYoLW4A rVoDJhBlDm+CtjSCD3t2ntB5AlNBUMv2AczM8C/RA0Elg4LU9q/BNEGJvStNILN7GY7umDBHvwGY nJzc/7tX/ulnJMsuAKvs2o7bn3EN4Mmez2g9GwEAePqz3bwN2Va7//BDDz+04Y0Xnv+5md7MpAeH 3NFrSngvFK+BmULOAoEnsz/MKyiI3TdftQpKdQ+dJ0ANEJn7J+YuVlxRtUN27eImB62fIIPouLz6 /dEwQWNTOwCVCGTv68/hWMjBHVxAqPkKPSyNucqclrZjfPcTv3fVNX8D2vqH7ZpuRUX8ft2PyN8/ 1Hq2AgDQ9rhn4ELwhN1fvWXzlk0//+pXLd+556kdjbt+bdYPaDGIJh7GFjo1q3Twi6ouqL+E7YRz dpz9y37SUVC/E0PZ0aNmiCSocmJXLgLFz3PhkPI3DTtEVFcUpiwSkJW+Ppv3GImDxmICRezR2HPk AowfMXwAieiGBmOrNq66+upPfxFU8avtWj6BuvnJrvlRg77+1c/aPJs1Yp/XBZNIBMDL7P4ZAE77 72/+1+UXvOGXXkt3miXgLBPHHNaPPnIf3evAThj/L6dfPMSbjQiSEv7NLgziyaKt1xa3UUtPPoUY A2inPhFXRAEkM34vKRQMgMQePxBFtoQQwSyFCxkaqSsEGSFm5CAIyGwcExQSGavJgXgldgP+9eY7 br/t9rt/ALp4W0D1Po66+W52Dzca74jWMwWB861Z1E4jPbDKeJ89dgDAzE233LR1waKR6fPfeMFZ VP2hZg8RHLDQFMbw0Qa0UD8KABTL1hWYoFgPfSeFdI4AmV3I7gGQISzh4mLijSFUlPfw98zQMALc /6yA0LQKgqsgAGCdoNf7KZ8P1sWBlQo2ZEOoAGdmezMf+cvP/fM9339wHcjvbwc32QGf5/U/Z5sP PLcawNcwakLpKPiFR8Gq40EArz7nnHNOu+OrX79q8eIliyMCh0Qc4vRnzWy2ZXl5uTxnKD9p2XDx EjAVjmRJMFVfPQm1DKJcXsvPrki/7DqyvV+dNxBAUy5xgpxBwUgAJJGsCoYQQkYO3C822c4s9LT8 jBz5PTvdgAdWj4199FOfuwVU7atQuRUH18x5r6TPc7aOhQAAdAc9o3ix/RwEcCooHL8AYMk37vjG Zb928ZvPUXOJmhjriZ6j+p3yTabWpZI1opzCqW4GjO1LdbNLQohUzZC08u6uIPx0C4EBQb4Q3qso NAFBMyO0yZhJm+/DVC+nKjMQqPo1MCNYgiAgsekjEjQKZlPq/d2X/+XWu+/5wWrQt/eUrnHUaN6e +qHP3ub3r2MlAECdSA4AL0EdTH0q6BEtBXDGhRde+HO3feXWK08cXXKCqNhplQL8cvECMnLpXKr1 9DvFK4AIqVPx9xWyR+rmJ7WxriiPAQYeLcoYesmVQMEJKsJ+rcIGjprNDUzKaGMGvCKY+5WAwI6f Gk04AjuEdgcbfG/lAw99bPnyf7c3rEed7P0kqhn1ru09PEu0f6h1LAUAoP33ziPDoGYQVJPg2mDk C1/4wq984L1/eHFOEisAs0203jupqH5psX1t1Z8hCbbBtMe5bL65ecn8/Vyjfx71YzyGsXd3NTVb HMDUPewxtZlvqhYWFtgEFR5WAYtCMnpAZJ/FTidgy/Zt43/8t391y87du71LyTq7Jq7yPZnT2VbP xzwm61gLAFALTgGe/Jegegun2PMnATizOzCw8Ms33PCrl7/tijdpSrGcfsllUx31i3kDbbsvyWME FJjsZI8wtFs23/P2XDt44oczhQXoccOTKK2zKm2+mQQIBc5y0wEjdqRobEBjQhMitu/avvPaL33+ 9h+tG9sIbvJjAJ5CTeZwgOetXIC+Qs5jsZ4PAfC/4y3XAFYdD4KSvxhMNBUApwNYNjo6uvCzyz/7 pssve/v5AegmS+eqLh83MVsfXv7uwmB2P/vJNu2R7PRqLl6FWCxBUzUDMDOQs6ABET4xgVpk1lPK spkAlM2HeLYfmcRu08Gm8R9vu/7r//a/31553xhoFp8A3buIuad+BjWbx318pxqP2Xq+BMBX2yR4 CbpTgieBXALAxhSnDgwMDFz7yU+de+UVv33+8NDwCSKZp9ijfn76RQowlFaCaNZUhCFr1Sakkik0 yJUTULhbZ7Svm4V232QjpCQneg5230f1NYiIEVix5ker//FrX/rums3rt9j/vA3ceIBu3FN2HRQ1 lfuYq/z+9XwLAEBpX4CqDRaiYoNBUBu4tngZCBpx6aWXnnn1+z543tmvfu2rgsZukmzYgJhAEoqq J1Aztk+FUTqRavc9cKSpeBnZN9uyhAFzCZNrC1AoMigRyYCgkuVb0Axg287xXf/53bu+f8OdN94H lIDZOLj5fqp3g5scwMwdR/Zi9484meO5WC+EAPhybeDfYxEqkTQEAsVhu78UFIShbrc78J53v/us t1329tecdeYrTx8aGFqUe8lQfy6nHZJo93M1GYU/ECZ+OJJP9rt6IMHRfzLiRtwjSFYuoyxOyYL1 mzf++P4HV6y9+a6vPvT01NN77LvvB+26Z+tMgu7cjN2fRU2tA57nU99eL6QA+FoAAkIBAeEIqiB0 QI2wCLz0IwBOBnsYdQA0F1xwwSkXX3jRmeefe94rX77stGWDA0PDkgRZWNeXVYpZKHEBUWhOhV9I KpYr2GYaDdiJ1yewccTWJ7fteGRs1Yb7fvT9H3/7/u+tRU2YnQXV+k5QxXtzht0gUvCN91biDPwf Rf7esVjHgwAAvBhDgBXJ8udCVLygoBCM2mMJ9CaW2G3YHmuWnbZs5Pxzz1t69i++Zunpp5958mkn Lz1pwdDCkYFud2EndgdjjNWbaLGInicw05vVA9PTU/v27du34yc7d23d9sTOR9ev3bnikZXbnhjf +iR4zVjByc3cBZ7uffb4DAjsPEEzgD68N2mI9nMaz7O6n28dLwLgqwEFwaeYB1BDDKEEiNGAwjAC CkNGDUCdAAqGYwinT5sYYzO0YKgz0O3G0dHFgzHE2MQm5Jx0drYnk9MH0sSePQdUW2VFNenFP+sA uNF7wU22Xq+YAYVhP2pagKJuvH+Wh2+PqWt3NOt4EwBfEdzcLupmDKI2tYY9FsHTP2Q3Nx2OIxb0 PddFbXtj+WpA6z3eRMGTLKbtdgDVfse+5zw51q+lF2Y60AuouZMv+InvX8erALTXAGr37v7Huqja wgWiLSgDqN1Pte823wp9N08LnMXcjZXWa6zGu7zGl87z2HG3XgwC4KtBPb3+vRV1g32z2w2w51Pl /v6AuRrAX+vJFrn1Xr8BtWze266kvu/TGhR0/K8XkwC0V4O68a4BgLph7ed849sq/3BLWjdPvfLN 9r8BVA1w2Dr843W9WAWgf7lAtLuctoWivdqnOfS9Zj7z0H6tk/y+6S+6De9fPysC0L9cvbdv/aoc OFgA/He/Sd/tmHPzz/f6f2XXgY4uo8uwAAAAAElFTkSuQmCC "
     preserveAspectRatio="none"
     height="16"
     width="16" />
  <g
     transform="matrix(0.66194007,0,0,0.66355225,6.7434302,6.7420163)"
     id="g4488">
    <path
       style="color:#f2f2f2;fill:currentColor;fill-opacity:1;stroke:none"
       d="M 11,2 5,8 8,11 14,5 Z M 3.5,9.5 2,11 5,14 6.5,12.5 Z"
       class="ColorScheme-Text"
       id="path4" />
    <path
       style="opacity:0.95999995;fill:#ffff00;fill-opacity:1;fill-rule:nonzero;stroke:#ffffff;stroke-width:0.0495356;stroke-opacity:0.94117647"
       d="M 6.4991225,9.4960267 4.9886934,7.9849882 7.9852413,4.9881333 10.981789,1.9912784 12.492676,3.5021656 14.003564,5.0130528 11.006558,8.0100587 8.0095516,11.007065 Z"
       id="path4487" />
    <path
       style="opacity:0.95999995;fill:#e990e9;fill-opacity:1;fill-rule:nonzero;stroke:#ffffff;stroke-width:0.0495356;stroke-opacity:0.94117647"
       d="M 3.4893188,12.480036 1.9910114,10.981124 2.7224212,10.250933 c 0.4022754,-0.4016043 0.7535703,-0.73019 0.7806553,-0.73019 0.027085,0 0.7176278,0.668661 1.5345395,1.485913 l 1.4852938,1.485913 -0.74195,0.743189 c -0.4080726,0.408754 -0.7535114,0.743189 -0.7676419,0.743189 -0.01413,0 -0.69993,-0.67451 -1.5239991,-1.498911 z"
       id="path4489" />
  </g>
</svg>
