<?xml version="1.0" encoding="UTF-8" standalone="no"?>
<svg
   xmlns:dc="http://purl.org/dc/elements/1.1/"
   xmlns:cc="http://creativecommons.org/ns#"
   xmlns:rdf="http://www.w3.org/1999/02/22-rdf-syntax-ns#"
   xmlns:svg="http://www.w3.org/2000/svg"
   xmlns="http://www.w3.org/2000/svg"
   xmlns:sodipodi="http://sodipodi.sourceforge.net/DTD/sodipodi-0.dtd"
   xmlns:inkscape="http://www.inkscape.org/namespaces/inkscape"
   viewBox="0 0 16 16"
   version="1.1"
   id="svg6"
   sodipodi:docname="tool_imageeffects.svg"
   inkscape:version="0.92.1 r15371">
  <metadata
     id="metadata10">
    <rdf:RDF>
      <cc:Work
         rdf:about="">
        <dc:format>image/svg+xml</dc:format>
        <dc:type
           rdf:resource="http://purl.org/dc/dcmitype/StillImage" />
      </cc:Work>
    </rdf:RDF>
  </metadata>
  <sodipodi:namedview
     pagecolor="#ffffff"
     bordercolor="#666666"
     borderopacity="1"
     objecttolerance="10"
     gridtolerance="10"
     guidetolerance="10"
     inkscape:pageopacity="0"
     inkscape:pageshadow="2"
     inkscape:window-width="640"
     inkscape:window-height="480"
     id="namedview8"
     showgrid="false"
     inkscape:current-layer="svg6" />
  <defs
     id="defs3051">
    <style
       type="text/css"
       id="current-color-scheme">
      .ColorScheme-Text {
        color:#f2f2f2;
      }
      </style>
  </defs>
  <path
     style="fill:#3daee9;fill-opacity:1;stroke:none"
     d="M 2 2 L 2 13.28125 L 2 14 L 7 14 L 7 13 L 7 12 L 8 11 L 9 10 L 10 9 L 11 8 L 11.5 7.5 L 11 7 L 7.65625 10.34375 L 6.3125 9 L 6.28125 9 L 3 12.28125 L 3 3 L 13 3 L 13 8 L 14 8 L 14 2 L 2 2 z M 6 4 C 4.8954305 4 4 4.8954305 4 6 C 4 7.1045695 4.8954305 8 6 8 C 7.1045695 8 8 7.1045695 8 6 C 8 4.8954305 7.1045695 4 6 4 z M 12 8 L 11 9 L 10 10 L 8 12 L 8 13 L 8 14 L 10 14 L 10.59375 13.40625 L 11 13 L 12 12 L 13 11 L 14 10 L 12 8 z M 11.6875 9.6875 L 12.28125 10.28125 L 12 10.5625 L 10.59375 11.96875 L 10.59375 12 L 9.3125 13.28125 L 8.71875 12.6875 L 10.59375 10.78125 L 11.6875 9.6875 z "
     class="ColorScheme-Text"
     id="path4" />
  <path
     style="opacity:1;fill:#ffff00;fill-opacity:1;fill-rule:nonzero;stroke:#ffffff;stroke-width:0.0495356;stroke-opacity:0.94117647"
     d="M 5.5331269,7.9164828 C 4.9426543,7.7728902 4.4774905,7.3838326 4.2044368,6.8051819 4.0656066,6.5109754 4.048233,6.4248922 4.0476803,6.028483 4.0469403,5.4976396 4.1382639,5.1962578 4.4075639,4.8408122 4.8240088,4.291152 5.3235988,4.0466977 6.028483,4.0476803 6.4248922,4.048233 6.5109754,4.0656066 6.8051819,4.2044368 7.4286804,4.4986533 7.8173993,5.0004186 7.9408423,5.6703675 8.0529947,6.2790406 7.8442109,6.9419309 7.4006456,7.3854962 6.9011024,7.8850394 6.2108573,8.081295 5.5331269,7.9164828 Z"
     id="path4487"
     inkscape:connector-curvature="0" />
  <path
     style="opacity:1;fill:#ffff00;fill-opacity:1;fill-rule:nonzero;stroke:#ffffff;stroke-width:0.0495356;stroke-opacity:0.94117647"
     d="M 8.0346749,12.975619 V 11.972291 L 10.015983,9.9914474 11.997291,8.0106039 12.988238,9.000622 13.979185,9.9906401 11.985488,11.984794 9.99179,13.978947 H 9.0132324 8.0346749 Z m 2.7874561,-1.193148 1.46636,-1.502979 -0.307332,-0.3046 -0.307332,-0.3046003 -1.163764,1.1759993 c -0.6400692,0.6468 -1.307743,1.326437 -1.4837191,1.510305 l -0.3199566,0.334305 0.2941721,0.297274 c 0.1617947,0.163501 0.3079059,0.297274 0.3246917,0.297274 0.016786,0 0.6903819,-0.67634 1.4968799,-1.502978 z"
     id="path4489"
     inkscape:connector-curvature="0" />
</svg>
