<?xml version="1.0" encoding="UTF-8" standalone="no"?>
<svg
   xmlns:dc="http://purl.org/dc/elements/1.1/"
   xmlns:cc="http://creativecommons.org/ns#"
   xmlns:rdf="http://www.w3.org/1999/02/22-rdf-syntax-ns#"
   xmlns:svg="http://www.w3.org/2000/svg"
   xmlns="http://www.w3.org/2000/svg"
   xmlns:sodipodi="http://sodipodi.sourceforge.net/DTD/sodipodi-0.dtd"
   xmlns:inkscape="http://www.inkscape.org/namespaces/inkscape"
   viewBox="0 0 16 16"
   version="1.1"
   id="svg6"
   sodipodi:docname="transform-shear-down.svg"
   inkscape:version="0.92.1 r15371">
  <metadata
     id="metadata10">
    <rdf:RDF>
      <cc:Work
         rdf:about="">
        <dc:format>image/svg+xml</dc:format>
        <dc:type
           rdf:resource="http://purl.org/dc/dcmitype/StillImage" />
      </cc:Work>
    </rdf:RDF>
  </metadata>
  <sodipodi:namedview
     pagecolor="#ffffff"
     bordercolor="#666666"
     borderopacity="1"
     objecttolerance="10"
     gridtolerance="10"
     guidetolerance="10"
     inkscape:pageopacity="0"
     inkscape:pageshadow="2"
     inkscape:window-width="640"
     inkscape:window-height="480"
     id="namedview8"
     showgrid="false"
     inkscape:current-layer="svg6" />
  <defs
     id="defs3051">
    <style
       type="text/css"
       id="current-color-scheme">
      .ColorScheme-Text {
        color:#f2f2f2;
      }
      </style>
  </defs>
  <path
     style="fill:currentColor;fill-opacity:1;stroke:none"
     d="M 14 2 L 6 4 L 6 12 L 14 10 L 14 2 z M 13 3.5 L 13 9 L 7 10.5 L 7 5 L 13 3.5 z M 2 5 L 2 14 L 10 14 L 10 12 L 9 12 L 9 13 L 3 13 L 3 6 L 5 6 L 5 5 L 2 5 z "
     class="ColorScheme-Text"
     id="path4" />
  <path
     style="opacity:1;fill:#3daee9;fill-opacity:1;fill-rule:nonzero;stroke:#ffffff;stroke-width:0.0495356;stroke-opacity:0.94117647"
     d="M 6.0037152,7.9913268 V 3.9851302 L 9.9911045,2.9882307 C 12.184168,2.439936 13.989741,1.9913313 14.003488,1.9913313 c 0.01375,0 0.02499,1.8027884 0.02499,4.0061965 v 4.0061962 l -3.987389,0.9969 c -2.1930645,0.548294 -3.9986373,0.996899 -4.0123843,0.996899 -0.013747,0 -0.024995,-1.802788 -0.024995,-4.0061962 z m 4.0371518,1.7353937 2.9226,-0.7322749 0.0128,-2.7337553 c 0.007,-1.5035654 0.0012,-2.7337553 -0.01306,-2.7337553 -0.02432,0 -5.3831287,1.3350996 -5.7830292,1.4407916 l -0.1857586,0.049095 v 2.7225487 c 0,2.1457952 0.013117,2.7222397 0.06192,2.7210867 0.034056,-8.02e-4 1.3770898,-0.330985 2.9845208,-0.7337366 z"
     id="path4487"
     inkscape:connector-curvature="0" />
</svg>
