<?xml version="1.0" encoding="UTF-8" standalone="no"?>
<svg
   xmlns:dc="http://purl.org/dc/elements/1.1/"
   xmlns:cc="http://creativecommons.org/ns#"
   xmlns:rdf="http://www.w3.org/1999/02/22-rdf-syntax-ns#"
   xmlns:svg="http://www.w3.org/2000/svg"
   xmlns="http://www.w3.org/2000/svg"
   xmlns:sodipodi="http://sodipodi.sourceforge.net/DTD/sodipodi-0.dtd"
   xmlns:inkscape="http://www.inkscape.org/namespaces/inkscape"
   viewBox="0 0 16 16"
   version="1.1"
   id="svg6"
   sodipodi:docname="dialog-transform.svg"
   inkscape:version="0.92.1 r15371">
  <metadata
     id="metadata10">
    <rdf:RDF>
      <cc:Work
         rdf:about="">
        <dc:format>image/svg+xml</dc:format>
        <dc:type
           rdf:resource="http://purl.org/dc/dcmitype/StillImage" />
      </cc:Work>
    </rdf:RDF>
  </metadata>
  <sodipodi:namedview
     pagecolor="#ffffff"
     bordercolor="#666666"
     borderopacity="1"
     objecttolerance="10"
     gridtolerance="10"
     guidetolerance="10"
     inkscape:pageopacity="0"
     inkscape:pageshadow="2"
     inkscape:window-width="640"
     inkscape:window-height="480"
     id="namedview8"
     showgrid="false"
     inkscape:current-layer="svg6" />
  <defs
     id="defs3051">
    <style
       type="text/css"
       id="current-color-scheme">
      .ColorScheme-Text {
        color:#f2f2f2;
      }
      </style>
  </defs>
  <path
     style="fill:#3daee9;fill-opacity:1;stroke:none"
     d="M 2 2 L 2 5 L 5 5 L 5 2 L 2 2 z M 11 2 L 11 5 L 14 5 L 14 2 L 11 2 z M 3 3 L 4 3 L 4 4 L 3 4 L 3 3 z M 12 3 L 13 3 L 13 4 L 12 4 L 12 3 z M 6 4 L 6 5 L 7 5 L 7 4 L 6 4 z M 9 4 L 9 5 L 10 5 L 10 4 L 9 4 z M 4 6 L 4 7 L 5 7 L 5 6 L 4 6 z M 11 6 L 11 7 L 12 7 L 12 6 L 11 6 z M 8 8 L 8 9 L 8 11 L 8 12 L 9 12 L 11 12 L 12 12 L 12 11 L 12 8 L 8 8 z M 4 9 L 4 10 L 5 10 L 5 9 L 4 9 z M 9 9 L 11 9 L 11 11 L 9 11 L 9 9 z M 13 10 L 13 13 L 10 13 L 10 14 L 14 14 L 14 13 L 14 10 L 13 10 z M 2 11 L 2 14 L 5 14 L 5 11 L 2 11 z M 6 11 L 6 12 L 7 12 L 7 11 L 6 11 z M 3 12 L 4 12 L 4 13 L 3 13 L 3 12 z "
     class="ColorScheme-Text"
     id="path4" />
  <path
     style="opacity:0.95999995;fill:#ff0000;fill-opacity:1;fill-rule:nonzero;stroke:#ffffff;stroke-width:0.0495356;stroke-opacity:0.94117647"
     d="M 8.0346749,10.016099 V 8.0346749 h 1.9814241 1.981424 v 1.9814241 1.981424 H 10.016099 8.0346749 Z M 11.006811,9.9913313 V 8.9758514 H 9.9913313 8.9758514 v 1.0154799 1.0154797 h 1.0154799 1.0154797 z"
     id="path4487"
     inkscape:connector-curvature="0" />
  <path
     style="opacity:0.95999995;fill:#ff6600;fill-opacity:1;fill-rule:nonzero;stroke:#ffffff;stroke-width:0.0495356;stroke-opacity:0.94117647"
     d="M 11.006811,6.4990712 V 5.9507137 l 0.50774,0.014117 0.50774,0.014117 V 6.4990712 7.019195 l -0.50774,0.014117 -0.50774,0.014117 z"
     id="path4489"
     inkscape:connector-curvature="0" />
  <path
     style="opacity:0.95999995;fill:#ff6600;fill-opacity:1;fill-rule:nonzero;stroke:#ffffff;stroke-width:0.0495356;stroke-opacity:0.94117647"
     d="M 9.025387,4.4928793 V 4.022291 H 9.4959752 9.9665635 V 4.4928793 4.9634675 H 9.4959752 9.025387 Z"
     id="path4491"
     inkscape:connector-curvature="0" />
  <path
     style="opacity:0.95999995;fill:#ff6600;fill-opacity:1;fill-rule:nonzero;stroke:#ffffff;stroke-width:0.0495356;stroke-opacity:0.94117647"
     d="M 6.0037152,4.4928793 V 4.022291 h 0.495356 0.495356 v 0.4705883 0.4705882 h -0.495356 -0.495356 z"
     id="path4493"
     inkscape:connector-curvature="0" />
  <path
     style="opacity:0.95999995;fill:#ff6600;fill-opacity:1;fill-rule:nonzero;stroke:#ffffff;stroke-width:0.0495356;stroke-opacity:0.94117647"
     d="m 4.022291,6.4990712 v -0.495356 h 0.4705883 0.4705882 v 0.495356 0.495356 H 4.4928793 4.022291 Z"
     id="path4495"
     inkscape:connector-curvature="0" />
  <path
     style="opacity:0.95999995;fill:#ff6600;fill-opacity:1;fill-rule:nonzero;stroke:#ffffff;stroke-width:0.0495356;stroke-opacity:0.94117647"
     d="M 4.022291,9.4959752 V 9.025387 H 4.4928793 4.9634675 V 9.4959752 9.9665635 H 4.4928793 4.022291 Z"
     id="path4497"
     inkscape:connector-curvature="0" />
  <path
     style="opacity:0.95999995;fill:#ff6600;fill-opacity:1;fill-rule:nonzero;stroke:#ffffff;stroke-width:0.0495356;stroke-opacity:0.94117647"
     d="m 6.0037152,11.502167 v -0.495356 h 0.495356 0.495356 v 0.495356 0.495356 h -0.495356 -0.495356 z"
     id="path4499"
     inkscape:connector-curvature="0" />
  <path
     style="opacity:0.95999995;fill:#ffffff;fill-opacity:1;fill-rule:nonzero;stroke:#ffffff;stroke-width:0.0495356;stroke-opacity:0.94117647"
     d="m 10.016099,13.509085 v -0.469861 l 1.498452,-0.01311 1.498452,-0.01311 0.01311,-1.498452 0.01311,-1.498452 h 0.469861 0.469862 v 1.981424 1.981424 h -1.981424 -1.981424 z"
     id="path4501"
     inkscape:connector-curvature="0" />
</svg>
