<?xml version="1.0" encoding="UTF-8" standalone="no"?>
<svg
   xmlns:dc="http://purl.org/dc/elements/1.1/"
   xmlns:cc="http://creativecommons.org/ns#"
   xmlns:rdf="http://www.w3.org/1999/02/22-rdf-syntax-ns#"
   xmlns:svg="http://www.w3.org/2000/svg"
   xmlns="http://www.w3.org/2000/svg"
   xmlns:sodipodi="http://sodipodi.sourceforge.net/DTD/sodipodi-0.dtd"
   xmlns:inkscape="http://www.inkscape.org/namespaces/inkscape"
   viewBox="0 0 16 16"
   version="1.1"
   id="svg6"
   sodipodi:docname="transform-shear-up.svg"
   inkscape:version="0.92.1 r15371">
  <metadata
     id="metadata10">
    <rdf:RDF>
      <cc:Work
         rdf:about="">
        <dc:format>image/svg+xml</dc:format>
        <dc:type
           rdf:resource="http://purl.org/dc/dcmitype/StillImage" />
      </cc:Work>
    </rdf:RDF>
  </metadata>
  <sodipodi:namedview
     pagecolor="#ffffff"
     bordercolor="#666666"
     borderopacity="1"
     objecttolerance="10"
     gridtolerance="10"
     guidetolerance="10"
     inkscape:pageopacity="0"
     inkscape:pageshadow="2"
     inkscape:window-width="640"
     inkscape:window-height="480"
     id="namedview8"
     showgrid="false"
     inkscape:current-layer="svg6" />
  <defs
     id="defs3051">
    <style
       type="text/css"
       id="current-color-scheme">
      .ColorScheme-Text {
        color:#f2f2f2;
      }
      </style>
  </defs>
  <path
     style="fill:currentColor;fill-opacity:1;stroke:none"
     d="M 2 2 L 2 11 L 5 11 L 5 10 L 3 10 L 3 3 L 9 3 L 9 4 L 10 4 L 10 2 L 2 2 z M 6 4 L 6 12 L 14 14 L 14 6 L 6 4 z M 7 5.5 L 13 7 L 13 12.5 L 7 11 L 7 5.5 z "
     class="ColorScheme-Text"
     id="path4" />
  <path
     style="opacity:1;fill:#3daee9;fill-opacity:1;fill-rule:nonzero;stroke:#ffffff;stroke-width:0.0495356;stroke-opacity:0.94117647"
     d="M 9.9170279,12.993056 6.028483,12.016235 6.0158091,8.0005564 6.0031353,3.9848782 l 4.0002897,1.0001249 4.00029,1.000125 0.01268,3.9969098 0.01268,3.9969091 -0.111748,-0.0045 c -0.06146,-0.0025 -1.861593,-0.444102 -4.0002931,-0.981354 z M 12.988235,9.7498383 V 7.0067977 L 10.078019,6.2804404 C 8.4773994,5.8809439 7.1287926,5.5422931 7.0811146,5.527883 6.9992841,5.5031509 6.9944272,5.6552302 6.9944272,8.2422769 v 2.7405941 l 2.9845202,0.75038 c 1.6414856,0.41271 2.9900926,0.752461 2.9969036,0.755005 0.0068,0.0025 0.01238,-1.229745 0.01238,-2.7384177 z"
     id="path4487"
     inkscape:connector-curvature="0" />
</svg>
