<?xml version="1.0" encoding="UTF-8" standalone="no"?>
<svg
   xmlns:dc="http://purl.org/dc/elements/1.1/"
   xmlns:cc="http://creativecommons.org/ns#"
   xmlns:rdf="http://www.w3.org/1999/02/22-rdf-syntax-ns#"
   xmlns:svg="http://www.w3.org/2000/svg"
   xmlns="http://www.w3.org/2000/svg"
   xmlns:sodipodi="http://sodipodi.sourceforge.net/DTD/sodipodi-0.dtd"
   xmlns:inkscape="http://www.inkscape.org/namespaces/inkscape"
   viewBox="0 0 16 16"
   version="1.1"
   id="svg6"
   sodipodi:docname="view-table-of-contents-rtl.svg"
   inkscape:version="0.92.1 r15371">
  <metadata
     id="metadata10">
    <rdf:RDF>
      <cc:Work
         rdf:about="">
        <dc:format>image/svg+xml</dc:format>
        <dc:type
           rdf:resource="http://purl.org/dc/dcmitype/StillImage" />
      </cc:Work>
    </rdf:RDF>
  </metadata>
  <sodipodi:namedview
     pagecolor="#ffffff"
     bordercolor="#666666"
     borderopacity="1"
     objecttolerance="10"
     gridtolerance="10"
     guidetolerance="10"
     inkscape:pageopacity="0"
     inkscape:pageshadow="2"
     inkscape:window-width="640"
     inkscape:window-height="480"
     id="namedview8"
     showgrid="false"
     inkscape:current-layer="svg6" />
  <defs
     id="defs3051">
    <style
       type="text/css"
       id="current-color-scheme">
      .ColorScheme-Text {
        color:#f2f2f2;
      }
      </style>
  </defs>
  <path
     style="fill:currentColor;fill-opacity:1;stroke:none"
     d="M 2 3 L 2 4 L 3 4 L 3 6 L 2 6 L 2 7 L 5 7 L 5 6 L 4 6 L 4 4 L 5 4 L 5 3 L 2 3 z M 8 3 L 8 4 L 14 4 L 14 3 L 8 3 z M 6 5 L 6 6 L 7 6 L 7 5 L 6 5 z M 8 5 L 8 6 L 9 6 L 9 5 L 8 5 z M 10 5 L 10 6 L 11 6 L 11 5 L 10 5 z M 2 9 L 2 10 L 3 10 L 3 12 L 2 12 L 2 13 L 4 13 L 5 13 L 7 13 L 7 12 L 6 12 L 6 10 L 7 10 L 7 9 L 5 9 L 4 9 L 2 9 z M 10 9 L 10 10 L 14 10 L 14 9 L 10 9 z M 4 10 L 5 10 L 5 12 L 4 12 L 4 10 z M 8 11 L 8 12 L 9 12 L 9 11 L 8 11 z M 10 11 L 10 12 L 11 12 L 11 11 L 10 11 z M 12 11 L 12 12 L 13 12 L 13 11 L 12 11 z "
     class="ColorScheme-Text"
     id="path4" />
  <path
     style="opacity:1;fill:#3daee9;fill-opacity:1;fill-rule:nonzero;stroke:#ffffff;stroke-width:0.0495356;stroke-opacity:0.94117647"
     d="m 1.9913313,6.4990712 v -0.495356 h 0.495356 0.495356 V 5.0130031 4.022291 H 2.4866873 1.9913313 V 3.5021672 2.9820433 H 3.5021672 5.0130031 V 3.5021672 4.022291 H 4.5176471 4.022291 v 0.9907121 0.9907121 h 0.4953561 0.495356 v 0.495356 0.495356 H 3.5021672 1.9913313 Z"
     id="path4487"
     inkscape:connector-curvature="0" />
  <path
     style="opacity:1;fill:#3daee9;fill-opacity:1;fill-rule:nonzero;stroke:#ffffff;stroke-width:0.0495356;stroke-opacity:0.94117647"
     d="m 1.9913313,12.492879 v -0.495356 h 0.495356 0.495356 V 11.006811 10.016099 H 2.4866873 1.9913313 V 9.4959752 8.9758514 h 2.501548 2.5015479 v 0.5201238 0.5201238 h -0.495356 -0.495356 v 0.990712 0.990712 h 0.495356 0.495356 v 0.495356 0.495356 H 4.4928793 1.9913313 Z M 5.0130031,11.006811 V 10.016099 H 4.5176471 4.022291 v 0.990712 0.990712 h 0.4953561 0.495356 z"
     id="path4489"
     inkscape:connector-curvature="0" />
  <path
     style="opacity:1;fill:#3daee9;fill-opacity:1;fill-rule:nonzero;stroke:#ffffff;stroke-width:0.0495356;stroke-opacity:0.94117647"
     d="m 9.9877246,9.9502592 c -0.013896,-0.036212 -0.018769,-0.264695 -0.010829,-0.50774 l 0.014436,-0.4419 h 2.0061914 2.006192 l 0.01412,0.5077399 0.01412,0.5077399 h -2.00948 c -1.625702,0 -2.014304,-0.01257 -2.0347441,-0.06584 z"
     id="path4491"
     inkscape:connector-curvature="0" />
  <path
     style="opacity:1;fill:#3daee9;fill-opacity:1;fill-rule:nonzero;stroke:#ffffff;stroke-width:0.0495356;stroke-opacity:0.94117647"
     d="M 7.9851393,3.5025509 V 2.9820433 h 3.0234047 3.023405 l -0.01412,0.50774 -0.01412,0.5077399 -3.009288,0.012768 -3.0092877,0.012768 z"
     id="path4493"
     inkscape:connector-curvature="0" />
</svg>
