<?xml version="1.0" encoding="UTF-8" standalone="no"?>
<svg
   xmlns:dc="http://purl.org/dc/elements/1.1/"
   xmlns:cc="http://creativecommons.org/ns#"
   xmlns:rdf="http://www.w3.org/1999/02/22-rdf-syntax-ns#"
   xmlns:svg="http://www.w3.org/2000/svg"
   xmlns="http://www.w3.org/2000/svg"
   xmlns:sodipodi="http://sodipodi.sourceforge.net/DTD/sodipodi-0.dtd"
   xmlns:inkscape="http://www.inkscape.org/namespaces/inkscape"
   viewBox="0 0 16 16"
   version="1.1"
   id="svg8"
   sodipodi:docname="view-left-close.svg"
   inkscape:version="0.92.1 r15371">
  <metadata
     id="metadata12">
    <rdf:RDF>
      <cc:Work
         rdf:about="">
        <dc:format>image/svg+xml</dc:format>
        <dc:type
           rdf:resource="http://purl.org/dc/dcmitype/StillImage" />
      </cc:Work>
    </rdf:RDF>
  </metadata>
  <sodipodi:namedview
     pagecolor="#ffffff"
     bordercolor="#666666"
     borderopacity="1"
     objecttolerance="10"
     gridtolerance="10"
     guidetolerance="10"
     inkscape:pageopacity="0"
     inkscape:pageshadow="2"
     inkscape:window-width="640"
     inkscape:window-height="480"
     id="namedview10"
     showgrid="false"
     inkscape:current-layer="svg8" />
  <defs
     id="defs3051">
    <style
       type="text/css"
       id="current-color-scheme">
      .ColorScheme-Text {
        color:#f2f2f2;
      }
      .ColorScheme-NegativeText {
        color:#da4453;
      }
      </style>
  </defs>
  <g
     transform="translate(-421.71429,-531.79074)"
     id="g6"
     style="fill:#3daee9;fill-opacity:1">
    <path
       style="fill:#3daee9;fill-opacity:1;stroke:none"
       d="M 2 2 L 2 14 L 14 14 L 14 2 L 2 2 z M 3 4 L 9 4 L 9 13 L 3 13 L 3 4 z M 10 4 L 13 4 L 13 13 L 10 13 L 10 4 z "
       transform="translate(421.71429,531.79074)"
       class="ColorScheme-Text"
       id="rect4272" />
    <path
       style="fill:#3daee9;fill-opacity:1;stroke:none"
       class="ColorScheme-NegativeText"
       d="m 425.95691,537.79079 -0.70703,0.70703 1.79296,1.79297 -1.79296,1.79297 0.70703,0.70703 1.79297,-1.79296 1.79297,1.79296 0.70703,-0.70703 -1.79296,-1.79297 1.79296,-1.79297 -0.70703,-0.70703 -1.79297,1.79296 -1.79297,-1.79296 z"
       id="rect4153" />
  </g>
  <path
     style="opacity:1;fill:#ff0000;fill-opacity:1;fill-rule:nonzero;stroke:#ffffff;stroke-width:0.0495356;stroke-opacity:0.94117647"
     d="M 3.9104469,10.622614 3.5771953,10.286789 4.4684873,9.3965286 5.3597793,8.5062684 4.4562215,7.6017192 3.5526636,6.6971701 3.8865198,6.3633139 4.220376,6.0294578 5.100164,6.9082273 c 0.4838835,0.4833233 0.901627,0.8787696 0.928319,0.8787696 0.026692,0 0.4444355,-0.3954463 0.9283189,-0.8787696 L 7.83659,6.0294578 8.1704392,6.363307 8.5042883,6.6971562 7.6255188,7.5769442 c -0.4833233,0.4838834 -0.8787696,0.9016269 -0.8787696,0.928319 0,0.026692 0.3954463,0.4444355 0.8787696,0.9283189 L 8.5042883,10.31337 8.1704322,10.647226 7.836576,10.981082 6.9322002,10.077698 6.0278244,9.1743131 5.1357615,10.066376 4.2436986,10.958439 Z"
     id="path4489"
     inkscape:connector-curvature="0" />
</svg>
