<?xml version="1.0" encoding="UTF-8" standalone="no"?>
<svg
   xmlns:dc="http://purl.org/dc/elements/1.1/"
   xmlns:cc="http://creativecommons.org/ns#"
   xmlns:rdf="http://www.w3.org/1999/02/22-rdf-syntax-ns#"
   xmlns:svg="http://www.w3.org/2000/svg"
   xmlns="http://www.w3.org/2000/svg"
   xmlns:sodipodi="http://sodipodi.sourceforge.net/DTD/sodipodi-0.dtd"
   xmlns:inkscape="http://www.inkscape.org/namespaces/inkscape"
   viewBox="0 0 16 16"
   version="1.1"
   id="svg6"
   sodipodi:docname="view-pim-tasks.svg"
   inkscape:version="0.92.1 r15371">
  <metadata
     id="metadata10">
    <rdf:RDF>
      <cc:Work
         rdf:about="">
        <dc:format>image/svg+xml</dc:format>
        <dc:type
           rdf:resource="http://purl.org/dc/dcmitype/StillImage" />
      </cc:Work>
    </rdf:RDF>
  </metadata>
  <sodipodi:namedview
     pagecolor="#ffffff"
     bordercolor="#666666"
     borderopacity="1"
     objecttolerance="10"
     gridtolerance="10"
     guidetolerance="10"
     inkscape:pageopacity="0"
     inkscape:pageshadow="2"
     inkscape:window-width="640"
     inkscape:window-height="480"
     id="namedview8"
     showgrid="false"
     inkscape:current-layer="svg6" />
  <defs
     id="defs3051">
    <style
       type="text/css"
       id="current-color-scheme">
      .ColorScheme-Text {
        color:#f2f2f2;
      }
      </style>
  </defs>
  <path
     style="fill:#3daee9;fill-opacity:1;stroke:none"
     d="M 2 2 L 2 14 L 9 14 L 13 14 L 14 14 L 14 9 L 14 2 L 12 2 L 12 4 L 10 4 L 10 2 L 6 2 L 6 4 L 4 4 L 4 2 L 2 2 z M 3 5 L 13 5 L 13 9 L 13 13 L 9 13 L 3 13 L 3 5 z M 10.335938 6.5 L 7.1875 10.109375 L 5.6621094 8.5566406 L 5 9.2324219 L 7.2265625 11.5 L 11 7.1777344 L 10.335938 6.5 z "
     class="ColorScheme-Text"
     id="path4" />
  <path
     style="opacity:1;fill:#00ff00;fill-opacity:1;fill-rule:nonzero;stroke:#ffffff;stroke-width:0.0495356;stroke-opacity:0.94117647"
     d="M 6.5229482,10.796285 C 6.1417389,10.40805 5.6408289,9.8952128 5.4098148,9.6566476 L 4.9897892,9.2228928 5.3233072,8.8893749 5.6568251,8.5558569 6.4273652,9.3231297 C 7.1822237,10.074787 7.1996151,10.088354 7.2819247,9.9897376 7.3281355,9.9343719 8.0328289,9.1250456 8.8479102,8.1912348 L 10.329876,6.4933969 10.66592,6.8268664 c 0.184825,0.1834081 0.321253,0.3574403 0.303173,0.386738 -0.03787,0.061361 -3.726973,4.2885626 -3.7426575,4.2885626 -0.00571,0 -0.322278,-0.317647 -0.7034873,-0.705882 z"
     id="path4487"
     inkscape:connector-curvature="0" />
</svg>
