<?xml version="1.0" encoding="UTF-8" standalone="no"?>
<svg
   xmlns:dc="http://purl.org/dc/elements/1.1/"
   xmlns:cc="http://creativecommons.org/ns#"
   xmlns:rdf="http://www.w3.org/1999/02/22-rdf-syntax-ns#"
   xmlns:svg="http://www.w3.org/2000/svg"
   xmlns="http://www.w3.org/2000/svg"
   xmlns:sodipodi="http://sodipodi.sourceforge.net/DTD/sodipodi-0.dtd"
   xmlns:inkscape="http://www.inkscape.org/namespaces/inkscape"
   viewBox="0 0 16 16"
   version="1.1"
   id="svg6"
   sodipodi:docname="filename-year-amarok.svg"
   inkscape:version="0.92.1 r15371">
  <metadata
     id="metadata10">
    <rdf:RDF>
      <cc:Work
         rdf:about="">
        <dc:format>image/svg+xml</dc:format>
        <dc:type
           rdf:resource="http://purl.org/dc/dcmitype/StillImage" />
      </cc:Work>
    </rdf:RDF>
  </metadata>
  <sodipodi:namedview
     pagecolor="#ffffff"
     bordercolor="#666666"
     borderopacity="1"
     objecttolerance="10"
     gridtolerance="10"
     guidetolerance="10"
     inkscape:pageopacity="0"
     inkscape:pageshadow="2"
     inkscape:window-width="640"
     inkscape:window-height="480"
     id="namedview8"
     showgrid="false"
     inkscape:current-layer="svg6" />
  <defs
     id="defs3051">
    <style
       type="text/css"
       id="current-color-scheme">
      .ColorScheme-Text {
        color:#f2f2f2;
      }
      </style>
  </defs>
  <path
     style="fill:currentColor;fill-opacity:1;stroke:none"
     d="M 2 2 L 2 14 L 14 14 L 14 2 L 12 2 L 12 4 L 10 4 L 10 2 L 6 2 L 6 4 L 4 4 L 4 2 L 2 2 z M 3 5 L 13 5 L 13 13 L 3 13 L 3 5 z M 4 6 L 4 8 L 6 8 L 6 6 L 4 6 z M 7 6 L 7 8 L 9 8 L 9 6 L 7 6 z M 10 6 L 10 8 L 12 8 L 12 6 L 10 6 z M 4 9 L 4 11 L 6 11 L 6 9 L 4 9 z M 7 9 L 7 11 L 9 11 L 9 9 L 7 9 z M 10 9 L 10 11 L 12 11 L 12 9 L 10 9 z "
     class="ColorScheme-Text"
     id="path4" />
  <path
     style="opacity:1;fill:#3daee9;fill-opacity:1;fill-rule:nonzero;stroke:#ffffff;stroke-width:0.0495356;stroke-opacity:0.94117647"
     d="M 1.9913313,8.0101053 V 1.9913313 H 3.0068111 4.022291 v 0.990712 0.9907121 H 5.0130031 6.0037152 V 2.9820433 1.9913313 h 2.0061919 2.0061919 v 0.990712 0.9907121 h 0.990712 0.990712 V 2.9820433 1.9913313 h 1.015678 1.015678 l -0.01258,6.0061919 -0.01258,6.0061918 -6.0061918,0.01258 -6.0061919,0.01258 z M 12.988235,9.0006192 V 5.0130031 H 8.0099071 3.0315789 v 3.9876161 3.9876158 h 4.9783282 4.9783279 z"
     id="path4487"
     inkscape:connector-curvature="0" />
  <path
     style="opacity:1;fill:#ffff00;fill-opacity:1;fill-rule:nonzero;stroke:#ffffff;stroke-width:0.0495356;stroke-opacity:0.94117647"
     d="M 7.0284672,8.0026674 C 7.0097452,7.9839455 6.9944272,7.5265222 6.9944272,6.9861713 V 6.0037152 h 1.0165056 1.0165055 l -0.01341,1.0030959 -0.01341,1.003096 -0.969056,0.0134 c -0.5329808,0.00737 -0.984374,-0.00192 -1.0030951,-0.02064 z"
     id="path4489"
     inkscape:connector-curvature="0" />
  <path
     style="opacity:1;fill:#ff0000;fill-opacity:1;fill-rule:nonzero;stroke:#ffffff;stroke-width:0.0495356;stroke-opacity:0.94117647"
     d="M 4.0057792,8.0016512 C 3.9876161,7.9834881 3.9727554,7.5265222 3.9727554,6.9861713 V 6.0037152 H 4.9882353 6.0037152 V 7.019195 8.0346749 H 5.021259 c -0.5403509,0 -0.9973168,-0.014861 -1.0154798,-0.033024 z"
     id="path4491"
     inkscape:connector-curvature="0" />
  <path
     style="opacity:1;fill:#ff6600;fill-opacity:1;fill-rule:nonzero;stroke:#ffffff;stroke-width:0.0495356;stroke-opacity:0.94117647"
     d="M 9.9995872,8.0016512 C 9.9814241,7.9834881 9.9665635,7.5265222 9.9665635,6.9861713 V 6.0037152 h 1.0154795 1.01548 V 7.019195 8.0346749 h -0.982456 c -0.540351,0 -0.997317,-0.014861 -1.0154798,-0.033024 z"
     id="path4493"
     inkscape:connector-curvature="0" />
  <path
     style="opacity:1;fill:#00ff00;fill-opacity:1;fill-rule:nonzero;stroke:#ffffff;stroke-width:0.0495356;stroke-opacity:0.94117647"
     d="m 3.9841137,10.003715 0.013409,-1.0030958 1.003096,-0.01341 1.003096,-0.013409 V 9.9903056 11.006811 H 4.9872097 3.9707041 Z"
     id="path4495"
     inkscape:connector-curvature="0" />
  <path
     style="opacity:1;fill:#800000;fill-opacity:1;fill-rule:nonzero;stroke:#ffffff;stroke-width:0.0495356;stroke-opacity:0.94117647"
     d="M 6.9944272,9.9903056 V 8.9738001 l 1.003096,0.013409 1.003096,0.01341 0.01341,1.0030959 0.01341,1.003096 H 8.0109328 6.9944272 Z"
     id="path4497"
     inkscape:connector-curvature="0" />
</svg>
