/* XPM */
static char * title_2_active_xpm[] = {
"8 29 3 1",
" 	c None",
".	c #7041db",
"+	c #FFFFFF",
"........",
"++++++++",
"........",
"........",
"+.++++++",
"+.++++++",
"+.++++++",
"+.++++++",
"+.++++++",
"+.++++++",
"+.++++++",
"+.++++++",
"+.++++++",
"+.++++++",
"+.++++++",
"+.++++++",
"+.++++++",
"+.++++++",
"+.++++++",
"+.++++++",
"+.++++++",
"+.++++++",
"+.++++++",
"+.++++++",
"+.++++++",
"+.++++++",
"........",
"........",
"++++++++"};
