/* XPM */
static char * bottom_right_active_xpm[] = {
"19 22 15 1",
" 	c None",
".	c #0A393B",
"+	c #87E5E9",
"@	c #33D3DA",
"#	c #157478",
"$	c #31D2DA",
"%	c #2AD1D9",
"&	c #27D0D8",
"*	c #6B6B6B",
"=	c #BDBDBD",
"-	c #D4D4D4",
";	c #DFDFDF",
">	c #EFEFEF",
",	c #FDFDFD",
"'	c #FFFFFF",
"...............+@#.",
"++++++++++++++++@#.",
"@@@@@@@@@@$%&%$@@#.",
"@@@@@@@@@@@@@@@@@#.",
"@@@@@@@@@@@@@@@@@#.",
"@@@@@@@@@@@@@*@@@#.",
"@@@@@@@@@@@@**@@@#.",
"@@@@@@@@@@@*=*@@@#.",
"@@@@@@@@@@*=-*@@@#.",
"@@@@@@@@@*=-;*@@@#.",
"@@@@@@@@*=-;>*@@@#.",
"@@@@@@@*=-;>,*@@@#.",
"@@@@@@*=-;>,'*@@@#.",
"@@@@@*=-;>,''*@@@#.",
"@@@@*=-;>,'''*@@@#.",
"@@@***********@@@#.",
"@@@@@@@@@@@@@@@@@#.",
"@@@@@@@@@@@@@@@@@#.",
"@@@@@@@@@@@@@@@@@#.",
"@@@@@@@@@@@@@@@@@#.",
"##################.",
"..................."};
