/* XPM */
static char * title_1_active_xpm[] = {
"8 31 41 1",
" 	c None",
".	c #0A393B",
"+	c #64DDE3",
"@	c #66DEE4",
"#	c #27D0D8",
"$	c #26CFD7",
"%	c #21B8C0",
"&	c #22BAC1",
"*	c #22BDC5",
"=	c #23BFC6",
"-	c #23C2CA",
";	c #23C0C8",
">	c #24C4CB",
",	c #24C7CF",
"'	c #24C9D1",
")	c #25CCD4",
"!	c #25CAD2",
"~	c #28D1D9",
"{	c #2AD1D9",
"]	c #2DD2DA",
"^	c #31D2DA",
"/	c #2FD2DA",
"(	c #38D4DB",
"_	c #3ED5DD",
":	c #3DD5DC",
"<	c #49D7DE",
"[	c #51D9E0",
"}	c #4FD9E0",
"|	c #58DBE1",
"1	c #60DDE3",
"2	c #69DEE4",
"3	c #73E1E6",
"4	c #7CE2E7",
"5	c #86E5E9",
"6	c #93E8EC",
"7	c #9CE9ED",
"8	c #9EEAED",
"9	c #A6ECEF",
"0	c #B2EEF1",
"a	c #7AE2E7",
"b	c #1FADB4",
"........",
"++++@@@@",
"######$$",
"%%%%%%%%",
"%&&&%%%%",
"*====***",
"------;;",
">>>>>>--",
",'''',,,",
"))))))!!",
"$$$$$$))",
"~{{{{{##",
"]]]]]]{{",
"^^^^^^//",
"((((((((",
"______::",
"<<<<<<<<",
"[}}}}}[[",
"||||||||",
"11111111",
"22222222",
"33333333",
"44444444",
"55555555",
"66666666",
"77878888",
"99999999",
"00000000",
"444444aa",
"bbbbbbbb",
"........"};
