/* XPM */
static char * top_right_active_xpm[] = {
"10 64 60 1",
" 	c None",
".	c #0A393B",
"+	c #64DDE3",
"@	c #3DD5DC",
"#	c #20B2B9",
"$	c #27D0D8",
"%	c #26CFD7",
"&	c #16797D",
"*	c #21B8C0",
"=	c #21B7BE",
"-	c #1D9EA4",
";	c #22BAC1",
">	c #22BCC3",
",	c #22BDC5",
"'	c #23BFC6",
")	c #23C2CA",
"!	c #23C0C8",
"~	c #24C4CB",
"{	c #24C7CF",
"]	c #25CAD2",
"^	c #24C9D1",
"/	c #25CCD4",
"(	c #20AEB5",
"_	c #1EA8AF",
":	c #28D1D9",
"<	c #2AD1D9",
"[	c #1FAAB0",
"}	c #2CD1D9",
"|	c #2FD2DA",
"1	c #31D2DA",
"2	c #2DD2DA",
"3	c #38D4DB",
"4	c #36D3DB",
"5	c #33D3DA",
"6	c #3ED5DD",
"7	c #49D7DE",
"8	c #4FD9E0",
"9	c #43D6DE",
"0	c #58DBE1",
"a	c #56DAE1",
"b	c #60DDE3",
"c	c #51D9E0",
"d	c #69DEE4",
"e	c #73E1E6",
"f	c #75E1E6",
"g	c #5DDCE2",
"h	c #1FABB2",
"i	c #7CE2E7",
"j	c #62DDE3",
"k	c #86E5E9",
"l	c #93E8EC",
"m	c #9EEAED",
"n	c #9CE9ED",
"o	c #1FADB4",
"p	c #A6ECEF",
"q	c #7FE3E8",
"r	c #B2EEF1",
"s	c #7AE2E7",
"t	c #87E5E9",
"u	c #157478",
"........  ",
"++++++@#. ",
"$%%$$$%$&.",
"**===***-.",
";;;****>>.",
">,,,,,,''.",
"))!!!)!!*.",
"~~)))~))#.",
"{{{{{{{{#.",
"]]^]]/]^(.",
"%%///%//_.",
"::$$$<$%[.",
"<<<<<<}$_.",
"|||||112_.",
"33433335[.",
"6@@666@3_.",
"7777777@_.",
"88888889[.",
"00a00007[.",
"bbbbbbbc[.",
"ddddddda[.",
"eeeeeefgh.",
"iiiiiiijh.",
"kkkkkkkdh.",
"lllllllfh.",
"mnmmnmmio.",
"pppppppqo.",
"rrrrrrrkh.",
"iisssisih.",
"ooooooooo.",
"..........",
"     .t5u.",
"     .t5u.",
"     .t5u.",
"     .t5u.",
"     .t5u.",
"     .t5u.",
"     .t5u.",
"     .t5u.",
"     .t5u.",
"     .t5u.",
"     .t5u.",
"     .t5u.",
"     .t5u.",
"     .t5u.",
"     .t5u.",
"     .t5u.",
"     .t5u.",
"     .t5u.",
"     .t5u.",
"     .t5u.",
"     .t5u.",
"     .t5u.",
"     .t5u.",
"     .t5u.",
"     .t5u.",
"     .t5u.",
"     .t5u.",
"     .t5u.",
"     .t5u.",
"     .t5u.",
"     .t5u.",
"     .t5u.",
"     .t5u."};
