/* XPM */
static char *title-3-inactive[] = {
/* width height num_colors chars_per_pixel */
"     1    20        2            1",
/* colors */
"` c #000000",
". c #ffffff",
/* pixels */
"`",
".",
".",
".",
".",
".",
".",
".",
".",
".",
".",
".",
".",
".",
".",
".",
".",
".",
".",
"`"
};
