/* XPM */
static char * hide_active_35p_xpm[] = {
"35 35 7 1",
" 	c None",
".	c #000000",
"+	c #e7e9fd",
"@	c #9294a8",
"#	c #9294a8",
"$	c #3d3f53",
"%	c #333333",
"...................................",
".++++++++++++++++++++++++++++++++@.",
".+###############################$.",
".+###############################$.",
".+###############################$.",
".+###############################$.",
".+###############################$.",
".+###############################$.",
".+###############################$.",
".+###############################$.",
".+###############################$.",
".+###############################$.",
".+###############################$.",
".+###############################$.",
".+########%%%#########%%%########$.",
".+########%%%%#######%%%%########$.",
".+########%%%%%#####%%%%%########$.",
".+#########%%%%%###%%%%%#########$.",
".+##########%%%%%#%%%%%##########$.",
".+###########%%%%%%%%%###########$.",
".+############%%%%%%%############$.",
".+#############%%%%%#############$.",
".+##############%%%##############$.",
".+###############%###############$.",
".+###############################$.",
".+###############################$.",
".+###############################$.",
".+###############################$.",
".+###############################$.",
".+###############################$.",
".+###############################$.",
".+###############################$.",
".+###############################$.",
".@$$$$$$$$$$$$$$$$$$$$$$$$$$$$$$$$.",
"..................................."};
