/* XPM */
static char * title_4_inactive_35p_xpm[] = {
"4 35 6 1",
" 	c None",
".	c #000000",
"+	c #e7e9fd",
"@	c #9294a8",
"#	c #9294a8",
"$	c #3d3f53",
"....",
"+++@",
"###$",
"###$",
"###$",
"###$",
"###$",
"###$",
"###$",
"###$",
"###$",
"###$",
"###$",
"###$",
"###$",
"###$",
"###$",
"###$",
"###$",
"###$",
"###$",
"###$",
"###$",
"###$",
"###$",
"###$",
"###$",
"###$",
"###$",
"###$",
"###$",
"###$",
"###$",
"$$$$",
"...."};
