/* XPM */
static char * menu_inactive_xpm[] = {
"14 25 6 1",
" 	c None",
".	c #8E8E8E",
"+	c #F5F5F5",
"@	c #D2D2D2",
"#	c #DBDBDB",
"$	c #E7E7E7",
"              ",
"              ",
"              ",
"              ",
"              ",
"              ",
"              ",
" ............ ",
" .++++++++++. ",
"  .+@@@@@@+.  ",
"   .+####+.   ",
"    .+$$+.    ",
"     .++.     ",
"      ..      ",
" ............ ",
" .++++++++++. ",
" .@@@@@@@@@@. ",
" ............ ",
"              ",
"              ",
"              ",
"              ",
"              ",
"              ",
"              "};
