/* XPM */
static char * maximize_pressed_35p_xpm[] = {
"35 35 4 1",
" 	c None",
".	c #000000",
"+	c #5f6c7b",
"@	c #e0edff",
"...................................",
".+++++++++++++++++++++++++++++++++.",
".+++++++++++++++++++++++++++++++++.",
".+++++++++++++++++++++++++++++++++.",
".+++++++++++++++++++++++++++++++++.",
".+++++++++++++++++++++++++++++++++.",
".+++++++++++++++++++++++++++++++++.",
".+++++++++++++++++++++++++++++++++.",
".+++++++++++++++++++++++++++++++++.",
".+++++++++++++++++++++++++++++++++.",
".+++++++++++++++++++++++++++++++++.",
".+++++++++++++++++++++++++++++++++.",
".+++++++++++++++++@+++++++++++++++.",
".++++++++++++++++@@@++++++++++++++.",
".+++++++++++++++@@@@@+++++++++++++.",
".++++++++++++++@@@@@@@++++++++++++.",
".+++++++++++++@@@@@@@@@+++++++++++.",
".++++++++++++@@@@@+@@@@@++++++++++.",
".+++++++++++@@@@@+++@@@@@+++++++++.",
".++++++++++@@@@@+++++@@@@@++++++++.",
".++++++++++@@@@+++++++@@@@++++++++.",
".++++++++++@@@+++++++++@@@++++++++.",
".+++++++++++++++++++++++++++++++++.",
".+++++++++++++++++++++++++++++++++.",
".+++++++++++++++++++++++++++++++++.",
".+++++++++++++++++++++++++++++++++.",
".+++++++++++++++++++++++++++++++++.",
".+++++++++++++++++++++++++++++++++.",
".+++++++++++++++++++++++++++++++++.",
".+++++++++++++++++++++++++++++++++.",
".+++++++++++++++++++++++++++++++++.",
".+++++++++++++++++++++++++++++++++.",
".+++++++++++++++++++++++++++++++++.",
".+++++++++++++++++++++++++++++++++.",
"..................................."};
