/* XPM */
static char * close_pressed_xpm[] = {
"14 18 13 1",
" 	c None",
".	c #003333",
"+	c #24364B",
"@	c #293B50",
"#	c #2E4055",
"$	c #32455B",
"%	c #FFFFFF",
"&	c #374A60",
"*	c #3C4F65",
"=	c #40546B",
"-	c #455970",
";	c #4A5E75",
">	c #4F637B",
"              ",
"              ",
"              ",
" ............ ",
" .++++++++++. ",
" .@@@@@@@@@@. ",
" .##########. ",
" .$$$%$$%$$$. ",
" .&&&&%%&&&&. ",
" .****%%****. ",
" .===%==%===. ",
" .----------. ",
" .;;;;;;;;;;. ",
" .>>>>>>>>>>. ",
" ............ ",
"     .-$.     ",
"     .-$.     ",
".............."};
