/* XPM */
static char * maximize_active_xpm[] = {
"14 18 13 1",
" 	c None",
".	c #003333",
"+	c #4F637B",
"@	c #4A5E75",
"#	c #455970",
"$	c #40546B",
"%	c #FFFFFF",
"&	c #3C4F65",
"*	c #374A60",
"=	c #32455B",
"-	c #2E4055",
";	c #293B50",
">	c #24364B",
"              ",
"              ",
"              ",
" ............ ",
" .++++++++++. ",
" .@@@@@@@@@@. ",
" .##########. ",
" .$$$%%%%$$$. ",
" .&&&%&&%&&&. ",
" .***%**%***. ",
" .===%%%%===. ",
" .----------. ",
" .;;;;;;;;;;. ",
" .>>>>>>>>>>. ",
" ............ ",
"     .#=.     ",
"     .#=.     ",
".............."};
