/* XPM */
static char * titleAP_xpm[] = {
"5 18 14 1",
" 	c None",
".	c #003333",
"+	c #4F647B",
"@	c #4B6077",
"#	c #475B72",
"$	c #43576D",
"%	c #3E5268",
"&	c #3A4D63",
"*	c #35485F",
"=	c #31445A",
"-	c #2D3F55",
";	c #283B50",
">	c #24364B",
",	c #203146",
"     ",
"     ",
".....",
".++++",
".@@@@",
".####",
".$$$$",
".%%%%",
".&&&&",
".****",
".====",
".----",
".;;;;",
".>>>>",
".,,,,",
".....",
"     ",
"....."};
