/* XPM */
static char * title_5_inactive_xpm[] = {
"6 18 9 1",
" 	c None",
".	c #003333",
"+	c #003232",
"@	c #45586F",
"#	c #455970",
"$	c #44586F",
"%	c #31455B",
"&	c #32455B",
"*	c #31445A",
"      ",
"      ",
"      ",
"      ",
"      ",
"      ",
"      ",
"....++",
"@@@#$$",
"%%%&**",
"....++",
"      ",
"      ",
"      ",
"      ",
"      ",
"      ",
"....++"};
