/* XPM */
static char * maximize_pressed_traditional_35p_xpm[] = {
"27 27 6 1",
" 	c None",
".	c #000000",
"+	c #a7adb8",
"@	c #272d38",
"#	c #929baa",
"$	c #d2def0",
"..........................+",
".@@@@@@@@@@@@@@@@@@@@@@@@@+",
".@@@@@@@@@@@@@@@@@@@@@@@@@+",
".@@@@@@@@@@@@@@@@@@@@@@@@@+",
".@@@@@@@@@@@@@@@@@@@@@@@@@+",
".@@@@@@@@@@@@@@@@@@@@@@@@@+",
".@@@@@@@@@@@@@@@@@@@@@@@@@+",
".@@@@@@@@@@@@##@@@@@@@@@@@+",
".@@@@@@@@@@@#$$#@@@@@@@@@@+",
".@@@@@@@@@@#$$$$#@@@@@@@@@+",
".@@@@@@@@@#$$$$$$#@@@@@@@@+",
".@@@@@@@@#$$$##$$$#@@@@@@@+",
".@@@@@@@#$$$#@@#$$$#@@@@@@+",
".@@@@@@#$$$#@@@@#$$$#@@@@@+",
".@@@@@#$$$#@@@@@@#$$$#@@@@+",
".@@@@#$$$#@@@@@@@@#$$$#@@@+",
".@@@@$$$#@@@@@@@@@@#$$$@@@+",
".@@@@$$#@@@@@@@@@@@@#$$@@@+",
".@@@@@@@@@@@@@@@@@@@@@@@@@+",
".@@@@@@@@@@@@@@@@@@@@@@@@@+",
".@@@@@@@@@@@@@@@@@@@@@@@@@+",
".@@@@@@@@@@@@@@@@@@@@@@@@@+",
".@@@@@@@@@@@@@@@@@@@@@@@@@+",
".@@@@@@@@@@@@@@@@@@@@@@@@@+",
".@@@@@@@@@@@@@@@@@@@@@@@@@+",
".@@@@@@@@@@@@@@@@@@@@@@@@@+",
"+++++++++++++++++++++++++++"};
