/* XPM */
static char * title_4_active_traditional_35p_xpm[] = {
"3 35 5 1",
" 	c None",
".	c #000000",
"+	c #dfecfb",
"@	c #8a97a6",
"#	c #5f6c7b",
"...",
"+++",
"@@@",
"@@@",
"@@@",
"@@@",
"@@@",
"@@@",
"@@@",
"@@@",
"@@@",
"@@@",
"@@@",
"@@@",
"@@@",
"@@@",
"@@@",
"@@@",
"@@@",
"@@@",
"@@@",
"@@@",
"@@@",
"@@@",
"@@@",
"@@@",
"@@@",
"@@@",
"@@@",
"@@@",
"@@@",
"@@@",
"@@@",
"###",
"..."};
