/* XPM */
static char * top_left_active_traditional_35p_xpm[] = {
"4 35 6 1",
" 	c None",
".	c #000000",
"+	c #dfecfb",
"@	c #8a97a6",
"#	c #40A740",
"$	c #5f6c7b",
"....",
".+++",
".+@@",
".+@@",
".+@@",
".+@@",
".+@@",
".+@@",
".+@@",
".+@@",
".+@@",
".+@@",
".+@@",
".+@@",
".+@@",
".+@@",
".+@@",
".+@@",
".+@@",
".+@@",
".+@@",
".+@@",
".+@@",
".+@@",
".+@@",
".+@@",
".+@@",
".+@@",
".+@@",
".+@@",
".+@@",
".+@@",
".+@@",
".#$$",
"...."};
