/* XPM */
static char * left_active_xpm[] = {
"6 26 2 1",
" 	c None",
".	c #A8A8A8 s active_color_2",
"......",
"......",
"......",
"......",
"......",
"......",
"......",
"......",
"......",
"......",
"......",
"......",
"......",
"......",
"......",
"......",
"......",
"......",
"......",
"......",
"......",
"......",
"......",
"......",
"......",
"......"};
