/* XPM */
static char * top_right_active_35p_xpm[] = {
"1 35 2 1",
" 	c None",
".	c #460000",
".",
".",
".",
".",
".",
".",
".",
".",
".",
".",
".",
".",
".",
".",
".",
".",
".",
".",
".",
".",
".",
".",
".",
".",
".",
".",
".",
".",
".",
".",
".",
".",
".",
".",
"."};
