/* XPM */
static char * bottom_left_active_xpm[] = {
"5 5 5 1",
" 	c None",
".	c #000000",
"+	c #B5E5FF s active_hilight_1"
"@	c #90B8DC s active_mid_1",
"#	c #4B58A2 s active_shadow_1",
".+@@.",
".+@@@",
".+@@@",
".+###",
"....."};
