/* XPM */
static char *right-inactive[] = {
/* width height ncolors chars_per_pixel */
"5 2 4 1",
/* colors */
"  c black",
". c #4B58A2 s inactive_shadow_1",
"X c #4C7BA6 s inactive_color_1",
"o c None",
/* pixels */
"XXX. ",
"XXX. "
};
