/* XPM */
static char * shade_active_xpm[] = {
"14 20 5 1",
" 	c None",
".	c #4C7BA6 s active_mid_1",
"+	c #4B58A2 s active_hilight_1",
"@	c #90B8DC s active_shadow_1",
"#	c #FFFFFF",
"              ",
"              ",
"              ",
".++++++++++++.",
"+@@@@@@@@@@@@+",
"+@@@@@@@@@@@@+",
"+@@@@@##@@@@@+",
"+@@@@####@@@@+",
"+@@@@@@@@@@@@+",
"+@@@######@@@+",
"+@@########@@+",
"+@@@@@@@@@@@@+",
"+@@@@####@@@@+",
"+@@@@####@@@@+",
"+@@@@@@@@@@@@+",
"+@@@@@@@@@@@@+",
".++++++++++++.",
"              ",
"              ",
"              "};
