/* XPM */
static char *top-left-inactive[] = {
/* width height ncolors chars_per_pixel */
"5 20 4 1",
/* colors */
"  c black",
". c #4C7BA6 s inactive_color_1",
"X c #B5E5FF s inactive_hilight_1"
"o c None",
/* pixels */
"     ",
" XXXX",
" X...",
" X...",
" X...",
" X...",
" X...",
" X...",
" X...",
" X...",
" X...",
" X...",
" X...",
" X...",
" X...",
" X...",
" X...",
" X...",
" X...",
" X..."
};
