/* XPM */
static char * shade_active_xpm[] = {
"14 20 4 1",
" 	c None",
".	c #4C5E7C s inactive_shadow_1",
"+	c #EBE8E3 s inactive_color_1",
"@	c #A3A09B s inactive_shadow_1",
"              ",
"              ",
"              ",
"              ",
" ............ ",
" .++++++++++. ",
" .++++++++++. ",
" .++++@@++++. ",
" .++++@@++++. ",
" .++@@@@@@++. ",
" .++@@@@@@++. ",
" .+++@@@@+++. ",
" .++++@@++++. ",
" .++++++++++. ",
" .++++++++++. ",
" ............ ",
"              ",
"              ",
"              ",
"              "};
