/* XPM */
static char * top_left_active_xpm[] = {
"2 20 5 1",
" 	c None",
".	c #000000",
"+	c #FFFFFF s active_hilight_1"
"@	c #4C7BA6 s active_color_1",
"#	c #4B58A2 s active_shadow_1",
"..",
".+",
".@",
".@",
".@",
".@",
".@",
".@",
".@",
".@",
".@",
".@",
".@",
".@",
".@",
".@",
".@",
".@",
".#",
".#"};
