<?xml version="1.0" encoding="UTF-8" standalone="no"?>
<svg
   xmlns:dc="http://purl.org/dc/elements/1.1/"
   xmlns:cc="http://creativecommons.org/ns#"
   xmlns:rdf="http://www.w3.org/1999/02/22-rdf-syntax-ns#"
   xmlns:svg="http://www.w3.org/2000/svg"
   xmlns="http://www.w3.org/2000/svg"
   xmlns:xlink="http://www.w3.org/1999/xlink"
   version="1.1"
   id="svg2"
   width="22"
   height="22"
   viewBox="0 0 22 22">
  <metadata
     id="metadata8">
    <rdf:RDF>
      <cc:Work
         rdf:about="">
        <dc:format>image/svg+xml</dc:format>
        <dc:type
           rdf:resource="http://purl.org/dc/dcmitype/StillImage" />
        <dc:title></dc:title>
      </cc:Work>
    </rdf:RDF>
  </metadata>
  <defs
     id="defs6" />
  <image
     width="22"
     height="22"
     preserveAspectRatio="none"
     xlink:href="data:image/png;base64,iVBORw0KGgoAAAANSUhEUgAAAIAAAACACAYAAADDPmHLAAAABHNCSVQICAgIfAhkiAAAIABJREFU eJztnXlcHMeZ97/V3TPDwHCIG4SEbtAFIwmBLFmx4mwcO85F8u4mb47tvJtks1ey2bw5nOTzepPs ehNn/cZO4tdO4sRJO4njXTs2sXzKlmXrsE4jIck6kQRCAkkgEDcMPd3vHz09zCAQDBpmQOb3+YwE PU13VT2/+tVTVU9VwTSmMY1pTGMa05jGNKYxjWlMCiiqlhLvNEQLiqolxjsNI0HEOwFDoahaGfAL YCVwGvi4rqn74puq8UFRtXXAb4BC4BXgS7qmnolvqsIxaQigqFoy8G3gLoC0JBdXuvsBuoBv6pr6 UByTFzEUVfs6cA/gSExw0tPnAysvPwR+qGuqP57pszEpCKCo2s2ABsxTZImPrlvG6sXz2HPkFE9u O2Tfdp+uqV+PXyrHBkXVAH4KfEkAH1jrZX7hbPYfPc7WA8cxrdsOAJ/WNfXtuCU0gLgSQFG1dOD/ AF8BKCrI5GPvWkmKJwlJgCzgTOMFHnlxD/0DfoA/An+na2pHHJM9IhRVywEeAT7odjn40PrV5GRl IQmBLKC9s52Xdu7nXPMVAB+WGvxA19S+eKU5bgRQVO39wENAYYJD4cPrlrN8QSGSEEiCIAEkAc1t 7fzqxV1cau8BOAq8X9fUunilfTgoqrYQeAmYl5nq4c71FSR7PIG8WASQJJAxOXC8llf2HcFvmADH gL/WNXVvPNIdcwIoqpYLfB/4AsCS2Tl86OYVuBPcltElriKALMA34OPnz+2ktqkV4CJwu66pB2Kd /uGgqNoaYCOQWZibye03VyDJSjD94QSw/u/u7mLj9v2cvnDZfsy9wD26pnbGMu0xJYCiav8DeACY 6Ulw8oG1JSycXYAQIAdq/kgEkCQQpsHjr1Wz42gDQDvwL7qm/iaWeRgmT18H/g1weRfNobykBCGJ sPQPRwDre5NDtXU8t/MwPt0PVq/nb3RNfSNW6Y8JARRVywPuBz4OUDIvn9sqSnE4XSFGHp0AEiBL Jq/tP8l/bQv6T/fqmnpXLPIxJE8E8vQVAbynvJTCWXOstEuMkQAgSYLenh6qtu/nWMMl+/E/Bb6n a2rrROdjwgmgqNrngH8HclMTXdxxk5dZeXnBgoqcANa1o/UXePC5PXbN+S3wT7qmdk90fgJ5Sgd+ DXzE5VC4bW05GRlZVtqInADWNZO3T53lmR2H6OkfAKjHGjfYOJF5mTACKKo2C/glcDvAyoWzWb9y ObLiGCyY6yCAJOB8yxV+9uwumjt6AQ4BH9A19exE5SmQr6Czl5GSxLtvWkNiomcw7YyXAAFfx9fP k29Uc/DMBfuVvwG+rWvqheFTdH2YEAIoqvZPwHeBjPTkRN5bUUp2VvagkaNEAElAT18/91e9SW3T FYAm4DZdUw9PUL4qgGeB7IKcDN5VXo4kO4I9l2gQwLrf5Hh9I0+8foCOXp+dr6/qmvpEtPMUVQIo qjYHS45vAVhdPJfykqUg5EAGo08ASQCmwS9e3Mebx84DtAH/qGvqH6Octy9jeeoJS+cVUrKsBBHs skaZAIH7dN3HU1tr2HX8nJ2Mp4Ev65p6Plr5kqPxEEXVkLyV38QaqFmUlerhzvXlzC2ci5AkBCAC BSECmRSCsJ+v/V3gGuHfB++TBBVFM3HKgsNnW9zAxyRvpWLUVG2JUv7uB74HKOtXljBvfjEikF7r E5J2rk6/TRQhLIKEfy+C18LyDiiKTOn8mSzMncHJxsv0+vTFwKclb2WnUVP1VjTydt0KoKhaMfB7 YBVAxdKFLC8uBiFdVSsmSgFCa+H+2vPc/+xeBvwGWD7IP493pC3g7P0KqHQ5FG6pKCMlLXvEd0db AULvM/w6T207xJZDdXbyNgFfuF6fZ9wEUFTNgTV5803AnZOews0rV5CckhZWOLEmgCSg7mIb9/5p J61dfQB7gcpIZVNRtQXAC8DC9OQk1pSVk5CYfM13TyQB7Hedamzmt6/u50JbN0Ar8H1dU38yXjuO iwCKqq3AmrxZLglBxbIiFi5YiIkUlth4EUAS0NHdy388tZNTF64AnAPep2vqkTHmrwx4HsjOzUxn TVkFyA4rH3EmgCTANPxU7TzCc3tr7STvwBpOPh2pLSMigKJqScC3sKZs5fzMNCpWrCDBnRxIrJg0 BBACDL+f+5/dw87jTWDVFlXX1OdGyeOXgB8BCcVzZ1NUXIppP5vJQQD7c/ZSK4+8VM3Zlk6AbuAH RDjVPGYnUFG1tcDLwEcUSZJuKl1KybJSZIcrxPEZdHbCHB0m1gkMdcRCP7IkcfOSAgQmh89edgOf lLyVplFT9cYIefy/WPMUyprSZcycsxiTkOdy7XdLQ+6RQr4P5uWq70d2Aq9+TvhnhsfNe0rn4pDh SEOLE7gV+JDkrdxh1FRdGi6PQzGqAiiqloY1ZftVgILsDFaVrkBxJQ6yESalAoTW2DePNnDfn/eh WzNwP8fqTg0E8jgDKwrpL52KzE1lZSSm5gQNatfEyaYAoe9ubGnn4ZfessdDxjzVfE0CKKr23kDB zHUqMuUly8jKmw2EF/ZUIIAQcPL8Zb7/5C470mgr1txEEvAisDDVk0jZygocCclhNXoqEMBKq8kL +07yu9ffHvNU87AECAQ2fBf4O4DZudmULPMiORKCBTMVCSABl7t6+e4Tb3L6YjtY4+1uIDs3cwZe 7xoM4Ri8f4oRwP5cauviwRfe4u2G0aear/IBFFX7KPAMcGuC00GF10vh/CUISRmh/WPS+gCD6Rr8 PdHl4LbSQuoutnOutSsNSFowexaLl6/GQBn2byarDzBSvpPdTm4tKSQzOYGD9c34DfNm4OOSt7LG qKmqH1YBAlO2/wl8CqAwP4+lS0oxZWdYbZrqCkDgXjD57ebD1HY4SMudP2jgIfkUU1ABQgnV1tnD T56vpvp02FTz93VNvRxUAEXV/hp4CliblOCifMVK8mYvwgyt9SOyf2opAIF7ExSJj5UVUJibyZk2 P33+QQJMdQUITUNigoNbl89iZrqHg/XN+HSjAviE5K08ZdRUnRCKqn0I+DPAvFkFLCxajl84rkrU jaIAQoKZyQ7ykhUkIWjqMvDpJi+e8rGtfgDTvLEUIJRMnb39/OS5at60xkUA7pAlb+U9wJJ1q1aS WVCEiTxi7ZnqCpDikliU6SQjUUYIAUCXz0SRBMVZCsuyFc53+OnoN28YBQj9PcHp4JalBaQlOthb exGgS8KKsuXIieOYfZMy2vq6oUgwb4aT4iwXboc04n0FKRL/vCaRysUuXEoMExhDnDjfyhM7Tti/ HpWwHL8n2zq72b5zG772ppH/egoiK0mmNDeBrCRL2UaDJATrZzu5a10Sy7JvHBaYwKsHzvAvv3mD y519YM2UPhQsEkXV7gW+AVBatJD8wmIMwqVrKvkAiQ7BgnQHaW452NWxCSBC/m3qMgadw8B1EXLv 0WadqmN9dPjMKesDYBo8/NIBXqiuA/ADd+ua+h8QMg5g1FS9KnkrTwDvvni51d3X2cbM3FxMMYJP MGybE38fQBYwK02hKNOJ2yEF/24kAnT5zGsSIDtJoqLAgW7AuXb/lPMBOnr6uPvxHew80QRwCbhD 19THbbvbZROEomqLsYZGC9OTkyhbuRrFnTIlFGBGgsSiTAdJTimYudEIMJoChP7c1OWn6mgfjZ3G lFCA2sbL/ODp3bbkHwE+pGvqqVB7X+UR6Zp6FKgANrZ2drNlxzb6rkxuv8AhC4oyHZTkuki8hpN3 vcj3yPz96kQ+WOTCGZVguonD64fq+MZjW23j/wooH2p8GEYBQhHqF6xcvJDZc4sxh04ExVkB8pNl FmY4ccoiTP7szEVTAUKf1+kzeP5EP8da9EmlAJgGj75ygBf318GQ9n44XJPHAb/gFLChqaXV3dt5 hYK8XEwhxd0HSHIKlue4mJ3mQJZEmHEiIcBoPsBIz0tQBMtzHMxMkTnX4affH38foKu3j3ueDGvv 79Q19Q/XsrG41pc2Qv2CjJQk1paV4wyNjyN2CqDIMH+GwtwZDpRAiYshxomFAgSvCRjwm7xe52Pf +QEIlkVsFaDuQiv3Ve2yJf8o8MHhJH8oxtSSGTVVLZK38gmguLd/YFFdQwMz01NwJXpiqgAZbolV +S5yPQpSoNZfLwHGqwChBFAkwYJ0hUUZMhe7DLoGzJgqwJtH6vnRM7vo7tfBWrL2UV1TL47FtmL0 W8KhqNp/Al8DKF+6iAULijBNMaEKkKDAkmwns1KUcMKFGG68BIiGAoS+3zRNqpt0ttb3oxsTqwAC k9+/VsOmA2cADKz2/p5I7BmxL2vUVL0ieStPAxvON192d3VeoTA/F4Q0IQowO01m9cwE0gMDOtEm QDQUIPT9khDMTJEpyVbo6Ddp7TUmRAG6+/q57+kd7DkZbO/fr2vq7yO1Z8QKYCPUL8hM9bBhzWrc iSlRU4AUl2BFrpPMJPmqQp7MCjD0nafadDaf9tHtM6OmAA2XWvnZxt0Rt/fDYdy92RC/YGlPv29h bX0DBZkpJNp+wTgVQJGgOFOhbKYLj0savZAnmQIMfWdGokRpjoIBXAyQ7XoUYO/xeh748267vX+U CNr74TBuBQiFomr3Af8bYF1JEcWLihBc3Te+lgJIQpDrkViV7yTFJY29kCe5AoRea+422Hy6n+Ye I2IFEBg8ufUgm2vOgDW3c7euqf8+fqtZiMp4llFTtUnyVtYBGxouXk7oaG9jfkEe9vrA0RQgQYGy fBfeXCcuhwgrUJjaChB6zeMULMtRSHQImrr8mObYFKCvv58H//wm+2qbAJqx+ve/G7/FBhEVBbCh qNoSLL9gdlaah9vXlePxJF9TARamy6zIc5GgDN+tgxtHAUKv9fhMtp3t50ybMdhDGEYBGptb+eUL u+11jsewNsEYV3s/HKJKAAjuAqYBt7kcMh+8uYyc7NyrCJCaIFg7y0WuRw4z4juFAPbPZ9v9bD/r o2fADCOAhMnB2gYe21xtx/g/irXSuStSm1wLUSeAjcAyq68CbFhRRGmxtabeIUFproPlOQqKJKzi fgcTQAjQ/SbVTQO8fUkPNAUGz+6o4Q1rKXjU2vvhMGEEAFBU7bNY28KlFs3K4TPvXcOGeW7SEqQQ w00TwH52a6/Ja7Vd3PfMdmobW8Fq7/9yIreNm7C508BK4puBVEkICvJnsvG0wabTA/hNc6JeO2Xh N0xOXvbRpQtK5+bZl7OASkXVJqyiTsiDFVWbj7Vz5uLkxAQ23FROamoGR1p0OvoMZqVI/MPqRJZk ytMKIKChXeeNM310+UxciiDRKXGy4SKPvLiHHp8O8DrwKV1TGyM0xaiIOgEUVVuPtcgkOy9zBu9a U4HiSEAIESSAPaL1nrlO1JIEPHa/P5CidwoBenwGW+v7OdmqIwvLObYJIAlo6+ji4ed3c66lA6xN Lm6P9g7jUY1rUVTtO1g9AM/S+YXctLocITsCBSBo7jHo162ZMgTUtfvZUjdAeoKgME2OCwFiOQ4Q eu3gBR9/Pt7Lpe7w8DJFEjgCwS2eBCfrlxZyobWDptauFKwNolqMmqrq8VnoakRFAQLt/QPA5yUh uGW1l5z82QgROqgTrgDCzjRW17AkR+HzKxLIS5ZvaAVo7vbz8qk+mrr8KMLqGsuBMYChCmB1CwUC k01vneC/twcr//1Y+waOz2AhuG4FCLT3rwHv87hdvGfdWtKz8hCIIYUTrgDBT+C+5l6DLXU+ABal y8FRQ7gxFEA3TF6v62fj8T46feZVAR3DKUBwrkAIFs3MpCh/BvtPNzHgN24C1kveyk1GTdV1jQtc lwIEzsR5GsjOzZjBzRUVyI6EQaMMIcC1FMAeCRPCWqHzOa+bxZlKWCFOVQU41arz/IleOvutwR5Z tuZIxqoAoQRpbu/kJ3/eRYO1L1ADVpj3uP2CcSuAomrfBh4DkhfPm82a1dZOWmFGiUABBhkP3QOw o2GAy70GRRkKTkVMGAEmUgE6fQbPHO3l1dP99OshU7phga2jK0BoeSW7XWxYVsj51g4aW7tSgU9J 3spLRk3V/vHYMWICKKqWKHkr/x/wdSGEdEuZl7nzijGFNaoXDQLY8t/QYbC9YYAZLsGs1KkREGK/ a9e5fh6r6aGpy7jKyNdDACFAkSVuKi7ApUgcqm9OAD4seStTjJqqTZHaU4x+yyAUVZuHtVnyUo/b xbsqyklMTrcKwzZmSGGOtwmQpZBjYwKFtTRT4TPLE8j1SFElQLSbgKZOP0+93cu5Tj+ysOIbFEkE f77eJmDo5+CZC9z/7B56rPiATVhb4Y15Z/FIt4l7BZibmzGDW9auw+lOHiyMMRAgUgUIvdbaa7Kj YQATWDBDnlRBoQIrMnjj8T7+eKiX9n5ziKGiqwChn7z0ZG4qyudwXTMdvb75WFvBvGzUVDWPxa5j IkBoe188dzarV5aD5Agz9EQTQAqU+Ik2P/svDlCQLJHhDp1TiB8B3r40wEN7ujna4kcw1MATSwAh BMmJLt5TWkhDczvnLb/g05K38oJRUzXqmUrXJEB4e4+0flUpc+YtDhZerAlg/9zjgz2NOq19Bgtm KNaqoDgQ4EqfgXagh2ePX8vJm3gCCAEOWWL94lk4ZcFByy/4iOStTB7NLxAjfaGo2lys8fylHreL tWWrSUrNCBp0PAS4Hh9AFlY7KgLBErJk/U2yU/CxIhfl+Y6Y+QAAm0/388zRXgYMy2iKCGnX5cH2 fqJ9gNAoKwnr/7dqm/hR1R56rXmEF7EOohrWLxhWAQLHoG0G5uZmpLF+zc04E1PCDDoeAkRLAeyM CgF+Q3C42c+ZK37mpMp4nCIiAkSqAPXtOg/s7GbbWR+GOZYaHhsFCCX/zIxk1hXnU3OmmY5e30Lg rwKDRlf5BcPtE/gt4HdA8qLCWaxaYfXv7QKcbASw723rM9ndOIBpmsxJC4wkRpEA/brJ44d6+XV1 L219kTh5sSeAEJCa6OK93kLOXAr6BZ+UvJWNRk3VwWEJoKiaW/JWPgh8UwikdStKKJy3GJCCJTiZ CSAEmALOtBscuqST55FJd4+8QYQQArdD4JQFvbqJGUKMoQR4q2mAH2zr4tAlay+54WR4shFAYPkF G5bNQhZQU9/iBiolb6XHqKl6JcSEwfb+WWBZUoLV3rtTQtr7KBFgInwAObQA7cDKwPdleQp3LnDh cYgwAjhlQYJijbGD1YW71GPQ7TPDCNDSY/BodS97GweQ7DY7pG2XA79PNh/AriShFWj3iUZ+8PRe 2y94Hvi8rqkXROBkjO1ATk56GuWryhEO92BNmaIEsGuZxwEfWOBiZa4DWQK3IuGQgzkIQ6fPpLnb QDdg4/E+Hj/Ux4B/8F1TmQACaGjp4Lv/vZOGli6w9km+WQK+COQsKpzFTRXrg8a/UdCjw5PHfPzy QC/dA4xofLB6FF0+g6++3MEj1b306jFMaAwwOyuFh//2VioW5gIUAp9VsHbLxkRgGgG630AwTPAb cLzV4Lvbunn/Aid3zndZewuEoNtn8uOd3fzhkLW9viRClO4GwoBu4HIEXb8kBXgY+NjJ+rO5TZcu saqkhJT0XOydNKcydMNaMy2wJFE3YWOtj32NA3x6mZuiDGu6+ZVT/dy9pdtasoUl9zDoUN0IMDF5 /VADD754gI7eAbBCzH4p4OrDnecW5FOytBRk55T0AcCq+aE9jWBbGNI+bpjt4PVTA7x8yjf4DEK9 9JB1/WKwzZ9qPkBbVy/3b3yLPbXBNaQPYe0YflEB0DW1CfiEompPAQ+cOdc480JzC2Uly8nImsmU EUMTBsxw8o2EZAekOgzOths4ZUstRsIUyf1VME2TTQfq+Pmmg3Z08Rngi7qmBruBYQ2+rqlPAWXA I739PrbtfYvq6t0YA+M6dzGmMALGH8uKg5xEuK1QIsUpSHQIFmcqJDmnqpmHx8UrXXz791v58XPV tvF/DKwMNT7AVZvhBsaM/1ZRtSrgobMXLhZevLyZsuXLyM63zguaTDABf2AUZyzu64I0wepsKczX dciC4gyZ+nY/V3rHtmhlsi5tMUyTl/bV8uvNh+3TU2uBz+qaumO4+0csM11TXwBWAg/0D+jsqD7A nj1vovf3TEjCI4UJmKZl/LEYQwArswRl2dKwjp0QgvkzFGamjL0XZKdhsqDxcgd3PbaFn286yIDf 8AP3ACtGMj6MsTorqnYzVrz/PFmSqChZRv6sOdaZesTeCZQI/B/iJAWfN8wgiFMSrMuXyE8SYcOw iiS4f9dA8F57dW57v0H9FT8mIujo2d/L0pD/A+l1SAGHLw5OIKbBxj0n+MPWI/ZK4sNYp4WNGic4 Jrrrmrod8AI/9BsGbx44yI6d2/D1XnUI1YTCDPmMFR4H3DpLIidx7E1XuluiOEuJaDtY07T8kFgL Qv2lNu7SXuMx66i4PqzT3laNxfgwjgY9cK6uBiyRhGD1smLmzF2IIUYPCr1eBZBCFEAagwJkJ8La PBm3ErIxxRgUwH6nYZicavPTq4+uAKHDxA7Z+kykApiGQdWuo/zpzeM26aqBTwf2eh4zIh720zV1 H5Zv8D3DNH27Dx3l9e1v0NvZHumjxgwxDsdzTopgbZ6MU4r8b204ZMGSLJkMd2TPsEcfJwqnmy5z l7aZpyzjdwHfAcoiNT5cp0uvqNpSrNiBFQBlSxaxcGExhpCiogCyFKIGMCYFkAUszRAsSpMCtUyE teGRKIBdayUBF7oMGjuNMSmAlW7rZ6dszT5GQwEMw8/TOw7z/L7gDjHbgc/omlo3Xhte18B/YEVK GRYDu/YdOcGm11+jq731eh5rJUxEzk5FwOocifmp0Z/PKEiRKcqQiVRQDNMaZLpe3+DEuUt8W3vF Nn4r1nYx66/H+BDFTn0gpuAxrE0h8BbNZ+niJdaJI4xdAWQJZDmk1o9RAZIclvHTXCJ8mDZKCqBI 1nN7dZOTl3X85tgUQAmomK0GDsna8HqsCuD3+3ly60G2WNvFgBX7/wVdU89GxW7ReAiArqlngPWK qn0Z+NcDx0+l1zc2sXblCtLSs0b9eylQkOOZfJnhgpXZEomOqPF5RHicgpIchROX/fTpkdVrWw3G OuF6rP4Cj712gMudvWBtB3u3rqm/iDTN10LUz70waqp22zuI9vkG5p+sb8Ac6CUvO5PmXnF1SJgQ lpccGtotQvwHO+SJodetz0yPhDdLwimFqEXYJ9xHCH2+JAS7zhnDhJ+F9ypEyHMkYY0r5Hkk+v3Q p5tj6quH/g5WHiyluTokzPQP8Mct1Ty544gdwfMM8BFdU7dE214TWmUUVfsi8H0gOyUxgcUr38Vl 3+Dp3HYXSRIieB6ACJVpRm4CZAkWpgnmpUqDgy5Dna0JaAJs6VYCM5HnO/2c7zTG1AQow3zvkgWK bDcHYA70cN+fttLR4wNoAr4WeshTtBF9bykEAblaCRzt6OnDI/nITpQCo2YieNJHpFAkWJouMTt5 QpM/OgQUpskUZ0buHNrQDevjUqAoS8Zh9NrG34k1eTNhxocJJgCArqnngdNgyU2aS7AgTWZGwvhK zCVDaaZEZoR984lEdpJEaW5kI4c2hLD2Q/DmKqS6wvJ0NJJFnuNFTKuQS7EGVyQhyEm0arAjgkJL doI3UyIpBs5epEh2ClbkKnhcY0+bxylYlSczf4Yc8AUEsR5MjikBhhaNWxHMTZXIcI/eFGS6BUsz ZBzXMbI30UhQBN5cmcxR5h0kAXPTZMryFJKd8W3G4tyIWuMAOW7B3BRBwghqUOARLEiTxt3OxhKy ECzNVigcYTAq2SUoy3cwN23wBPN4YtKcjpygCOanCS73mbT0WTIoCViQKiZVez8WCGDeDJkUl6C2 1Q9YHv78GRJzZ8hXRSTHE5OGAGAVXE6iID1BcKnXZKZHkDKFQ7VyPBLJTsG5ToPijMDC1Xgnaghi 1QQcBzhx6hQyo6+2SFAE81IkEpXJVlyRIzVBYnm2gnsMjmt7dx/P7A5O9JyZ0IQFECsFeBhQT9Q3 ZFxoaaa8pITUjFwmW3xhvGCaJi8fqOMXmw7aZwE1AL+NxbtjogC6ptZiDQg939Hdx6s791BzYC/4 +2Px+kmN85c7+cZjb/DjjdW28X+CNQB0Lhbvj5kPEJi9+oCiah8H7qs911TQcLGZtaVLKSgo5J2m Bn7D4Mmdx3hi+zE7ju848L90Td0Zy3TEvBuoa+p/YcUQ/LR/QGfLvhpe37Gd/p7YxhfGE8caWvjK r1/lD1uP4jfMXuBfAW+sjQ9xrnaBrWYfBRYJAWuXF7Fs0SKQ5MGlVtLgpFF4pG34Jy6TQYFrSti1 kDRJ4AhMZikS6AMDPL71EK8cqLOLYDtWzH7UDoGKFHHXXUXV3MDXgbsAd1aqh3ev9pKVkXkDEcCk 5lQj2uYDtHX3gzW3/z1dUx+KZ9nDJCCAjcCu478lEFG0YuFs1q9cjqI4pjQBenr7+N3m/ew/HZzX eRz4RmCSLO6YNASwoajaP2C1idket5M7KkqYN6sgWNhThgDCZOeRMzy57TD9uh+gDviSrqnPxbN8 hyLqEUHXC6Omaq/krXwcyPPp/uVH6hppaWtlXm4mTqfj2pE3MYoIGinSx/40t7XzyIu7eONwne3h 34cVs3/w2rmPPSadAoRCUbU7gZ8Bcx2yxB0VSygrXhBe8yaRAkj4eW3/MV5564Q9qXsIq2v3VhyL 8ZqYdAoQCqOm6qTkrdQA2TDNtccbLonT55sozE7Dk+ieVApw9sIlHn1pJ4fOXADoBP4Na33epGjr R8KkVoBQKKq2EqvLWArwF94F3F6+BIcix1UBTL+PV/YcZN+JBjuprwKfi1bY9kRjyhAAQFE1Gfga 8C0gNSslkU9sKKV4dm5cCHC64Rwv7jpIV18wgPNuXVN/Fc8yihRTigA2FFWbDfwSeB9AxaKZ/M8N XjyJrpgQwNfXw6u793PyfHDr3UeB78Qihi/amJIEsKGo2meAHwL5SS6lPqzfAAAB6ElEQVQHn9yw nHVLCoNh2NEmgEMyOVZby5bqo+iGAcPsuTPVMKmdwNFg1FQdDHQZkwb8xurqU02cON9M8cwMPG5X VJ3Aro4rvLB9FzWnGjBMUwfuZRzLsScbprQChEJRtVuwpHieLAn+al0xH15TjEOSrksBHMJPzZEj 7Dt22n5VNdb4/aG4ZTaKmNIKEAqjpqpe8lb+GtBNkzWHz7Yoe06cZ35uKpkpieNSgLbLF3h5xy5O NzYDtAF3Y/XrL14zMVMIN4wChEJRtWKsXUzKAe5YMYe/+YsSEp2OMSmAZPTz1sGDnGwIHtb9AvD3 U6VrFwluSALYUFTtS1i1NjPd4+Ifb/eydvHMoF8wlACKMLl04Sy7Dx6mz1qUeR5r4mZCl2fFEzdM EzAcjJqqPQEncU6vz79465Hz1Da14p2TRaLLEdYEGL4u9lbv5dDJM+jW/i4PYjl5u+Kbi4nFDa0A oVBUrRJrP+RCl0Pmi+9dxkfKF/CzPT7O1p9k/5HjGNamf7VYI3lb45rgGOEdQwAARdXSsbaz+SpA cf4MWrp1Wto7Afqxunb36po6OXbDjAHeUQSwoahaOVaXcWng0h6sI1ePxS9V8cE7kgAAiqo5gVVA u66pR+KdnmlMYxrTmMY0pjGNaUwjZvj/Nc8LxyelBGEAAAAASUVORK5CYII= "
     id="image10"
     x="0"
     y="0" />
</svg>
