<?xml version="1.0" encoding="UTF-8" standalone="no"?>
<svg
   xmlns:dc="http://purl.org/dc/elements/1.1/"
   xmlns:cc="http://creativecommons.org/ns#"
   xmlns:rdf="http://www.w3.org/1999/02/22-rdf-syntax-ns#"
   xmlns:svg="http://www.w3.org/2000/svg"
   xmlns="http://www.w3.org/2000/svg"
   xmlns:xlink="http://www.w3.org/1999/xlink"
   viewBox="0 0 22 22"
   height="22"
   width="22"
   id="svg2"
   version="1.1">
  <metadata
     id="metadata8">
    <rdf:RDF>
      <cc:Work
         rdf:about="">
        <dc:format>image/svg+xml</dc:format>
        <dc:type
           rdf:resource="http://purl.org/dc/dcmitype/StillImage" />
        <dc:title></dc:title>
      </cc:Work>
    </rdf:RDF>
  </metadata>
  <defs
     id="defs6" />
  <image
     y="0"
     x="0"
     id="image10"
     xlink:href="data:image/png;base64,iVBORw0KGgoAAAANSUhEUgAAAIAAAACACAYAAADDPmHLAAAAAXNSR0IArs4c6QAAAAZiS0dEAP8A /wD/oL2nkwAAAAlwSFlzAAALEwAACxMBAJqcGAAAAAd0SU1FB+EDHgwbAqiIaykAAAAZdEVYdENv bW1lbnQAQ3JlYXRlZCB3aXRoIEdJTVBXgQ4XAAAfSklEQVR42u2de5AdVfXvP2v37j5nzrwyk0wm k5BEQjJhQgKSIIYQHtYveAtvkPIn0Z/io6zr1Yt/WLfKn1aBVRaiBT6qBMS311tlKVYZAyhqwAfo z1/kYkmuSOSC4RnyTiaTzEzmcc7p7n3/6NN9+vTpc2bymCRor6rO5PRz915rfdd3rd3dGzLJJJNM Mskkk0wyySSTTDLJJJNMMskkk0wyySSTTDL5hxU5hf3NKZwnk5kRMw1dnZQBSOxEchoMKZOZNwBS dGZOFSVk0cp/UVk/vz7kgrXvVEn9najnSsKCFOD9y3/71kNL125Y7Hvl2C6ZnCsRXRCGjgzu2vLp K98BWICfQINIYfoElS8A2rJWDB482O+Vy1mfn4tmIIqXX3mxNaZHVTECSRqBngL2w79WzAiwFJQm i5RKRaQZiEiazf2jeZyZKUdOj9rSyJdjuyjBUlGkDpVvAV5Ct0Y3IROS2FmFBqDEkpyTC35IYwMw vo8oBcZE+xnf4PoGY4KWKxEsSzAGXM/H1gqR6XNKYwzlso9tK3zf4PmGnG2dMXszM8CADSZSrLJ0 xcmCPvQ8Fwn2AAPKshBU1BLPd1Ei5LUdd16JIUDY7GkhADHFWyESaBGxtQJfVZomdQcrURwYPMji NyxibHgMpRRlz2d2Z47V/bOZ152nVPbZc3iM53aN0Nlqc/Ulvfzi/+xhZLzcHFliHTW7I8+NVy7k 50/soa87z+Urevj6Q38n71hnRvXm9Ht/uVzGtww5lWPoyB6ODQ+jlIXBZ/GipfhGsG2NMcLgod0c HxtFa41vfObNewOOk0dVvUhXPD9stD8VAoTAohKLVTlZTkSJo23E8xERtN0SeLgBYzzc8iSWpQFD S76F8lgJg3D+vAKf/LcLmSh6/HHHYfI5zS1vX86Df9jNC3uOc9Ebuvj9XwaZLElDhmoSjewo5Llk SRf/8fRh+rpbuXhJF5bSOFqftbzrVC3A+OA7Po6x0cNP88kbr6ZYLHF0+BiPvXSIlvaFOLZmcrLM BbOGWHftBezetZvOlhz/b0Qx5tnYliVALubkJtZcP0QE3eCeVAr0W4ADeCKe5G2FRlOcHOPlHY/i e0UsMUhuNhde/FaMWyaXUzg25G1F2TfcdM1CHC18/KtPk88FHvqzbXvobLXpm90CxpCzhba8hbaE suvjx3pYCQT3BZ5n8A3ktOAbg6MV2hKMb2hxFHnnDGSrZmY4gGUE11bkfENXu+LqS5ew7+BhZncv 4Q8v7yDnaBzbwp0scvH587l+3SX8p5RYMLeLQ8/aeCMKR6vQAJyY58eNQAH+VFlAuITer4GcJSI5 x0YrYfDQLm6+/o28479cgQC3fO67zOnMcWxUyNkOTi5HziniiNBe0Bw97tKSzwWxvkIhyh44to1B eOPSbt50YTdtLRZ7Dk/wwB/2MjzmMqvNZuPaeVwwvw3fwK6DYzz8xH60thAEx9ZorRGBnOOQc2Ye AYyZCQwIDNxyDDnfZtTz2X1wkN0HjyDKwrIscrbGsi3yOZtiqcTw8TEGjw6Tdywsay6O4+DYNQjg xb2+WRYgCZSNcwBdsSaxlIhjO3iicGwHv1zkwP5DtOZtbCy01ji2wdY2trZxHBvPCC/sneCGK+bx rmsX8trhCY4dd9l/pIjr+yjLYl5XnpVLunj86SPYWvG2N/eyYc08Hn7yIP994xJEhK1/HmSi6PLW NT185IYl3P/Y3iAMaRvLshARbMfBti3OTAwwMxJYytpgGxutbfp65zAyWcTWFtqysW0bbVuoFsPz L+9iTleBfM4hn8tha43jaFQ1BNgVA3DDOk4zAzApBFBiBFADgkJsO/A2S9tobZjd20OuQsxsrbFt g2M7ONqhbGtspXjy7yMcG/d4y8XdbFgzl2LJY/9QkR/9bj+WZYHA408f4bXDkwjQXhjigvkF3jzQ zRt6C3zyfz3P+KQHIry4fzd3/48BFve24hvQtoVlBRmE4+gzYwAzEAJC6iYWOKLZd2iI+7f+J29c sRTHcbC0wnY02tKYssf5ixZwxcqllH2XQ4NDaG1h2zaijFQc1ootbiwtpBEHICUFjIcBJWLEcSyU ZbBtML5HQRTGGHzPx3YsnLIJ/uZsyo4VpIPA83vGeWn/BEoJS+e3cOPaXj76Xxdy/+/2c/S4S8mH lrwO0sJK3164qA3fGP7nO96ASNBJnmcoux5d7TYI2LYVhIOKATiOen0CgIDBB0sFYbOjndb2TiaK LjnHQWuFo22UrfA9xSydRxdyaJMjf3wcbSsc30LbIhXvV7FUMKlTo6cRkJLZgNIKWhwb11X0dM3m fz98P9/98S/wLUP/+SsoODZuWZG3NTlb4Tt5RNVz+r/vLvOQP8h7ru1hXlcBYyBvO5QcC2Mgp220 pSm7PmMTHlu2HcFSROVOzzc4juJNyxV528HWGgEKTu6MkMCZ4AAClIxgaY8cDr1dHVy+agWHjxym 5HpoS5FzNJalsJwcnuejROEbH8/42JamxXbIaTuO8HH91ShCT4uR1KKAaIU4OQehSG/fYt73/n9H qxK+X0Ypm+NFj1zORjs2lq3J2QECzGq1mCz7jE0G7L6Qh+52G2PAN4KlAjLn2AG0aitg8zteHWfN 0jbmdDjsPVLG9Q3ago4WTYsTkMkgPgYhIOcEhvf6SwErHS7gKkVeORw4cpStv3+CfQcOUsgpeuZf i21rlLbIa4vtf36ZvYf3YYxhYmKChRfdQC5n41haKvpNK+pN2wCSKCCAUgpsS4EOOrns5yl5OTzf Q1BYFigltLXkEQy2tvAFrl7VTluLxdHjHmXPUMgplvbl+MOOURDBsRW2VtjaYAzYWtHiKAZHPJ54 bpT3XDuHnfsmKbmGnBa62jSP/3WkcozCthS2FrRWaH0mQsBM1bg1bsWo11/7boqlEou73ojrlpi/ 4HwGRw2WVuREc+El11F2SwB0KqHQ2oVrLHQQcsN4n+r9060E1qWFWgx5baO8ZCXYqeGSi3rmYxUN ODmMgT//vUzPLENPp0XOhtExw0+fGOPQMZ9CTvPXl0oYX5PXQSn32Kjw7Ktl8jrHM694HDw6xuK5 NnlHGBnz2fFKkcmiZvsLJcquZvAYPPVCifZcPgoVMxsCkhXW0yM5y1Co1ELb5yyPTi8IZdelM++D BL9b5yyrKZ27rotGsC2dTOVTdTydOkDdOtcExRcfP1GyNTX/FwV+SDgFhidchidcXtxff7HjRXjx gFezbmjMZWjMjX7vO1pi39FSPZfYGxw3UYIjY27lumcCAMwMBoOg3l/yUkZcVXWPcmK7qZThK6S7 oQ6nGgtoKof2D/HKSy/ihsPBovjnfCjIIKLOiTs34b/GICJMTo5PM9icxGBXyXIYLZWwjYcozeBr zzJ6aNc/leoFKJa9IOc+68o3lH3N3PNX0jm7B9/3GZmYmBZp0Sdx39I6e57M6ZmHGINB0dc6TOsF 5X86AyiXPSxLnQPebzjq9jDR2k8uH/Ct4ZLXLP6ftAFE5SqtFL4xYIT29lZ6dDeZnD3RXi8H3VZU hf3kbGdax52a+cbKYMZkzwWeNQQwlQdIjDnhKkX2hO8/uWQGkBlAJpkBZJIZQCaZAWSSGUAmmQFk khlAJpkBnJIkq4LnepXQzGBFs1lfpF3rTPeVPr03GzwgYts2AJ7noZTCsqzgdSffP6H3/s6UiAjl crnyeLk+bYoXEXK5HJ7n4ft+8PqW7+N5wfMLSim01tFvy7Iq7zqWo3a9rgwgeGJX2LZtG08++SSj o6PkcjkGBgbYsGEDhULhnEQDy7LYsmUL7e3tbNy4MVLAqSjfsixc1+XBBx/kueeeY3Jykq6uLq6/ /nqWLVsWDNmOjLB582YOHDgAQEdHB5deeinXXHNNZBSvuxDwgx/8gPvuu4/u7m5uuOEGVq9ezW9/ +1vuv/9+SqVSjWWHxmCMOWE4DD0sDVIbwWz8OvH1IsLevXs5cOAASqlpHR9vQ9r5jh8/zpe//GUe eughLrroIjZu3AjArbfeylNPPUWxWOTjH/84O3fu5KqrruL666+ntbWV7du3B+9IhApKtOecRQDL sti6dSuPPvoot99+OwMDA7iui4hw1VVXceTIEYwxFItFjhw5QmtrK21tbSilKJVK2LbNxMQEIyMj dHV14TgOvu8zOjqKMYa2tja01pTLZZRS+L7P4cOHmTt3bgStruty5MgR5s6dG3Wi67pMTk4yPj5O d3d3BPG+7zM8PIxSilmzZtV0tuu6DA0NISJ0d3dHISzcfuzYMfL5PLlcjkOHDtHe3h7dS2iUjz32 GDt37uTuu++ms7MTgLVr17Jw4ULuvPNONm3ahDGGj3zkI/T39+N5Hpdddhm+71MsFhERSqUS27dv 5/LLL4/aFze40xEiTpsB+Mbw05/+lIGBAVasWBHBqO/75PN55s6dy89//nMeeOAB5syZw/DwMCtX ruQTn/gEN998M5s2beLpp59mZGSEkZERPv3pT/OXv/yFP/3pT4yNjTFr1ixuvfVW7rrrLhYuXMi+ ffsYHx+nWCzygQ98gAMHDvD73/8ez/MQEe644w5GR0f5yle+guu6UXx9//vfz0UXXcQ3v/lN/vrX v9LZ2cmqVasYHx9nzpw5PP3009x7773Yto3v+7S2tnLLLbdw1113MTAwgO/7PPPMM8yZM4fR0VFa WloolUpcfPHFvO9976O9vZ2RkRG2bNnCu9/9bjo6OiLkKJVKXHfddTz88MM88MADFAoFDh8+zIIF C2hra0v19F/+8pf88Ic/5PLLL+fCCy9kwYIF9PX1RdziVNFBn57YH0DeyMgIfX19WJZFqVRCRBAR lFI8/vjj3H///Xzxi1+kv7+foaEhbrvtNh599FEA9u/fz+c//3ny+Tz33HMPd955JzfffDP33Xcf 5XKZD3/4w2zbto1cLke5XOb2228nl8vx6KOPcvfdd3PLLbdw77334nke99xzD7/73e/Ytm0bK1as 4GMf+xgiwubNm7n33nu57LLLeO655/ja175GT08PTz75JHfddRednZ185zvfYdOmTWzYsAHXdfnR j37EV7/6VTo6Ovjb3/7Gl770JXbs2MGvfvUrvvCFLzB//nxGR0e58847eeyxx7jxxhuZmJiIjDZE hPBvT08Ptm0zd+5curq6+PrXv87y5ctZvHgx/f39rFmzBsdx8DwPx3G44447eO2113jqqafYunUr g4ODLFu2jNWrV7N69WpaW1vPDQQwxsf3fVpaWurgyXVdnn/+eVauXMmyZcvwPI/e3l6uu+46fvGL X2BZFm9/+9vJ5XIAXHLJJfzxj39k/fr1GGMoFAqsWrWKV155hba2Nq699loKhQK+77No0SK6urpY tmwZlmWhlGLdunU8+OCDDA0NcdNNN0Ve8pa3vIWtW7fyxBNP8La3vY358+czPj7O+vXrWbRoES++ +CK+73PppZcC4DhOxGHGx8e5/vrr6enpYfv27cyePZunnnoKY0zwsqbW7Ny5E2NMDatP8hZVeUWu o6ODT33qU+zcuZPDhw+zY8cOfvazn7FhwwY+9KEPRX2hlGLJkiWR0xw+fJiDBw/y61//mu9///t8 4xvfwHGcs28AjpOjtbWVvXv3RnAbGoHv+0xMTNDX14fv+1GKOHv2bI4dO4ZSira2Nnzfj+KcUipS sjGGXC7HxMQEjuNEsTi8RktLS801bdtmeHgYrYNXxkMD6OjoiN4g7uvrw3WDR87L5TLz58/nueee o7e3N1KSMYZ8Pk9LSwvj4+P09vYyPj7O6Ogoe/bsYd++fdH9l8tlVq1aBUA+nwfg+PHjqeTQdV3a 2tqYPXs2a9aswfd9NmzYwMsvv8xtt93GqlWruOqqq6J7930/SiOHh4f58Y9/zJ49exgYGDhlHqBP j/cb2lpbGRgYYPfu3ezbt4/u7u4o71dK0dnZyQsvvIDv+5ESdu/ezeLFi3nppZemfSPTiXnGGPr6 +nj55Zcj8iciHDx4kHK5jGVZ7Ny5s4a0vfDCC/T19TE0NMTk5GQUvoaHh5mYmIiMoqWlhe7ubtav X8/GjRtrSJnneZFyr7jiCp599lmuvPLKCBW11mzfvp3R0VHe/OY31/SPZVnMmTMH27YZGxuL2jU+ Ps6uXbvYsmULO3fuxLZtPvjBD7J27Vra2tpwXfeUeMBpQ4BSJU5/9rOf5Xvf+x7XXHMN7e3tFItF XnvtNUZGRnj11Vd55JFHWLp0KUePHmXbtm189KMf5XOf+1zNTYRMOC6u60YeG6JI+P9SqVRzfLlc ZmBggM7OTr797W/zrne9C601Dz/8MN3d3axbt46HHnqIxx57jJ6eHp599lnGx8dZtGgRWmseeeQR Lr/8cjzP4ze/+Q0rVqxg165duK5LS0sL69ev51vf+haWZdHX1wfA4OAg8+bNY+nSpeTzeTZt2sRn PvMZNm/ezCWXXEI+n+fo0aP85Cc/YfXq1Zx33nls3ryZJUuWkM/nKRaLPPPMM7S1tbF8+fIoq7n7 7rs5evQo/f39vOc972H16tVMTk5G/XGqGWLaS/Thu4Dh3/DLIA7BBwdk4Mp3/VvfvAUdQacLbWqE goxSKBRYs2YN5XI5qgJOTExQLBa5+uqro8ZrrTl+/DgrV65k3bp1dHR00N/fj23bUUxdtGgRS5Ys iTyhUCiwZMkSli5dysKFCykUCkBQdezr6+P888+PYqHjOPT09EQcwvd9yuUyhUKBd77znaxdu5b2 9vYojPi+z1vf+lb6+/u54oorGB8fj4hsd3c3N954IwsWLGDZsmV0dHTQ29tLX18fY2Nj0X4jIyN0 d3fT3R08HT1r1qwouwjvYXh4mOXLl/Pe976X8fFxDh06FPGE0dFRLMti48aN9Pf3R/B/3nnncdNN N3HllVcye/ZsJiYmahwgBM5x086Y3xn9Hjk+OvJ/f/29HxM8HVoEygTfBwi/FmKofOEgzQCsmPJz QB5oBToA9a+f2vLQpW9803m+72NQ9OrdzLH2R7CZlqs2ylvDkBBPaUJoDjshmQOH68PfYV0gvm+8 Iheuj59TKdUwvCTbGXKT0FhC2E47Ps5Nwv3i68LzNdoWXiNsR7zY1agPjTEMen0cdBeiKq+r7d6/ b893/33dOyrKHgHGgMmKMbiV9d5p/5BOWrVsqvgdsuZ4JySVkTxvvCPiHZa8TqOSatyLpsMzktdo dnySFzTqi0bb4vfWaH02HJxJZgCZZAaQSWYAmWQGkElmAJmc5UpgJmdWTtdDIpkBvE6Vm6wJSGYA /zgKnqrgk7b9ZGtEmQHMsGemEi/VnHpJE41GMynENhsMSslJfassM4ATjKkn4521im0O2I2UL1O4 exYCZhh6ZQqclSmweFrbpzy/pGpakJMeJ9D/TB7cVMFNPHN6yhWmmkDtZIxDav5n6vaJZgp8PXOA U1VefPi1wQ7BtrShVEAwwcxbkrItOnYKA4k+ySx151BTKTh8paqpARgwKpg3p6btwf/OWQQ4XcSp 2T5KNf8cXjMFVqe+k4Ze2xx+w+NN4/NP5f1Kqo9mSAPeYKTOwFRkCOdICGik7FMjTtOA1mbeFe+8 EyRW0fUbKabueDkh44i2GxP7pKPUQ3/4TWJJm01NEAzqrIcASZ/p75SJ1alsl+kYR713T5vQTRWb I92r5scnPFsSp47vk2q05hyoA6hGlalGnSjNExiZrgKmkxKldW74Q9JVSo331tOxmnlxG957fDeh cUulPsJI3PsltQXVa0jAYU5iGlN9+gCgNg6dCnOuQiNTQPcU8BzBqzSG3mYGknJ+qaN3DdAj6eSS 0kgTMU1I/ep4xQAqD9/Wo2nVQJU6iwgQ9HG1gaeSE9d531Q172bbIy9q4L0izdHBNAtvUrNPunIa 2FFN3A+UXHuFsH0EzF+asXxplECcSQQIGqjqrFymjn3NtitprtipQkPFSSVtJ6NqDKz+WJMed+PG YwwoSTfKGPJICgoFLht8bDtduZXtisrk0JVmV2YKIXpolso5OLulYCWqNq6LSY9aEXExDbyvybH1 7KpxzDYS5Ump11aBETR0XKnOyF2PDKoC21K7Ncw4KgYiSQSKXz/0XpUSP0JUQdX3hVANBybuK2c5 DZSkJ1SYb33nVRRjGhmHgPEbpjwRNNJopg5V85V8acRAFYhpAEERaZP0YyPITjk+8voUVifx9kvj cCZBcaoug6ggi8TQIWoSnGUDEAkKMqYZqQqLHiaC93QFWen8ME7c0phzRJoqk9o3G3iRJuVTaRbX E8gjksIbYm2TFIQQFYSFGqOKe354rylhUqS2DCTTL6bNsAGoasObsmKZQvmVnjANbir0sFRWLbEO UenKixD6RItT1dAkJo3DSCxmJ7OPqmGKmFoOkzAQkWQNWRLhpYIONTzqHCgFV0NAk5w2gjVSWG+c UKr0ua5MM2sPFaQqnZymwMpVQ5SoKxSZGC+UekIZDroIqY0TUVWEqsnLpBo6TKwsLQloD9fXDiBE Nx7wBVPlILFziZzcHIanzwBihEYaW0kT2BWmODo9n67FwQrjVumoYUhJ/+LeSapX1icfUpfNSLK6 lCjnSRLqpcp56q4bji6ZkKuoBIeqLUAFt2POdggI0sAaBZmY40u88Cax7dVcLTnHac0KIwh+as3d VKA1PLdJzd3D7aq2yCTBxFfKxDhK8siKYUmcoMZTPRN6P8FrtX7lZpUET+uE5zNSzUCQWJ+YgPeE sx2ayvktBb5fzRSMCdbFwktoD0rU2TUApaR+VE7FqqWNSFN8dMukeEK8HiRWbWyN13NCj0iif4gK SciVaiMFE3RyhBD19UZRlY6PoF2qmYKKV/QkNkmrVJSf7IRaA6223Yqx+wqyKBXjF5LwJIUKecdZ rQRWurGGeMVIWS081WNqpCBlUmJvnM2buppndajXNK4uijQoTlXaZ2IdnLi+hMozadtjk4eqePyO qzYG1zWGKPWzrqqY94ftUrGaSYRaqnJstRZxdtNAE3hQXUeH+WzqQEWlcySe0jSKrcmYGhKfGBs2 9eVfiVdVSIwt1BBRUx9aIrtSsfSVSllWpQxT1Bqx1IwEhvG8WmGM6ghiEqNGxB5eSUeOWjdSlfB2 LqSB8YpXeG81sTU5Oibpnht5viSqZyqhI1U7Vm5i1w4RyFBbgKkw9dRx/niKaZLpWqgMRQ3oSMx4 TKw6WLNTlcRJslZiEvtJgqxSW1uIAElCcmgqbTAnVQs+jWlg/ePOEo/x8b/xOjYq1tmx4Rqlaos+ KlEAMrGyLAkYjghfLRyHKCBW7AkcTKzsGzMClWiXEbAkZaw+dqyS6gMsJkFpperNJmyfMbXnEb9a SjZVbVfNtdoPgZH4teh3TiBA5Gy1Vblab1IJXpCsaiVZZKwkGpK6KF6augEiQVIqh7E0UtJTSIxU bCE5HiERgtd4bJ01hHBvKlPLhwWa2AX9WN8kyGycH2Ck0nWm6kjGr2QYhprRIWUaPvV0Rg1ARUy5 WjipNi5OuBJl1RiMVusZcaORWOk24bExKJea8mnsummIFBWEYqgSV6zUjsxIxW9FSCCTn0ATML4k xrxMXUHLmOpgUYQINcwikc6Y9IGy6j2cA3WAaqUtEdsl5pkqxqoji1e1xqFMLDRIRDJrvSw+2if1 I4mSgOL4c6F+Wuw3ldAs1Qc1ohBgqtlKaqGi8bC0pO0nIQX2a6JDfYZh4mNTtTo21BvD2TQASxSW xMlPbVm0htjEYSvKwWP5dML7JR5H48y6pneSPRVn/QnYjEYja1PIOiatYsO7NWEodv66NC+hTEmp DhpTGVFUtRqteQrK1PKZBNrVlKfjBbAZNgATW2IdZfPqvgMneJpEDpzJKRXih7xeLOmqvCMRWamZ qnP1lGee4gSCz6A7j0H6Mj2cVTEIU07JUxcz9DS8PVV8A76RrN/PIRRoVNNqpld9QiYWLJ62dGFO h5X4cqVM9eJrJjPj+JhYGDUmeElkzwG/QPBZ2KYxttHYqqosNsE3gvNAAWgDOgk+G9sJtFfWtRB8 UtauGJWqLbpmcnpVHv31CT77Wib4BOwEcBwYBYYJPg87XFk3TvCp2FJlfx/w9TS9Pr541ZJG8L3Z 2BJ/XikzgDNnAHEdhHqh8jtNhyeUBZgUZbuVpVTxehW7oJswAJXR/NMa6P2EXsI+L1b0UYrpJ2kU ZrpZgElBgPjFSjHlWzFE0JXfklgyOb0IkETkUCeTMd2USPk8fEK3dQYgKRfyG3j9RMy7vcp6HeMP 2TcIZ1b82BLnAZMV3aShgT+dLCBRkK4zgnLlInHYL1OdWEIlPD9DgJnjAHEeEEeBcCk3Uz5gdIOT Jy/gxy4Qj+/hejvh/Rn8n7kwkESB0AiKMV7gJnjAlHWApJV5FcWWE8qPQ79F7VQzmffPPAr4DRA6 hP9wqhivQUaQagCSkgFILP0jZhTlmPKtFMVnBjDzYYAGGVo5tjTKBEQ3OXmcbDQihiqD/nMyFPgp qWBqNjDF23HR/0PlWjFlWwnGn3j2KpMzaADJeo2f8Hovtr0pCUyigDTIH/1YaEgr+mQGcOYMIK04 lPzrNwgdTRWV/LyVNFmyuH/u8AHTZIkbjZmOstKMIA3mM6WfW8aQFh7qlD9dxSUfCkkqPv1TWpmc DcVLWrGniS5PWGGNnhDKFH/uIcBUOjtlxck0Lp7JmZNMH5lkkkkmmWSSSSaZZJJJJplkkkkmmWSS SQP5/8ej2f9vbZW1AAAAAElFTkSuQmCC "
     preserveAspectRatio="none"
     height="22"
     width="22" />
</svg>
