<?xml version="1.0" encoding="UTF-8" standalone="no"?>
<svg
   xmlns:dc="http://purl.org/dc/elements/1.1/"
   xmlns:cc="http://creativecommons.org/ns#"
   xmlns:rdf="http://www.w3.org/1999/02/22-rdf-syntax-ns#"
   xmlns:svg="http://www.w3.org/2000/svg"
   xmlns="http://www.w3.org/2000/svg"
   xmlns:xlink="http://www.w3.org/1999/xlink"
   version="1.1"
   id="svg2"
   width="22"
   height="22"
   viewBox="0 0 22 22">
  <metadata
     id="metadata8">
    <rdf:RDF>
      <cc:Work
         rdf:about="">
        <dc:format>image/svg+xml</dc:format>
        <dc:type
           rdf:resource="http://purl.org/dc/dcmitype/StillImage" />
        <dc:title></dc:title>
      </cc:Work>
    </rdf:RDF>
  </metadata>
  <defs
     id="defs6" />
  <image
     width="22"
     height="22"
     preserveAspectRatio="none"
     xlink:href="data:image/png;base64,iVBORw0KGgoAAAANSUhEUgAAAIAAAACACAYAAADDPmHLAAAABmJLR0QA/wD/AP+gvaeTAAAACXBI WXMAAABIAAAASABGyWs+AAAzwklEQVR42u19ya8tSXrXL8bMPOfce999Q3VVuVzVg+lWtxvTMuAV kiVggzeIFUJCLBBCQmKPWFhs+A/4QwAhsUBGSEjIGwYJ2zLCbdzddlcPVfWGe++ZMjMyWUR8EV/E yTzn3HtfVbXAn5TKPCfHiG8eIkLg7YI44/x4xnX/PwL1y/jIa+4FbxMR4hH//Tl4GN/S/2fD20JG fM7Tb/+thdR1A9eNn33/P78Z2xt+zZ9z/3E44PDn3/3bTzGOot/dvnn9x/9pX1z7aHgsMvj9or7+ UOxe/Ui8+72/+52bH//e9zd/7W/8W2j9l9H3pz9Wa7/v+7fTlV80aO2/3VZAu3/88zx8gn/9r/7i xfvfM/Xzb3zLddsfvfzDf/8qnBvZ/sFq4TEEINheABDLd75tnnz1N/75j7/24rffVg88GgYHSOW3 wfn/6HhwgLZ+bypgv0m/OUgF9O3hc+aAX8+/o3x21QD7bfptKqDb59/ct/5c3/+H53/0g3/86e// ux/DI5s24BHSQD/gHlEcx81ePGt+/LUX16ia85+23wKLC3/ctYCxaQ8A7ohEUPr4+VMwDICU6Xez mj9P33MunHs976thwEHfRYLptQAMDpmWq9V7E8J9CWAO+RKAlFJVqJoVmiWwXR/ebet03O6AZun/ U4Ha64VvsK0S9xgLbO6ARUCOUoBz+f7oF8v89zh4TuzbtHcucWO5p+fza/h3cOjaQ+Q5l4ia36PU YR/VC98vQPoGkgq22qLfCwAqIJq/nBB/b1Ug73PxVPcS8gEope0Ctn4G5wBbjxHptHFolgmBXFTy Y+KiBeNM6sBzkA94KdF3fq+0v28K+X07TQQcSBxXzSHy6Xvpm431beG/OTiXGKBZHj6Lv9tUPUyl pVYreKaV8ITAmfBBcB8CKLlfsr0CYKSUlwDeDQhL1xNVE8I40mWBRGMD5dt0LXFPuZWgrd/KY96Z i1V+DZ0rr1VM/5bf3k98T9cmCWAsoM20GiAiMTYnomaZpGKGIQl4rn6utX0RCICIgHAwh6e3SgD8 BVz0K/ooqdQSxj6LHUWNITFPQA3nHcS5p+z0esamINuBI5veNwfnSA4pDyUXvUNPcLK2wOoq/87t 2hNE3aS2TRE7PcNLTX8f9dvykr5nBPBcSnUNbwco5ATwYClwLgFMURkhnwjAjOO4BHAFbQ4727kk EhernBM4t9NeqUP9DaT/hPSdVSJEnmiSlP5b6iYguvL/076EYcjfQcTBJQaXFFWTiL9ZAjtmR8yp A2NTm8l+apbA+oaIQQC4EgJXgQA0DongGL4eTQD8wZza6AM0AIMRCxi7Qt8lLiek80ZzcQlMc6SQ 3mAjWFwk5C8uEpdImZDOkWgrjxhbeYKTMufQYfBbu0++O52vF16ED8M0gQzhu7h0iO5amxNM3eS/ SyKgPbl9UnnOJwPR7yWAFTyDkQQgAhB4hBR4qBvIjT/SSWYcXQ2gmkTq4DDpHnKupz3nfDrmonFz 64lgDEismxyZBKQiNnf+/2HwiG33h9fSeVv56+smnecEJqXnak4IRARZu7QnBiG9QamNbwN5BHUD dEi/S+C2wHYtAKhhcDUAC+8B0CYBDHhgMOghBEBEINmmABhA5MqX67wp5FeN9+ONTYbi4iIhOPtS A9y+Bi6e5JKAI6IU49rkhEiqifaA9xDov75L5zLksuu5VAAAa4G72+kIoLa+fdTO1VXwNq6Auzf+ 937r209eBxEDBZykApqlwHaNYRgtkvgvJcAUjk4SxDkqQJw4x4xA8/QA+aWOL61pIOeA7Tohdrv2 xECIapZpDwAVozdCkrU5wpzzv/l/GZLM/Y5LaNtcUpREqHS+B3y7iRioL4hBeH9RHwZ18PE7V1dI EndKBdwbzpEAZQKnVAECgJLK2o+/8bUX8apjkTClksh0vRflnONJ/035xxwprz4Brl8ke0MbYBhP I41/h3M5IRHBcMlRHu93088rJRHZFTsW7iV7gSO/hFwljFheCqxvgGfvPpGmqYduu8e0Afi5BoI4 lXGqUwCkNLVFvUgEQL47NZKCJ1Ou1OXTHGlkQXPg4puOL5/mnkYpYWx1+Lu8zlY5l0rhN3puFrsQ iUCq2u83t4mASu63VRD1FwnpRPylW1naQslIFD46WgPrm0tTrRrk6peYkePpcyGAKWKIHyK1tVD6 K4F6x2hRU4Mo0jYFNy/9/vb14bkpUVwiJiMCnRDh+vSbkEzHtBHQMSGFXxdbLfN3Ap4IyVshwuCw uAhqog6G63joqtpCAkVvJNgEvt96mOqJrpZL5OKfHvaFeAFzUkAqXVlI+U70W8mg4rH3EmwFchri tVOIr+o8hk7HtvJInvLh1UzTuLFHBuApoGe53r9/HNK7+Tfud/6Z1nqkl+/d3IYYgskNRlIdxCAk KXZbbj852OqFrpdLTHP95xoIKoETgQQghNIGzfJpZlWXyD8WeOm7ZAeUHFKKY1sxcT6D6NKFo//6 zv9XIn/KQyiBJIK2HoGRMAJBVrXf2japCPof8O1bLA9dUGCaSeomtVkqwFRPla5IBfBw/IPhoaFg 2seAkJRKo2ouI4dQR1HjtJ321anTaatq31geZ7dVIAI9j3BCMD2v3fu9VLndwOMB/HpOKFPEUBJG GUPgyaaqztUC2Q1A8hqkTIEqTgTlPqk3AWOvpNLVY5H+WALgENWAEEpjc3cxeyVx7VzIFSiMuYK7 so4yOZKknI/cxXy+SdE/bdLvZuGPlTpEOD23PObvLwmS2xtSTMchbGCGMtZREkPf8vslgKUQkieC vrBcwAHC2Qv9hwghsFj5FgiZ9CNRO3EkAYnI0mjiXM4NuhLxhBCOLEKqMQnpHAGGXUe/u276PD2L Ew8RE1chs/EFnj8IXaVUQH7hqc0xBvcSjBUA5HiYBi7tshJfR+ExkUCugwQ8ZYrMreH+OZBH2ngq lFvt2dcFhPCoHAEhZBhCOrbze8M8BY5YgotLYLOePjd1X8xcsgghSY5uggi4bcGJwPUhIRbcTBvO lcYi2Sm28kZgCpZJKI1xzAjgFJLfSiRwDjJbwNQXXp6Rv7vfTut63tFc1AP5MVnphHzOfYQQjvDF gnW2S//zY2NYzp59Cz9/jCD4NVxylPbDlFQgaSbkdJazVD8UPKLMY3ANhTQrHOf8e6mCcyVAqWNy Q1BIqZur595nvfIN1SYUXg65G8c7ZKqej0sLIiDi8jJYwqELGciLyxzJHLkcibSnmLsp1FNZ+NkV XgO/ns4RIZCdMeVu8nYLmVRgGV2ktvt7R2grAODTX/6lJ+L/KDUO7hQRnBURfEguYCoOIH7+ja/7 KGDf+o64eZkqY0pxz4M2ZYOp0WTUEZd3Ez57ybl1nReUxutY6nWq8EROEBT/n+yKKQnB318SZuld EHAPiTyHOcnhVZ3vc+8RXUtdUXHouapgFh5iBPJjAUBIqRWa5fuhY0df9HExwfUqReemGkodRpZ5 ybWkkxdLJvpZyJgQy0uzjp0zNj2nLFHLMpmFoXqMGLha4u2aQvA5Vc2U6vaFsi1M9UKZpiSAKdf8 LHhMPUA6FkJi9eS9EPP358jaLbmi1PNACs6QgVXe41zg7i5x+RzMcT//Te+S0j/TmMP30jmpUjUT kFK0dMzVRelR0H/ckJ1SCbRv90ld0jWEfB85dLi4fl9pW5aHP1gKPKYolMUApIDSXgVQ2TQhnzcw xtsZJ5A7R5wzxVUXl3mncjFOIv9UHb5haWLO5Vy9cHFNhFG6lGUFM7cVpr4/3jcRaCKIfaRSFfOi GKNgK8DYEca+wwiARwIfVBDyVlRAeM515vZkKdTQwGaROIAbeLzTFstkuWcImNDf5e+p4FBVhzrA Pg/2ZM8xKTJIEqKqE2FENSGnK5OlOiSqKfXHn0NIzTwjJh1JNejs3RK2vhZKUzDo0XbAY6uCkwpQ 6gL7bUrtUjiYw3aTGsUNK46I25vE8RzmxD5HdtZhRTEqGVsHPRBCzTSIYxzTbwpLkyqYkhSx8IXi BOF9dT1vMBIhTsU3AM/9SudSwL9HQqkVfDCIcPEoeFtxAImqaTLfvsz5a+MlAPfjCbqOJUyWHtll MSlxMn9eiWwh0ka/lfJ7Kad/Dy5E/2y6hxI9dL5u/LFhtf5UjEptHoZp72IurkBRR2rLMYjEbUP4 V+RBuENV8LkSwEEYWEglsd96di+5jBBFlcJTPvzVk1yXcu4l4AEh3tEl0qN4tTmxGZsTEOnluklR RMATGq8e5lIs1jjwApKiCwnpvKaPvJZSNXDboFnkz+HeAc8HOEfRwBIXX2g9QFaIYBfXy56P3QMO w6O8gWR4rS58J/FCyMkRP4GApEqIBhIn03t52DaKbrL0EYovd8BymYdgKZe/XALbbUIM1/GDC8Gm wo1V2kfo+y4QWZ8HrkrVVcY0SBU6lzKVc2ArAddDmnrJ+/++SOdwn0CQmLlf1BdfeZbVvRHSCZpF 0v9Ajnzq4DIYQ3pdyjC0uhCTFL3jA0+GAWhC6RkhtGn8njqdVE1JbMsl0Idn0Dn6pq5NXgEhkaSB MTkhlqpgajg5VwtS+r6hOoGy72KqWY2oagGloeuLZyhzMdMG+qMJYG5Wj3xY+OqZDwJpe5jB40RA wEV+aUTRyB3qOHIfuZg3JnFh13kkD0NAdO9/28of9y4hWDOO1CEzJ5U3/HoX/qN0MqvMVSoRDiF3 t/XfQYSvtH+OsX5PbSFpRAYlPZPaSwbvfne8KEVpEdo8vvzoo3cgxJTev3c28LHpYAFA/PQ73/4g nB+jdTvVCOIiLvJ5wISOOZcSl/M4AV1rrb+2d2kPeMQL4QmBgM7xeADgrXUh/L53/lirIA3CPZS8 4aN9o+2g03cJkXR3jFN0+Tdz24D64tmLRDBAckuz8vb43B2ev/eekJpw96iqoPvYAHMGh0C1+KUQ pxZZ1Ku0gHnGjjiLI55b8zz9SnGBLAM3EZmr6zzl3HfsP5UbpJEwwjnac8LY7fL/SEq0zhMFIZQS OZyA9ztWJdQXUqvo2TevvUp8/dITw5vXBZayfuwh1YdCSDlODw373LKBsevZf/4DjH03lkJxoyYi PgR3OLK4O8SJgMR82+Yin7KKhBDiaGv9MSGMEF523LkDPThh8GcBSTLQOw3tTa7rB5eMReJcpf2Q M+J8YpK+8yrxzeuE/DJ0zL+7boDFxftCCKoLmMLR55INnIs9S9jqWYZQjmBK0w4T7k9ZNMk539ok WqmujwMhQ5tEFHFvphFefuMx4OncUjfTO/vCjuGhZV7aTUBFo7GYJXx/13rp2LHBIhSfoI2CU6G/ hZBThaH3lgCPqQpO4keqy8lx81XtqZs6J1rX3B9nPjWXBl2XInAlUMcThxIBHa3oZW4ivYMIomly j4C7sqbI60d1YXL1EHtUHbaDt5E8Bh784m1cLLzErNicCplXUGs4dzFifHQM4CEEIGa22hcw8qBJ 0IP7XbDmmdtFrlZ8qjg0lIhbONR12nNudDNu1kE+geXtyZ5QKlTq2kQMFLCib6LvoFwGARFBXXyn 5F6D8WqAiJ48BDIiS/tns/Ela4tlcp2l4raNhFJaCPmoYeEPJYA5gqhjh5SIoNLs6N5JTBZJcI4p kU6dPDeg42C6FtaxmqefaXSQ9YiW0h8754mgadLeOX89t2fKGsBSMhz0Lkk9nWohyK4ZRyYhmApZ LJJ38OTpYWBteaEAYByGtzIy6DESQAIQUlmDlJzI9fYwJO6P0TGdcz9HHBl6ADP2ugn9P1H4SQh1 zh/rwr611k/kSP9vt+m4aZIEsNafaxq/pzbNqQjakzSgjQNXBTFg5JLa4wNfeN+8fpnup1qJqhFo 9zDNFQ0QKfHyudgAc66GXD778Fm86uqJt8QJePADyBsvWGUsdeLqIu9AEvUlx0/V+t3d+Q+9upwY lqXzvVJJ79PMpHxP8YPVKpca9L4pCVYSKm8HqYQY09Bh7iCTq4sSLq9SxVNhuNrV8+cFbubwdRSO EYA4cU4AEM3Ve+9FS7drkz7ks3tFa3aiFpC4FsiJJ0PgTISMV/aEDho3W48spXKEE5Tz+2mdX8vB HQnhmhmpxH9T3CB+b+Bw13uJwMPnZYqZNh4TMGYM9YF9tbx+D6cHhnwuZeF5Mei3vv0RgHyUC58c Ina8PqyeISu/FPtTAZuGxd45WAtUlUdgVUEsmog8YU1EuLDGb4oleQKChfLdIKyBWDT+vgyZTIJw QiFDsRz9EwmWuYocplxEHh8hNxDwUpVsD+cIyZtPvvu9ryJH/BwhHJUC940DHG4X1+/HhhPwSaKm Gk7Ip/h8qTN5ICe6Qn2OfI4MNnPo2HYQ1sA0Dca2A/b7+AwdJA8RgWk8skc3pOtLmMpODoMnOudy b2LqWjJip4zE3TblOMqEFy95owiqCsZwvXCw1Uco7DE8wA44JxI4p19SFJB31EFRRMi5t21u6VPs nrikDONyQjEzHAnPtWPrCc4EKdFtt+iUR2rv+oj47Bh9/E3HdD09VyuN3vVejpK0sMb/3u8BIqDN NqmiTL1MxRDYSGIaN0HJL3EEb8YkFVk3wMX1BxPIJzh7Wv77ZAOnU47LS5/JUPoQ+TrEv4nSS786 XqcS15dcTvvSkKOWth3Qe+R1wWqPoh6ISCxBKx3P8ePYOCHSb6ZC6H2oKqDvk9Sg4E4pCQj5XBVY exgZpWolU9RVki1gbDJEtdUAXszgZGo/C48pCPHb4FIB39w4PkLsFDcT9xPwQsxtSLmS+xaQ36yW 2N6tI5cCnuunOJ6QDQC1tehd/n21tXDDiHEck4oInNi7HuM4HkgGBBthJDUwZUASQRARlFJgqk4g zq1Y9CNNbZ9iKCrUBs7FAM5WAefaAHNhRwnnvNxtFvNTq5HVb5hxNOcz8+vI/w0dTMbZrm0jNxJi SPxHgmhbGG1QWwutJDQZekKgsgZayYhoj3wZt3Ec0bseVfgOIQTMVJiZiXthDaB1MkKPAW93GdMY x/lSMzIUbaWxXdM8AY+aLPLRgSDEOV4KIOqmVGgXpk6hTBo1/tRULSxWQAYegGi4zYn4pqmh5GFf 8P/oWCsJx4ZsCyFQGeMJLaiCjn2jKZAWVUP4xnThCVexzHNE76TPiYCnvn2fKAwDZQO/lFAwJwLP chSw4D6/ECnmDXhDkAdpyrTtnJXPYHQDtNIw1qJ3fSbyORfn/arghhGLykKFTlZKxc1qfUAYbhix DARGWx2Ises7/84gAQ68h+4EEZQxgmwiylCFTDmDqcxlvWQTJs/mZz4XAsi4366e+xp1bvlyUcXj 8stlOl9PZO+42C+sfPR97scjWfTEjRzpHLlKKVRawRqNfZA8FVM7dGy1jsRABOGcwziOsEZDK4ne DTA6eQfkbgKILiWA6VC0KdzkKdUHhGFgbT7crEwYLRYCAJrrD6g2cM5If2sEMPUSUS2f+rHqFO0z Ni/T5mPzqZBiDrSeHAE8tl3Uq8SJdAx4biXkE8IBQAkRt94NUEKg0ioinI65UVgVSFFKoQpItVpH o5C/n6DbbqfjCMAhQZQhYyDX+UKkVVN4HiViTQFAb+rLS0zbaGfDHAGcci18MWhz9SSOCI4hTibi ebSPoPT3eaCn6Cge0Ck7vBT1hPgSiXNqYe48HVutoYSXAvyZi8omw1MbuMHHH5rVMkqAKAn4Smjk 0UwRASGV1IPrU26inFQj1hTK3jSrJzhP9M8SxaPqAZqrdz4Er0iR6jAWsFzmkx9MZfeOLODA3bsp ILENeK4nMX8M6ZXWqMI9OnCeLqxuTggkJZYk7rVJUkcquMGhdwPGtosES6orEkGZ6ub9oAuXkCqT y8BQx1SDrdvPvvOXvp71/wlkT8E5gSDaHwSB/uyb33wPdSNw+XS69l0qYL3Oa/nKa4BDl4esayEy 397vk7gnpPM9F/NLayKyaSNEu2HARWUj8vthOCACIoT4WUKg7XtcNBV2bYvGegkQO7Oy6Lbb5BVM xQf42EDu/ZCU3O/SsLX4EWQfsXWIjB3RLL9a4OfegaDHVQRVi3fgnIgpzpJiaXAGkLt+1BE0cgc4 6CxhDYZ9ntbVyhtqhBSrNVzUyTnHV1qjH0a4YYCWAlZJWCWhpISWAo3RaN2Axujwn4RVCjocl0TA 37nvHWpr0fY9lFRQTMUdqAHeNmpzOXkWh+Uy6fyRJfP4CCi/3oBEtfglzFcGv7V08FzGScLYZ+ha EefD50Ah37ZlQR+Tny87iF6iZBSnKVQbONc5b+wxjj/ow9D5WnrDrx9GtMzYk+FeG/x/IgwlRdhL LIyZlAhAkjYlcXBCKG2WjAj4nvqEPCNyk0spkNUNrgBAo148P4HskzmBcyQAX5Ou3C7iNCu8weVQ aYJsZgx14PLR/6RD87DuEE7nCO/dAK1kJub7ENTphxFSJO4npHOotI8RcKR6ghCwSkVboUS2Lb6b q4K54FTWP92Mx8DnJaK0MGULCboWWFxIADRv8Oc2LmBOr9CW4p7jOJ3w4dk+3gEEvCATlKqVBxm8 iolUQhYX+fu+DzpeQAqBYRwjp2eIDkEe2gPBlZQS+95F11BJgda5jAj2xbrGpIKcczFs7AYBNzgf ZrYGQoikyo6tj5yNP2D2AZ8md2j5NRq7DYWD58L1J8cH3HeWsPJl1quAGtmAjuWyWCRB5Q0s59jr U6KFfGniIIrlc+S7ELv313njzSgFq2REOu2ndDpF/WjfBMRU2qsWyhNYpeI1LhiJWsqD7+FQGYPK mBgviMjneZKxwAn3Bsq+6vtkD/DCWltJ7Dcaj5QAj6kJFJAy9BwrA9M6DKnSef6bUzUXn1WVIZ+M p/pI0Ijr/SZwGRfthCh+nZEStVZYGh1/u2FEXVyjgsFIqsU/z9sG/bGh2wH2gbhjZjFEMDMCiJNN sOrikiCyApsgMVJgaESzEGHuwC8nF6Drixra5CqEizZO1QR1CPRwrmHpVEK+Vhq7tp314+MrZNLr +6L0inM5R3LrBiyNxq53uKxMdg3PB1RaRS7uhxFaimhc+m/M7YEYiDIGvRvgBheJYHRDJPTYR12X JMHUqKd4zLo42QGCmK5avbjAdFYQOIMwpnpYzPyX5QFWz7/2LgATl3YZR/+xfZ+ifSX3931BJKlx YwikAF78C0Ykpc/PkQ94cd8YPSnujZToAvdxKUHI5wYiXU9EUWkV3EOvWvphXp264NpxydEFi16w 58d0MY0mjoUuLGTeu+MZUt8pQN/ulk8/oMqgEk+l/p8khnMCQZNGRnPx4j3IQOJEmTzyVRfBH83C o0T5jBiEkhDWRNGvpDqw+LnuJ6jL+L0UkZONlGi0xNLoiOSVkVChFUogHk8RQfx0KdG6AVbJA7eT 4hDkFXCX0JRqjCqIqI+6KdHPXGYeI9FsPAXZAlfP2/rixYeYtwHeaiAoe8lPvvtr76JrNZYX6cOo YVS7NlURC3jKJ4lRlFDtWLp4XyRXKj0fMi6BkO8YD3DEW5l+E1jl76H7gURgnEAuKnvgHnIgl5U8 mNENXgqQGuBVT3E8Qpe4nvotjiAOkjMOJu1oBLL8+Du/+lHA49w8AQ+OA8w9jF72HIuVihlADnXh AmZPEPl+n9bOoVw/BX60klmSZ9+7TMyLCZVgpIzII+TPIZyfo/OcYCQEdpRbCFKgH0bc7ls4ZtTt ewc3jvFbuX3Quz4GtrI5jMYxMUFsRGE3TUVJ+y7NWHL9QkPb9/GImoBzsoH0Oxct1eIagIrJH/6R 6/XhCN7ymthonSJ/1s4GUMhH59CY6TBGNwyRY7mY57DUfuPA1YFVyXbgUsAqiYvKoh+GEHhSWf4h fm/XZZ6MrA7VQTbtzdxE0Rm2DobJaywvn2LaBjiGz/TIMy4sDUAvaurFBZSSfn2cMfmnQF71G4dS BwOxoHyqy6fIH5BiAGoiS9gPQ+T8TVARnPvdMHp3Tkwjf6X9BgA3HVCptLVFf9daodbqQArc7ttM BfRuiDUH3BvYdz6NPbad9yiCKKf6QYzjdIawd3kGNeYOaCkaqkDWBkDpBXCcnYRTKmA6wvT3/tk/ wmL1m9BWoOuS0ByGw6HS3AOITxax4WPbZVYykNKuHE7pf7L2G6OwMhLbPscmRzwA1Ap4p1ytZkZa cCAJ4F3PHqYgUu6peJewTwmiRQNUFcbdPtk+pQqgaiFKok3FA6j8/MkzDWN/Bf/gt/8lprn/5PxB 53oB/GG+EFQpgb4FjPHnicLX6/Dhxehe3lDyAobBW8bBaCK/mYw/59xBpA0AuolRR+TLU9LHKpnp 9Lve+0TE7QCwc4AhCSyAhU5EYFnP1BPEdxsifNvCUHWjrz3cte2BGgiNSm0fhqQCSrevd2HF0S6F 2bX2koEGqGojQwGOBR5WHXzfFUO8ClheNnBOoFkC73+QplLlIc5yOpYw5XvT1CHIE4KI1kQfGgA+ ePrMi1Ip0LoB17WFlR5pRvh9PSEMLnlwUQB3DnhhgQVD5DMNbAbgebj/U5fGtd8N/hzBNszGsg9N uullJJq9A162FaxMaoOOt53Dzjm8s/TDubZ9j23n4xqd80bszXYXvZ2x7ZJ3EEYbRXe664Drp4m5 AC9hqcbi7tb3835rCxwRzqbwmAUzzh0alm+3r+qA5BF3d8JT6yp9OM3tT4hnrl4fLf2U3nXDiCaI SeJ4ytDd7Dtc1wZaAN0IgGxLmt2FIbgSwH7024q4fACeh1ZuZiK5M85qhP3EfVZ66UJShghhZRXQ IhqQJJHGcZxML5umQXd7myaMICAjkTMVBdeUAjZ3I4wRYXLJCrkrODVcbBKOEcCcayHx8Z/8Eb51 vcHmboE/+G/Ak2eAtn5GCzJeymHYwTDsgkoo41zk/b+hxBJVzaxWqUMobkBuoDVenxpfLUz+Nh8B RNW8dLyorHfbnMO+62IOX7P4P13Pq3vieIQg8mPiitrZ92wkkE6DWW9v0xhA4mJaYna3Qze1dB2Q VwN3PEbQAq8/A3ZbgU8/BpqVw/rmT/EADwC4vxvoqaxqrvDTH9ZwLjXe9Qn5vOqFYGrJ9alaQEI+ kIxHHjJllTGE/HhrkCrbu/WBO0kS5+XtXaoMNqmkPAVvErs3q2VENiH/4JimqOUIJESPo7eFykAZ gDgBVRkNpMmxSkLQJqzIRoZg65nu5c8UdpsrIFtQei49fABcApxyARMRuP4r2G0k/s7f77/y4hnW bYdVZQUZZ0YpdM7hsq7Epu1GIUR0pzrncFFZCCGw7XrUWolG63HnnFBCwEg5dsPgI3lGoXWD+HSz E9d1hZ1zqCkvwBI3VskoaldGZgEgN/rt2vqPvwv9V804FXtGt+2ATM9HuhU48DIi/sK3r7seAEYl xMhdSSWFaN0wjuMohBCjEr7uoB9GYdlwtd4NY+tc/E32A8tIjr0b8OZf/FMN118hqQDaSvzxwp6o V84pCKF9oq52JyAVcHujfxbm07kD4hBpGrz5sphogXT/q7t15L6t1tgajXXbxVw8ERA1+LKu8HK7 Q6UVohxxyV6gTu+GAe2QYv2ko5UA+tEbkSs9jfwdIf6It8kRT0UlhFiKT2y7nmcnhRACr7ZJ+lHW kgpMefIoID70lYwDYAFMjznYbv0SPX7V8VL3nxXmnyKAMpVYPlRChi7+0x+myY5ZsGcLAKsVxpgN 9L3ake7X2l8jBLZS4g0Rj9YHs3PU1uJms8OishmRcINqYU2s7nm1a1ErhW4YcF2byMV7B+yRon97 lxNCrRL3b2hUeCCgm/2hq+eGIUtBE2f2bsBdqBLyAaIetbW51V9A17a5yuy7aCONFBSiKe4pVyKE VwMe+QbTBuCU6D/LC5jKJ6cHUq3fzz8GNrdAvQR2a6+TqKb9s09yq3Zq3j/Au5A0LWvdYOQzcwHY Bj3/pm1jqJi7kJVWuNmlfMJlXWHb99BS4q6l2LuKkmDd+22lPcJZGCsiXgkv9ls3RA5vnYOSEtuu x92+jXbEzWYHrSR2bRuNT0oD4+4OMAbbNzd5m2OyjNlKLqwzQItg0RT1VDn98tM0CcV27RH/6U/9 fctLYxbXy27z6g6nrf+zVcBUfNlTl1S+EvjTnwCvPvEfXDeAkH6tIM1m1JYKkALYUs6gmLSRloxb 37E6Qp1m76bUaFWh2/kgSIdQNLrtsQ/EsAixdiIGo3wYt9EaN/suHKf8QGkLcK7f9kMm2odxRD+M WLf7mJPY7NsYz9jerQGlsL259b48N/a2mzy/3/fpmFzkzToZk32XKqy54by5TffQABGpgOUlAFjb XF11m1c/n8DZUbhvSZg/HpzXPXxWEJpSnS8ezWG3ScinVblig9hkiZmlzJ7hXIqaFc+urIl5eUI+ JYN2zmXZwdJ42zuPfB41pHwC4DOO+97FglDKSvrxCaG8jCaWlDIFcrLCl6IvsvJ4Nj9w9HAmltej Pqa2L1Z8GJ6SytTIDUCOu7dCAJwQRNA9CcpQ5sHaQby0aUhLwGRz/fK0p0uTQQN5sQm8LqUwqyve 1TmH1g3Ydj2UENg5h13v/3PDiHZI3gEdt0PS990wxEAOH0EEJCPOORfcxz5OTZPFAqhPenc4/V0s oGGSoHQny/7j/b26Am7fsImk9hiTVJ9zAx9EANM2AEHLGqaN100EdeMplBaSrJdJ3AO+U+5uE4Ip npARTVEb1+VJJaq9690QiYAbZpQuHscRbhyx6x2UFNGoI2nQugGtG/Bql5DXOp/jp+wffy7lKmLx Ckc8ifiyzJsjNcYFTCr0PAaUDxgDgdy98RJgcEAX7J/xfrWA5xLAFBEk4INBtmvE+kAgX6NX22Ak surY1YWf/qzvgPUtYml5SQRUYcz/D7ozch79PY5xOHjnnDfY2g4iDBMHkngnZJOht+tdlvRRUuJm t/fTxQzDwcBTQn5tbYpQAt6uKVcAI4ilcF3abwLTqKIcnP+mpfRIzZKRSJLDxEla3lpBSPzkCeRP P9hYT6F9G6aFCWvnxDV6bN7A/S4fEt13aTYx3knlbNyhEynqN+zbPK/AxwwMA8ZxjBU7+94naki8 73qXTQ2zC9fRtXzQKBFXpVVWtrZ9/cYfDEOy2svCFx7RBBBnOOcrk9GgUAKuAu5uw5pEgXn2W9+/ SXIIyIMFJEp4cFHoPJTVO84hLhzV7n2DmwVw+9oTBnUGFTRQTJyv2ccnYiax6xyaF8+zMDGlkIX1 c/kQUpxz2PcuhXaHIfrsFPIlJLtxxC4Qzabr/b7tsGk7uGGACghZM999E9LAse5/0STpZAyaF89T LIOs/7pOBSCDS20uJ9Wi36dWFK8aploXQLe/ufvZH/1oBmdv1Qg8/VDXJ2QDqXMEe1Vp7DhmFJEF TeK49fMN/9Y3nvnOZsZSGTTinElcTESw73uPWIZkJQRudns4RiR0Pd3Djb4NG618ULo2jhCLBr/1 jWc+2MMNv561kdrOJ9LYbs6wA9rUXyWYyprmcoFpm+0oPs+tCJqH9U3eIBJTtH5e13opMM7kYvny 6xzC7N8U+fqwBkYKqASiGTdbnxACDSGjxUvz53HEcrjdtzBKxfP7vs+u4aOLKGS7K2Yij5G9vse4 2eLFRGlfNOIInMv3fJk9108jWdvkYh+uo6xt84Qmaz5b/wP3nyiSXpBgObHQs5CBYpuwsFJ/OEqY LOOb18Dlk7RuXt2kEmjAG5fUIXe3bAr5JHbHzdZX5iiFns0QCniLXSsJihXybF9tdKwu4v87Fsrl sGvbDOFZoUbwahr19fB7C6zMQYg3glTIlg/jC2sq5fuDgj+E+P02v58Iodtrqez0dH1TOHskAeSw vsmJwDmAlrRr92EBR0axGbU7j3xOEOs7YLkCnEixgiAev/tXfz17NY/scaDoHpV78TRYCTSAvhzz I5CHiYEUMAJSnuCuG7JspJ8+LcwnTJxPXkysjyymySl1vwvxD5p55S4Ymtm6R8HYDm7giOFY+nd2 SNNDpoqdB4pjj0Ou84Ew1+0EkRJX87kEdlsvCWjhqa7DJy3wD39Z4oU6RHiZ/i2Pp4Aj8lyYer6K 7ZT4aQ/81zumFqJtU4R/OWw3eQSwTXkN3LxMor9vD+9V2ruA3f7YIPCjOHucBKBUJCE+d038/+3O R6609t7AxZPQKV0+/Gmz8bEBXmGjw0TTzuFVB/zeBnjf5mVg29MDdieBysMW55rBM0Dfsh2Aj1vg 5zvkU8iXcQ1q936XEj3DkFv+RCyrK9/+/ZYtw8ekaVxN9CAOcDY8XgXQgkhEBESlfCDEMHhjbrHy H83Dmnxl0NIY7HsfKOl7/N5nO3zzSY2bHtHQooLN/QOIgO6p5MPO07kqdPcnHfCmBX7/s41HGvXH wEK8JNE26/xBUuaFibTy6N0bz/1dC6gi9K5UisR2exydav4IPJwAXA9cXPuPcCEptLmj+Wt4oUJO 9VWdjBnnQlIjlD2R18CXSbu6Bl6/wo9+9yf4ybd/FR88vYISAs8bg59t2jjPT9Y3xSwgRUUOjJT4 dLPLRhYt2TGFjI2U8T4A8Tl8dpHnjcGnW8+xP/zsNbr//b98Oxar3PLnaV5qOwExAcGrTw5j/2QH TIGp7sn3b4MAlAZuX/kPVdwibQ/nCiz9fppVTBVp08Xy0Ft4/o5fN+fuFt0f/gH+JGTNvk8rbrUs NcrtiKnMISdCrdKy9ut1ql2gKWva1qsg59g4fp08lDAX8veV8nqbkHh365eAXa2A16/8fTR3Mq3/ Q7Og0+qh9J0uBIkWF977IfuCIn+UBp5wEx+I/7egAoCUB5BMT5VEQB5B3/n6ANJfZAdo4zuIz5xB UIXxhZ/9PBGfNiklDaQZtumZU9W1c1CuKkpI4r+BiYxnn38LfdtqldpFIe8hDPQg3U99Qs+h76BI 6TgkG4D6lAjPuTwRB4CRwD3M2seqAK6zt+vkDhrmt8bQLiMIwaxePmN4OT16vDdMQ/vqk/QsHm3U 1t/LO+X6hVdJ4+jDpeR+1Yukl7XxxAgAw5hS010b/PgLLyHYmkTxPTwcS22ylTdy2zYN4ybkbzZ5 FXAZ9yffn8P69jB2QOswHsC98P4WCEBpoFnl/9EycVwCcMSTxUsN1SZ3DWm4VNcl15C/78mzZEDZ kCBaLEMNvvXH9D7XJ3tE6TDbVuC00h11PWB5Ro88Gg1c2MPYvDZhcWvrCYXaxbOAJMlKiUJA3E97 6hMK/tg69eeOqQCecmeqlZkbX6AXsL0DqkVCbukCGua/Vo1vCO98NRMdXCwOxxasLoA3r4DlRdKV cX3egCzX514GBV5s5d9F0TZtUoaRKpL6Lt1XeiPS5nZMVYeZUWVe1KK0HxxjrX/mm9f+PcamTCG1 tQQiIpKOpbFIKsDWXgIVYe1xHB8kAu5LANMvIXG2XSfOpFBlh3x9vM1tWmOQGlfOqknikhPGs3f8 ezYBiaT/pxab6DrPjeXavKuLvLMJ6hq0/PHBOXJRuW8vJXDzJhmyJGlM8FqI8BZLbxQaVtzJAz0k WcoCEg5l3J/UHP/O3abtdre390U+8LaMQPoQIoS+A4RLotS59CauEsriyPhVzABbr/3iiVr5zm2W ntDq2ksDvhgz4H9zg5BDXNO4mMGUL87ADUI6HkfgovAAqCava337V5dpJBDg7QAayUvP48gHcp0/ NQUdF/clIQxDqgZyvXPdlh7+uRuB+Qu6vfdDCfntLnkEpLeM9X5s3XgCII9gDjg3uN67U7TekLVp vGC5ijchOX5bN62Hy3mK49z8bEwfJyh+/zGvQBtvo+x2h8jmcCrfT0DE1u4OQ+vdnrmQGkgq4K3Z AGOxled8Z9mZPDZxBxmDhhlngB8NSkRABRKcMAipd0GyXT5JCCU/fb1Oq2nS9TyrxhGlC+TFcxPI 2G6miYv+DwM7s0qltvX/9b3PcBLsd9PczSuA1reH5XVAUqOCMRc9y1TAfuOTcUqP4zjM4erBBJAQ nY5HAOPqB3/2P+++/tFfAeBXsL64zsugyD1aXOTRL1gALg10BBLSKUDThwZzF9GEglN6Fg/+AL7j SVRbm2YqoXH0QBpjwCetomodQiYlpgDPyZKJczL2HAsarZmILuv9iGAIpmr9KbonpD9PSbQ4MCT0 0e2rdM9AI5GDhFF6h+3dDwAMDF9jcTwLUwWfNABEBQKx8JNCNwBW8HPSXNrL93+l/Y2//k+w317h 6pmvRzeVT0Z4tTACWMEGDEjlxwbUi9yH50uikX7u+7B40h746re8+zeMh2qD3K45V4tPYXtYRJHe P6SsY0QSxeMpdj/le5NEKqUOIfvVJ8Cf/fH8OzmUsY3ULwO265cwlUC394jdbWimhA4vf/o79vt/ 8Lvd+rMfjq59BeAOwBrADn40XAegZwSSEca5BFAzAlgB4hIYL9JvNOEaCz9OzQ9V/rXf/A4+/NZf wG7jW1MvED5+mjJdQLypgN1GwPU93v3oq+hbHbOD3HgjPUvBHfqPE0q7z++je2x1OMFluadz9Dx+ b6nj6RoidK0BbR1uX/0Au01S4KWB6n/PF9xu717hv/yb/xgQ2MMrzz2AbUD0HYBbtt0B2BQE4AoC yAYRnCIAAz8DxQJ+fvolvBQgAlgWBKDDJgGhcDhg4Rgcnv/1v/k9XD2/Ogx9InW4R+R5um97BzSr MfjTAts7YHk1YnAi+tjlQo3l/VfPBdpd8snnvmv95gb//Xf+x8TZU9/KkTSEzcETQBeQu4MngDVy 5K+RCKBFTgBD+f5jBCCRE0CDRASkCpbhPyIAAy4BTo9ULcetT30LZu7DzLkvGsaZY/57PHF+6pl8 IwLowraHR/AGCel37HgbriECoPsPvkMf+QAUH1BSYRvuJ2SP7Lxi/x+buGhuFDI/niOGLxvxx/rs nP05xyS2HfK+JwIgJBOie+TcftIQPNcNJP3Dkb9HQjBHPhEFDVQ4ZxrzY0g+NdXJl00IU1xdMtA5 xDDV78eYryQCTgClzp8FPfMB/EP4B3ThnhYJwUAiENL/UwQwJQXEif+mNn7u5KJIXwDwutIpxM8R wdxxyf0lAZAh2CLZApwIuAQ4SQS6+ICp2STo5Y69XLLzRBgGmQE4aQfwcNYxKXBqm7r/y4ZTyD9G COVvjjhOANTXPRLSOQGQhHDnvvccFUAf0BcI4KqhRSIAQvycCjg2emV+Uorj9sCXDVOinfffKSlw TP9P2QFcCpQbVwEnqyVLAijL5OnjHA6RUOr9KdGvcFyEc+BzEgGHamNq5qtfJCiRPBw5BuYlwBTn coSSnidu5xsRx5z4P1AFczYA1+3U6a64houkY5yfCuePu2+lepiSAvzc1DO+LJgLwZbcX4r5U8/h zyA1wO0BLhF6HBqBmHhvBqdUAEmDofh/gEe0Q+7yTfn+x6Yxn5IC59gCc/d/WTCZM8E08k/ZAMeI iBt3nBjKrVQfU+8DcDwOwFXBFCXTy0vET3H8MbF9jh0AHOf8L4sQzkXiKf0vMC2q5yRBSQw80MPP n4Rz6gHmDJwBpxcuPodjT0UAzyGiXySYQvi5wSDMnJ/aSoIoj+fel8F9YvPHRDP9L49cf+qd94kG 3qcNnzccQ+B8LcX8fQKniac0Nun/UwbmgzrvlL8OTCPoVPy+/CgKJ5+67xclAFTCVEAImEaGwKGI nlIDJTEA89IBM+ePwn078ZTuPabn7/v8X0RuPxfOEeuPec4pDj/3+Q/u0HPE+EPfd+zZv4icX8KU UVeeP/c59zl3NtI5vK3OfJtI+UVH8GPhQYj6vJ71eXf2/+vI/KLgbRJNBv8Xo4sJiP2SXC0AAAAl dEVYdGRhdGU6Y3JlYXRlADIwMTctMDYtMDFUMjI6NDI6MzYtMDQ6MDCtbm/HAAAAJXRFWHRkYXRl Om1vZGlmeQAyMDE3LTA2LTAxVDIyOjQyOjM2LTA0OjAw3DPXewAAAABJRU5ErkJggg== "
     id="image10"
     x="0"
     y="0" />
</svg>
