<?xml version="1.0" encoding="UTF-8" standalone="no"?>
<svg
   xmlns:dc="http://purl.org/dc/elements/1.1/"
   xmlns:cc="http://creativecommons.org/ns#"
   xmlns:rdf="http://www.w3.org/1999/02/22-rdf-syntax-ns#"
   xmlns:svg="http://www.w3.org/2000/svg"
   xmlns="http://www.w3.org/2000/svg"
   xmlns:xlink="http://www.w3.org/1999/xlink"
   version="1.1"
   id="svg2"
   width="22"
   height="22"
   viewBox="0 0 22 22">
  <metadata
     id="metadata8">
    <rdf:RDF>
      <cc:Work
         rdf:about="">
        <dc:format>image/svg+xml</dc:format>
        <dc:type
           rdf:resource="http://purl.org/dc/dcmitype/StillImage" />
        <dc:title></dc:title>
      </cc:Work>
    </rdf:RDF>
  </metadata>
  <defs
     id="defs6" />
  <image
     width="22"
     height="22"
     preserveAspectRatio="none"
     xlink:href="data:image/png;base64,iVBORw0KGgoAAAANSUhEUgAAAIAAAACACAYAAADDPmHLAAAACXBIWXMAAAsTAAALEwEAmpwYAAAA IGNIUk0AAHolAACAgwAA+f8AAIDoAABSCAABFVgAADqXAAAXb9daH5AAACSbSURBVHja7J15mFTV nfc/59batfS+d7Mq2CC7sjgiEhQlyuLGTGIkKiGKMkmcdzLJODGZmSeZSd5J8uSJGY1KEg0KIu6g wUxMgmEREYFmR6CbBnrft9rrnvePWqiurr2q1clbv+e5T1ff9dzz+57vbznLFVJKsvL/ryjZKsgC ICtZAGQlC4CsZAGQlSwAspIFQFayAMhKFgBZyQIgK1kAZCULgKxkAZCVLACykgVAVrIAyEoWAFnJ AiArWQBkJQuArPxViBZACBHtuMiC5K9CvOE7AoOBtTGYwejfNNn6+18vLsAJOCIyQAQxAsVAPqDL 1t//erEDbYDHv8UEgAAMQH5ZWdmkW2+9dZIQAkVRpEajUWM9pXhgIKdgYMAIxJxs0Gc2O9vz8mzD HhzdFAXF6XTqurq6LPHO0+v1npKSkv5EakcIIUOfraiqGNvSki+kjFogKSVSCHmuvLxHVRQZr+yR 5l+0tbXlut1ubbzyFRUV9RkMBk+s8oc+Q1VV4fV6FYCenp7BzZs31/pBYEsEAIqf9rU33XTTuFWr Vv2rEAKNRoNWqw0qKvyFhRBobDbKNm5E39ERU6nS66V9yRKc1dUxlR56LPBbVVVee+01Tpw4EfMa VVW56qqrmD17dsz7RSuj6f33sW7fHhc8jooKem+/HRQlKeUD1NXVsXHjRjweT8zrjEYj9957L0aj cdj9pJTB8gf2ezwe3G63z/h7vZ2bN29e5df1sEKK0Bv4RQMUAKPvvPPOBY8++ujPDAZDwpWnsdko fO45tG1tMRUrDQa6V63CM2ZMXKWH/5ZSsnnzZo4dOxYXNMuXL2fevHlxARZpn2HXLkxvvRVXma6Z Mxm4666oIAhXWKicOXOGDRs24PF4iDVLq7Kykvvuu4+cnJyo94t0fV9fX9ecOXPuAc4AzcBA6Lkx AXDXXXcteOSRR35WUlKSMACEECiDg+T96ldo29tjVrw0GOhfvRrP6NFJAUAIgaqqbNq0iSNHjsSj d26//XauueaauAqPaEp27sTw5ptxmcA9axb2v/s7ZNj9Yik1cOz06dM899xzwVYb7bzq6mpWr15N Tk5OxHtHAkNzc3Pjtdde+9VoANDGs7cej4eCgoKkAEBBAeKb30T3xBMora2xDCOGjRtxP/ww6tix SdG0EIJ169bx7LPPcujQoZgA2L59O1arlQULFiQPghUrEFYr4uWXYwLAcOwYpm3bUL/85SATJKIg gDlz5pCbm8vTTz89DASh57W3t7Np0ybWrVuXEBN4PB66u7vtKSeCHA6HYcOGDXi93qTdTmmx4Fy3 DrWsLI4RdaB78kmUc+eSz2IpCvfffz8zZsyI2cqklGzZsoW//OUvEVtkvAmyctEi5MqV8cvz4Yco GzaAqsZUfqTnX3HFFTzwwAPodLGDrgsXLvDkk09is9nilmdgYABFUdLLBHZ0dER1uOKCwGr1gaC8 HLTaqJvwetGtX49y8WLSjlQABLNmzUKr1UbdNBoNr776Knv27IkKgsAWSdTPfQ71rrtAp4v5LsrB gyibNkEM2xztGTU1NaxZswaDwYBGowk63uFbU1MT69evx+l0xmSW/v5+NJrYaZyYPsDixYtvMZvN 37/mmmtYvXp14iYgSa873fNS+T/RsDMuyBNQrkwQDJk4FvgtpeTEiRPk5+efvvLKK78RzQeIywBC CGpra5NumcnGxMmel+xzU6H+ePdLVvkjcSzaeTabDVVV44I8LgAURaGtrY2mpqbPdKorVWXEov1k zEQi+0ZS4eHHent749r/hAEAxGSBv4ZWH6rcaFsyTBBP+alSf6L10dfXh6IocessYQCEhlqflWVl 0mn1I/H8TDDBYXmUPtGfVuNwu93Y7fbMMEAABKdOnQp6nZ9mq48bso0A9Y+kGQj9f5fyPjeKRfxQ +UlaZmGwrw8pZdwIIGEACCFwuVxpm4GRoPp0W30i1P9JmIE+McA61mLTOrjoqUvdLKgqrm3bUG22 9BnAYDC49Hp98EZPP/00b7/9dkbtdCaoPhNMk6lIIFUm+D7/wVlRB6rKEu2ylBqLt7eXzp//HPuO HVhffRVdlNRywgAwmUyOVatWYTQakVLidrt56aWX+OEPf4jL5frUWn26ykn3WfHYIFnlv6j8nqeV J0AIkDCayqTrydbYSMv3voftyBEf/be1UbRxI4rNJtIyAWPGjOGLX/xisCsY4OTJkxw5coTOzs7P TKtPRiGRqD9Ru5+MGUiknIfFUf5J3ocqACkwCiOlalnC0YKqqrS2ttK6Zw/egQEkoOIb1JHT2krB 5s15afsA06dPZ+3ateh0uuCLejwezpw5w5kzZ6L2Z38arT7V5yRr91NhmvD/G0Ur94i76dEPwGkJ di+jlXGMlqMTqju73U5DQwO9vb2ofjBIKTEoCmMtFhRfz6xIGwAAs2bN4tFHHw0OSlBVFVVV6ejo 4PDhw/T29o64x59O5i0T1J9JM+CWbr6pfou6nDr4UMJZCRa42b0Yo9THdQI7Ojo4f/48LpcryAQq kKfXM85iQZdADiApAABceeWVfPe738VisQQrQFVVnE4nx44do76+PojCTIeKyYIgEerPZAiYjBnw SA/fVh9lm/5VqBfwZ+Ayn/1fycqY7+h0Oqmvr6e9vT3YCFXVN1KvymSi2mxOqo9DSbYCJkyYwGOP Pcb48eOH2CEpJU1NTdTW1jI4OJixsC5R+k4FXJkIAVMxA//q/Fee0T0F3QJel5AHjIMrBq/gSiZH fYfOzk7Onj0bzPMH6l6r1TL+6qsptFiSrvOUxvyPHz+e0aNHM2PGDLRabbAwUkoGBwc5dOgQF1Po 2s10xm8kqD9dM7CF1/m55nHf8MzfSWgBZgNeyVrlYbTq8DE6breb+vp6mpqa8Hq9Q9jXarUyceJE DDU1uNes8XVXJyFpTfrIz89nzpw55OXlDaEjVVWpq6ujtrY2oexhplr9SFF/pszA2/L3rLV/BTwS /gc4C4wFRkGpq5yVyl3Drunt7eXjjz+mz5/dC1V+eXk548ePD2b81EmTcCUJAiWVCghLFnHVVVcx atSoYZTZ09PD/v37aWtrS9vBS7bVpxvWRTMRqZqBd1zvsNr2ZdwaD+wEPgZyQEwSYIQ7uQOrvETh Xq+XhoYG6uvrcbvdlxw9VUVRFC6//HLKy8uHh4U1NdhXr0ZqtSPPAKGp4okTJzJt2jQURRnCBC6X ixMnTnD8+PGY4WIm077JUn8q4V8yZmAXR1hrW4tNscNeCScAPVAEcgLkDuayVr82eF1/fz/Hjx+n s7NzSF1KKTGZTEyaNInc3Nyo9eCZMIHee+5JCARKphQBUFpayrx58zCbzcPoqrW1lQ8++IDu7u6M t/pUKPmTMgN1ooE1PffRqe2EwxKO4Jt2owEmA1rJl3SrGMsYpJRcvHiRkydP4nA4hvhWqqpSXFxM TU0Ner0+bp24LruMnnvuQcYxBxmf+Gk2m5k3bx7l5eVDCq+qKg6Hg4MHD3L69Olg6JJphy9d2s+E yQhIHee4s/02GsXHPso/6G/5ACVANeTb8/lGztex2+0cO3aMxsbGiM+77LLLGDt27LAQL1ZduMaP p3vlyr5Y76ZN5OUjzu6JsV+j0TB9+nTy8/M5ceLEkHFqQggaGhro6OhgypQpWK1WEplWFenFoz0/ YJYymX9I9l71nGdF63LO6euhDjiEb5al4svVihqB1Ege1K9FtMCR80ciNgq9Xk9NTQ0mkymlhJqn sNA7YgwQryWOGTOGuXPnYjAYhrCBlJKBgQH27dtHQ0PDsBf/rFJ/ombgjKxjWdMtnNPUQz1Q669p vT9RPxpkmWScYxw3Nd9MfX39sPDO6/VSUFDA9OnTE1Z+Ku8cEwA5breGJDN74YUsKChg/vz5FBYW DkleSCnxer2cOnWK/fv343A4Rpz6R9r2A5zynmbpxVtoUBrgHHDMX8tafFNmLcB4EA7Bt/r/GWer fZijJ6Vk7Nix1NTUDBvUkU5/R9IAKB8YMOe/8gqxQJAIFen1eubOncvll18+zC+QUtLV1cWuXbuG DTzNtNefbOYv2U6hM56z3HZxOY3aRrgAnPLXcID6hS/jhxFusC9mdHv1MGdZo9EwdepUqqur024A iZQ7rgkwHD1Knh8E6dhTIQQ1NTXMnj0bjUYzDPFut5va2loOHTo0ZHrUZ436owHqA9sHLG24lYvi ok/5Z/2evo5LS2wUA2WQ15PHvT33onrVIayYm5vLVVddRV5eXloZx4yngo1Hj2J56SVkKlPEwgpS VlbGggULyM3NHcIEof0JO3fuDI41+CxQf7z7vtv/Lnc33k2jptE39eJcCO0Hatjgy/jhgG/yLfJs 1iH2vqqqihkzZiQU4mXSHCTsBOoPH0b/wgtRQZBMQc1mM9dddx2jRo2KaP/sdjt79+7l+PHjQQcx 09SfaoIoXLYOvsW9TffSrm335fUvhCk/QP2lPuqf5byKaR1T8Xq9eL1eFEVhypQpTJgwYdgU+FTe OVnAa5M5WXPgAHrAvWpVxLnw0UKzSOGZRqNh1qxZFBYWUltbO6RbMxhH19XR3t7OzJkzg4wRLcRL NPzLZBi4oW8jj5z/Gh69BxqBDn+NhhZB+lK+FIG+T8/9jtV4XZ5gQ5g+fTpmszntVp/qO8VkABkF BLoXXki5EOHHx44dy4IFC8jJyYnIBn19fWzbto3Dhw8PySd80tQfKl7p5cftP+Xv6x/Co3h8tN/l V354y9f6kz4uuFXzFSr6y5BSUlZWxty5c4coP5FEUzRpa2uLmEdI2wmMyAQffZQWEsOPFxQUsGjR IkpLS4dFCX19fQwODrJ3717eeustBgYGUqb+TNh9h3TyaNNjfP/iv/sU3AoMhnj6gQV2NH4A5Pni /8vcl/OFrkUAXHHFFUybNi0Y4qXa0RR67PTp02zatClqhvUTTQQlCoLQc/R6PfPnz2fy5MlDfIH+ /v4gI7S2trJ161bq6uoy2umTaPjXzwAP1T/MU81P+BI6HT6nDk2I4pUQE5ADmEE3oOPvbeswSj1z 5sxhjH9ZnERBnOix/fv3Jw0Cbbp0GM/uJ5vmnTRpEoWFhezcuXNIx5GiKBQVFaHRaDh69Cjd3d1M mzYtuKBCaGVkYtp3uByzneAfG/+J97t3+hTcj2/5xXCbH7CdCpALOOE+22qmWKYwa9Ys9Hp9WqOc 4h3bv38/LpeLJUuWpD8xxK0oXhKozFTpq8HdyCnn2WHnFBUVMXnyZHJzc4NoLiwsDE52lFLS2NjI jh076AhZkWyk/IBNLZu4vXYF7/fsRKjCP8Per3xNCPUHWr/wefwANV01LOEmxo4dGxxVnQwzpuLo HThwgNdffz0hJogJgIu5uYP9S5dmxKsOP97h7eL+Iw9w4/4beKblt8FzvF4vTU1N6PV65s2bx+jR oykoKBg2zkBKic1mY/fu3Rw7dixm72Kq24B3kB81/ZiHzzxMq6YVXCAd0qfgcMWHbnofOPK78/mv iv9i3Jhx9Pf309XVlZbikwFGbW0tr7/+etzlfeKaANvs2SAlBe+8k5Y5CA/VBlUbza4Geuni2x8/ glTdPFi5htbW1uAwMkVRuOmmm+js7GTfvn1DlBz6+8yZM7S2tkbMoqUqtYO1PHLsEQ66DvqU7fJT e7wakz5waAY0PDNrPTWemqDj2tXVhV6vx5Lk4M1UGaG2tha3221N2wm0zZnD4LJlGYuvpZRYFQvl 2nLw+MKqfzn5bX526vEhI4pLSkrIzc1l3Lhx3HzzzcMGmoRGDL29vezYsSPmWIOEyo/klc7XWHFg BQcdBy/Zd00I5UfbAibADg9OeoxlFUupqqoKzqUAaG1txeFwpDXpJJm6bmpq0mYkCnBccw2uO+5I 2+4Hs4HCRLFS7HOkBLiFm+9f+Dde6n8F8A04LSoqCp6fn5/PLbfcQnV19bABqIHneb1ejhw5wu7d u7HZbEmHgd3uHh7c+yBrDq2mx9tzqSMnFt2Hhn6qjymuzpnND0b/nyDbVVdXB51VVVVpamqKO5sq 3fodkTDQc911uG6/PWW7PyS1LHTkavLBC0IrwAAePPy47Uf8vOdxCsuKhl2j0+m4/vrrmTlz5pCK CAdEe3s7f/zjH7lw4UJC/oAqVd7t2sGyj5axxbbFp8zAWumhjl2kLZD29fqUn+/O5+VrXyZHXMrp a7Vaqqurg1651+ulubk54jiIdMPCjI4HiPRAz4IFuG67LeV4P1TmFc8FG0iP9FW2CVRF5bfNz7Hm 4MNccDZHvG7KlCksXrw4OGs5lAVCZyvt27ePffv2RV2BE6DecZ51x77GF3bfxdG+I74asXJpoXxN SIYv2ub1JYMUu8JTs5+mXFc2rG4MBgNVVVVBH8npdNLqX0QzE+bAarWOHAMMA8H116dk98NlcdHN WDT5l1axN+FboN4Ir5zbyLW/n8v3P/4x7a7OYdeWl5ezdOlSSkpKhgEgdLtw4QJ/+MMfaAtbu7jH 28dT59ez5E+LebFhI54cjy9uLwhx9BKhffw5ARv848RvsqJ8edT3N5lMVFRUBPcNDAzQHmU53WTN wZQpU1iaYMSWkglIF6Hh50gpkZ0errDO9KVSnf4K1ftz5/nQLtv5z4PfY9G7C1nf8Dw9nqHjG00m E5///OeZPHlyVL9AVVUGBwd57733qK2tpc3VwRMNv2bJjs/z6MFv0SbafIovwTdaJzyrF2/rAQZg YcHneGzyd+LWY25uLsXFxcF66Onpoa+vLyOh9Q033JA0CJLKBCbS45Zo9q+trQ2PzckX8lZwoGUH stc3OzZYomK/QrrhTP8Zvr7zAX5W8BMWly9mUfUNzC+cS4mhGCEEc+fOpbS0lF27dgXpPrSsLsVF naaB105v5cDF/bTZWnwUn3+JcUjGdPpDPTqBXrjcOIEtC19CH2L3Y83rLyoqwu1209PTA/jWANbp dFEXgU4GGDfccANOp5OtW7eOXCo4mXg/koSifqH5Wq4tuZ5dHTt8LbEY3ycNhN8kmPydLd1Q3/8x z5z4mF8df4rLLZdzdfU1XFU0i3GmsVQUljP15hl8+MGHDAz206/20SY7OSvP8LH9OK3GNtzS5bPX 5SGKDyhUxFB2ePeuzqd42iHHnsNvFv4aq8aaVNxeXl6O2+1mcHAQKSUtLS1UVVXFXCs4UWAsXLgQ m83Gu+++O3J9Aank+QEGBweHjPYpLS7lR+U/5LpX/wbZJn0OWA6Xvmsh/Dl1f14dG6i9Xj4eOMXH J06xyfMcqKDXGbFoc9EqWpweJ33uLqQqfcoK3DM35LcM2aKJCFF6aI3ZgYs+YK6/4dfMLp2dktIq Kys5f/48DocDj8dDc3MzVVVVEVf3SjYfMH/+fAA++uijke0NTMbuBzzfwP+BWH9G3lTumXS/z55e BDQaMGhBKy6VUPgVVwyMB2qAK4DLgdHgKnHQldtGm6mJ3rxOZKX0DcAc7z9vgr/lm0LuF959Gymx owA6jW8zanxgOA/0wVcnPcCdo29PSVFSShRFGZIjcLlctLS0DDsv1WTQ/PnzWbhw4WBaDJBqSx+W Q/B4aGpqCsa+FotlyOTGn839MYdaD3Kk/SDkSrjM4mMBrxNUF3jVoZRs9AMitJWqIa01oMDQ/TIk ficO5UtA0YLOAFLjX8DJBue80AnXllzHj+f+V0xlJLK0WyBHEJgfYbfbaW9vp6SkJCN9LzU1Na6M hIHpRAFSSpqbm4OfRTEYDEPCIYAcjZGnFj6FxW6BsyqiCQzmPPTGIvQ5pSg5eaDVDbfHoTQe2poJ A0Qynr0QKMY8dDkl6HS56A25CB3Q4IYmqKKKV27dgkEYMpK/1+v1Q3IEfX19QQcxVV1kJAyUYV/N SjXeD+S/A9m80KxYqMwomMKmFVswDZqQR/rQNLmwmCyY9FZyTaXkWsdgtJQjDMahytTE2bQJnBO4 n86AyVpNnqkMk96MRWdFYwB5sQ9Og9VlZePyTeRr8zPSYRM4ZjKZhjBiZ2dn0iutZDwT2Nvba9m1 a1dabNDV1RXsDQvYPG2EacuB82+oup5Nt72EoUePbX8nmjaBxZKLWWvCqrdQZKqkPG8ihbkTMJlK UHTmS2+hJAGKCJ04hpwSyvMmUGAsJkdrxKqzojcZcbR2wFGJ6BP8ZulzzC2dkzL1xzpmtVopLi4e 0nCcTueI9g3E8wFEIJS48cYbk7b7fX19wT5wIQRVVVUYDIa4hVpcvYgtK1/ljo0r6H3/AqMMk9FX 5uF1ekCAQCC0eWCswC1dOL02Bj0D2L19eL2DuFUv4L701Q4Zw8MXCorQU2IaR76uGIFERUVIAToN DW1Hkfsc0AHfXvIDlo65JWHlp8IEhYWFuN1u39JvqkpzczPV1dVR1/1NFxgJhYHvvvsuBoNhWJYp VrzvcDiGpDnLy8sjTnIMHwsf+P/GUZ/j/35pA9984Utc3HGUiYuuxlKdj8ftQiCQMuDPGRD6PBAC KVW8UuJQHdhVO6p0oUo3UlV9WAgqXaKgoAgdimLErDFjUox48SCl6hvMqzNytvckzt3d0AYrJ/8t 353+SFLKTxUMpaWlwRxBaHgYXleZ8AO0iVC5EIJ33nkHi8XCwoUL40YBbreb5ubmYCGKi4uDK1ok whwBeWjUbdgW/yff+92/cPqdj5i26FoKJhbi9jqRaliYLiVCKAgEeVgQKJeeI8TQfE4wHe27WqLi RcU3fQf0ip4G9zm6dtVDg2T+6OtYv/QZFKFErdxMfx+goqKCCxcu4HQ6g+FzYM2FTPoBSXUGbd26 lffeey/mgwO0FQj38vLyhvTrJ1tx/3j1N9jyxZcx9Os4tH03jgM95IsCzEYzOYqRHI0ek0aPSev7 bdToMGp0GDQa9IqCXlHQIdAj0AU2/36DRsGg0WDU6DBrDJg0Bgp0+dh0Nur2HIFTkjJRxnMrnsOg GDKi/ERbqqIoVFVVBf2lgYGBIQm0dL3/pDOBAQW/6f+I4vVhPYIBaWlpweVyIYTAbDZTVlaWVKuP JEsn3sr+tQe449nb+OCdPzG9ax5XLJiC1yrxur2BNZYjJu6Sye/r0GLXOTi6Zw9yr4Ncby6vf/UN qiyVGVN+MmDQaDRUVVVx/vx5pJR0d3ej0+mGdf1KKcHlgrB5hRntDQx92JtRvqTZ0dER/J5dpFg/ nUqrMlfwxwf/xOerl3DgT7v48I3d5LQZKNYVY9ZasGosWIKbGXOSm1Vrxayzsv/kPgbe7UYMCDat 2szMshkpLwSdCbOg1+uprKwMNqD29vZgSB1aLt2BA+j27RsZJzCWbxASMgbXC9bpdFRWViY0Lj3R 7KKUEovOzItfepFn3l/Pt9/+Fp3trVx3/Y1MnDkJt+LBhc9BFMFUXqIiyCGH99r+TOObx6EPvr3g WywavXBEvgySLBPk5ORQVlYWTBMHnMIhHUdSYtiyBaTEPm3ayK4UGg4Em80WHJ8fbrsyUSGh52iE hof+Zi07vr6T0vYCtr6wiXc2v4mn2UkZpeRiJQcDJnIS3koo5nTfGfZv/jM0wFevfoDv3vS9hO3s SKyBGH7MarVSVFQUHPvY0tIyfPCrlBhefhn9Bx9kzATE1UpoB4YQgsrKyuAc95FcCHpW2XR2PbqL 7yz+HqfereXZp59kz44d6B06Kignj1zMmLBgjrqZMVFCMd1qD394/Q3kCZXbZt7GT5f/1M8i8ek0 08qPZRYKCgqCw95dLldwSNmQc6XE/MYbmA8cSB8AeXl5A7G+yxs+uLG0tHRYrJ+JVh9tv1ln5juf +2d2fOcvTDRP5H9eeJP/fuKn7K3di9GbQzkV5JKLCXPErYACJIJXtj+P7cMeLsu9jP++8wm0QpOQ 4tNltVSYoLS0NDij2Gaz0d7ePvw6Kcl76y3McbqC4wJACCGXL18e8ePMgUEMgeHNgVh/JCoh3szY mZXT+cvDf+IHt/8Id/0AL//yN/zkie/zXu2f0Ko6KiijgDwsQUYwYcVMPgW8tudlGt+qo1RTyrZv bKMwpyChzq1MvkeyYCgrKwvOMQz1vYaB4O23se7dm5OWDyCEYPny5cGh2AEJ9Ubz8vIoLCxMieaT qeBYCtEIDf/wua9x6N8Os2reKjqPt/DiL37FD558jN8dfRsJlFNOIfmYMVFGGe/UbeeDV/+I0W1k 6yPbGJM/ZkQ+C5OuExj+v6IoVFZWBv2szs5ObJEW5ZYSy8GDxrSdQCEEd9xxB1dffTXgG9gRWL3a bDYP67v+NBeCLjeV8tTfPsWfv/4eX7n1q7SdvsimZ9fzz4//A1sOvojNaedyxnO4/QhbfvM82OHn X3mcqWVTks6upfr94FSzhKH/a7XaYKQlpaSlqwunf63BEUkECSH4whe+gMPhYM+ePcFYv7y8PGNf 4c7kaqAzx05navVPuNG4iGdOPMP7je/z4m9/w/aqrcyftJB9J3bjtdl56KqHuGf6l1LuvPk0mUCv 11NRUUFjY6NvxpHNxqiw5WYy1hcQ8DwXLFhAb28vWq2WqqqqYKwfq2Mnkf9j7Yum7HhA0Gq1LL9+ OUuuWcKe2j1sPLiR7U3beevcK2CFZaOW8e8r/j0tnyWdfZkAQyBH0KkouFWVZpuNcqMxswwQWMcv sGDDsmXLIsb6qSR3kmn18RagCmWr8JaycPZCFs5eyOFjhznefhxcsGTOEkw5pox/luaTThRZLBbc 11/P4Jkz2E+fps3hoCDBJFzCAGhra0Ov1wcnOwa80GRb+UhTf7zKmzp5KlOZmnJuItn9nxQYCoqK cN97L67f/pa+kydBUShIoG8gIZj09fUF5+yXlZUFJzBkMrmTrNf/aS0EnUx5P+n+g+KSEsTdd+O+ 7DK6XC48CdRRQgwQCPeKiooi9kRFavXa3bvRvfGGv58+eotVp03DtWoVUlGSpv6zZ8+yfv36uN8l Ki8vZ926dUMWZki0RYuBAXRPPoloaYl9rcmE68EHUf1r/CajfFVVef755zl69Ghc03bnnXcye/bs qPVUXlFB/cqVeDZtwt7YiD5dAEgpcTqdVFRURI31w5Wk2bkT/euvXxqSFU35U6fiuuee4KKTyVB/ XV0dv/zlLxNS/kMPPRRcXCIZEQMD6H7xC0Rzc2zQ5OTgWrMmZeVv2LBh2JfZ4yk/1jiC0WPHcnTZ Mrr/8AdK43zQMy4AnE4nVquVUaNGJdQqtTt3on/tNeItLuWdOhXXffchoiyHHgsI9fX1CSv/a1/7 WmpTp/v70f7iF1Fb/hDlP/QQ6pgxSTuEXq+XDRs2cPjw4bjKv+uuu5g3b15CZkGr1XJFTQ0nVRXz iRPOVAAgAMXr9Wo7Ozuprq6mr69vmFLC/8/Zuxfdtm3E+2i5e8oUBu64A/zDnqOBKdL+c+fO8etf /zr49fJo15aVlXHfffcFVxtNxl8R/f1Y16/HE9LZEvF8o5GBVavwFBQgI7S0eMp/8cUXOXbsWNxy rVixgsmTJweTb4n6CHqjkYbp013EmAqjDVN6YP0rjR8ASqCjx263xwSA+YMPMGzfTrzvgjknT6Zn xQoIa72x/ITAsYaGBjZs2BD30/VlZWWsWrUKRVGCA1QS9aqVgQEKnn0Wta2NWCsNqQYDPXffjauw MAjkRAHm9XrZsmULJ0+ejNvyly1bxpQpU7Db7Uk7jHl5eZw/fz58wntEAERa+EQBlNA0bzSHz7x3 L7kJrCLmvPJKelaujLrQdCzqb2ho4Pnnn4+r/NLSUu6//35MJlPykyT8yteELSYRSfndX/4y7qqq pCOhZJUf3geTTLSg1Wqx+uyfCGV2QuZTCb8Sw5VfCFSPGjVq6po1a+ZJKYWiKFIIERx6F5w1pKqi qK3NIvz7hBBDZhSpUga13VFUZFcVRYZe7/8r/C8gQl4m8FsB6OnpMXo8Hk3oNSEvG3xBq9Xq0uv1 3pAKCdw//JphDGOx2bQmhyPglATeN3gT/3XSbjS6BywWV8j1oefKEIdM9ddvcJ/b7VZ6e3sNgetC /4Zer9PpPAUFBfbQZ4SdK8P3Bf76B+cKIYTs6urqffzxx/+M79NVLfgm20sZqOSQVh0KAjO+ebiF XFoMVTB0rm6sLRRt4fti3YcY16Syj7DjEH9qaKS/MHQmokxhnxrjnFj3SfY6NcJ9+vGtZ96Fb8XD S4wbwaMP+AE5+Obg6uIoXUlQIUocsCQKKhFFqSKGskUEJzea8mOBIdpvEgCCTBAw4fOZY52rJgAG Fd8qTE7/RjwARAJDLAVGUnQiLTkZZScKAKK0/rQSg0n8TZYdRmJTIzzXG82HSGThU08UYIgkgEEK LTtRRcdTvMiA8qP9ToYlkmUKElS0GoXBMtcZFKViIqErklKUBO17IgpOxrYnQvuJKD5R80Ac85AI ECIpVUZ5TkZEm+H7RSqoN4Z5IQ7lK2m2dpGh90mFFdQEWvyIKPXTBEC6YElVRArHRRKKTubY/yoR n9RHFrPy2RQlWwVZAGQlC4CsZAGQlSwAspIFQFayAMhKFgBZyQIgK1kAZCULgKxkAZCVLACykgVA VrIAyMpfo/y/AQA7/WG+NIbr2gAAAABJRU5ErkJggg== "
     id="image10"
     x="0"
     y="0" />
</svg>
