<?xml version="1.0" encoding="UTF-8" standalone="no"?>
<!-- Created with Inkscape (http://www.inkscape.org/) -->

<svg
   xmlns:dc="http://purl.org/dc/elements/1.1/"
   xmlns:cc="http://creativecommons.org/ns#"
   xmlns:rdf="http://www.w3.org/1999/02/22-rdf-syntax-ns#"
   xmlns:svg="http://www.w3.org/2000/svg"
   xmlns="http://www.w3.org/2000/svg"
   xmlns:xlink="http://www.w3.org/1999/xlink"
   xmlns:sodipodi="http://sodipodi.sourceforge.net/DTD/sodipodi-0.dtd"
   xmlns:inkscape="http://www.inkscape.org/namespaces/inkscape"
   version="1.1"
   id="svg2"
   width="16"
   height="16"
   viewBox="0 0 16 16"
   sodipodi:docname="kate.svg"
   inkscape:version="0.92.1 r15371">
  <metadata
     id="metadata8">
    <rdf:RDF>
      <cc:Work
         rdf:about="">
        <dc:format>image/svg+xml</dc:format>
        <dc:type
           rdf:resource="http://purl.org/dc/dcmitype/StillImage" />
        <dc:title></dc:title>
      </cc:Work>
    </rdf:RDF>
  </metadata>
  <defs
     id="defs6" />
  <sodipodi:namedview
     pagecolor="#ffffff"
     bordercolor="#666666"
     borderopacity="1"
     objecttolerance="10"
     gridtolerance="10"
     guidetolerance="10"
     inkscape:pageopacity="0"
     inkscape:pageshadow="2"
     inkscape:window-width="640"
     inkscape:window-height="480"
     id="namedview4"
     showgrid="false"
     inkscape:current-layer="svg2" />
  <image
     width="16"
     height="16"
     preserveAspectRatio="none"
     xlink:href="data:image/png;base64,iVBORw0KGgoAAAANSUhEUgAAADAAAAAwCAYAAABXAvmHAAAAAXNSR0IArs4c6QAAAAZiS0dEAP8A /wD/oL2nkwAAAAlwSFlzAAALEwAACxMBAJqcGAAAAAd0SU1FB9oFCw02Hhtbot0AAAz0SURBVGje 7Zl7dFXlmcZ/+1xzciUkMYFg5GIFRBERFWdYjReqaBU6Lsl4mWodW5g/prOqddlhWmeWWsWqU9bo woIoF6mjDcu2AiIOVYuIGm61XEIgEALmnCQQcjnJuey9v8v8sfcJOwmXgLjaNWv2WjvfOcnJ2c/z vs/7vO+3N/z/8Zc9jL/Qd+u/dgIG4HNXw3MdDSh31eeDiO9rAJ4BHwDCixYtsha8sODPQATIAsJA 0EPwryoDBuAHAs/Mfy519Gjrd+v316+88YZK4vE4Tzz5xAjA8pw2IL+KrALnWYr+TOSHFubj06x8 dckr5OZHiJY0s3bt2qaudHzrfXfdeyeQdLOQIaHOhYRxniMffGb+c8lYLPrgoYZDy268oRKhBM23 HQGgRJVydetU2ZHo7Pz771RNcUmk3GyIcyHhO0+a7xP5URUV8zZu/Igt27ewpundXnkc87XyXtlq f3nx8KLqd1bVAwVArlsbIfd7jLMJrPF1RT4ej9NV1XbKf4zY2cyI355qOhrdc9/se+8EEoDpZkMN Nhu+8xT5rKGF+YwYVr4sE/kPOj86aWFqpZFS0U036/PXRkYOv+iq3/y++k9APpDjZiMwWJcyzrZe js984cGi1Y++non808/8ojsWi/5j46HGpf01jz5xBa00Smm00mgFSkmUdP4+7cg3CYezRNWs2ZcC PW5tDMqlfGcT8T3Tf6b8hvFa66MrbCAbyCvIz6FiePm/eTWvldZaazAc4EEVJKBDSKEQQmHbEttW CEtipmw+KP6AdXnvBjZv3lz7xqr/Xu1mIzKYnjHYDBjvGjc9FMBYMuKmqZTnFPLpnEtY+cZbPzze 1v7SDdd/k56eHrqr2tEY+NywaK0J6hA/H/csAC/uf5ED8XqUVEipUFIjpUZJiZKagvxcZvbMJCGS xwfrUoMl4AcC7xvT0wBbn6zkB3PmsH3bFmZX3cP0m2+itfQYVz44QfuDfsPw+dBKETJCPD3+WZQC KQRKKdY0rWVD8waHhNC9ZKTQSKEIZ/m5Ln01I3IqBiUp4ywaXgTIe/xnP41ed91Uduz4gsfmXECw dS73N96DL+QnlB0iEPaDYRAywjw9YT5aaqSQCCEQUiCFpK6rjsUHX0MJhRTKXR0CSiq0i2remB+p aFtsxz/Mvs/rUn0an+9s3SacFeGzzz7np7Me53j1XOzSxbw+8k3shMBKWJgJG5/l44lLnsK2BJZl YVqmc5ppUukU5f5yHhv1CJYpT5xpgW0KzLQk1WOR7EzzYssiX46RPcXjUtmefuEbTAYy4LOeePLp 7rq62h+2NLe8NOmKiTw2ZgFlldCyEYqqFhNsncvdtVX4In6en/I8AX8ArUEriZASIWxsW2DbNkI4 q9KKX+59mbZke6+kpJBIO1MfiqycEKUF2dx9wT2iatbssf0kZfkG22GLhhYw9uKxL23ZUsPefXu5 +Y9X0LIRyirpzcRbl1ZjdqZZuXslPYkEyWSCVDpFOpUinTZJp9OYmdVMk+xJMKfifmxTYqUldlo4 p+W+NwVdRxMcjnbw4boNgRdeeKHa07kDmeI8U4dNjRs/vm7rlm2zRo8eyZRrptBzczd55Tn8zhrD TUcOUFYJx9atJXztYu7Je55nd+XQljzGmOwxWLaNLWwsy3LkZJu9r5XS/PrA2xztacO2JMJWCFsh bYWwnUxI4dTsty+ewZ7ancN37Nix1K0DAZiBwUyVIV/FvBXLl5GTl8WXhVEqLr9Qh3JChtbwQPct rNj4viOn6rkUVS1m7d/M5Vsf2qSTFrNG3o5SjvsJKZFCYts2AG80/Ja69ganiKVTwEo40lG9DqUZ WpZNQX4Ey/m/iKcOBmSgT+THX3rpvpqard8ZPXpk0VWTJ5O4M8GQi4fg9xuG1kavBVbHK7il5VCf THzvggU8tSVMW6qD0TkVmJaNbTmZ0Frzm4Y11B6rdyMteyPvRF25TU9TPCyfH1d8n9Xr11JfXz8/ Go0ecHuDCSR9ZzPbCFtpn98Avw/8YAT9+IJ+jKCfu1orB9TExtv/QE3jNlbtXU0qkSSZTCKE4K36 1exs3YtlOjq3LYkwBcKUCEtiWxLblhSW5jB/0k/43Xu/p7a29qWampqaftvSXslktoHBZ+Y/l+o/ z++cuBslFH6/Dw2OU2Ssr9uRihU3MZMWqys2D3CnK5f/LRPLJjBt2NV82PwZezoOOP3BlY0UGqUc 2TjDnqZoWC6T9+STCEfYu3fv4l27dm0CjrlnGxAHugL9CQwtzCcrEJi3fNnS3p3U8LEjtN9vGL3t 302vkiB9Gu0z0AEf+Axm7LuW9dT0qYk/fW8u4xcJth7ZifYbGBhIrdFau+A12iWglGZoWQ4vj5vJ Hzt2s62lg127dm1x7TNjoaZbxPj6a3/NmnVoQ1/y40cegbv9lF0/HENjSKkdezMFlikRlsAWEind fBqgfT60YXDjF1cNkNPef6rBSthYSRsrZbnWKRBCImyJsJx6KijJZuG4mRw+FufzaBv79u1fmIm2 u/Z4OnKvhAJuZefm5ua1fvuO24iWNFMyrUz7/T4Dg962L8WJGUbYCiEkypJYKYGdEoikiZUU2Amb T6b+eYCcKp6dCD4nW9rAaXaAUpohJdksumwm0c4kb3ywlYaGQ7+qq6vb5EqmDehwSSQzI4WvvwMV TR6aNGeptgumlYHGkFJhpb3t3s2C23CkqbDdzqmURuFzs2Fw7cbLBmTiyL/uRKQsh6wpXOeR5BdF +OWYW2nuSvH6/3xOff2BxXV1dZuBTvfscqOf9kymA/cDhz8+fA1Ju1gDSirHJdICKyX6zCyW6UTc NB1StlBICUIrFE50lQGTN4wbQCL2H7UI00aaEiUkuYURRmzsomZvA0vWbeLgwYOL6+vrN7sRb3ej nnDBZ4Y57SWQuUsmATVq1yiCQb8baSfivUQyJNISy3KiaJuu9UnhjM6AxHBlYjBx7SUDSBz7eR3K VkRygvznN6aRlBYf7T7IoYZDiw8cOJgB3+nRfmb+kf3nfO9rPxAsLi7+srxz+M2p0SkScRNpOf4s bYltKZTtyEZabsOxlDuAOXKQAsdVpNtNtWbh7iE8EOno0+zmTV1OSdt3qYt16fqj3UZTU/TVxsbG Tz2R92re9ERe9yfQ55bg/v37Y/n5+dELu4bfmBxtkuhKO/OJC9RZJUI4pKSd2ZQopNJoIZ2dllbu ROpccmHtQBKTyufxowXSiMWaVzY1NX3ugj7uEujySOekOzJ/vxmol0hDQ0MsNzcnNqKr7PrkKJNE l+VanrfVu44kFEI6mVHSJSE1Srlfarg/+pFQuXegcu9g0qTL+K+Fq950AR/36L7ndOBPNY1mPmQc Pnw4Golkxy7sLq1Mj7bp6Ug74G3pglcueO0MYUqhJGipTwDHwDBOkAiHA+zYeSU3RBrInnAHAOWl QWbMmD596evr3/LovvtM4PsTMDwf6v1wU1NTLCsrEhseL65MjZb0dJqO3sWJTbmWGiWdMaDPZQyj D4lwJMDDE+/n/U8+ZMmnBeQVVmDLEOWlQcpLg+w+aLTW1e3f5QGf6bj6dJv1Uz2A6D1jsVg0Kysr VhYvrExfpEjGTUfj4oT/n3pPlwEf4uGR9/Jq9TLy7irqjn385bpVb294Z+rUq6bZMsRjT33C+HFj rvl406fLPXci7DPdoTsdAeVdW1paouFwOFYaL6g0Rxok4+bpgXuOcE6Qh0fdxyvVSyj6wfDOw2sO rDp+sO0LoGfNu5vWHW2n5bIJ37hy3/4vqa3dvcITfe8G/qzuzHkfUmS5t/wKgMJx48fNKCkpebzl Cpv48dQZwWdlh/jn0rt4ZdWrDHmotCu27sjy6MYjezxR9gYq5bpOp+tGGSlZg6mBQWWira0tGgqF YkPbw5ViVADblKcF/y/Dqnj5zUUUPlTW1bSucWnzx007XKc57gL1+rzVb7XPpogHTaK9vT0aDAVj +UeDlXJ0CGENJBHJCfFA9gxeWbWE4u+Xtze917iiZVN0m8cmMzNOxirTHvDe17J/9z1bAicl0dnZ FQ0Gg7HcTn+lviiMsE/INJIb5oG8W1n69lJK5ozoaFrfuLz1k9g2T3dt7zcaZyLe/xTewe2rEDgp iXg8Hg0EA7GsY6oy9/JCQpEAhUPyuM2+mhW/XcHIR8e2N64+uPzo5ubtHvAdnuHM9LiN98zcCz1n Fxo0iZ54T9Qf8MdEXXelWdvJ311+Kyurf82Yn0yIN75T/1rLpth2D/D+4KUnwtLz3vt7dT6f0JzS nYYUFtwSDAb/XSlN8cxyEkfizzf9oXG721XbPQXrBa/6PkUY0FDP+GD8XB4xnYxEvkskc//S7wLs cUF3upZ4MvBf6TiXx6wZ+QjXLfDsJSz3xpPPfZ90Qfd8HeC/ynPi/iQyGjbdvbXPQyjtaUbnFfz/ ieN/AW6M0RuPlQJnAAAAAElFTkSuQmCC "
     id="image10"
     x="0"
     y="0" />
</svg>
