/* XPM */
static char * shade_pressed_35p_xpm[] = {
"35 35 4 1",
" 	c None",
".	c #000000",
"+	c #060b10",
"@	c #eff0f1",
"...................................",
".+++++++++++++++++++++++++++++++++.",
".+++++++++++++++++++++++++++++++++.",
".+++++++++++++++++++++++++++++++++.",
".+++++++++++++++++++++++++++++++++.",
".+++++++++++++++++++++++++++++++++.",
".+++++++++++++++++++++++++++++++++.",
".+++++++++++++++++++++++++++++++++.",
".+++++++++++++++++++++++++++++++++.",
".+++++++++++++++++++++++++++++++++.",
".+++++++++++++++++++++++++++++++++.",
".++++++++++@@@@@@@@@@@@@@@++++++++.",
".++++++++++@@@@@@@@@@@@@@@++++++++.",
".++++++++++@@@@@@@@@@@@@@@++++++++.",
".+++++++++++++++++++++++++++++++++.",
".+++++++++++++++++++++++++++++++++.",
".+++++++++++++++++@+++++++++++++++.",
".++++++++++++++++@@@++++++++++++++.",
".+++++++++++++++@@@@@+++++++++++++.",
".++++++++++++++@@@@@@@++++++++++++.",
".+++++++++++++@@@@@@@@@+++++++++++.",
".++++++++++++@@@@@+@@@@@++++++++++.",
".+++++++++++@@@@@+++@@@@@+++++++++.",
".++++++++++@@@@@+++++@@@@@++++++++.",
".++++++++++@@@@+++++++@@@@++++++++.",
".++++++++++@@@+++++++++@@@++++++++.",
".+++++++++++++++++++++++++++++++++.",
".+++++++++++++++++++++++++++++++++.",
".+++++++++++++++++++++++++++++++++.",
".+++++++++++++++++++++++++++++++++.",
".+++++++++++++++++++++++++++++++++.",
".+++++++++++++++++++++++++++++++++.",
".+++++++++++++++++++++++++++++++++.",
".+++++++++++++++++++++++++++++++++.",
"..................................."};
