/* XPM */
static char * bottom_left_active_xpm[] = {
"19 22 12 1",
" 	c None",
".	c #0E3823",
"+	c #1C7147",
"@	c #3FCF87",
"#	c #8FE2B8",
"$	c #6B6B6B",
"%	c #BDBDBD",
"&	c #D4D4D4",
"*	c #DFDFDF",
"=	c #EFEFEF",
"-	c #FDFDFD",
";	c #FFFFFF",
".+@#...............",
".+@################",
".+@@@@@@@@@@@@@@@@@",
".+@@@@@@@@@@@@@@@@@",
".+@@@@@@@@@@@@@@@@@",
".+@@@$@@@@@@@@@@@@@",
".+@@@$$@@@@@@@@@@@@",
".+@@@$%$@@@@@@@@@@@",
".+@@@$&%$@@@@@@@@@@",
".+@@@$*&%$@@@@@@@@@",
".+@@@$=*&%$@@@@@@@@",
".+@@@$-=*&%$@@@@@@@",
".+@@@$;-=*&%$@@@@@@",
".+@@@$;;-=*&%$@@@@@",
".+@@@$;;;-=*&%$@@@@",
".+@@@$$$$$$$$$$$@@@",
".+@@@@@@@@@@@@@@@@@",
".+@@@@@@@@@@@@@@@@@",
".+@@@@@@@@@@@@@@@@@",
".+@@@@@@@@@@@@@@@@@",
".++++++++++++++++++",
"..................."};
