/* XPM */
static char * title_5_active_xpm[] = {
"8 31 41 1",
" 	c None",
".	c #0E3823",
"+	c #6DDAA4",
"@	c #6FDBA5",
"#	c #33CC80",
"$	c #32CB7F",
"%	c #2DB471",
"&	c #2DB672",
"*	c #2EB974",
"=	c #2EBB75",
"-	c #2FBE77",
";	c #2FBC76",
">	c #2FBF78",
",	c #30C37A",
"'	c #31C47B",
")	c #31C77D",
"!	c #31C67C",
"~	c #35CC81",
"{	c #36CD82",
"]	c #3ACD84",
"^	c #3DCE86",
"/	c #3BCE85",
"(	c #43D08A",
"_	c #4AD18E",
":	c #48D18D",
"<	c #53D494",
"[	c #5BD698",
"}	c #5AD597",
"|	c #62D79D",
"1	c #6AD9A1",
"2	c #72DBA7",
"3	c #7BDEAD",
"4	c #83E0B1",
"5	c #8DE2B7",
"6	c #9AE5BF",
"7	c #A2E7C5",
"8	c #A3E8C6",
"9	c #ABEACA",
"0	c #B6EDD1",
"a	c #82DFB0",
"b	c #2AA96A",
"........",
"++++@@@@",
"######$$",
"%%%%%%%%",
"%&&&%%%%",
"*====***",
"------;;",
">>>>>>--",
",'''',,,",
"))))))!!",
"$$$$$$))",
"~{{{{{##",
"]]]]]]{{",
"^^^^^^//",
"((((((((",
"______::",
"<<<<<<<<",
"[}}}}}[[",
"||||||||",
"11111111",
"22222222",
"33333333",
"44444444",
"55555555",
"66666666",
"77878888",
"99999999",
"00000000",
"444444aa",
"bbbbbbbb",
"........"};
