/* XPM */
static char * top_left_active_xpm[] = {
"3 21 4 1",
" 	c None",
".	c #000000",
"+	c #4B58A2 s inactive_shadow_1",
"@	c #90B8DC s inactive_mid_1",
" ..",
"..+",
".+@",
".+@",
".+@",
".+@",
".+@",
".+@",
".+@",
".+@",
".+@",
".+@",
".+@",
".+@",
".+@",
".+@",
"..+",
" ..",
"   ",
"   ",
"..."};
