/* XPM */
static char * shade_active_traditional_35p_xpm[] = {
"27 27 7 1",
" 	c None",
".	c #b8b5a7",
"+	c #000000",
"@	c #636052",
"#	c #0e0b00",
"$	c #f0e9d2",
"%	c #aaa592",
"..........................+",
".@@@@@@@@@@@@@@@@@@@@@@@@#+",
".@@@@@@@@@@@@@@@@@@@@@@@@#+",
".@@@@@@@@@@@@@@@@@@@@@@@@#+",
".@@@$$$$$$$$$$$$$$$$$$@@@#+",
".@@@$$$$$$$$$$$$$$$$$$@@@#+",
".@@@$$$$$$$$$$$$$$$$$$@@@#+",
".@@@@@@@@@@@@@@@@@@@@@@@@#+",
".@@@@@@@@@@@@@@@@@@@@@@@@#+",
".@@@@@@@@@@@@@@@@@@@@@@@@#+",
".@@@@@@@@@@@@@@@@@@@@@@@@#+",
".@@@@@@@@@@@%%@@@@@@@@@@@#+",
".@@@@@@@@@@%$$%@@@@@@@@@@#+",
".@@@@@@@@@%$$$$%@@@@@@@@@#+",
".@@@@@@@@%$$$$$$%@@@@@@@@#+",
".@@@@@@@%$$$%%$$$%@@@@@@@#+",
".@@@@@@%$$$%@@%$$$%@@@@@@#+",
".@@@@@%$$$%@@@@%$$$%@@@@@#+",
".@@@@%$$$%@@@@@@%$$$%@@@@#+",
".@@@%$$$%@@@@@@@@%$$$%@@@#+",
".@@@$$$%@@@@@@@@@@%$$$@@@#+",
".@@@$$%@@@@@@@@@@@@%$$@@@#+",
".@@@@@@@@@@@@@@@@@@@@@@@@#+",
".@@@@@@@@@@@@@@@@@@@@@@@@#+",
".@@@@@@@@@@@@@@@@@@@@@@@@#+",
".#########################+",
"+++++++++++++++++++++++++++"};
