/* XPM */
static char * maximize_active_xpm[] = {
"16 23 7 1",
" 	c None",
".	c #90B8DC s active_mid_1",
"+	c #4B58A2 s active_shadow_1",
"@	c #8DA2C6 s inactive_mid_1",
"#	c #3678E5 s inactive_color_1",
"$	c #000000 s inactive_shadow_1",
"%	c #FFFFFF s inactive_mid_1",
"                ",
"                ",
"                ",
"                ",
"                ",
"  .++++++++++.  ",
" .+@########@+. ",
" +@##########@+ ",
" +#####$$$$$##+ ",
" +#####%$$$$##+ ",
" +######%$$$##+ ",
" +##$####%$$##+ ",
" +##$$####%$##+ ",
" +##$$$####%##+ ",
" +##$$$$######+ ",
" +##$$$$$#####+ ",
" +@#%%%%%####@+ ",
"  +@########@+  ",
"  .++++++++++.  ",
"   ..........   ",
"                ",
"                ",
"                "};
