/* XPM */
static char * top_right_active_xpm[] = {
"6 23 5 1",
" 	c None",
".	c #000000 s active_shadow_1",
"+	c #C8CBCA s active_hilight_1",
"@	c #4C7BA6 s active_color_1",
"#	c #4B58A2 s active_shadow_1",
"......",
"+++++.",
"@@@@@.",
"@@@@@.",
"@@@@@.",
"@@@@@.",
"@@@@@.",
"@@@@@.",
"@@@@@.",
"@@@@@.",
"@@@@@.",
"@@@@@.",
"@@@@@.",
"@@@@@.",
"@@@@@.",
"@@@@@.",
"@@@@@.",
"@@@@@.",
"@@@@@.",
"@@@@@.",
"@@@@@.",
"@@@@@.",
"###@@."};
