/* XPM */
static char * close_pressed_xpm[] = {
"17 18 4 1",
".	c #555555",
"@      c #EEEEEE s active_hilight_2",
"+	c #657EAD s active_color_2",
"#	c #BFDAFE s active_color_1",
"+++++++++++++++++",
"+++++++++++++++++",
"+++++++++++++++++",
"+++++++++++++++++",
"+++++++++++++++++",
"+++++++++++++++++",
"+++++##+++##+++++",
"+++++###+###+++++",
"++++++#####++++++",
"+++++++###+++++++",
"++++++#####++++++",
"+++++###+###+++++",
"+++++##+++##+++++",
"+++++++++++++++++",
"+++++++++++++++++",
"+++++++++++++++++",
"+++++++++++++++++",
"+++++++++++++++++"};
