/* XPM */
static char * shade_inactive_xpm[] = {
"14 25 17 1",
" 	c None",
".	c #8E8E8E",
"+	c #EDEDED",
"@	c #E0E0E0",
"#	c #EBEBEB",
"$	c #EAEAEA",
"%	c #F6F6F6",
"&	c #F7F7F7",
"*	c #F5F5F5",
"=	c #F4F4F4",
"-	c #E7E7E7",
";	c #DEDEDE",
">	c #E8E8E8",
",	c #F1F1F1",
"'	c #FDFDFD",
")	c #FCFCFC",
"!	c #FFFFFF",
"              ",
"              ",
"              ",
"              ",
"              ",
"              ",
" .........    ",
" .+++++++.    ",
" .+@@@@@+.    ",
" .+####$+.    ",
" .+%......... ",
" .+&.***=$**. ",
" .++.=---;-*. ",
" ....$>>>>,*. ",
"    .*'''')*. ",
"    .*!!!!!*. ",
"    .*******. ",
"    ......... ",
"              ",
"              ",
"              ",
"              ",
"              ",
"              ",
"              "};
