/* XPM */
static char * close_pressed_traditional_35p_xpm[] = {
"27 27 6 1",
" 	c None",
".	c #3e3e3e",
"+	c #ffffff",
"@	c #bdbdbd",
"#	c #363636",
"$	c #8f8f8f",
"..........................+",
".@@@@@@@@@@@@@@@@@@@@@@@@@+",
".@@@@@@@@@@@@@@@@@@@@@@@@@+",
".@@@@@@@@@@@@@@@@@@@@@@@@@+",
".@@@@@@@@@@@@@@@@@@@@@@@@@+",
".@@@@##$@@@@@@@@@@@@$##@@@+",
".@@@@###$@@@@@@@@@@$###@@@+",
".@@@@$###$@@@@@@@@$###$@@@+",
".@@@@@$###$@@@@@@$###$@@@@+",
".@@@@@@$###$@@@@$###$@@@@@+",
".@@@@@@@$###$@@$###$@@@@@@+",
".@@@@@@@@$###$$###$@@@@@@@+",
".@@@@@@@@@$######$@@@@@@@@+",
".@@@@@@@@@@$####$@@@@@@@@@+",
".@@@@@@@@@@$####$@@@@@@@@@+",
".@@@@@@@@@$######$@@@@@@@@+",
".@@@@@@@@$###$$###$@@@@@@@+",
".@@@@@@@$###$@@$###$@@@@@@+",
".@@@@@@$###$@@@@$###$@@@@@+",
".@@@@@$###$@@@@@@$###$@@@@+",
".@@@@$###$@@@@@@@@$###$@@@+",
".@@@@###$@@@@@@@@@@$###@@@+",
".@@@@##$@@@@@@@@@@@@$##@@@+",
".@@@@@@@@@@@@@@@@@@@@@@@@@+",
".@@@@@@@@@@@@@@@@@@@@@@@@@+",
".@@@@@@@@@@@@@@@@@@@@@@@@@+",
"+++++++++++++++++++++++++++"};
