/* XPM */
static char *b-corner.png[] = {
/* columns rows colors chars-per-pixel */
"26 4 2 1",
"  c #A6A39A s inactive_shadow_1",
". c #BAB8AB s active_hilight_1",
/* pixels */
"..........................",
".                        .",
".                        .",
".........................."
};
