/* XPM */
static char * hide_pressed_xpm[] = {
"14 19 7 1",
" 	c None",
".	c #777777 s active_shadow_1",
"+	c #BAB8AB s active_hilight_1",
"@	c #E6E6E6 s inactive_mid_1",
"#	c #B7B5B8 s active_color_1",
"$	c #827D79 s active_shadow_1",
"%	c #FFFFFF s active_hilight_1",
"..............",
"++++++++++++++",
"@@@@@@@@@@@@@@",
"##############",
"#$$$$$$$$$$$$#",
"#$%%%%%%%%%%$#",
"#$%%%%%%%%%%$#",
"#$%%%%%%%%%%$#",
"#$%%%%%%%%%%$#",
"#$%%%%%%%%%%$#",
"#$%%%%%%%%%%$#",
"#$%%$$$$$$%%$#",
"#$%%$$$$$$%%$#",
"#$%%%%%%%%%%$#",
"#$%%%%%%%%%%$#",
"#$$$$$$$$$$$$#",
"##############",
"@@@@@@@@@@@@@@",
"++++++++++++++"};
