<?xml version="1.0" encoding="UTF-8" standalone="no"?>
<!-- Created with Inkscape (http://www.inkscape.org/) -->

<svg
   xmlns:dc="http://purl.org/dc/elements/1.1/"
   xmlns:cc="http://creativecommons.org/ns#"
   xmlns:rdf="http://www.w3.org/1999/02/22-rdf-syntax-ns#"
   xmlns:svg="http://www.w3.org/2000/svg"
   xmlns="http://www.w3.org/2000/svg"
   xmlns:xlink="http://www.w3.org/1999/xlink"
   xmlns:sodipodi="http://sodipodi.sourceforge.net/DTD/sodipodi-0.dtd"
   xmlns:inkscape="http://www.inkscape.org/namespaces/inkscape"
   version="1.1"
   id="svg2"
   width="22"
   height="22"
   viewBox="0 0 22 22"
   sodipodi:docname="address-book-new.svg"
   inkscape:version="0.92.1 r15371">
  <metadata
     id="metadata8">
    <rdf:RDF>
      <cc:Work
         rdf:about="">
        <dc:format>image/svg+xml</dc:format>
        <dc:type
           rdf:resource="http://purl.org/dc/dcmitype/StillImage" />
        <dc:title />
      </cc:Work>
    </rdf:RDF>
  </metadata>
  <defs
     id="defs6" />
  <sodipodi:namedview
     pagecolor="#ffffff"
     bordercolor="#666666"
     borderopacity="1"
     objecttolerance="10"
     gridtolerance="10"
     guidetolerance="10"
     inkscape:pageopacity="0"
     inkscape:pageshadow="2"
     inkscape:window-width="1025"
     inkscape:window-height="500"
     id="namedview4"
     showgrid="false"
     inkscape:zoom="3.6875"
     inkscape:cx="-35.508475"
     inkscape:cy="11"
     inkscape:window-x="192"
     inkscape:window-y="151"
     inkscape:window-maximized="0"
     inkscape:current-layer="svg2" />
  <image
     width="22"
     height="22"
     preserveAspectRatio="none"
     xlink:href="data:image/png;base64,iVBORw0KGgoAAAANSUhEUgAAADAAAAAwCAYAAABXAvmHAAAAAXNSR0IArs4c6QAAAAZiS0dEAP8A /wD/oL2nkwAAAAlwSFlzAAALEwAACxMBAJqcGAAAAAd0SU1FB9oFCw4lEJ9KcBEAAAvaSURBVGje 7Zl9bBTnncc/szv2emN71/ausRcwdvBhyiEHKYRwJW3tght6HAmYc4MTCArquempygW46k5tpEqN hI4EItGX02GdQsjlcgpVEic5SxVcaIkhCs4B8VtCsI1twLs29nq9u/Z6d3be7g9mVuPFpuCYVif1 kUYzu/P2/X6f7/P7/Z5n4M/tT9uEP9Gz9bk+tPOMTweo/OaQcC8JCIDN2AuW9+iAZuz1uyXS2eLT 0aGqVkIQBMbGxgTbPQBughcBx5EjR5L79+9vB5xAFuAAMiwE76j1nf8LXdd1qmolAMbGxgSMh8x3 swMZBw4cSOzZ+4+1zc3NKIrytb1794YBF5BtEMk0rrX2EN2t90/rlUM/X6BfOLlS13Sd6tokgiAQ CoVS14vz7He7qXxeXh6xWOyN06dPk5OTg6qqfPDBB4PRyej/7nxq5zZgyhBQBlRAu3yuTFu2VMVK RgdUZZJtz7iB8ZTy8z2IBYvyU4P+od0D/VdeW7NmDaqqsnDhQgBcLhcej0cdD4+H67fXP2SQiAPJ y+fKEhXl2s2HFV4T9NElenevDVXTeWyng6ysTD6/1HULXts8eX6a8sULCn9y+vRpLl26xKVLl1JR JxqN0t/fby9ZXOI5fvx4D+AGcqzgAeKRJTqAouls3pmJpmszgp+PHphV+XA4zPLly2e9URRFli1b Fh+6/JRze619+kk5my/6p3hsZyY60N/fMytOcZ48n2V4/rVjFs8vX75cTxdJ13V0XSeRSNDT0+P8 fjp44Iv+GE/8IAtd1+gf6BXuRSK7I8+nA9c0jZrVBznx6T5UVWXT139Byjq2mxnii8vw10/ZsAl2 Bq5eyTAG+KzJT5yPaKPIyk+PvfZqSnmfz6cDgiAIKeAAiqIg2kUWZL3ELbbR4PIVkV3/kEtxYRaf Xmj1GDkjFaVmIiHMp+crKirQdR1BEKaprqoquq7zvQ2NFHhjZImAAt3XRHb9qID/+HUI0Hnyh27y XG5+8KO/H0uPUjfvuJWE7atEm/w812tmtBkcHERVVd30uKqqKIqCoijIskwymcRms5GVefOBzb8t YscP3TgcmegoNOwtIsfp4MGH13Bj+Ma0KHW7xCfMh/Ll5eWoqordftMWpuKqqqJpGoqisHvLmxQV RgH41b/Df71XxDe+VYUsy6iqypft7ZRWVKTsBrBr1y7NH/Bf3Llj5zYgBkjplhLn6PmfWD1fWlqq C4IgmMArKyspLCzE6XSSTCYZGhrCZj+eAn+8eTFrv76GRCKBoiioqsri8nIkSUoRUlWVpqYm2yOP PPLQW8ff+sywVMxiKQBV+CrKl5aWoqoqNpsNQRAoKSlh1apVxGIxLl68yPj4OJIk8Xd/+zY2m43d e0qoWXee7sDjKeCyLKeOTbvJspzquezsbIqKili/fr2yffv25cCkMTaSQFL8KnHe5/Ppdrtd0DSN 0tJSHnjgAc6cOcO7775LZmYmubm5CIKAKGbQ8E/l7Nn3fZLJJJ3978wI3DpuzHOxWIzJyUlCoZC4 f//+37zwwgtPGPbRgKQwlzifm5uLoijTPF9XV0dLSwtNTU0UFRWxbt06lixZQjwe59y5c4RCIeLx OE8//TSDg4OcOHFiGgkrAfO32QtOp5Pa2lrOnj1LU1PTKiAETAAR2x3WNj+11jbJZFI3gcuyzKpV q4hEIrz99tsUFhbS0NDA2rVrmZycRFVVtmzZgs1mQ1VV3nnnHcrLy4lGo0iSRCKRIB6PI0nStC2Z TKaO8/PzcbvdJJNJjHmFGZFmTGTTlG9ubmbNmjXLGhoa8Hq9KIoCIJjqqKqK2+2mq6sLm81GfX09 oijy/PPPk0wmcTgcPPvss6xYsYK+vj4GBgaIxWJUVFTQ1taWSnCKoqQUtz67pKSEuro63njjDSYm Jv7FwGc3U4B4N57Pzc3V7Xa7YH2J+aJQKERWVhY+n4/3338fSZIoKyszxwo+n49wOExbWxvBYJCS khI++ugjHA7HNMDWbdGiRTz33HMcPnyY0dHRX7W3t7emTUun9YANEA8cOBC3KM++fftSKgGC9QXm 4BsfH6esrIyWlhaGh4eprq4mEAiwaNEiNm7ciKZpHDp0iK6uLrKzs7n//vs5f/48U1NTCIJwC3Cz nor7VvPKK68QDAYbOzs7W40QmrBk5lQmNuexGTPV85Ik6SYJ05vxeJxEIkEikaC9vT1VwL366qt0 dHTw4IMPsmHDBoaHh3nmmWfo6OjA5XJRX1+Ppmk0NTUBpPxuhk9ZlikuLqbou79HLHiIRCJBZ2fn p0b4NEOoZBKwW9U3UvY/+xb6PCtXrsTr9eJyubDZbIKu6yiKkko2siynjkdHR3G73WzatIm2tjY+ //xzWlpaqKmpobe3l9bWVtauXUtdXR2VlZUcO3aMnp4enE7ntFCqaRpFRUUs3Px7xKkOgi0vMDEx 8a+jo6OXgXFjixo9IVkTmWiM7JycnJwbmzdvNrtRF0VRMLvZDHtmiLMmHVmW2b17N263mzfffJPe 3l5Wr15NVVUVOTk52O12RkZGeOmll/D7/TgcDkRRTJUdmqZRWFjI4sfO4oh30X2igXg8/m9ffvnl GSBobCaBKbOksBJwAK7KVZW933z0W1MOJdNr1iVWv5tg05OOef7hhx+mpqaGSCRCZ2cnp06dor+/ P1UXCYKA0+lMgTZrpgULFrCk9rc44gG++O9dJBKJxp6enjNGzA8CYxbwSaMe0tMt5Bi5MfKfqx9Y /WO73Z5S3WqbdPtYzyWTSfr6+njvvffIyMiguLiY4uJiuru7ycjIQBRF7HY7mqZNK7O9Xi/X+EsK HDJXTv0YSUo09vb2fmyADwERI3HFreCtUchcJVMBTZIkcnNzCYfDt2RLq2fT/zfDYUZGBidPniQW iyHLMgCZmZnTFDdbQUEBJ5eWseuTU1w5+ymKqjT29/V/bNglbIBPV35a0rIe24GMxYsXX5dl+VGX y5UiYUYK694aPaw2Mo8FQUgVelbFzeZ2uzn1yEZOo/FWwI+maY0D/QMm+FCa5yWL8no6gWlLgt3d 3YGioiK/LMvr8/LyiEQiKbuYodQ6oNPHgbWmmQm4uUb04V99m75MOw0nmgEar169mg4+YpTQidlm ZPa0TJwi0tfXFygs9AYkKVntcrluIWFV3mqj9IyaDpyboY7Wx5+gQ5pi+/u/wW6zNV6/fv2uwadb KH3pW7h69arf6/UGZFmuysvLIxQKzai6FfhsipstOzubrcvX8z9d7fzskw/JyBAbB/3+OYFPJyBY LkpdPDg4GPB4PIFEIlHldrsJh8PTAJuD93aKW8Hv2bOHg8d+yWejg2RlZTUGAkNzBj9bD5C2fq8H AgG/x+MJxOPxKtNOd2IVa7vvvvvYsWMHL774Ihse2xAOXA28Pjw8fNaSYe8a/B8ioFn3w8PDfo/X E5iamqpyu91Eo9E7Am4qX19fz8GDB9n0vb8Z/+Ra6+tDXYFzaeCjdwv+dgRmJDEyMuL3eD2BiehE VX5+PlNTU3cEfuvWrRw6dIj1mzdEzt+4eNT/u2sXZgmVdwX+DxGYkUQwGPR7vJ5AeDxclZ+fTyKR uC34bdu28fLLL1OzuSbyWbDjaOD09YuWDBu2KC/dLfg7ITAjiVAo5Pd4CwLB4FiVx+NBkqQZQ2V1 dTWHDx/mO1seDbWPdb0+fMZ/3qJ62OL55FzA3ymBGUmEwxG/x+MJBIPBqoKCglTJYCap6upqjhw5 Qs3j3xnvGOs6duNswAre6vk5g78bAjOSiEaj/oIFBYHhwHDV0qVLcTqdeL1eVqxYwdGjR9ny1NbQ haHPjo18PHRhFvDS7RZu78WnU7tRdruBhcAKYF2hr/BFM+Q2NDTogL71ydrIwurFh4Ange8Ca4EK oBjITVvr/KN96BbSZm/ZBpn8vHz3xvB45GcAK1euJOKLHRz8cOCC4fOZBuy8KC/M8Z50Ei6DiAu4 z1BWNeawUQP8xL2wzVw+MZljQDHiNpa5RNJYeLIZv6cM0JP3yvNz/UaWTkIzgEmGt20WQgnLUsgf bcD+v2n/B9+EkKQZ1oT0AAAAAElFTkSuQmCC "
     id="image10"
     x="0"
     y="0" />
</svg>
