<?xml version="1.0" encoding="UTF-8" standalone="no"?>
<svg
   xmlns:dc="http://purl.org/dc/elements/1.1/"
   xmlns:cc="http://creativecommons.org/ns#"
   xmlns:rdf="http://www.w3.org/1999/02/22-rdf-syntax-ns#"
   xmlns:svg="http://www.w3.org/2000/svg"
   xmlns="http://www.w3.org/2000/svg"
   xmlns:sodipodi="http://sodipodi.sourceforge.net/DTD/sodipodi-0.dtd"
   xmlns:inkscape="http://www.inkscape.org/namespaces/inkscape"
   viewBox="0 0 22 22"
   version="1.1"
   id="svg6"
   sodipodi:docname="align-horizontal-right-out.svg"
   inkscape:version="0.92.1 r15371">
  <metadata
     id="metadata10">
    <rdf:RDF>
      <cc:Work
         rdf:about="">
        <dc:format>image/svg+xml</dc:format>
        <dc:type
           rdf:resource="http://purl.org/dc/dcmitype/StillImage" />
      </cc:Work>
    </rdf:RDF>
  </metadata>
  <sodipodi:namedview
     pagecolor="#ffffff"
     bordercolor="#666666"
     borderopacity="1"
     objecttolerance="10"
     gridtolerance="10"
     guidetolerance="10"
     inkscape:pageopacity="0"
     inkscape:pageshadow="2"
     inkscape:window-width="640"
     inkscape:window-height="480"
     id="namedview8"
     showgrid="false"
     inkscape:current-layer="svg6" />
  <defs
     id="defs3051">
    <style
       type="text/css"
       id="current-color-scheme">
      .ColorScheme-Text {
        color:#f2f2f2;
      }
      </style>
  </defs>
  <path
     style="fill:#ff6600;fill-opacity:1;stroke:none"
     d="m572.72253 602.11926h-1-3v-1-5h1 3zm-6 0h-1v-16h1zm-3-10h-1-6v-1-5h1 6zm-1 10h-1-4-1v-1-4-1h6v5zm0-11v-4h-5v4zm-1 10v-4h-4v4z"
     transform="translate(-553.72253-583.11926)"
     class="ColorScheme-Text"
     id="path4" />
  <path
     style="opacity:1;fill:#ff0000;fill-opacity:1;fill-rule:nonzero;stroke:#ffffff;stroke-width:0.06811146;stroke-opacity:0.94117647"
     d="m 3.0105263,6.0074303 v -2.996904 h 3.50774 3.5077397 v 2.996904 2.9969041 h -3.5077397 -3.50774 z m 5.9938081,0 V 4.0321981 H 6.5182663 4.0321981 v 1.9752322 1.9752322 h 2.4860682 2.4860681 z"
     id="path4487"
     inkscape:connector-curvature="0" />
  <path
     style="opacity:1;fill:#00ffff;fill-opacity:1;fill-rule:nonzero;stroke:#ffffff;stroke-width:0.06811146;stroke-opacity:0.94117647"
     d="M 12.001238,10.979567 V 3.0105263 h 0.476781 0.47678 v 7.9690407 7.96904 h -0.47678 -0.476781 z"
     id="path4489"
     inkscape:connector-curvature="0" />
  <path
     style="opacity:1;fill:#00ffff;fill-opacity:1;fill-rule:nonzero;stroke:#ffffff;stroke-width:0.06811146;stroke-opacity:0.94117647"
     d="M 14.998142,15.985759 V 13.02291 h 1.975233 1.975232 v 2.962849 2.962848 h -1.975232 -1.975233 z"
     id="path4491"
     inkscape:connector-curvature="0" />
  <path
     style="opacity:1;fill:#3daee9;fill-opacity:1;fill-rule:nonzero;stroke:#ffffff;stroke-width:0.06811146;stroke-opacity:0.94117647"
     d="M 12.06935,10.979567 V 3.0786378 h 0.408669 0.408668 v 7.9009292 7.900928 H 12.478019 12.06935 Z"
     id="path4493"
     inkscape:connector-curvature="0" />
  <path
     style="opacity:1;fill:#3daee9;fill-opacity:1;fill-rule:nonzero;stroke:#ffffff;stroke-width:0.06811146;stroke-opacity:0.94117647"
     d="m 15.066254,15.985759 v -2.894737 h 1.907121 1.90712 v 2.894737 2.894736 h -1.90712 -1.907121 z"
     id="path4495"
     inkscape:connector-curvature="0" />
</svg>
