<?xml version="1.0" encoding="UTF-8" standalone="no"?>
<!-- Created with Inkscape (http://www.inkscape.org/) -->

<svg
   xmlns:dc="http://purl.org/dc/elements/1.1/"
   xmlns:cc="http://creativecommons.org/ns#"
   xmlns:rdf="http://www.w3.org/1999/02/22-rdf-syntax-ns#"
   xmlns:svg="http://www.w3.org/2000/svg"
   xmlns="http://www.w3.org/2000/svg"
   xmlns:xlink="http://www.w3.org/1999/xlink"
   xmlns:sodipodi="http://sodipodi.sourceforge.net/DTD/sodipodi-0.dtd"
   xmlns:inkscape="http://www.inkscape.org/namespaces/inkscape"
   version="1.1"
   id="svg2"
   width="22"
   height="22"
   viewBox="0 0 22 22"
   sodipodi:docname="archive-extract.svg"
   inkscape:version="0.92.1 r15371">
  <metadata
     id="metadata8">
    <rdf:RDF>
      <cc:Work
         rdf:about="">
        <dc:format>image/svg+xml</dc:format>
        <dc:type
           rdf:resource="http://purl.org/dc/dcmitype/StillImage" />
        <dc:title></dc:title>
      </cc:Work>
    </rdf:RDF>
  </metadata>
  <defs
     id="defs6" />
  <sodipodi:namedview
     pagecolor="#ffffff"
     bordercolor="#666666"
     borderopacity="1"
     objecttolerance="10"
     gridtolerance="10"
     guidetolerance="10"
     inkscape:pageopacity="0"
     inkscape:pageshadow="2"
     inkscape:window-width="640"
     inkscape:window-height="480"
     id="namedview4"
     showgrid="false"
     inkscape:current-layer="svg2" />
  <image
     width="22"
     height="22"
     preserveAspectRatio="none"
     xlink:href="data:image/png;base64,iVBORw0KGgoAAAANSUhEUgAAADAAAAAwCAYAAABXAvmHAAAABGdBTUEAALGPC/xhBQAAAAFzUkdC AK7OHOkAAAAgY0hSTQAAeiYAAICEAAD6AAAAgOgAAHUwAADqYAAAOpgAABdwnLpRPAAAAAZiS0dE AP8A/wD/oL2nkwAAAAlwSFlzAAALEwAACxMBAJqcGAAAGQVJREFUaAUFwXtYFgSC6OHf7O7ZPbtn d/84z+yZM/v0PLOzy9FPmNrSGa+jSaVjQIFiTDploHhHx0sXNZtU1OLDFPGKNzTxtuIlsTShAoNv DJBRBA3UGAgUNfEBFuQy8DvvCwAAAAAAAAAAwJLlywN3795NrampWV1TU7OqpqZmVU1NzaqamppV NTU1q2pqalbV1NSsqqmpWVVz8+aapqa7y4cMGfJjAAAAAAAAAAAAAAAAAAAAAAAAAAAAAAAAAAAA AAAAAAAAAFatWfuWqqqqqqqqqqqqqqpqfv5XO8PChv4zAAAAAAAAAAAAAAAAAAAAAAAAAAAAAAAA AAAAAAAAAAAA7773/h9UVVVVb1TX+ujRI1VVVVV7e3u9WXvb7u5ui0tKTgA/AgAAAEhPz/jVN+Xl CQAAAAAAAAAAAAAAAAAAAAAAAAAAAAAAAAAArFi56n1VVdUb1bVWVd6w6c4dm+/dU1VVtaenx9qa 23Z1ddnd3W1hYdGpyMjInwEALF+37iff/fm7a2pf5tada8PDw/8RAAAAAAAAAAAAAAAAAAAAAAAA AAAAAACAFStXva+qerPmO6uvfesPDx766FGr9x88sOnOHZvv3VO1p6fH2prbdnR0qKpaXFJyITw8 /B+fGTnyXxsb715Q7evrUfXEyU8ODRw48p8AAAAAAAAAAAAAAAAAAAAAAAAAAAAAAFixctX7qv39 /VZevW5bW7utrW22tbXZ2tpma2ubd5ubbW5u9mFLiw0NjTY2NdnS0uKjR622tDzy3Pn8r0tK/lis mnvxputON6j9qpZfrvjmF8OG/QQAAAAAAAAAAAAAAAAAAAAAAAAAAACAFStXva9aXfWt95rv29nZ aXt7u+3t7ba3t9ve3m5HR4cPfvjBu83NPvjhB/9c12DNt7f89sZNv71Ra11dvapXahuduOG20Vk9 fhjSxvZetdfCoq/LI8eNGwMAAAAAAAAAAAAAAAAAAAAAAAAAAMCKP6x6/8b1m16rvG5XV5cdHR12 dHTY2dlpZ2ennZ2ddnZ22tnZ6Q8//OCdu83ebW62s7PT1tY2W1paVC2rbXZyerXRWd2+fkKnfa7r y/VOS6+qt7777tG4CTEvAQAAAAAAAAAAAAAAAAAAAAAAAACwbMXK969VXrezo8Oerk57uzrt7e60 6/FjHz9+7OPHj+3q6rKrq8uursd2dXX5w8OHPmxpsaXlkf19vT54+Mgpm28aldXrtJM6u1Dn52vK UV24/Z4llY3a3+PDhy3OmDk7BQAAAAAAAAAAAAAAAAAAAAAAAIB5KYve036r61rdfandvJt93nzY Y293l73dXXZ3d9vd3W13d7fd3d12d3f7sKXFzs5O+3p7bOvodOmBG0Zt6/C1XE0+p7NP64IDuiy7 16HTLxi1otCHbd329XR589atlpcnJ0wLCwv7OwAAAAAAAAAAAAAAAAAAAACeeOKJv889deqLzrZu 38qpd855ffeipl3Swvo+u3p6tK/H3t5ee3t77e3ttbe314ctLXZ3ddnT021q7k3HZ3b62kmdeUFn HNGUbF28q93IJaU+NbvIjZ/esaVLWzp67epst72tzdWp63cDAAAAAAAAAAAAAAAAAAAAsGrN2nX2 6tvZN/3t8S4X5OvyIk0t0fQyPXaj35stffb19Wl/n/39ffb392t/v9pvbf0Dkw8+cNJRTc7XRWW6 +KQu2dXtc+9WO3xFtR+ea7WjW+sf6d5yPXGtz+7H7ba2PHR71p6T//7v//5/AAAAAAAAAAAAAAAA ABg5cuTA+03fN31e9tDnt7c4JU+TP9XF+bqySD8MaUaZZl3V4sZ+27r71X77+vrs7O63u09VG1t6 zCjtcnFpnyuv6+rjuiC9y8j0h757rseuXr3Trkev6tKzmnhMD5V1Wn/nkY872t2Zted4+DPPhAEA AAAAAAAAAAAAMGTIkH8oKcz/uqmxzai0WiMPadxxff2MzjmnSwv0vYuaVqpbLmvWVT16Q6/e6TN0 +7Hnb/dZ3KQPH6uq9lnR3OHu2m5Xb9Dp6fpekT7q0vZuPV6pK8/rm2f1rdOd/vr9Wl/deN0HLa22 tLRYee3aw+GjRw8GAAAAAAAAAAAAYNOmLRvs63P27joj0h875oCOP6TxJ/SNPJ1zXt8s0PeKNe2S br6sWVc1+5oeuq4navX0TT17S0ubtK1btd+ux92eOtdhekGPrb3a06cXbur7FzSjRPeEup2QVudT 80K+tb/W1vYO21pb/eTsZw/Cw8OfAwAAAAAAAAAAIP7VVyPuNn5/v/BSsxEr7xmxVYft0mf3a9QR feWEvpGnc8/p0gJdeVHXh3RjmW6r0D2VeqBaD1Xr0et6qFpP3dTaR9rbr/322NbeYVdXj9X3NL1I M4o1u7TH2IxGo9bfMLugyZ7ublsfPfLo8dymQRFPvh0WFvYfwN8AAAAAAAAAMG7cuP/1eX5+Wd2t h0YkVxixWiPS9MlMHbpLxx7QqKM6+YS+cUZnn9PF+bq8SFeHNK1UN5bplsu684ruvqp7KnV3pWZd 0aPX9cFjVX3U3uPu0n7X5OvB8j63FLZ7KPTIlvYutc/29jb/dKWyN+LJ/3w3EAgMDgsL+2cAAAAA AAAAAN5dteq3/V2dJm28YcSSdiNSNWKtRgT1F5k6bLdGHtSooxqfq6/n6cxzuuBzfatQVxZrakg/ CGl6qW4s04wy3Vyum8s1vUx3XtHL9/Rehx69qqsv9Juc02ZuWYv2tWl/p48etVlVXdP7wosvZg8Y MGBUWFjYvwA/AgAAAAAAAAAg+2DOlgvl7Ua8+cCIVI1YrRFrNGK9RgQ1IkOH7tJn9+uEQxqXq1NO a2Kezj6nC/P1zQJdXqQrL+rqYl1ToqkhXRvStSFdXawrL2pmuW4t1ffPdXml7oF23daeFlvb2mxu fuDcuXPzBw0aNHrAgAE/BgAAAAAAAAAAACDwi6efjUvZ1xqxpN2IVI1YoxGrNWKNRqzXiKBGZOjT 23RUto7L0ehjGn9Cp57WxDydeU7nfa4LL+jifF1aoG8V6tsF+nahvl2obxbo7POaUdppT+tNba/Q jtt2dHTY0NRsbdFe/zA7Ki88PPz/Aj8CAAAAAAAAAAAA4MmBA5+sPb6ofemHh4x4o8CIhW1GLNeI FRqxUiNWa8Q6jfhQI9L1F1t0yC4dma2ROTr+iEYf07hcTTilr57WqWf0tTx9PU+n5em0PJ2ap1PP 6NlrtfqoUNuu2/m4y9rb9X6yfoaNhR94bvus6p///Oc/AQAAAAAAAAAAAADg/TkTXm0pXueNvNVu WJhg8rpjTsu+6Rv7a30j57aJOXUmHa1z+vE6Z51ocP6ZBhedbXTF+UZXFzS5vvCOwYt33FB8x4xQ s5mhB24pfeS20ha3lba4rbTFbaUtZoRaPFZRb8+dIvuai+xsqbP1YaP5GSke27jIxlCWTfmr+p8f +WQsAAAAAAAAAAAAAAD5G6fubCxYZ3PZNtuqc+yt3a+3cvT2Ia07qg3HtPGENp3W5jx98Km2XNCW Am0t1PYi7bioXSHtuqRdpdpVqo9D2nZRW4u0pUAfXrD/3nkfN523o+Gs7XWnbL+da0fdCR83nPFR 9QFbL28x680Xv/zpT3/6DwAAAAAAAAAAAAA/Or875fOGwnQbizfaeHGDjUXpNl1Mt7EoaGNRuo1F 6TYWbbDx4gYbL2608eJGG4s32liy0caSjTaWZNgU2mxTKNOmUKZNoUybQhk2Fm+wvmCt9QVrrS9Y a33BWusL1lqfv9a6/FQbC1Ktz0+17sIa6y+stu7cam/lrfTs1tk1YWFhTwAAAAAAAAAAAAD8Tf7e Rec3vzrUzb8damn6S5amx3j2vfFe/CDKS8FoQ8FoQ8FoQ8FoLwWjvRSMNhSMNhSMNhSMNhSMNhSM NpQWZSgtylBalKG0KENpUYaC0YaC0YaC0YaC0V4KRnspPcZL6S+Z9/4ES4IvWbYxzlAwxg2Tf+n2 aaP8/ODbFYMGDfoZAAAAAAAAAAAAwF+d2TLr9LXtCRatj3bL70ZYvnmSKfHDLdkQZ/nmSZZlTLIs Y5JlGZMsy5hoWcZEyzImWrZ5kmWb4y3LiLcsY6LlGZMs3xxveWa85ZnxlmfGW5452fLMyZZnTrY8 c7LlW17x8pZXLN/yiinxww1lTLY0Y5JbfjfSSxkTrd3/hkc2zf164MCB/woAAAAAAAAAAADAkWDi vupdUywKxlkcjHPL70Ya2hBnSXqcxcE4i4NxFgfjLE6Pszg9zuL0OEvS4yxJj7MkfaLFwYl+HYzz 6w9j/TptosVpE/06Lc7i9DhLNky0JH2iJRsmWbJhkiUbJlmyYZIlG+O9tHmyxekT3fLaKIs3xlu2 JcGbOdPdsSbx3IABA34MAAAAAAAAAAAAQO6m6fuqd08xJX64JRsn++1na3w/6mlTYwebGjvY1NjB psYONjV2sKmxg02NHWxq7GBTXx7s2thfmv7KKHdMftbsl0Z64LVod7/xkhlxI10f80tTXx5i6suD XRs7xLWxQ1wbO8S1sUNMjR3sqphnXDdpqA2FaZ5bF2dK/HAbjs106fToowMHDvwnAAAAAAAAAAAA ANYtfHlTbfY0r25PsHRzgjXnUt2bONzj70Sa+06kue9EenLZc+a+E+mJZZGeWBbpf7011tyFz/rJ vChL3pvnjfmJfjftVW9t3WTlh2ssevk5z0yb4NGlsR5d+ry5b4/15PKxnlwW6cllkea+PdacBaPc nzzK74vSLMt4xSvbp9h4fI7TX31+3xNPPPH3AAAAAAAAAAAAACTGj15dl5NkWeYrlmUmePvzdWYn DffM8kjPrIj0zIpIz6yI9MyKSM+siPST5ZHmLRnrhYnDvfL6VB8e/y87zp71cWam7fv3+2DrVmtf f93QrGRPLZnjx4njzEkZ7fG3nvXkO896atlYTy+PNHfJaA/MHOX3RUFLMxKs2DXV+uNznBo3ZtMT Tzzx9wAAAAAAAAAAAAAkTRy9qu7QDMsyEyzbOsWbFz5wT+IIDywZ74El4z2wZLwHloz3wJLx7l88 zgO/n+Cnsyd6a1Ks7Xv3+peHD+1varK/sNDes2d9/M03Pqio8EZOjvlJiR4YM9Jtr09wx/xx7vv9 Cx5YMt4DS8a7J+V598/8tQ2FaZZvn+qV3dOsOz7XV6JGrv/Zz372PwEAAAAAAAAAAAB4PW7Usvoj MyzbnGDFrml+90Wa+5N/bU7KWHNSxpqTMtaclLHmpIz143nPenTRJL/JDPrDjh32hEL23b9vf2Oj fVev2hsK+biqykf19dZ/+aV/fOMNjz71lFnTf+e22THunjXaj+c9a07KWA/OG+PHs0fbUJhm+fap Xt3zhrePzfHlF361LCws7O8AAAAAAAAAAAAAeC125Nt1R5MtzUywMjvJP3/xgR8njzAUjDIUjDIU jDIUjLIk7UW/XP2iX3y01BvFF22/dMney5f9y+3b/uXhQ3vv37erutr2L7/0wWef+efcXMvfe89T v/mNe2clm/3WNE8vH2fhut8YCkZ5ce04D87+td8XBa3YNc3K7ERrj8z2hdHPpISHh/8tAAAAAAAA AAAAAK+9PHJx3dFky7ZNtTJ7hg1ffejBmSOt2DbZqzt/a0XmRCu2xnt56ysWrpvsFxves6bwKzuv XLGnosLumzftam21s7XVtqtX/WHPHr9/7z1vpKb6xx07/GT9evfNmO6eKS95/PfjLPwgyvLNsZYG o8yZPdrGrzdYuSfR6v0zvH5wZt/IXz2ZGB4e/rcAAAAAAAAAAAAATJkwbG7d0WQrdk3z2sFk67/8 0I+TR1qSFm1JWrQladGWpEV78YMoj8x8zpPxL1uzb5//ffOmHdeu+d/Xrtl6+7Ytt255Lz/fhg8+ 8Ns5cyxbutQv9u3z1LFjZv/ud+56KuD+10Z5duU4S9KiLUodb87s0d4p/shr2dO9fmCGl/dN744I BCaFh4f/LQAAAAAAAAAAAACvvvirOfXHZnlt/wxvHJvvn79K8+DMER5ZMMYjC8Z4ZMEYjywY46F5 Y8yKH+6hpyKs/OADHzU321Jb6w8FBd7LzbUxN9fvjh71+tatlq1Y4ZfvvGNeRob/tWeP++Lj3RH2 b34UNcTtScM9smCMh+eP9uCc0d4NbfJa9gyv7U2yZGdiZyAQGA/8DwAAAAAAAAAAAAAmj/9lUt2x mVbnzLT2xGIbC9PMmTXK6qxJVu+cZPXOSVbvnGTFljg/X/obc0Y8Yyg11ab6ehuvXLH+4EG/W7fO b9et88qBA4Y++cSCffvMW7HC3KQkDyUluXfyZHc9P9oDM8dasO5Fq7Pivbr5JQ/PHe2dUIaV+2d4 LXuGX2+d1hoeHv4c8NcAAAAAAAAAAAAATHrh6al1R2d641iKtccX2liUZs6sUVZnxVudFW91VrzV WfH+aetEz62MMmd6vJ+mrrG6oMAb5855bds2K1as8I/vvmvh3r2ez8vzk4MHPT5rloefftoDgwe7 e/48sxbO8ODiCX71YZTVWfFeyYz18NzR3v1jhpX7k71xaLaFma+3DBo0aDTw1wAAAAAAAAAAAADE RT495faRZG+eetPa4wv9vjDNgzNHWp4Ra3lGrOUZsZZnxHrpo5c8vyrKj5cleeS9d/161SrLduzw j/v3e3HrVvPXrfOztDRPb9vm8Q8/9HBcnB//x3+4d8QId61c4fZFr/vxokjz106wPCPWS8EXPTR3 tHcvbfbagWRvHp/v+U1TmgKBwHDgrwAAAAAAAAAAAAAY9kz4y9eyk7x15h1rTyyyvjDogeRRHl4w 2sMLRnt4wWgPLxhtTsqv3Tt7lJmzXjRrfrInJ030i7ff9qvDh83PzfXT9es9PXWqxydN8vCcOX48 d677oqPdPX6cmTMTXZvwrBumDnHf7JEeXjDaQ/N/7cE5o22+tNnqnNneOrHQT9JeqQ8EAkOAHwEA AAAAAAAAAADwy6cGvlSZneitM29Zm7vQxovpHpo9yuq9CVbvTbB6b4LVexOs2vOKf9oZb0Ewzpz5 Me4fH+mxmcme2bTJvD17PL10qcdHjPDwkCF+PH+++9LT3T3tdXcOH+K2KWM99M44Cz96yStZk63O TrBy+0QPzxvj3UuZXj8y37pTizy+Oq52wIABTwE/AgAAAAAAAAAAAOCXTw56sTI70epjC6w+ttDG i0FzZo20cluclVvjrNwaZ+XWOCu3xnklM9ZLG2LMWz7O/YkvuGduotmvTfVgdLQ506b5cUKC2RMm uGfuHHct+r3bX4w08zf/6d7Zo/xs1TgvfRTjlcxYK7fFeXljtIfnjrb50harj8y37tQi9y978Xp4 eHg4AAAAAAAAAAAAAABDIgaOrdrz+l9S4od7OiPJO19/5MFZoyzflmD5tgTLtyVYvi3B8m0Jlm9L 8FLmZL9KjzP33Wj3LYp1x6vj3Bk51Kzpr7lzzgx3PDfardHPmZkYa+a0se6a96yn3n/Roo8m+s2W yZZvS7B8e4KlGRM9NHeM90u3mBI/3OqjC8xIeaFi0KBB/w8AAAAAAAAAAAAAgKd/EXj28o4pfTdy F1mxf6Z7UmK8/6cs71dkef9ylvcrsrxfkeX9y1nev5zlvcs7vVO63VtFmyz7ZK2f737L3A/mmLNm rvtXzHD/4ikeXJVs7pZF5h9cYcWn660r3uyd0u3er8jy/p+yvF+R5YM/ZXm/IstdcyZYfWyhjXlv Gpw55puBAwf+GwAAAAAAAAAAAAAAzwQCI8q2vNJbnTPPHcnPWZu7yJT44V4/ttDa44uszV1kbe5i a3MXW5u7yNrcRdaeWGzN6be9lrvU0pyFFu6e62dbk83LSPLTzcnmZ83x4r65lh/+vdUn3rT2k3e8 /elyb59d5q28t7195i1T4odbvHeu1ccWuDP5BRvz3nJ90qjisLCwJwAAAAAAAAAAAAAAGBwIDCn8 w3Pde2Y+Z8PpRTacWui1nDnWnVhg3cmF1p1caN3JhTaefcfGc+/aeG6FzQWrvVe0xnuFq208t8yG U4tsOL3YhtOLbchbYkPeEhvOLLbhzGIbziy24cxiG84ssSFviQ15i23MW2Jlznyv5syz6dM3vZ27 wF1JY/zDK4Pzf/7zn/8EAAAAAAAAAAAAAICwsLB/mf58xL6MGcNuBBOHVQcTh1V9lDS8Kpg4rCqY OKwqmDisKpg4tCo9aVhVetLwqvSk4VXp00dUpU8fUZU+fURVetKwqmDS0Kpg0tCqYNLQqmDi0Kpg 4tCqYOKwqmDisKpg4rCqYOKwqmDisKpg0rCqYNKwqmDSsKpN04dXbZo+vCqYNKxq4/QR11f/9pkr T4WHLw0PD//fAAAAAAAAAAAAAAAAfzNo0KCfDRw48DcDBw58KRAIxAQCgZhAIBATCARiAoFATCAQ iAkEAjGBQCAmEAjEBAKBmEAgEBMIBGICgUBMIBCICQQCMYFAICYQCMQEAoGYQCAQEwgEYgKBQEwg EIgJBAIxgUAgJhAIxAQCgZhAIBATCARiAoFAzMCBA18KDw+fMGDAgKd++tOf/gMAAAAAAADA/we5 7BWQY+kiWAAAAABJRU5ErkJggg== "
     id="image10"
     x="0"
     y="0"
     style="fill:#00ff00" />
</svg>
