<?xml version="1.0" encoding="UTF-8" standalone="no"?>
<svg
   xmlns:dc="http://purl.org/dc/elements/1.1/"
   xmlns:cc="http://creativecommons.org/ns#"
   xmlns:rdf="http://www.w3.org/1999/02/22-rdf-syntax-ns#"
   xmlns:svg="http://www.w3.org/2000/svg"
   xmlns="http://www.w3.org/2000/svg"
   xmlns:sodipodi="http://sodipodi.sourceforge.net/DTD/sodipodi-0.dtd"
   xmlns:inkscape="http://www.inkscape.org/namespaces/inkscape"
   viewBox="0 0 22 22"
   version="1.1"
   id="svg6"
   sodipodi:docname="blurfx.svg"
   inkscape:version="0.92.2 (5c3e80d, 2017-08-06)">
  <metadata
     id="metadata10">
    <rdf:RDF>
      <cc:Work
         rdf:about="">
        <dc:format>image/svg+xml</dc:format>
        <dc:type
           rdf:resource="http://purl.org/dc/dcmitype/StillImage" />
      </cc:Work>
    </rdf:RDF>
  </metadata>
  <sodipodi:namedview
     pagecolor="#ffffff"
     bordercolor="#666666"
     borderopacity="1"
     objecttolerance="10"
     gridtolerance="10"
     guidetolerance="10"
     inkscape:pageopacity="0"
     inkscape:pageshadow="2"
     inkscape:window-width="640"
     inkscape:window-height="480"
     id="namedview8"
     showgrid="false"
     inkscape:current-layer="svg6" />
  <defs
     id="defs3051">
    <style
       type="text/css"
       id="current-color-scheme">
      .ColorScheme-Text {
        color:#f2f2f2;
      }
      </style>
  </defs>
  <path
     style="fill:#3daee9;fill-opacity:1;stroke:none"
     d="M 10 3 C 9.02709 6.405 6.6455531 9.3322813 5.5957031 11.675781 C 5.2283031 12.372581 5 13.1546 5 14 C 5 16.77 7.23 19 10 19 C 12.77 19 15 16.77 15 14 C 15 13.1546 14.771697 12.372581 14.404297 11.675781 C 13.354447 9.3322812 10.9729 6.405 10 3 z M 16 3 L 15.425781 4.6132812 L 13.878906 3.8789062 L 14.613281 5.4257812 L 13 6 L 14.613281 6.5742188 L 13.878906 8.1210938 L 15.425781 7.3867188 L 16 9 L 16.574219 7.3867188 L 18.121094 8.1210938 L 17.386719 6.5742188 L 19 6 L 17.386719 5.4257812 L 18.121094 3.8789062 L 16.574219 4.6132812 L 16 3 z M 12.283203 10.716797 C 13.320903 11.437997 14 12.6351 14 14 C 14 16.216 12.216 18 10 18 C 8.63504 18 7.4379969 17.321003 6.7167969 16.283203 C 7.3638369 16.732903 8.14892 17 9 17 C 11.216 17 13 15.216 13 13 C 13 12.1489 12.732913 11.363797 12.283203 10.716797 z "
     class="ColorScheme-Text"
     id="path4" />
  <path
     style="opacity:1;fill:#ffff00;fill-opacity:1;fill-rule:nonzero;stroke:#ffffff;stroke-width:0.06853583;stroke-opacity:0.94117647"
     d="M 15.787193,8.3202172 C 15.668474,7.9921198 15.57134,7.700342 15.57134,7.6718221 c 0,-0.02852 -0.03922,-0.1054903 -0.08715,-0.1710455 -0.08087,-0.110592 -0.135932,-0.096553 -0.763229,0.1945961 -0.371841,0.1725831 -0.687702,0.3021597 -0.701913,0.2879481 -0.01421,-0.014212 0.114618,-0.3284651 0.28629,-0.6983412 0.171666,-0.3698761 0.287728,-0.6966985 0.25791,-0.7262721 C 14.533431,6.529134 14.231464,6.4074534 13.892212,6.2883063 13.55296,6.1691592 13.238832,6.0516532 13.194151,6.027182 c -0.04468,-0.024471 0.25602,-0.1627828 0.668224,-0.3073588 0.412205,-0.1445761 0.749463,-0.2915777 0.749463,-0.3266703 0,-0.035092 -0.138785,-0.3401422 -0.308411,-0.6778881 -0.169626,-0.3377459 -0.308411,-0.6440455 -0.308411,-0.6806659 0,-0.03662 0.324962,0.085161 0.722139,0.2706246 0.7156,0.3341535 0.722641,0.3358301 0.777443,0.1851506 0.03042,-0.083631 0.14222,-0.3987853 0.248451,-0.7003429 0.106231,-0.3015577 0.213207,-0.571794 0.237724,-0.6005253 0.02452,-0.028731 0.163971,0.2873902 0.309899,0.7024922 0.145927,0.415102 0.274675,0.7547309 0.286107,0.7547309 0.01143,0 0.312968,-0.1451414 0.67008,-0.3225363 0.357111,-0.1773949 0.672287,-0.2995433 0.700389,-0.2714409 0.0281,0.028103 -0.09405,0.3432779 -0.271441,0.7003897 -0.177395,0.3571118 -0.322536,0.6586476 -0.322536,0.6700796 0,0.011432 0.339629,0.1401802 0.754731,0.2861073 0.415102,0.1459271 0.731223,0.2853816 0.702492,0.3098987 -0.02873,0.024517 -0.298968,0.1314931 -0.600525,0.2377242 -0.301558,0.106231 -0.616712,0.2180339 -0.700343,0.2484507 -0.150649,0.054791 -0.148918,0.062024 0.187104,0.7816267 0.389619,0.8343808 0.409591,0.8196375 -0.496143,0.3662521 C 16.90929,7.5074655 16.642592,7.388162 16.607926,7.388162 c -0.03467,0 -0.184946,0.3439341 -0.333954,0.764298 l -0.270925,0.764298 z"
     id="path817"
     inkscape:connector-curvature="0" />
</svg>
