<?xml version="1.0" encoding="UTF-8" standalone="no"?>
<!-- Created with Inkscape (http://www.inkscape.org/) -->

<svg
   xmlns:dc="http://purl.org/dc/elements/1.1/"
   xmlns:cc="http://creativecommons.org/ns#"
   xmlns:rdf="http://www.w3.org/1999/02/22-rdf-syntax-ns#"
   xmlns:svg="http://www.w3.org/2000/svg"
   xmlns="http://www.w3.org/2000/svg"
   xmlns:xlink="http://www.w3.org/1999/xlink"
   xmlns:sodipodi="http://sodipodi.sourceforge.net/DTD/sodipodi-0.dtd"
   xmlns:inkscape="http://www.inkscape.org/namespaces/inkscape"
   version="1.1"
   id="svg2"
   width="22"
   height="22"
   viewBox="0 0 22 22"
   sodipodi:docname="character-set.svg"
   inkscape:version="0.92.2 (5c3e80d, 2017-08-06)">
  <metadata
     id="metadata8">
    <rdf:RDF>
      <cc:Work
         rdf:about="">
        <dc:format>image/svg+xml</dc:format>
        <dc:type
           rdf:resource="http://purl.org/dc/dcmitype/StillImage" />
        <dc:title></dc:title>
      </cc:Work>
    </rdf:RDF>
  </metadata>
  <defs
     id="defs6" />
  <sodipodi:namedview
     pagecolor="#ffffff"
     bordercolor="#666666"
     borderopacity="1"
     objecttolerance="10"
     gridtolerance="10"
     guidetolerance="10"
     inkscape:pageopacity="0"
     inkscape:pageshadow="2"
     inkscape:window-width="640"
     inkscape:window-height="480"
     id="namedview4"
     showgrid="false"
     inkscape:current-layer="svg2" />
  <image
     width="22"
     height="22"
     preserveAspectRatio="none"
     xlink:href="data:image/png;base64,iVBORw0KGgoAAAANSUhEUgAAAIAAAACACAYAAADDPmHLAAAAAXNSR0IArs4c6QAAAAZiS0dEAP8A /wD/oL2nkwAAAAlwSFlzAAALEwAACxMBAJqcGAAAAAd0SU1FB+EDHgwbAqiIaykAACAASURBVHja 7X1ptGTXVd6397m33tSTWt2t0VJ3C6tljbYGLNlCAjOthW0CmLBIYAHGAS9WshgChPDDKzFegQRD PODAYiXGIQ5DWAiMbTxhYxvP1mjJkiypNUst9dz93qt6Vffes3d+nPHeqve6W+p+6k7etUv9XlW9 qn3P2WefPXz7O8DatXatXWvX2rV2rV1r19q1dq1da9fatXatXWvX2rV2rV1r19r1//hFZ9jnvphL T3P5Jsl5RioAra2rF60AtFqKQGsTfkYpxkm/ipM48XQaKoge533oaaDIehyyn3TLQCdj4v/He96z c3Zu7iwl6tXViK2tyFZKDQm0qckKQWBBUKBJf1irgpoGIAIgsFagaoFGs7dZwCpUGzQNgQiw1kI1 jUODBmgAIoIxxo0esxpAqtFo8MSePQf/+u//fl9jrb79N35j84UXXLC1nJ6eqaqqFFtDrKVa3Ce5 /yuABuT+CVJAREDxexvUNUCoIQ3BEgAIYBWAhW2SfHVdg8gNm0BgxQIWKIoiPc+spUhzdHHxyF0P PvjU57/ylcEERdCX0gJMXPHv+S+/fdZ555/7tqmpmRuZeZ2qsKgAonBjJVBRN2GqEP9Qce8RVaiK f81CrXuve497TcVCrECRnocIVATin3OfJX6JEKAKhTa2sc9u3LTh44uDwW2vetUrz33lK6/6tenp 2VuLojdNcH/jvsONrwbZNJNDwz0A6d5kTN74vFdQgZNVVIDGJvk1jQfcsgjy6paqenbTpo3vueub 9//hwsL8aIJvcFIVgV7A+yj7lz76l3/xM9Nzc+8oTXGuqkLEgoxBUZYw7PQr3KzGh5s8dTfdGhAN E4/sNcle889Bss+De300HGIwv4CmcWuYCBAVW42qR/YdPPjhy6+65tVnbzn7pqIsewyCiFMqUxQo ihLMPC6LVwhR9Qoibt7ifSB7Ld0fRKH+3rufByistRjML2A0HDqLAAJBYVUwWBruPXDo0Nv+03vf 96d+ssX/e9KtQXEC+xNlk88A6P984APfNT07+ysFm3OVFCIiIIZhQ4YMkReRiABirzUE8asnqBF1 trik6u5FVb9OiED+FfX3TwDIf/bSYBEHACweOaJN0yiIyc1v8fKNG9Z/74aNG3YWxvQoTRcxMYwp QGBAnHxOXoobrqgFOyFasmo2D0GyVqxJacFq9hwRQ2yDI1MHcHj/fiz1+3D2hQgKTJXlOZvWr78B wAezj8wVASfLGhQnsPpbkw+g15sqbymKYjvBrQJmJlMUgFUsLSyirhs3QYbATCAyTs9VnFnkMOAM JnYD7NWMyYCJoQSA3VczEajzMxGDYECGQIaxsapQVyPYhUUSVYiIEsEwm/OLophmY6CqqgCZogAz oxlWqEYVRKyX030WwSBuE14B2U9gmFzy8hkyIC+v0x+vEv6GmOH/jsFkgLKHDWdtRlWNUFcV6qoi AVREiIgAY3p+fsSPu/ixl5O5BRQvYMsgAOaSndvnmqaZU1UORrg3PUMEwlJ/AQtHjqq1DRljUJQF TFmCSQBy5i+YVQKBif1kuhGl+GA3iH5SmDl7zSuAYRAYxAw2jJm5OZ2ZW0/DpRFsVamKKIhIRApA Gc6ZIy4K9Kam0VQ1BguLGC4NAFUUvRKmKGCKAkQ27uluu4CT1SsC/ETDKyKHCWf3OrPxyuwsILG7 BxDDGIOy7GFu3QYMFvuoqxoqSmoFSkDTNAyg9P4n+X/tBCV4UZFBcQKrn/yXGwDlcFj3mropvP8C EFCWpUpjqa5r2KYhNgwQQRRA00DIOWlFr0RRGBgyUCgaK6jrGo1tQMzui4xBaTjYzdaKi1tKWK1h 1QEwXNJUbwoFG9RuzyUVRVM3JjjwqgrDBGMK1HaEpq7cZ7MzbiIK1A3IWeS0+r3ZVxUoCKpOIaCK ouD498n0e+PllYaYkpWDgohQllOYKqcwiJZRIaJoqsoA6AGoM1MftoGT5gyeaBQQFaBp6l5txYRw LN6X3w2LMnMARaBkwEyYnprCZ77wT3jg4Yfw3PN7MTXVw47t23HLTa/BxS+7CFVVuVUCuBXvHTMO +3Iw+xx+Tr8HE81sQMQKgFScwbcqJKKkqkFQZ13UKVsB5+GLWGyYmwMbg8HSEkTcYiNmzMzM+NCN 0R8MXFjoQ8+Z6Wmsm5tDf2kJdV37lZ7JzNzaBpyiEwxxtBTw0YaoompsUIB88nWZTOELtgLFCZj9 3AqUtq7Lpq4K9WY8OsYAsSEUZYnaryxRBYnFcDTCO9/3B/j63XehPxjEL/j8l7+MT332s3jrT78Z r73xRhhm78WHyfUqn5t+Dm4XZ4rhLIPzJ5RUREWFVBRihcMYhQhMFVBnuTBSARqnDG/9tV8FMeM/ /vq/w8b160FssDjo4z+/+9145LFH0TQN3vu778R5285x9y2C2z7yYfyvv/wL/Pov/TJufe3NaJo6 WgNi8m4MuwcHXyYptAslBSLu0TTNJAWQjhK8aCvAJxD6cfYoGrXT1jZGRSkLgZxP5FewW/wu3Jud mcUf/+n/xOe/8mWUZYl//0u/jD/5g/fhj//ru/FDr38D9jz3HN71R/8NTz71JIqiAHPY8wHjLUHX B8j9Bb/qnbIw+ZhdSUTQiIW1DYtIpqluHDlMho/xVQRbzt6MJ55+Cg/t3u18F2Pw5NPP4NEnHsfe /ftx8PBh3H3vvSjLEoUxGCwNcPd99wIgbFi3LjqKQV4mBrr+C7l7I3Yyh1yJFQsrFk1TFwCmvB9Q eMtrMif8pGQu+QWsfgPAqFVT17YIkx+XVHSNvQYQoSgKfO2OO/G1u+7E3Ows/vvvvwu3vua1uOC8 83DJJTvxa//mF/HzP/NmHDl6FB/62N+jv7TkQjNmkHGeNRvvRBmOHnYYZMMuuqDcgydKE60Ca4WQ xevh53BruSW79qqrUVUV7v/WgyiNQVkUeOLpp7DvwAG87pZbYYzB7XfdCWYGG4OFxT4efPhh7Nyx A+edd57bpLktL2fyMrjtyDK38iGqgsaKyRQgKMFKk0+nQgGW8wEKVS1EhDVPmEQPgNOGpQJjDL7x 4ANYWFzET/3Yj2N2bs7ZLZczAEjxultuxWWXXorb77obS0uDaOZ5kvcfVz2BTTbxYBCbGFIKJCZu nIMFaCshQ2Ava4jWrbW4+oorAQDf2r07hOZ44qmnYK3Fj7/pTThr0ybcec893ucADh89jH3792Pn 9otx/nnnZZaFx+TNty/y+z8TdRRAIWLZbwFltvJ5wqI8pRZgWStgVUtrLbeye94ChFRqMNNsGHv3 7QUAXL5rVwyfjOGY6Dn/vHOxdcsWPL9vL5rGevMe9nduOXrJN/Ar3YeP0QFk40y6FYj4TB5ArQxk zM653/Mt5ayNG7FtyxYcOHQIzz7/HA4dPoQ9zz+PjRs24LxzzsHVV1yJxX4fjzz2KKwqHnpkNwBg x/btKHu96PXHMDFzVGOoy0lWIuOcP59CdluBGL/qJ5n/k1Zs4xPI+7f8AAVYRNjl5TXuYQp1yZvo uTnPdzgaAgBmZmZiIiXE9mDC9PQ0yrL04VhmHkMGMThNIDdowcxnpjTlC0IG0U2+ikAbHwVk8orq xBIcMePaq6/B0fmj2P3449h74ACe2fMsrr7iSkxNTeGGa18FAPjanXegsRb3fPM+nHvOOdi5fQes td7557jKyd9jOypwMhr/s/pik1oLEYU0wtnqN9n4UzZvq2IBsKwfIJagAoUv7IiF1caneTVOsqpg 65atAIBn9uzxeyfHkMgYg0NHDuPw4cO48hWXY3Z2NsXS+SoK+yp3naksLOTkhIqo86pDscbLqgjh loVFE+P8kFMwTLj26quxNBzisSefxP6DB7H/4EFcdcUVmJ6ewQ3XXw8C8NXbb4eq4p5778X5552H S3bshPrQEJzJO+b8udfB8M6tzwFIKnaJCnVMPy+TmV0VJ3CSErAVZREfZiErzLi4IKxXiAi+becO FEWBD3/i4+iVJXplCTZu8mdnZnDf/Q/gmw88gFdefXVUgOBB5xaju+rjYLae5+iExoqez7Zr8AO8 f+BkldYtExvs3L4DAPDw7t14eLcz8Tt37EDZK3Hxyy7Ctm3b8PAjj+DhR3djYXER2y+6GFu3bIkW hCibeE7OXrRU4X9eXs1k9RXKfLFN2vdXRQFWtASqoUTqnCxAwXC5btKQJmXUjcXNN96EHRdfjDvu uRvv+qM/xLPPPe8ycU2NT37m03jPH/0h1q9bj1tufi2mp6fHzGWcfOZWQihmA4P7SQZs3JiJCqzf 9yFCsdLoB9ul8Y2Xue1XzM7O4rKXX4oHHvoWPvfFL+DCCy7A1rPPdjfPjBuuvRb9wQAf+OAHMT09 jVfs2tWyekFRlbp+C8V0MpGLIojYh6Fh8hW+ss2ncvKXSwTRMRA/URBVIVEF+8kPKymtWoDg6uDr 163Dv/7Zt+B33v0ufOSTn8Dt99yNdXNzAIDn9+7FBeefj9/8t7+KKy673CVzQlUwc/RCFo9zBzF8 T8jPG/JhIbzD56MAgbNSyHAGgAvPwKkKCFdEnJ6ewjVXXolvPfIwFvt9fPet34nNmze7NG1d49XX X4+PfuITuP2uu3DB+efjile8Ao2I8084RMQug0mYFMX454xJZWixyJV0wuQTTjJy6UR8gPbvKuzM lERPWiXlhMnH7obdDTaNxa5LL8X7fvf38KY3vhFTvR52P/YYdj/2GHpTU3jzT/4kvv36G8CGnStG aKdT4b38bJWmOgDFtHEoHkUfwAY/wDofwFciVdvq7GJ2ExNK01PTuOqKy+MNf9vOnTj7rLNiqHjD ddfHVPemjRtx2WW7nJ/BIWOZLYQJIWHMZAYHUVwNwFoPNBF7Slb8yagGRnc5eNghVg65gKSn5CfU Da4xBmdtPgu/8JafAzGhrhv81Yf+Bn/ywQ/iIx//BF5x2Stw7jnn+M/x6VPOK+3so4t2FjBU4Hy5 zq0oRgSeeG2IKCL16VYNNX5/V24lCogLmMLgnK3bMDs7i+FwiAvOPx/GGNS1S/FuWL8eF114IZ56 5hnsevmlmOpNYbA08LL6cC+mfTs+DGfFLTh5LSTWTVpJtVOsBC8EFBoF8WOaUima5+xDeRRxEJhd nt6UzipMT0/jR3/wh/Dcc8/j45/+B/zVbS/Dz735ZzE3Nxcnk/xnUNgOub2KwNn+7R0/51R5C+Cw XrBhbK1CbT7AKcJgACjK+PmX7NiBT972tzCFgaqgrnxhjpyZvu3P/hzGFFAo+gOfvIoj5LcVbmf9 WvkNLyuIfPJHPFjGQwtX4SpO2PRHA+AxehCQUkysuP2Os2KNswLBdHN43nvjGzduxDve9jb85996 B+qmgfW19/j35D4zhINjk9/ZDlQRv0N9aRXJs86cLPUKm+UOQnbOpMjDioXWmqqQERbDaKx1ha4M qBKQRGBqpXzh5W3Jj7R9hbqJiMbC0OmgAMtfQoAHdmgYbBVnjX06lghZ8oYylIwm6A8Uo9EIVVWn gg+yiQ4WgHjMhKaaALKfFcxFzD9E/0ThM22SAJ2qMMbAsIGytL435BoY5HNaNAb1ivJFs5/k5c72 NJbGBkNJnVX0mcskm/enVgFaX7wABzCW0sUB5qCkMc/uQiFkqdAAn8oGRHNwXebIUYJYIU8EoRNP R0QOI01BQhCRLydLiPt9Ojj+HNPWmt1hR0kj9jDVjAgpKcWUzD1l4iJz/pDJGscACSrm9n/jfags TyE+bDmdLQAFR1AD+hVt/GKWyMkRPWnb5ZYXHzxltFY2pX00j/cppYFDqjkkf2J6OaRWsxpFG+qd 8BVjWbquDJlFGMMkUCcJ5Uu/YFr+c8N9IliAhAeIFgs4zbcAH/kH8xo1OExwMJux8JH2cR4L45YZ eHCWN6dWYQidYksIvVwcnzD+4vd6QVb8kbQt5GEgtVBHyz9SaMqZ6XfOKHJlpTzp081WElQ8WJoR ZY39B6ukAi9CAajlrKgPC4EwwcZnzVLhw8XYabLcQu3GydzKmuXpXmdNssnvTFTEDGaeNbJqpcT9 NQ10Uiodm3yHaWxXIUHcVpYI/shSvdnz2vIFPEA0KrRGRPRY78Bp7wSSL66IQECugCHq90nTTniQ g4TnDlH8GdTO9XdWfPTOfViFfNsIE0LZHs0GxpRu8EV8dY58BTDlAMS6eNulgdkBVjOMoYcWddLQ 7W2BQrKKKSpma68nJLQqI9vigtvBYFOAfQNNgIOpAzOc7lFAGFCvCJoSAakk214hyS/IwJ0t757D LGarmlr+gtuzEypI/YMJIHVpYClCFOBXlfdYY5pVQiFII6R7zGybrGSdQb/boSjHiW3LS62cQPSF 8kouuUyBMYXPM7SBNVki6PRUAAW55IoqSMVnBjWDK6bVAqYO3n/C5OeD3Yn18yigmwHkVtSg0dQm /8TVKZpuLkDaoRZl4eqksA00IZvnk1DR/wjbEjr3xNza+jSZACcrU4ZdsBAw7OmuAKE4IyIg5CtL kfAg1DZ7nACcyJ09pgxFk/kHcdW3HahuKjgOPrnYWkNCJezzWc+h9TV3CWlsVW+9U7ayKy8Rt1d2 6HKi9paUFDGFiuBu6jrDOARH2oNA0HKo9fSPAhBy1/7nsIeZgNDFZByfSwTxRHRvK5yiCWaX2g5Z yiWk90ljIU2TPP0QAViJXcmqEtvMqeP8Yez7sGJEsJyVmGSxYtgaFEYUtm58pxRiRzXOFAWIOEBV 191T1+DSlTlDtw2DWqlU8mZ6bCV3gBQhrRrLJhn+r5sEiq3WjWC0OEAzGvmSb/gfWsBLEUHjOph8 EojHI5GxVT8OTOHsfakOlmoTGlHS+Z0kP7oZjjBa7ENtE+U9qc1/p0oBxGevoA4DqACq4RDDfh9m vWsPd4ifwiF/Q0qV2DVykt8//fMIjZMhX9CFg0WfQV1olSWK1DuHagWjQR/7n9+D+aNHYUOffxjW 6BS6ku5wMMDU1BSmpmdRTBUwpkBhPKgUeZk5t0re8Pjm1YhVpKx7OTi+PumJHBMAQMnXJxqLowcO YN9zezCqqsxpPSO2gARccD10gtFwgMV5g8KUmFlvgDLF+Al9kIAuLgz3MBIVMMhNGnUyYZpSwvkr +e8ignppiCP79uHRhx/CoYMHHKlE8AEkh4MDtmkwWFxEWRQwXKAsp33kFxJN2rI2biJTZxH5Qhgs teQl322ERFXRkjhkH23dYNTv4+lHH8MTjz+G0WgUPxuqq2YDXngqWJUcO4cFiYPAWGkw6C9CbINy 4UhcHch7+jVQpYTB8aFkzpSRk0FIwvOFrQYZxg8hwWMFzahCf2EBB/fvxXBpyW39YTzFkS+EIpCK oB4NMX/kMEbDIbgsUg0fjrImgHLC9kEtMgtveUTHMf3+i1Nyx5eQNaGUbN2gGg1x+MABHD50ENLY rJdCE47hNFCAScjpGkrqWqcVzPEt2lQV9asqetpWpc38oeJwBJGapV2kkQysEahkEmASLYaRiPQV tPrqrG385CsiECwwfdgwge5vhktLGC4NEoLYb2siiRom0rqIjbK65zx1zUqyZvUI8U6zRIdZYW0D ldT1nRpZVpyDVVOALntWEMTWTT1Sq42GuyVVVZBvaoCIbU1mzHWrhbWaOmE7kx0KOFYk8uu0/z6b TP95qmnlJP/UbU0iGY+HhMjFVTBzh9DJ63mKJP8+9z3I70UU1itEkFcmyZo/F8dBMnklOrfutdUn KnvBW4C1dqlp6gWxVsm4VeHvg1I1y2XAQmGDyWMHqAHAEFbXc++VwYEoCKoMwEJJQUJRQYg0JnFA DGaB+Ja/9uB6v8DpZhzZMBkS/IxYzdRYlmYwhHJ5AZBAfTSjKhBSkBWATZSXSMZlJYk9vUrs5ePY qqZKWdwvqYS9igrAL8j784FAXdVHRbUJQ+jMqFURiftv3IRj2s0NTl49TGtUW4Ynhphj3z4Ozsjf EEy2r9lT8L5DOtjGVe5TwpmvQEpj8mJM1kTyEB1inWCro+O6wmC2q+SawQr0hSC1TpUCTBRm78GD e+q66ns1J+vNctfnTR8hGXagO+mtInO2d6NNjYAAQNeoYNr5HHIKoCpOCVy3bdPUTa3qUUtW88RL clUFbdkU47Jqh6wryzKMUznEV7T1F21ZJfol8BGRtda2ccvL/rzc78elIHy8kz1hiert99776KGj Rx9paltBc+TLhNJx5uXnECp09+7MHpAHTYTwayIgxb+vq0rkLoAIdWOrvQcPHXl+/4FhVdfqZI3g /VZ4SKmmHL8g35vziaKWvLrs8OXd8jpR9SlA4YiZ0R8On3/06afvXGYSu5O8nBLkD11OOcwxTMxY P6D3G0oAvSPz8zIaVQdnp2dodmZ6mymKGVVHw6Itz7+DdsmeExVYsWpFVFRVRNWquN9FPA+je15U VeJ/RUX8zu//dT+ozwC7b6rqunr+wIHD33ryiX2Dft9u2rCpmCrLEkQUHUDrHTkr0SG0It6ZlQxU GkJJ74CijTBqt6Dl0UObz1DHHm7ZV00zOHz06JNfvffe2x58/PG7AVTZo0YiippEF0crKMpyCnNM fl/OJr+E61efBjALYA7AegDrjTGb3vg933PzOVu2XCIiPREprLVGVVk0cgiQQsjNKNzv3vE566xN 63fu3LFt44aN02xKUrWkIlArse1MMybOvB3dRZkpMghsnD7+1qqu66OLC4PFwWCpqevi/HPOmd2y efO6XllyIJCKQEzVjIAnm0hrtd/vLz29Z8+BUdPUl+26dNvWLVvWlb0pcr2PjS8utScdefiXsY0m +SNAhVS1WRpVB4/Mzz84GA0fnS5LKopiWJblsFeWo7IoqtKYqjCm4cJYAgkTiWFS5sKbL3IborV2 /5HDD739Xe/9KqDDFcL5YypA3qGaK8CMV4B1XgnWZY8Z/57AczeJ3CBq4ubNm6d/7qd/6rpXX3/9 ro0bN86WpiRR104WwZWEGEa1YvSONckhX27hitspfHgH34PfqNVYvbQSe/KgLkXcVLVvGgnQcqtH Fhb6X77jzkfnNmwcvf77v/fSc889d2NZ9Jh8dBHqHi1mklwhspyHxD3fl6at2xtsoKQL6GWrnuTC f16WcwjyNnUD65lRw7xaa9FfWrr/yWeffdd73/+BPw1O+wRF0BNJBAWSIslMkYWjUw6PKpvw8KWm 81yr6fG6a67ZetMNN1y+Yf36GWb28bgFsUHR66EwhfchMmCnj6Hz7p4clKKKNhA0yyD6pyh32vL9 v6pGOLL/AJb6fSeHZz7dtH79+m+/+upLX7ZzJ52zZduMYeOzn04GU5bo9XoR+BE/GyHpFCD0ISuY vS6ZJxHuQdLQp/vSeD9B8QbzC5g/dAijahTT48yMmenpXRds2/YWAP8biWSy66hQcZwJoNxvyZWg 9o+wTxWtXOrKBAcEwGzatKlcv379jDEGSoAV62jbTAG1Gm/MNYh4GJUvAInYBOrMqoiahWDsm0o0 g3UH0ongXLrKnatbNE0V09rDxb7nOnCbwuzc7PSGjRtROBcievdcGBhiNFXj09rahrODPKm1RP8y NI3EZegRQtHiIdHgUgS7IOuTdPWJqekZWGnQHDwE29QQMEREmVBMTU9fmI19zjIWfYjjtQD5o7vy Kz/Rw2yVa/b6cgpQEJGZ6hXKgSHDCoqiRFGUkLrB4vwRVMORJ3Q2rsPIFE67Qp8f5XSzOQWLwyZy 6BTm0HfAGVQdCZDq2UaJGes2bsRwacnRx9a1wxX6qN0YiiGIglD0ejDEqAZDDBb7rhxufDdUUTgs pCfRTr2ITgamDPTigTKB36iNJko0ukFG9vL2pqawftMmDJeGGCwsRMArEUGcapXZnAEdytniGD5A N2qxfjJtNvnFBLNv0aY3y4kOcp+iIDI2YPQV6ljGTYFRfwnD/gCNNK6kjML3G7oVoZxKwIGUQmKd XkFKIGogVmLHsLIr2yprhKNDyRNBK0gVBo7CdXp2DmVvwfkDPqVrGyHxWC0RhyTq9aZga4vR0hDD wcAxpnLPWyqP+A1kumIhVgFy2UTNofHMsNJAOvS4TlYbATJsFKwKG+QtGFNTM5iensVwcQArNUSE QJTTzATfq8nmiFayAJNqALkSNN70GwCjjtkX/9okBcijiikCppjI5kAJYxxhQyBMKovShV+2gbUN iCrYxkJUUE71nIln74hlDbWBwbPXK1o4w1TnJ4BMpJVpoXiEUXKJkgsMUrYpypSvEmMMbGVhrY3Y AVGBVjUqHUV/JLSfF+y2ulxeIgaJs35lUcTkQZCXOSGV2XSh8ARDBXq+qTXKKgKxDbwzzkiUs002 vys6gV02yqA1Ntv/uZNEC8oRJr+YMPEhlyAgUjamFlEYQ+3aPzGKXumrfgISx+vf603ht973Tnzx a1/Fe377d3CJp3IxzI5sIQ6ap5slN/AR+pVjCk3G7B2BKonZzNloH11I4vHVTkaHCI5guixiXePJ Z5/B1+++C1+6/XY8/tST2Hr22bjh2mvxhu/7fuzcvt2ZaU5+gMll9J1C3fb39uRzhrEM2EvESAYA GlGC4xqc5MPRSk7gclFAbgWooyC5YuTUZnkUUGQ5BYUqmGBTxi3RtxI7CtfhaBg7ewyAbzzwTTzx 1FMAgE9//nPYud1xDxWeWJI92XRIvwVWb44on2QhUoOpX13B7GrqM4zm32MIkUcjsZgDGOPRTCDc +60H8PbffydGVYWtZ5+Nndu3o6pq/MNnP4vFfh+/87b/gMFw6NvlyXfCU0aPS61Wt7FmWeT0eRTR VKHEHQgwrG2CAnQnP7Jknkg5WDG5XaG7NRQTJt50Vn/Pz4Ixhps2g6eLHMMqCGFa8ODvvf9+7D94 ENPT0/jMP30BP/GjP4bNZ2/29O5oDZYCHZbxNKjIV37EAAaHS2I3U+AZsGIjzX0K77LeQk9QUZYl Pvm5f8SoqvA9t9yKN73hjdh+0UXoDwa498EHUNc1rAiKwrSxhB1FUG5wrAAAE0lJREFUGNu2OIeb UZuGJ9DjAm2eAStBAbqhOx3LBzhWLiB3KMJzRcfr7zp9eRo5vK8gcBPjdq+5+SkgMUZnxvP79uHu ++7DRRdeiMt37cLfffxj+Oodd+CNr/+BDI+PNiw7Dq4nY/ATFnsBIplzm7sw7OeRTUzbXcW+7p1I MZAwklM9Z3WvuGwXXnbBBY4VbdMmfNfN3wFiRm0bj5wG8u7ouOejjUQG2p1QbMYbVNjfW06CaV0i rNfJ1bSScvwCJr8bCoZcwMiHgkMASwAGnX+7P48AVMRsNct2xYSPZIUe34L1yOOP4ZvfehA3Xncd fvyHfxhbNm/GX3/k7yLzSE7FlsJBtzc6Nq5u4yd7dtGEUnZK4ZjGyJ8d0ErhduBfgQ4v+IZV0+Dm G1+NsizxZ7fdht993x/gA3/55/jHL34Bew/sd+Esj3MFp22JI9chdXohqOsEBmY0LlJHtE2NrypR AboOOZ2ID9CNBvI4Etm+wkgnWnTZxbnl/LnPGQGomMhG3F8Y7E59jYiw2O/jG/ffj7IscdnLX44L zjsfN15/Az76qU/iG9+8Dze86jpYsa1VE0xnqLJ3f27RzmU4ftbUhaxZE0msPXi2UaGslcv/t7EN Ln/5Lrz1p34GH/v0P+CfvvJlAMDc7Cx2XHwx3vSD/wzf97rXwQZCyWxLipOt2cQHGttWg0lwAzJW cs6AJnn3c5toeoxt/HidwElKkJcZc8VA50tyH0Cy12uAGmIKQLsOT46N5s2AsPfAfnzp61/Djddd j6tecQV6vR5++l/8S3ziHz+Dv/rQh/AdN70Gg+GwPag5MKPVQo6sA6hD28bO8TPecuRYQ8lAJAoF ZRA2DXw/lsCFwXe+5iZce9VVWFxawjPPPovPfeVL+Pqdd6IoSlxx+eW48IILINZmzSJtkEv0Y7pN KAhnIrQbT9gzjgdso0NtKXV8srFS8YmeGrYcZsBmoSBlv3P2e9GefFhy5y06cCkyYKhaWEqtW3XT 4OFHH8X8wgK+eucd+IlfeGucyKZpcPsdd+CZPXuwbetWf4QbWpEA5XuqYmJ7NzjrYWRNnEMtoKdG qjm3z7I/UMpCSGIfIlTBpsDZW7ZgmzG4ZPt2fPv11+O2j3wYf/PRj+CR3bux4+KLUXmGtVzeXNbA l9hSgLBlxB5GxDwGkGEQXVkIHWc83/9PGBKmKxSHpFMj6Hqd3UcWjpDzsSQhZ1y/J0MhYGOw2F/E F7/2VQDuFM6FxQXML7iHM7sWf/vRj2BqairtrxmBVEy/Mo8TQXTZRwJYxXCHwTMAQ72sGqDtGv8K GY+hI6rS6H/Mzc7irI2bMBqN8NSzz7ioJTKcUYsQsxvnx1Z6zzDOHSob8t3MyBDL4lvgJtRf6MWA QrthYfesmg79YvQJ0FGO+MgPVwzmNTo2yrBq8fz+A7jvwQfxuu+4Bb/5K7/iuo6IYcoCCwt9/MA/ /xF87FOfwlvf8q/ahD0hqZOVaiW3Bhjv8WNmQFxHE4jjdiQBvq6p/OxqGIHkoQBphbm5Obz9996J ubk53PzqG3HRheejPxzhrnvuwV/8zW2Ynp7Gtq1bU0aR0tExcVVSajLVTFbuMqkE62VSnkNa3c+a b8MTwSIvBBV8vMeVaasVpp2AiA+icGhq27N25CGMuqrw6c9/FsYYvPLKK8HGoBpVjnhSBJs2bcSt r70Zn//SF/GxT34SP/SG12PkGcciGDR42QyX9/cWJj9nyE1+6BIOTGeIHAjxCNl4omlA+Kon/s5O BGHGpz//OXziM59uDchUr4fX3XILbr7xJoxGo5YStHwWThXA5Olz1mnNrdCRPBsrMmh9VuZeCUr2 oppD9RiKQZh83Gn7ObEZn6+0PiWgh+cXF/FdN9+MV119DWxjPaWrL9/aBj/2Iz+Mg4cO4elnnvH1 +PRlzKklW4PR7DJ/tM7/owhRh/9ZbGIYzX0ACWlAjsk5DEcj/OLPvxXfcdNNuPeBB7D/wH5YK9i6 ZQtedc01eN2tt2J2ZgaNZy4JR9zGekFOgRMjFm5HKzmxVmhBC8xoEgpkkQV9JaJpenHdwcde+cc8 2UoFTuDsgKncfM/OzOD33v4OqCqGdeXTuilZA1Vcd80r8efvfz+qukZ/sARTmKwdO+vKpURchS6H H+f0LhpZQaTb9hWUwUpKXyPrWgZhdmYa33nzzfi+7/5uT4tf+HOMHYKnaZqkoJEeL+e5yRxXTGg7 j/K7amaoJmoH4KqixwztT4UCrIQl6CiD79tVgMRTuEo6eSiYxcFg4JwyTjEvZ4WUprE4Oj+fTg/L /l6zAY1lVrSTMGN0bpo4jtOhEx4k6lPDEfgRziHMVyS5MxJGwxGapmnR5MZ+SdJWLYI6LfHIcA6t ZJDhNv182Ca8PxJkdRCzY7eYnGoFOKZ6uFXvaFHimcLe7HHo0u3sry0z2FopNNZVkb+nRfTAXV6C 9JoygTSxd8VcQOaoph4+TecURHbUtqxdDoEobyazO3ARLZ8gys4pakGXbMOfy+AgaolzOHRMn94K ELp1RBxgI6OcafUYZIMYveP8v4p2IQiJnAud1UTd00eJ2myjfjM3ge4ld06teJaR9qFTgcq+pVjd bTeeosIZNK3NNprTzbYIMbnDNhqZxihVMZmzHgfElvjTXgE0+AHku33zLhoXIvisHCfGkHyAO04R 5zRzPM74mZt9zrJrOYEzw9HNh31bs8FM+6z4tLK28HpomW2MF55aZyBRJy8xXqruElblZyeE8eBw cjkCWlgynoHT3QLEEiaiWYXvp3c7ALf3QeSHSXELUjW2SlpMZTw2+eHvNSOCiFzW3hLkZwvExo5g AXxuIOgic5cW1iVn0qHRnPB/rfo+Wr5AZMlqcQ3zOD+Sd4KJATbUSgS1CmunrQJEE+s7ZSUrrkwi j+IEkgwVv0DWSJSTNeYEVdw+tCkfQMoSLdm+GskZggXIjpkLPosLFVPadYwwihPbaFve9vfHHMQE hlSMvXecxjYFeRSbYiLdrJ4RW0CKp2N45U2c4SI2aLROCu94xTFUyo+T75wy3i7+5AOK7G9yLIE7 /Ao532DGZSAibquQhMVnMumAjBa3UefMQORk0kgninbpcbt/3zpAKwTbLhEUeJiQOYFnwBaQ6GZV yfXmqc+vBx4+YFm62ZZZRMernzSIHQrXHA+Y9m+X2TGFI7lKqz7xIUfKWY8Mah9hn5hBic3YeQGT mNHQJcRubWWYQGPHnaNuDLgonMWKx/hwqAWc7mFgtgWEqlArR94O3ThjDefOBOc1/bBHcss5G6dw JbTPMlCfJmbjYGmpHxGpyTVGLmg3bET84bi55klcgpxC0C49buv8gnyb8pF/jqRmY8Cm6HQ665mx BYTESqi9JxZv3+uITmWMM4q57pFsnNXKO00iwHJEkAzK6mTxZBDSWAXMzvONz4n6o3KstHKe0ZHr 5BZyRzYdjcvj9LjZQVn52QL5g7N9P8iqyJnQwjlJZ0oUII6CJWbdRFBkCJ4WO3dnlU9i5cQYlGqZ 57l91EfeNqb+HN/Af5xia4n8RIyEvmHKj7SdMNkZsWTyVziCPhLL7LilGOdZRmZ1whja2KGsITzV MyUKkETkmKNviU0skrRh3FmanzsmPufvzY5mIYxbgRwb0TrWBgRb+S5hkTaLt6DF7d9Y3xSSw7a4 c+JJ4Bhs0cVTa8K7BNPUmeCUAKMx1BAEaIYVxDZZuHoGOIEp7ZNKq01dox4OUfo92B2rYsYPkzKZ 5+y7g4KjOKnS1waCIh3pmmUPIwpZBEvzRzFYmE+8guG8YSRImOMaHKEejVxnsD9gwsQ0dparMF3o GdrsqEimvXt6StqeshJ3dkRPvbSE/pEjqEdVQjATzoA8QFBSAdQ4oavRCP3FBfTKHqbn1sFMuaaP wpTe+1VfEDLjbOE+R5CXVPNmEHRPLaOMa9iXZG3TYLi4gGeffALPP/ssmrpJZyMFCIukEHZpaYBe fwpl0UNvZgZF6WR1Tpn6U0JMh3IWHuvHCeTBeZ0AWUYxaz9CgroHj9+OKhw+eABPPf4YFuaPxohF 9PjoZl/yMNBRIAjYHfWJpqowWFhAQcY1UFQF2JQwsY9Lgaw9Osxz7JqPIV3CFsf9u6N5sW4dvGZR NMMhFo8exROPPIL9+/b6EzwQmcMEAqvWF1sUo6UlLPpG0ClbwZSOepbJxKZVyhpaE2mPJhABddiG pM2ORh3Zg5mXukG1tIT9e/bgiccfxaDfTzxE4VTP0z0MDGSRcSJUUY1GOHL4AObnD2d4/HDzjhkU CtiQmkWEQPnIIiNmhEaGEI0V3Db6KKe6t41FXY0w6C+iGlYRmdNiCM2UQgTuvaMl0AEzdupHTHLF g6sSsWTcqnPYeUD2Qsadz0h+EY69sWiaBqPhEgb9PqTxHU2ZvKd/FBBgTDkvoLWomsa3ZFsXzkTY eKKUzell0wQ5kqfgqU+kcJWcnyeVdvOQL0FmM95iIJ6NlMtvmwZNXUGs9QdSuHyGSJttNGL2MybS iDdsgTklyiotPiRfMBMLUWo1qSSYR1veM0ABkNGhSCuZIV7rqXPWX2J7yXn5Mpr11uuK1v/U8+60 GLvaVHXBZ3DvRXYoJrLTKNFiG81zBkhNGZm3q54TEB3rkzl0vgcyQaZljFEMeSOK/7uWvHpcCcDT QgHEm33K+wJyjh+NzpCncA2Ye1Kf/PCNE0yAWpAgYvwdhatL7ZJQmhySCE8NiN480xfxftC8EbjF Vp4mAx2FDCEex9I2k0aqeQWDPD1uaHlv0+NKTOI4pSdHUxsc0JxuNhJuj/MkR4DJaa4AVlQrtbZy lTW/w3muYTcI1GELnYww09aKS68nfkJk9O25IwW02T8TcWS0Bq5zIUG/HE26P0E86xLOAG/pFFXJ gG85Pa5OkFXaeL7O7WjnvsYc2jhmsamZRLVaAaaXdrlVDfvTz1ZVh3v279s93194wuetKTE96kSi 1tZppdr+2DRx2qFnzVbsGIUrWjy/3WNm1eeliQmH5+f3D4bDSgJtPDQ2iXQVp8X9n4e8K8qq4/S4 nZhJM9nHSGuDEvjQ6Mj8/G5MQmJnIppTlePr/NztESz9o7dn777+WRs31Vs3b760LMrZSPGaErTZ mYEpUG7l9zIOAKBLCdc+yi6/f7cFdc8hyYFcFKt984N+//Zv3v+F+x566P5dOy/ZPjM11QvZPO42 eealmgya1roPyi3GJA5ixEbWtPoppQRyeVXzBIKqKh2dX9j3pXvu+ZP5fn8fXCPuCIlxtIFv0lkN BQiWZiLdrLW2eOLppw/UdbO3qqsFK6JWpKeKqbquUTfh0aBuajRN47KFdYO6btD416qmcR23hkGm gIZ+PwAaIGWcSqn5SZ8UTwlNp36H9xs2sIDe/cCDX7jvkUceOXjkyOJjTz315Dlbtmxev25ug7WC qrFovDx108DJ7eStrZczk7Wu3fMaUL5cpD4EIiizO0swyMj5eUUcM4gJM8ixp4CNof5wePQr99zz /seeeebBbPK7CiDBD1sNC9Bd+YFtNLCLrmfmDVO93sZeWW4wxqxjohkApQKFqrq/V6W8AIuOyc2t QTfhM279JqbKs82AIpOjqOpgOKystTGzMjszU85MTxXe++7cb4zxaTzt2aWcb1ulycm7lDOgcc5p S77nkohGIKqstYvzi4sHACwAmAew6H/uw3EzDL0yNMUp3O8nsYx128Niw6iI1EvD4XBpOAxt5BXa dLN5e/MkK3Oy5J7kt4xNy2BpqRosLQHLt16dKhm7cgnanI2BoCOaeYz3ZOpLFQVMYhvNSScD6+gk utnO4bur6rAud4zXSjz+pzyMzsYy523M2cXrjiKM9WYWqzz5WGbyc6rZfPID4eQYtckqyKnLKAIm OLjAyj14p8pK5ZQ9dUcBukrQVQScagXo9gbqClpbeCfFZH9jM5+BO6+dCiXQZf6VZZSgO+GTWrBx iuXsjmVQgrDPB8evwfhZA3KqtwA6ToGLzOzndDM52yivgg+gK1gAPYYFoBUswKnyVbrjaTt+QK4A VccCyGpsAcsxjk8SOCeZzp9fjm18tbaq/GcsowBYZntaDTknEXjnjG0jHOPEkdXyAXQZra0nRAs2 W/0mswB8CleXHocDOH6s2cqr/1RaquWs6iRfYLSSM7jaTmCYYCxjHSzGiaZX0wE8lgIst9XRSxQJ dKOqZkJEVWePVd0ClnMEkWlsN6yxHZ+gG/7RccbY9CKswCQn8HiigJfCCVzOCtiO9z/JCVx1C9AV 2k6Y/AaTzxk6kck/mUmgSRZhudW/nGyrEQ52GduOxdAW72k1D6udFC8zJjOK8gSzv1rOFVaI/XWF dDdWWcblIpZJlH3dLKC8FAqwnBJMOkuom/XL/05XaVWt9NzxbjurFbFMUoJJ/2o3r7H6x1VPLhVP 4rNb6eDD1RrUF6MAL5WcehyP6J+9FAqwkvlc6fRLdKzAal96Eh3OkzWGeowIBstEMRER/1IJfzwr hl7CwT2R5BZOQxmxguPaeu6lvhl6ka+vXSfus+jpOMB0hqyuM1Uhlt02T8cBX1OC1bEEa9fatXat XWvX2rV2rV1r19q1dq1da9fatXb9f3b9X/dl3vTaUr+iAAAAAElFTkSuQmCC "
     id="image10"
     x="0"
     y="0" />
</svg>
