<?xml version="1.0" encoding="UTF-8" standalone="no"?>
<svg
   xmlns:dc="http://purl.org/dc/elements/1.1/"
   xmlns:cc="http://creativecommons.org/ns#"
   xmlns:rdf="http://www.w3.org/1999/02/22-rdf-syntax-ns#"
   xmlns:svg="http://www.w3.org/2000/svg"
   xmlns="http://www.w3.org/2000/svg"
   xmlns:sodipodi="http://sodipodi.sourceforge.net/DTD/sodipodi-0.dtd"
   xmlns:inkscape="http://www.inkscape.org/namespaces/inkscape"
   viewBox="0 0 22 22"
   version="1.1"
   id="svg6"
   sodipodi:docname="copy-coordinates.svg"
   inkscape:version="0.92.2 (5c3e80d, 2017-08-06)">
  <metadata
     id="metadata10">
    <rdf:RDF>
      <cc:Work
         rdf:about="">
        <dc:format>image/svg+xml</dc:format>
        <dc:type
           rdf:resource="http://purl.org/dc/dcmitype/StillImage" />
      </cc:Work>
    </rdf:RDF>
  </metadata>
  <sodipodi:namedview
     pagecolor="#ffffff"
     bordercolor="#666666"
     borderopacity="1"
     objecttolerance="10"
     gridtolerance="10"
     guidetolerance="10"
     inkscape:pageopacity="0"
     inkscape:pageshadow="2"
     inkscape:window-width="640"
     inkscape:window-height="480"
     id="namedview8"
     showgrid="false"
     inkscape:current-layer="svg6" />
  <defs
     id="defs3051">
    <style
       type="text/css"
       id="current-color-scheme">
      .ColorScheme-Text {
        color:#f2f2f2;
      }
      </style>
  </defs>
  <path
     style="fill:currentColor;fill-opacity:1;stroke:none"
     d="M 7 3 L 7 14 L 7 14.208984 L 1.921875 19.289062 C 1.921875 19.289062 2.6015381 19.99939 2.6113281 20 C 2.6113281 20 6.6314125 15.991631 7.6328125 14.988281 L 12 15 L 12 18 L 14 18 L 14 20 L 17 20 L 18 20 L 20 18 L 20 17 L 20 12 L 19 12 L 19 10 L 12 10 L 12 14 L 8 14 L 8 3 L 7 3 z M 13 11 L 18 11 L 18 12 L 14 12 L 14 17 L 13 17 L 13 11 z M 15 13 L 19 13 L 19 17 L 17 17 L 17 19 L 15 19 L 15 13 z "
     class="ColorScheme-Text"
     id="path4" />
  <path
     style="opacity:1;fill:#3daee9;fill-opacity:1;fill-rule:nonzero;stroke:#ffffff;stroke-width:0.06853583;stroke-opacity:0.94117647"
     d="M 2.240013,19.654949 1.9013781,19.311145 4.4528697,16.758972 7.0043614,14.2068 V 8.6043347 3.0018692 h 0.5140187 0.5140187 v 5.482866 5.4828658 h 1.9875392 1.987539 V 11.980062 9.9925234 h 3.495327 3.495327 v 0.9937696 0.993769 h 0.514019 0.514018 v 2.997613 2.997613 l -1.010047,1.011732 -1.010046,1.011734 h -2.00553 -2.005529 v -0.99377 -0.993769 h -0.99377 -0.993769 V 16.503427 14.995639 H 9.8311119 7.6547476 l -2.5008535,2.501557 c -1.3754694,1.375857 -2.5175919,2.501558 -2.5380499,2.501558 -0.020458,0 -0.1895821,-0.154712 -0.3758312,-0.343805 z m 14.770579,-1.678002 v -0.993769 h 0.993769 0.99377 V 14.995639 13.0081 h -1.987539 -1.987539 v 2.981308 2.981309 h 0.993769 0.99377 z M 13.995016,14.48162 v -2.501558 h 1.987539 1.987538 v -0.47975 -0.479751 h -2.467289 -2.46729 v 2.981308 2.981309 h 0.479751 0.479751 z"
     id="path817"
     inkscape:connector-curvature="0" />
</svg>
