<?xml version="1.0" encoding="UTF-8" standalone="no"?>
<svg
   xmlns:dc="http://purl.org/dc/elements/1.1/"
   xmlns:cc="http://creativecommons.org/ns#"
   xmlns:rdf="http://www.w3.org/1999/02/22-rdf-syntax-ns#"
   xmlns:svg="http://www.w3.org/2000/svg"
   xmlns="http://www.w3.org/2000/svg"
   xmlns:sodipodi="http://sodipodi.sourceforge.net/DTD/sodipodi-0.dtd"
   xmlns:inkscape="http://www.inkscape.org/namespaces/inkscape"
   viewBox="0 0 22 22"
   version="1.1"
   id="svg6"
   sodipodi:docname="distribute-vertical-top.svg"
   inkscape:version="0.92.2 (5c3e80d, 2017-08-06)">
  <metadata
     id="metadata10">
    <rdf:RDF>
      <cc:Work
         rdf:about="">
        <dc:format>image/svg+xml</dc:format>
        <dc:type
           rdf:resource="http://purl.org/dc/dcmitype/StillImage" />
      </cc:Work>
    </rdf:RDF>
  </metadata>
  <sodipodi:namedview
     pagecolor="#ffffff"
     bordercolor="#666666"
     borderopacity="1"
     objecttolerance="10"
     gridtolerance="10"
     guidetolerance="10"
     inkscape:pageopacity="0"
     inkscape:pageshadow="2"
     inkscape:window-width="640"
     inkscape:window-height="480"
     id="namedview8"
     showgrid="false"
     inkscape:current-layer="svg6" />
  <defs
     id="defs3051">
    <style
       type="text/css"
       id="current-color-scheme">
      .ColorScheme-Text {
        color:#f2f2f2;
      }
      </style>
  </defs>
  <path
     style="fill:#3daee9;fill-opacity:1;stroke:none"
     d="m397.85714 547.07647l-2-3-2 3h4m0 2h-4l2 3 2-3m-3-6h-3-6-4v1h4v6h7v-6h2v-1m0 9h-3-8-2v1h2v6h9v-6h2v-1m-3-8v5h-5v-5h5m0 9v5h-7v-5h7"
     transform="translate(-378.85714-540.07647)"
     class="ColorScheme-Text"
     id="path4" />
  <path
     style="opacity:1;fill:#00ff00;fill-opacity:1;fill-rule:nonzero;stroke:#ffffff;stroke-width:0.06853583;stroke-opacity:0.94117647"
     d="m 15.091589,6.9424052 c 0,-0.062902 1.871543,-2.8439937 1.912811,-2.842415 0.03239,0.00124 1.229819,1.7719428 1.811988,2.6794924 l 0.126668,0.1974644 h -1.925734 c -1.059153,0 -1.925733,-0.015544 -1.925733,-0.034542 z"
     id="path817"
     inkscape:connector-curvature="0" />
  <path
     style="opacity:1;fill:#00ff00;fill-opacity:1;fill-rule:nonzero;stroke:#ffffff;stroke-width:0.06853583;stroke-opacity:0.94117647"
     d="M 16.023086,10.499797 C 15.505617,9.723346 15.095115,9.0751865 15.110859,9.0594425 c 0.01574,-0.015744 0.881195,-0.020419 1.923226,-0.010389 l 1.894601,0.018236 -0.941913,1.4203945 c -0.518052,0.781217 -0.96012,1.42117 -0.982373,1.422119 -0.02225,9.47e-4 -0.463844,-0.633555 -0.981314,-1.410006 z"
     id="path819"
     inkscape:connector-curvature="0" />
</svg>
