<?xml version="1.0" encoding="UTF-8" standalone="no"?>
<svg
   xmlns:dc="http://purl.org/dc/elements/1.1/"
   xmlns:cc="http://creativecommons.org/ns#"
   xmlns:rdf="http://www.w3.org/1999/02/22-rdf-syntax-ns#"
   xmlns:svg="http://www.w3.org/2000/svg"
   xmlns="http://www.w3.org/2000/svg"
   xmlns:sodipodi="http://sodipodi.sourceforge.net/DTD/sodipodi-0.dtd"
   xmlns:inkscape="http://www.inkscape.org/namespaces/inkscape"
   viewBox="0 0 22 22"
   id="svg2"
   version="1.1"
   inkscape:version="0.92.2 (5c3e80d, 2017-08-06)"
   sodipodi:docname="distribute-vertical-center.svg">
  <metadata
     id="metadata10">
    <rdf:RDF>
      <cc:Work
         rdf:about="">
        <dc:format>image/svg+xml</dc:format>
        <dc:type
           rdf:resource="http://purl.org/dc/dcmitype/StillImage" />
      </cc:Work>
    </rdf:RDF>
  </metadata>
  <sodipodi:namedview
     pagecolor="#ffffff"
     bordercolor="#666666"
     borderopacity="1"
     objecttolerance="10"
     gridtolerance="10"
     guidetolerance="10"
     inkscape:pageopacity="0"
     inkscape:pageshadow="2"
     inkscape:window-width="1920"
     inkscape:window-height="1025"
     id="namedview8"
     showgrid="false"
     inkscape:zoom="10.727273"
     inkscape:cx="-5.9661017"
     inkscape:cy="10.254237"
     inkscape:window-x="0"
     inkscape:window-y="26"
     inkscape:window-maximized="1"
     inkscape:current-layer="svg2" />
  <defs
     id="defs3051">
    <style
       type="text/css"
       id="current-color-scheme">
      .ColorScheme-Text {
        color:#f2f2f2;
      }
      </style>
  </defs>
  <path
     style="color:#f2f2f2;fill:#3daee9;fill-opacity:1;stroke:none"
     d="m 19,9 -2,-3 -2,3 4,0 m 0,4 -4,0 2,3 2,-3 M 16,6 14,6 14,3 7,3 7,6 3,6 l 0,1 4,0 0,3 7,0 0,-3 2,0 0,-1 m 0,9 -2,0 0,-3 -9,0 0,3 -2,0 0,1 2,0 0,3 9,0 0,-3 2,0 0,-1 M 13,4 13,9 8,9 8,4 13,4 m 0,9 0,5 -7,0 0,-5 7,0"
     class="ColorScheme-Text"
     id="path6"
     inkscape:connector-curvature="0" />
  <path
     style="opacity:1;fill:#00ff00;fill-opacity:1;fill-rule:nonzero;stroke:#ffffff;stroke-width:0.09322034;stroke-opacity:0.94117647"
     d="m 15.27432,8.6626318 c 0.768874,-1.1954486 1.673712,-2.5254833 1.719112,-2.5269485 0.05652,-0.00182 1.85572,2.6621761 1.85572,2.7476857 0,0.025927 -0.843103,0.04714 -1.873561,0.04714 H 15.10203 Z"
     id="path816"
     inkscape:connector-curvature="0" />
  <path
     style="opacity:1;fill:#00ff00;fill-opacity:1;fill-rule:nonzero;stroke:#ffffff;stroke-width:0.09322034;stroke-opacity:0.94117647"
     d="m 16.053783,14.525585 c -0.521227,-0.779346 -0.92961,-1.435069 -0.907518,-1.457161 0.02209,-0.02209 0.87872,-0.02879 1.903617,-0.01489 l 1.86345,0.02528 -0.955932,1.431883 -0.955931,1.431882 z"
     id="path818"
     inkscape:connector-curvature="0" />
</svg>
