<?xml version="1.0" encoding="UTF-8" standalone="no"?>
<!-- Created with Inkscape (http://www.inkscape.org/) -->

<svg
   xmlns:dc="http://purl.org/dc/elements/1.1/"
   xmlns:cc="http://creativecommons.org/ns#"
   xmlns:rdf="http://www.w3.org/1999/02/22-rdf-syntax-ns#"
   xmlns:svg="http://www.w3.org/2000/svg"
   xmlns="http://www.w3.org/2000/svg"
   xmlns:xlink="http://www.w3.org/1999/xlink"
   xmlns:sodipodi="http://sodipodi.sourceforge.net/DTD/sodipodi-0.dtd"
   xmlns:inkscape="http://www.inkscape.org/namespaces/inkscape"
   version="1.1"
   id="svg2"
   width="22"
   height="22"
   viewBox="0 0 22 22"
   sodipodi:docname="document-edit-decrypt-verify.svg"
   inkscape:version="0.92.2 (5c3e80d, 2017-08-06)">
  <metadata
     id="metadata8">
    <rdf:RDF>
      <cc:Work
         rdf:about="">
        <dc:format>image/svg+xml</dc:format>
        <dc:type
           rdf:resource="http://purl.org/dc/dcmitype/StillImage" />
        <dc:title></dc:title>
      </cc:Work>
    </rdf:RDF>
  </metadata>
  <defs
     id="defs6" />
  <sodipodi:namedview
     pagecolor="#ffffff"
     bordercolor="#666666"
     borderopacity="1"
     objecttolerance="10"
     gridtolerance="10"
     guidetolerance="10"
     inkscape:pageopacity="0"
     inkscape:pageshadow="2"
     inkscape:window-width="640"
     inkscape:window-height="480"
     id="namedview4"
     showgrid="false"
     inkscape:current-layer="svg2" />
  <g
     id="g819"
     transform="scale(1.375)">
    <image
       y="0"
       x="0"
       id="image10"
       xlink:href="data:image/png;base64,iVBORw0KGgoAAAANSUhEUgAAAC4AAAAuCAYAAABXuSs3AAAABGdBTUEAAK/INwWK6QAAABl0RVh0 U29mdHdhcmUAQWRvYmUgSW1hZ2VSZWFkeXHJZTwAAA0mSURBVHjaYvz//z/DUAQAAcTEMEQBQACx kKOJEQigTGYQF4qRATWj8T8SDcMMAAHEQoaDGaEOBullhbKZ0Cz6R0XHw8z6C8Ug/l+AAGIhw9Eg x7IvWrgokY+Pb8Krl68YhEWE/1jbWLOwsDAzMDEzM7AAMQNI+b//QATCQLv+Q9l//zGA8tX//xD6 3z8IG06D5OBiEAzKhhoaGiJAe39BMQNAAJES4iBHswEx56yZs+J5eXn7xcXFGb5//86gqaXJ8vXr VwYODg4GNjZWYPAzMjAyMcEd9x/mGJAjGBD8f3AP/EOogTv+HwRD2UDAC8RfoW75CRBALESGNhPU 0VxTJk9JEBUR7QU5moeXh0FUVITh/bv3YDY4twMdzMTEDEk7MEfDHAPF/5AcC2b/Q4Q8zPHIev5B Sj4BpKTzByCAWEhx9MSJExOkJKV6xcTFGIAhzsDDw8Nw4+MHhr/AEGFhY2HgBIY4JGpBmAmaPCCO YfgPiXKEPMyhDEhJAyaGCPV/CIeDQvwnEP8A5SuAAGIhwtGgNM01oW9CvIyUTK+YhDjc0dzc3Ayf PnxkYGVhBbP/QqIUkkORHAD2wD8GjKQD8c8/aAwgpXuweuQYAZvLCQ1AkJsZAQKIiQhHc/d298bK yMj0iQGTBy/QwSBHc3FzgUP4CzBt//r1iwFSkUEcBcqYiKiG0gxI/H8QB/37/xdC/4M4FOZgWCjD kg40xNmhjga5iwkggFgIObq7qztaTk5ugjgwpPn4eMFpGRS6nJycDKxsbAw/f/5k+Pv3L9hCRmhx DnIIIywToiUP5LT8Dx7yyGkb4nhQGvr79z8kM0NCHO5oEAcggFjwObqzvTNKXk5+kjhS8uDh5gE7 mg3oaGD5B3Y0qKS8cOECgwQw7TMCM6ajgwNKxgOx7929xyCvIA9Pu++AGfrD+3dgPjBgUNM5CP6F VAeQ0gizSgAIIBZcjm5va49UUFCYLCEhgZKmOTiBRR47xNGgEgSSDP4zPH78GOx4kIcePnzAoKWl xXDm7Fmwpc5OTgxXr11luHPnDsOzF88YIiIiGZYvX86gr6/HcP36dbDDHwD1xMbEwst95NDH1p4C CCAmtAoGnBHbWtoiFBUUp8AdzQtJ15xciJAGORqkBVLe/gfXbXp6evDk8fbtO4ZnT58xPH/+DBzS oBAGOer+vQdgPeLA2AGpVVdXZ3jx4iXDj+8/4EmKATljwpIOGgAIIEaQBNTRoNDnaGttiwI6eoak lCQwTfPBHc7FyQUPaWZgzQhrrnR2djAoKCgySEtLMwgJCYLVswBLGUTxBi3WGBDl9T+o42AZERGy iJrzH7xEAqZ1IN/C3CIIaN0TIH4NxO8BAogJLdlwKsgrzJCQBIY0D1JIg9I0FkeDszo7BwMrKyvD 58+fGB49egRpBSGVKDB87uw5hnv37oFLEpBH/oKTGDTjAvHJkycZTp08BUzb/6AlDkT87194cYgC AAKIBamVBw7xL1++MOy7sI/h7Z+3DI+fP2b4/uk7w8/vPxl+//rN8PcPpPRgYmZiYGFnYfDV82UQ FREBOp6dYcuWrWD6x4+fDBcvXgA3BcTFJRjeAzNgYmIiw7Vr1xk0gMni6NFjDOoa6gwnjp9gSElN Ydi5cxdQzw+g+m/gJGZoZISoQf8hynd0ABCAzWrHARCEoa9pwISJQU08gvc/CSfQCTedBBNjtGUg DN7gvfb9WnMqeLvdGyJHpDOBO4ZxBmQI9rF19BAT2DB6qXvvPZxof5IvLcsqWs0yiOZyXQWfr6vG m5JQMxz7XmSowEIIhfA4DnhrIbWg/1PlE0CwNM4GrVJF8hfn3/j6GVipfPvF8Pvnb3BIw4s1BmhD iBGoh4mRIdU8FZyM+Pj5gDQXAzuwgQXOuIxM8KgG51toSw9Rhf9DLf7+/UdSj95qhDQLbO3sUNI4 QABhlONMrEzgdgeoLgGFONs/SEiD+H///YU7HARADSxQ+gaFGBtQDzMTpF/xD7mCgToOlDRMzUzR GlXQTPkPWrMC6fcfPkBi4z9CDbbiECCAWDAa7UARcPL4A0wOf5khBsNqQQZYboeECh8fPzB0GcEZ dueunQwPHjxkkABWViB7+Pn5GV4Ai0I1dQ2G6zeug9srxqbGDKtWrmL4AHQcyLPv338Al+EvX74A BoIoWAwkB3IwKFAsLS3hsYYOAAIIo+cCSr+gUAeFNgsnCwRzQGgmdiYIZmMCqwGV6+wcbAzMwA7E T2CmBKVpkGPev38PxqD0DaqUEO1xSBkPClEVVVVwpmRjZwUWoXxAvT8YREREGT5+/AhsRvxg+PTp EzSQQH7+i+FwgABiwehuMUGyKbjIA4qCSpB/0CIKWlFBNfwHhjSws/CPEewwfmAmFRDgZ0iIj4eU 2X8RFch/eKPqH0NwcBBEHChvZGiI1HyFJBlNTXV4MoEklb8M2AYiAAIII8ThZSgQTg6ZDE7Xf/// hZcooLYJDMPSMUjcAdg+SYhPgHbPEI2jf8hdsL+gNPweXFbDqnRQRQRK1+fOnEXpKUHcAHH0PyzF IUAAYWROkEP/gWsrSPRMD5uOoSlqThRSfxASMvv27QOmz/fwzMTOxs7w/MVzaHqHZDYvLy+GuXPm MRgbGwPT9UsGJ0cHhg/ApAHSC0pmp06fAScjCwszYE0shdKCRAcAAYTh8D9//8AdBQK26bYojR1Y qMhZyKGIg0KS4R80REEOB2Y0NTU1MPvQwUMMOno6YDaovAalY1D6/gDsPUlLy4Cbx6AaGiT/+MkT cK0N6Xj8h7db0AFAAMHKcXDjCogF01am3YcVUSD61sFbDIrWipB0/u8fvEgEsbs9uxEdA2gl8w+p iIO18lCLPpgaSBH4H16O/8UoQpF7TB4eXijlOEAAYfSAYOkXFPLzYuYxHJl9hMFMwYzBTNGMYXnq coZV6asQaRxlCAHU/vgHrD3vgy0/eeokvCfzD5pujxw+AuZ/AJY8Z8+ehrYsIUkT1CxG6fEzIHWu sSQVgABiwerwf5DMGD0/mkH1vypDQ1IDWK5rcxfDylUrwSEjbSIN71eCDD9x4iTDDWB5LSYmBi4C b9y8yWAEbHeAqvRbt24Biz8Vhlu3bzOYW5ozbNi4AZgfPgLb7Y8YXr16xSAtI8PAzsrGcBaYQfUN DBikgC1TeGkEL/BQAUAAYc+c0FBclrQMLNa9pZvh0/NPDM2pzQxlvmUM3v3ekNIG2g4HOR7k6Bcv XoDb66DyGzY0AXIgKImCQpmXjwfsGPCQBpAP7MeCQ5oN6OiPnz6AnSgFzZT/4f3O/1iLQ4AAwkjj kfMi78McDsL3j94HO05EQwRcnL24/gJsmKShJMMk/4lInV/U8hijXQJuk/+Hdzz+IbfXUdhI5T9S Y8vX1x8ljQMEEBOuEAfRa9LXMMiayzKcXXyWgYUL2BbhZma4tPwSg4ShBLRSgpTZ8AYStKxGbjTB HA0rv/9hDEcgDRbBRq+QMY62CkAAYSQVWOkBKw4fHHvAwJDNwPD45GMGSWNJsNiT008YJPQloAZD DD946CDDR3CygFgESjKg9se+vfuAzV9RYJPgBzjD8QB7SKC49/bxgRZ3qKUHbBwG0sSFZVLMNA4Q QFjL8f/QwUkQuLD0Api+tOISoooFGgiLGVjIgdIyAzhNf4A0wIDtjzOg2hAIQb0nkBpQef3p4ydw 5cLwD214Dj7ahZS+YeM0WEoVgADCDPH//+DVuWefJ8OTU08QDvyHSIPgUVdwrockD29PT9R0izTA g0jH/xh27drNoKysBNT1FyVEMUMcMmQH7ptiGfsBCCDMEP/zB17B7CjaweDc6YzovP5FpGPwIBDD P5QaFTmtovZiEOnaxdkFkf5h6Rep9EDl/4eN52E4HCCAsJbjyGMZe8v3YmiyqLaAhDhSYwrWO/qH lKn+Iffa0WIMkjRgJQgDwqH/kJMJAyT5YEkqAAGEmVT+oWZO9WB1uIX/kbpZwtrCiCodaYjhH3o6 hUU50pAzw///mAOgkAoB2rb+D65zYDS2pAIQQFgdDk7jwNC0a7aDVBh6oohmLGz4ANY0RRnX/o82 ZPwfpQsGH3lFCmGwODwTMiA8ygAL6f9YJ2UAAghnUoE1lIR1hVHb3//+oYQ83GGwjIqU1v8hjUrB MQNqJkTOC0hj1EixBA15NAAQgCzrsAEAhEH8f7NSYxc1fkAbSBhf5ryfdAe4TeG43B/RG04IFYPP 7wzC5jAC5GwJTEV/ZrM+QmCZE5uVOFeaFmfOEUDoXbd/sPY4uOuF1LyFs//+Q53TQcpgmI7+h+RQ RBJigI5iIZqxDPDkw4DU40GOIehsBNzxAAEEa6uAR7GAGDSRIwgaX4HOufBAZwLImg+lAgA59DsQ fwHiD0D8BtROAfEBAgg5xEF9td9QhZ9hs1tIMwED5fCfSG76DnXjX4AAQnf4L+QpOaQ5l4GaOv8H dfwvqKO/Qtl/AQIIPY3/QtLwA336YoAcDnP8b6QJ2n8AAQYAbr0qlXcaTlEAAACEaWNPboAAEAkA ABAAgAAQDwAAAASAABABAAACIIAAEAIAAAHSgAAQAwAAABSAABAEAAAAFIAAEAUAAAAAgAAQBgAA AACAABANAAAAAIAAEA4AAAAAgAAQB/////iAABEHAAAAAYAAEAwAAAAAgAAQCyhJY29uIKkyMDA3 IEtlbiBMZXN0ZXIpAO62wdoAAAAASUVORK5CYIKJUE5HDQoaCgAAAA1JSERSAAAALgAAAC4IBgAA AFe5KzcAAAtkSURBVGiBzVlbbBTXGf5mb2B218GLscEYAhsBwXbAwcSGpAoQkkAhIQmBqKqiVhFv UdQ+RIry1Kc+RK0aqRUiD5USISXKQ9Mkyk0hgtwTUojDxTahgRhjfMOX4JlZ2BnvnP/vw8w5c2bX 1M5L6Vijszue3f3Od77z/ZcxmBnyGDi8I+sZUw0CRgb/R0ccXEhwaqhx+4e2vGZI4AOHd2RFxmyL zymuMmLccNNQTnMwGUPCrfohXrilU4I3mBkDh3dk3arJDelcVVs8tbgtMWde9maD1Q/PvW6X3OHv ileL3xZH05137PvYNi5/uF2BnpO9uy1Vvbw6llpmELFxswHLQ7iXMGVfslzr605rvNgprmZOJDxj qiE511kVT+XbUtXLq187yzuJL4KZQUzqjLwnf9yX3wcO/scAmAnEDDD7I/kjMalrJIL75XeS/1qN zGB1zT+Z87hrHX9UKl68KzGnp+AaqeGYgJExYtwQS1ZVI7E0JsEJFhAsEHlP0ZNBYEjQPgjIHyYO JqwBFMH9wT0SrDqJwRSSwxRMkgQo1pCIJedWw+BG10N1Qi4HMxtEFBMkIixL8BKIzrjPHIMJPlPl J7FiV/9/ZELyu+UktMmQup9RKolEySOUShx3SxRLAAAxG8QwiNjwyKuQiQQaAU0Mn2CG/ANrQAmB PPx7wQRmBEuvyYWgSUNek5KhQGqMkuclhGAqeRwvOiKe0DcBMxszAdbHgOpKphXjmuYJGmAOJx5Z PVIME+krQhCeiBNxjIhjAFABPMJ4OXDtvRBiGokErEGXh880I3wfbsSyDVrGMtTKMgLQBhGMqalA KjpwpXEKNc7E0LUf7nYK5EHhxlQ/KicTlYeuZVLM69pmtZpCBCT4WAxmGMwwKhgHAB24PgoS4fIp 5kOmjh8/jjlzUigWHWxoa4tsPGZG/6V+LGlcolg1TRPmpAkGY/HixVGdg8GCAUin4XKYMwMXJBRY CV5fEblB+/r60N/fH7y+iJUrV+JMVxfAjE0bN+GH8+dx6dIlXBm7goceehjvvPMu1qy5HRcuXEBD QwMGBgfx6COPKN/X2dfzKXnEpgPuCU95NRHBEx48Cq/J/ysJEAMMtLS0APDlcfXqJEavjOLKlVEs aVwC0zRBzBjoHwATobZ2AYgZ+XweY2PjcB03lJ++MaV0ZmLcE970G7LstVwJycyePY+BmLB16xal 440bNyp3eXj3Q2BitLe3g5hw/7ZtwfcxWlpaFGjl3cqRgnFGqbCIyCIiE30CFFobMWNy8ipM08SS xsYyR/HHnp4eZDJZNCxZrDYmgGAjMk6fPg1mRktzMwh6YJpeKjdkXDlJ2eb0Q3HgNtrme/PNt8DM WL9+Pbq7u+A4DmprF8I0Tezd+zjOn7+AfD6Pzs5OrMivwOlTp7DviSfwxRdfwnVdOI4DMKOpqSkS /uXEZ6VxIUIde+T5r+U1bdQ30sK6Wkyak3AdB7flb0M2Ww3HceC4jrI3y5wEwLBME+l0BkyEc+e+ x+DgQOjzFDiLtqKzdhUflMaszr4uI5ljgLF9+y/x4AMPqh9a17ouCCZ+xNy5a5cWXELffuqppzQv 1zPRMEP0CY9m2RWMKwcRIhwl+yJkXwihZXUEBBMkLaD4P+5P8tTJUxHQpM4wmBExTNMKNjercTqp VDIesK0zHPFw0vUfZoBHP/4Ely9fxsKFtSBiZLIZjI+OYkU+jws//ggwo/mOZnzw/gewbBupZBKW ZWHx4gaMj48hl8shlUrBsiwwM2pqatDa2qpWbUaNK02XaV2+j2qcAm0SXMeB4xQxOWnCMk1YpgXH dXH27Pdhiku+x2fSGdy6/FY4rotkKoFMJgPHcVFTUwPbtuG6UygUCoExAMxidhpXPk1cwbY6BUVc JZPNojpbjT179oBAYBEGED2X3779Qf+6YDStadISK/+78vkVSia+VASmccMbaDxg9IUdL0Q0rZ+e 8LTMjdDR0eGDZgZpyVEkKRMM0zL9SiiYFIhgWhZ6unq0lQkmAh80zVrjAcsA8OLDL1Z8aP9r+yNB iIhx7NjXSp/MjGQyhfGxMRAY2UwGzIzNmzfjjX+8gebmZkxMTKCjvR2WXcA33xyD67ro6u5COp3B unVrUV+/MJJBzgjcE54CBQC7n98dSXbk6/rW+sh107IAChhlRiqVwvIVy0HEOHHiOFatXgVmRi6X g20X4DguLNtGfX09kskk5s2bB2ZgZGQY6XnzgsKDVd4yM+Oanp/+59MgIjS0NaiVUC4jRMS2tt23 TeUVyuMDu2xublKT3LVzpywM/GKbGDu27wBJO9X9W6uYyo/KyKnp+ODjB/Hen95D+7J2dCzvwCtP voJDvzkU8XHdhwUTBgYGQMw4dfq0qmRkJPz2204QMyzTQnd3lx8dgxxoeHgkjAvMYTcg+PzPksr+ 1/ejKdGEZ/c9CwA4cOQA3nrnLTAxFrQsUMGHmXHy5Cn09vZiwYIczp49i97eXjQ3N+HcuXO4eLEP y25dhr6+PqxrXYsjR4/Atm0MDQ1hYuIn1C+qRyqRRE93D1bfvhp1dQtDN4JfUMwsFU0SL//6ZR/w 0QO4PnYdz/3qOTxz/zPY+9LeYAP7eTgTobe3F+PjY0gmE3Bc168zmWFZFsAM27KQzqTB5AcXy7JR X78Iw8PDSCaSsAs2GIy6+jplsWE9W4H7vzP+5KEnMfLdCJgZ1Suq8ehfHsXVC1f9yNZUE7Dt63r3 I7sjfszBd9y5/s7wfWCRv7jnHtx99yYQMVavXhWWbHoNquTyMyogeb7621dRu7YWR/92FLGqGGJV MXz20meYv2Z+mB3KQKN5tZ40SdCWbYFFeTMpWjz495edN9icN5SK9M6RkyMAgLHTY6hpqgEAjHeN 45bbb1GMMzOOnzgO27I1H08il8vh2LFvkMvVwHWnwMxIp9NgJmzesiWwO73g0DsEQaMIPyPJYmYI 4QegTw98CgD4/KXP1T2qtNISfcuygUDTzIxMOoOurm4wExLJJIgIyWQShYKNuro6rZFEYZApm4B0 lumyrArg0qOZGY8dfAxjZ8YA1RsJs0G/IcQqL9ly771BeI92sfTJERG++uprLF3aCIKIMFrJuN9I AtE0nnKDzSmTq7effhu7/rorrP3IbxPLJItQWXvqoPXSS+p608ZNof6lfjX3iL5nucSzk4qu8fd/ /37Fh7b+caufHeqdJrA2wbC9EHarwtUKG6HSQRACJV0mUG24WUlFMgoAHfs7lFR0yaRvS6uQHm0p lK9AsOSKRdKkoFkgglYE4Hd+KRxnJRUhhM8mMR748wNgYmRXZcvycC7Lx8O8PNoyjpZgUiLQGGYO Hg9wAFZOFJJpP8jNCrhcciJCemU6Ih856oFClnAEvdANHqHo1brmFPojFyktdchoKXU/DfIIcMMw WLEa1JUKZIRp9iscgqZn3drC7i2x34qGdBCSG1K6hn8fWHcUQGYpHDwwMAyDDQNsGP4sEnFwgYUx JNxiIV66PF940aI4BKn18QgVm5ADgFHQpAENJQT2OQzTWCj5QKt4IlliaZA8t1goFnnEK5GdSHBq yL4297xnDOY41rfhy+d/92kJi1KlKS/peSIhBMWYb/To0J3mmoGwBxKf/mOzPAzD4Hg8RgYNe47Z b/80OtA9PpY439ltDxnMjMMH75mfa3Q7sguq2lNVizYYibnzSx4lhMdxIo4xbs4zTwMGx2IGldyi PTE+eGawr3DiyCfXjh16t3/UYF8/sb//obVmdYvRMWeeuyYW46UljxMlj+NCcAyMm/Ow1gDH4wZd u8YjE2Pxf3/wkf2v1z8cGAfgSuAGgPiB59fOb1iUXOYx5l93RGJqiuIlwTEhuCKL/F8c8bhBybhB U1PCOnHGHjj0bv9PAKYAiP8AMOx3ElGrG0IAAABIaWNPboAAEAkAACAAgAAQAQAAALmAABACAAAA k4AAEAMAAAAUgAAQBAAAABSAABAFAAAAAIAAEAYAAAAAgAAQBwAAAACAABAMAAAAAIxUgdkAAAAA SUVORK5CYII= "
       preserveAspectRatio="none"
       height="16"
       width="16" />
    <image
       y="12"
       x="4"
       id="image10-3"
       xlink:href="data:image/png;base64,iVBORw0KGgoAAAANSUhEUgAAAIAAAACACAYAAADDPmHLAAAABHNCSVQICAgIfAhkiAAAIABJREFU eJztfXmcFNW59nNOLb3OvjPDMDMgMCCCLIKBIHpdoogaQW+iGEk0CeaaKyaamOhNyDUmJtFPFDTG mE+TkCtGjHg/cuUmJrgrArIosg07wwwzw2zd01st5/ujq7qrqqt7ema6Zwbh/f3Or6tOV1VXnfc9 z/u87zmnGjgrZ7SQob6B003WjRxZTgiZTQAvAfwEePfqo0ebh/q++itnDSBNWVddXRMIBh8ryM29 Ls/rhSgIUFUVwVBIbu/oWO10Ou+98tChtqG+z77KWQNIQ/6rrGy2wHEbRldVed1OJwAgIkngKAXH cVBVFc2trc1dPt/tXzxx4q9DfLt9krMG0Iu8VFVVoyjKtgm1tfmKouBEayu6/X6ojIEAcDkcKCsq QmFeHvyBAJpaWlZxHPeDqw4d8g/1vacjZw0ghbxYVcUHgsGN59bWzpFkGQcaG8E0xRMAhJDYdq7H g5EVFeAoRePJkw2hcHjxNceObRraJ+hduKG+geEsVzscd48oKrrd5XBgz5EjYIxFvyCWfkMIwpKE 9s5OuJxOlBUXF3Ict2QBz9OvFBW9+6fOTnXw7z49OYsASeQP5eWTBY7bMqmmht9+4AAikhTr7YC5 91vRoDAvD1VlZVBVFcebmz+QZHnJNceO7R2iR0kpZxHARv5UWekMRSIbJtXUlB9paUFnIJD8YCMa aNvBcBid3d3wejwoKy6uYowtuUYQutf4fJuzfOt9lrMGYCNXOp2/qi0ruwaM4eDJk9FKK+xrwuy+ IwSKqqK9qwsqYygtLBRzvN6r5nPc9FsKCjb+qbNz2BDEswZgkefq6i7yUPp0TWkpdhw6BFX3+0ii bKPYoEEgGER3Tw/yvF6UFhWNjUjSkmtF8eCLPt/u7DxB3+QsBzDIC3Pn5nft2vXxrLFjq/Y0NuKU z2fr4xP8v6EgCTfgCEFFSQlKCgsRCAZxrKnpeVEUvz3U4eJZBDDI5zs7nzt35MjP+UIhHG1rs4V2 XfqKBgyAr6cH/kAAhfn5KCksnBIIhW5a5HZvf6G7+0gmn6MvchYBAPzjL38ZR9zuDd0rVtSM6uzE u/v2QVVV+16dgv0nFJtjAYCnFJXl5SjKy0O3zyc3t7au4AXhB1cdOiQP7pOfRQD8c/16nsvL+x/C 8xPcc+eiTZZxats2MEWx9em2+1ZksIoVDRhDt8+HUDiM4sJCWpCX9zlfT881N3q977zQ3d2akQdL U+hg/thwFOpy3Q9gOgAwxpA/fz7OXbkS7ro6MMbAEFUqYyy2rwJQGYt+6tvaPrMrSa7T4fNh78GD CITDqKmqmlJUULDl1crK7w7m85/RLuD9d9+cKav0HUVReL2O4zjwPA/CGI79/vdofOklQFFSk8A0 CCJ6Oa+koAAVpaWQZRnHm5reACG3zD98+Hi22+CMdQHb3nvNG4Hrb4SQYp7nYz2TEAJKKSjHoWDa NBROnYrObdsg+/19cwN9DRdDIXT5fMjNyUFpUVGNJMtfu1YQDr/o8+0a+NOmuJVsXnw4y4fv/vMx CY5llFJQSkEIgSzLkGUZHMfFCqUUiESwf8UKNG/YECNyA0GDVOEiBVBeUoKyoiIEw2EcP3FiLaH0 6wuOHu3MRjucsRygXDjq93Ld0YbXer3T6YTH4wHRiJpeqNOJCfffj/N+/nPwubmJPh3J/b2JKxiK kQsYz1MBNLW2Yv+RI+AoxZiamkWiIHz8cnn5v2SjHc5IF9C19ZcT8/mO54v4Jp5AQZAUg2hIwHEc RFEEIQSqqsbQgRCCnNpaVF51FQJHjqDn6NEEmGfpRg1WsbmOJMto7+qCwPMoLy7O7ezqummRx7Pz z35/RgeVzjgX0L3l57yDUzYDbApjCpgaRkDNRRM3CzJXAKNLUFUVkUgkhhBGt3B07VrsXbUKSjDY J4II2LuEVO6jvLgYDlHE8aamTp7na68/cSJj7uCMcwEClR8EMIUxFUyVwFQJTrUJ1ZGXkSfvjPV2 QggEQYDX6wXPR4MEHbYBoObGG3HRCy8gf9Ik2zDPFCIathNcBnoPF5va2sBRChXIlxXlm5lsjzPK BYQ+Wj6bEu4ZxlTKmIRoiYCpEqCG4YrsgygfR8RRC8K5Yj3f4XDE5v4BiBmIIz8fNdddB0JpNHmk qv1KHhkl2egiASDJMlRVldcGAn8acGNocsYYQHDrj72UCq+DsULGpFjvZ2rUABiLgDEJvNwMV+AD qHwBmKMyZgSCIMDhcEBV1Sgx1NwE5TiUzpyJiosuQuvWrYh0dPSqeJbsO6sYvpMUBUrUAPmXA4HH M9AkAM4gF0CpsBKM1TAmA6oE6AigGj41gyByJ3Jan4an5RlQhGM9nuM4eL1euFyu2HV1qC6YOBGX vfQSxtx8cyLzT+UGUrgE43kRWYaiqlCBjIaDZwQChD76z2sJwcMMSqynM1UClAigo4DRJbBoHQ01 QOjcCNU9BsRRFiOIgiBAFEUoigIg7hI4UUTlvHkomjQJLZs3Q7ImjzIzurjhL4HAq5loF+AMMIDg 1h+VU8pvYEx1myDfoHSwSKJL0L6H3AG+428gqh/InQ5KuVhE4HQ6o4RPVWOughCCvLo6jLn+eviP HUNXQ0NGw0XG2AOvBIP7M9U+n3kXQKn4W8bU4ngPN8J9vETdQsSCAhLAGMAU0Ob/At11C0jwgEnZ DocDDocjljwCorAuFhRg7pNPYubDD4O6XCY4T8b2rQmhhMLYB185dSqjC08+0wgQ+ugn3wTId1KR PivsQ5UA7RgwGSAcGFPAmAwWPgn15EsgVADNm2YKC3UDMBoHIQQF9fUYNX8+OnbvRk9j40DQwM8Y u/zVYLAjk230mTWA4JYHRlMi/AVMFqFGNNIXMZC+iC3k6wYBJgFEAJgaNQTI0U81AtbxNtTOD0Dy LwSjHlPaWFXVWLJINwohJwejFiwA53ajZdOmfoWLjLHv3Nbe/r+ZbqfPpAEEtzzAU86xnkGps5I+ O2Ub8wG6QYBwICBm5TMFQJT4IdQItWkt4BgB1TnGZACSJIEQEksgAVF4L5oyBeUXXYRTO3YgfOqU reKZYdsg67/e3n53NtrqM8kBCBXuZ0ydZfbzGqnTirn3G8JBJoFBBSECGNRoYVqBZYGP4gPb+11g 711QpS6oqhorPT098Pvj8z11l5A/fjzmrV6N0bfcYppIEgsRkcAN2lTGvp6ttvrMIUBo64+mgXB/ YEyixt5vVnYkCemLAKoMynsAMK3XywYUUGx/kwQPgrT9PzDXOVDFypgRRCIRhEIhCIJgIomgFCWz ZqFo6lS0fvgh5J6e5G6A0pvuaG/fmq32+kwZQHDLA15CxQ2MSaUJSrcqO5YCNvMAyjlBCA8wGcwA /9Ht5Ev8iNoDrn09oHRD9kwHY1GFK4qCgLaySBCEuBEAcFZUoGrBAgSbm+GzhItaXuD5f2tv/0V2 WisqnykD+I9vXvIooFwVz/SlR/qgkb5oatcbZfya8mPbTEGSKZ8mEaUTcIX3ICKOgUJzY7wgFAoh HA4nhIxEEFA2bx7ctbVo27QJaiSiG8JhT13dglebmiLZbLPPjAGEPlo+H4StMMb6iaTPQv5MYaEM TijQFC2b4V9Hgl6EEBGCuwZU6YbTvxEMBGGhLppKYAyyLMPv98dGGo1o4KmpQfnll6O7oQGhEyfk nLFjr/na1q0HstdiUflMGEBwyw+LCeHWM1XKtSd9Nr3fkgugfB4I4cAMvZ4xWdtXkAr+dRE9dVH3 AQVgMsTgTjiC2xESJ0Ah7hgaBAIBRCIROJ1OExpwbjfKr7gCYlnZzhv/8If7s9tqUflMRAGEOn7N mFxln+mL+/rYAJDlOEKdoJwLgKrF/Vox7vcivKMseg0tYtDPFyL7UHryHrj9r8fIIWMMgUAAJ06c QCgUik8U0SKFkrlzP8hqgxnktDeA0NYf3cqYvCghvWtVdoz0mUM/gGnQb1E8rPvJhXJu8I4KrScb ShT7QdQgCjt/jZL2h0Fkc7jY1taGzs7oAJ9mCA1KKHRvFpvMJKe1Cwhsvq+GEG4dVMlp8usJkG/m AbFcAItAcJQBhGpwr5jhX3MBqckfgegdC0IootAfLSyWNFJi9YJ8DDnBvyPMVSLCjYhdQZIkPVyU VSl09fTZnz+U1YYzyGlrAIHN9/GUOl5mTBrPmAbxfSF9agQcnwfK51iyfTISs3/JRXBVa9fQFG9Q OmOKhiKKlkRSQFgA3uAb4NV2BMVzwYgAIEoSpbDvZzMvnPvHLDedSU5bF0AIfxdj0rxE0hcxZPqS DwCB8ODEIiTAfYLvT977KZ8HXiwFGINxWgfToB9giC0YY6pWDwAMeaENqO5YBqcUm+S7RWStP8li k9nKaYkAwc0/mAxC/8xYhJpjfCvpi5hRwHCc6KqOQ7+J8Rv3U8T+hIfDO06bV22AfQ36WRJ3EE/8 AhzzIzf0D0jciPUEytJZl3xlUBeGAgDf+yHDSwIf3usE4Z5nTOLTI32J5JB3lIJQRzT1a9frjftJ RHTXghBeM5bYSH9Uwdo1jBPDopEBS7gmgfr6tC/8aEH2Wiy1nHYugFDhQTB5iinPn5Dvj5iMIpYL YBIodYITizVIVrQBHyUWvjGtl7IU8M+JxeCEQiAB9tUY9Nu7A2a9ZqdES76azfbqTU4rAwhs/t5F ALsnTvoSlZ1q5g+YAsE1Kuqz9eQOU2LGAMRJW7LeT6gDorsW8V5tCR1T1FuvyUCW1iw8kPUVwKnk tDGAng+/m08Iv9oK5+bhXSvcm6MBwVUNQgTYx/k2LsBGRM85AGjsGGY415gASqxn1muuqbqh68Xs tVh6ctoYAKXOlYxJVYmkT4oneKyhn+F7yueBE4rN4/tMtd9PonzeWQmOz0UMzjV4NyaAUtbH5TiA O7LcZGnJaWEAwc3fX8iYtJipEphi18M1NEhC+gihEN2jkVavj/VWs1DOA8E1ygTviSQvbfK3uPKG 7qws9+6rDHsD6Nl0dxWAZ239fEKcH3cLxkkegnt0NFNnCNNi2yZjMO4bhUD0jtNW0vYF9o31MaNa UXlD95vZb7n0ZNgbAKWO3zIm54NZSJ8asTGI+Hc6GvCOCnBCoQnezXAfjdOjxR7+RXcdKOcGksB7 svpYBBDv/Z8A5AeD1HRpybA2gMCH9/4bY/IXjD4/nse3I33mQqgI0V2XOs63cwkGoUI+eGelplwb Vq/3dpv6aO+PhX4yQBZX3tAVGrQGTEOGrQH0bPrOOACPmBRt2EYCD7ASQxmOnIkgoEhL+TFFGvw/ 4eHw1mt1BjjvAwcwGNQDlTd07Ris9ktXhqUB9HxwF08Iv4YxyWkifRbYtw3/tO9Edy0on6NBfC+s 3xSqxcXhHQdKHTDDuTXvH0/+xNb0MGO9CgDvAPTRQW7GtGRYGgCh/I8Zk6YkjuglZvxMLkHjAZTL ibL+WK80D8tGe6Ux8WOE8KjwYil4sSwNkmdJ/8aUHgv9/AB3S+UNnYP+FtB0ZNgZQM8Hy2YC7D4w S8iXLONnIn0RgDE4c6dEmz9przeighLb1+GfUAdEbz1sYd9gLOnl/cmdlTd0HB6a1uxdhpUB+N+/ 00sot4ap0YGe+JKu5Oldq0E4vPVRxm4X6/c69BsVR85EEMpZFGno2Qn11rx/LPRbV3lD1+8HtxX7 JsPKACjnfIwxucZK+pCM9FkMghNL+8f6DbG/4KoGLxTF/HpypRvrrddkAGPNIHzWVvRkSoaNAfRs uns+Y/LtTInY9PD4ZI/EnL/2HaFw5U3TRvPMcX1i7J9IBIFotk/0jO1fosfkIhhAyO2Vi9qH/R9J DgsD8L//rWIAz6c1oqcaSV8cBVx500GoaOnlxoyfefQvtq/3WBA4cydrC0JZXJF6LM90dh9HBiMq MCMqgKyqXNRxWvyB5LAwAEqdz4FJxfakzz7jZ3QLomsUBGdlL/Buo3xD6lf0nAPK55oVaatgY8ho N+WLNRBCh1W2L5UMuQH0fHDXbYxJV6dN+iy5AEqdcBbMSCvOT+YSOCHfNFjUP9hXAagyCF08YmHr sPlTqN5kSA3A/97SGhC2wo70JbJ8m2FepsJdNAcEXPrEL4G0EThzz4/eULIQL1avx/w2sB8N+X46 YmHrsP+3UKMMmQH431vKE87xAlMkrx3pQ1LSFzcKp3cCeLEEzDLCF53MGVeetRczA5Q7vRO0gR7d 1xtKwmCPDv2GSCAeGWwB4R4amtbsvwyZARDKf58xeVZCD7eu3FHtX97E8flw5k+N9VQTo9cTPAbD iO/Hv+cdpRDco5IndNLP+/tBuMUjrm8eltm+VDIkBuB/747JAJabSZ99YscuFwAAnuKLoxfrlfjZ EUEFhPBw5k5OoeAkMM8MkUFssIfcN+L65mH517C9yaAbgO/dbzgJ5dcwVeJNL29KNskjYbKHAlf+ BaBCfrTHq2kSP8u+M/c87TUwcYhPvaDDhgNEj11fcX3zk4PdjpmSQTcAQvlfMVUa3zvps4sGZPDO CjhzJ1li+zRRQKsTnFXgHGV2LD553j8R9gGobSDCsJjb118ZVAPwv3/nFWDsTjvIt1/Hbz6OUAHe 4kttId00speU8asg1AGHd4L5GgkDOHF4TxkSgiyt+OKxIZ3WPVAZNAPofm9ZPqA+mx7pSwz9wFR4 ii4G4dxxSNfhPwbxiiUVbNzXWH/uZG0lr3mM38jqWRze4yVxytfzFV9sfHmw2i9bMmhLwwihjzFV qkro4UnifKNbAFMgesZC9J6DtJZz2e4rEN214Ph8RN/5kxrykaoe6mEQ4duD1XbpyjMHJ0yOKJ2r AMwC0MAR5/I7xhxMufZgUBCg/YOHqiKkYrFCixBdS9dLpk815gJkUM4LT/ElMM3atYH3VL6f8l6I njGx7/oX+jGAqTLALam47vCwyvb9uqF2dkTpfCffWT9nZN5VfKln5ngV8pqnGmpvTnXeILkA7loQ yitcKRRxAhjEuLLtZv0YSB8AeEuvAKEC4pM5DBM60mD8AODMOQ8AkHxqVy/1sciArCi/7vCwmdYN AE811M5WmbRhbNFXvSPzvgACigLXuTiv7B5wxPH8Uw21C5OdOygGwAg/ByDRkTbOC+aZCYjVSLqk S41EYRoMzrxpEFzVtpBumuKVwgUInjEghkki/R7uhbodhBtWAz1PNdTOZ0zaMLb4q15/5Cg+PvkY jnatx9623+FQx8uoL1nKE0LXJDOCQUIAUgVCtPffEYBwgGcySN7FABFtSF/UR3NiETxFc01ED5ae Dh0VbImfog30VMMK70ZXkTrvr/8GCwHckvJrDwybbJ+m1HUTSr/l7Q4fRKPvH0baiq7wfhzpfBX1 xd/gAax5an+iEQyOARBSE/sTNBIvRBwBrvRGEOdowDT3XwFAkFN2dfRYZlGQNSZPQvwIKBw5EwE1 cel2qry//VJvPFB+7YFhM637yf11CxnDmvqSpXxrz0c40b3RFLTopTO0Fyd8b6G+ZCnPgDVPWoxg UAyAGBFAQwGiGQOhTvAl14AvvT72ilYAcBd+Xnv9igHujeQujdSvI6cehIrxrF6a+f3E/ID6Rvm1 B4bNtO4n99fdBmDNhNKlfJPvLZz0v48U/0aIU4HtaPK9hQmlS3mArH5yf+1s/VpZN4BTmx+vMcG/ BQX0Os57HhyjvgvOMxa8sxKuggsQm9lrjPPTTP1yYik4R0ncj1tRw6r45BygE0S4JdvtlK48ub/u LkrEZyeV/Tt/wvcW2gLb7Tp+QmkLbMcJ31uYUPpNp8rkDav21cwGkP1/Dm3f/MQ8gG0EoZrSqfY+ vPg+CNGSM9F9KrdBZMFoLoBFtNAwSYllD8Px8BEErvxpAACmKhrHUDRuIYOpcnxbfxewanwvsHFb XVx2zb6M/U/fQGTVvrq7OCqumFi6FEc616MjuLvP1yj1zkSuowYNp170c8R5fvZdAEFlAvRbuYCl ThVLEREroVLBDMtJY3/dPUSjAkdOfZRoGkfubJI6vaICU9cOF+Wv3Df6QUodKyaWLsWB9pfRHtyd Vs+3lpP+TQgrPjDAy4CFg5AJJFXapy30J6tn1AHJWQcaaQINHe0V8vVt3lkJTshD7OVNVgWnGfoB 6nEQYVhM6165d/RjDi5v2YTS27C/7UV0hw9hIODd1P0OwAhUJnsHIxUc4wDEhgcQG2MgBmNQnSPB hDzQ7o8BFkKqdC/lXBA9tUlQInEhh01+P1bPQJaULdg15C9xeGLv6MdEPm9ZfckS7GldDX/k2ICv GVF8AABC6IbsGwCJRgDpQL+pzljP50MtnA34dgL+A0lYP4PoHQ+ARCFftSo3uSuw5v1VglXlV+/+ R9bbJoU8vX8aH5RP/tbB5S+pL7kVn7b8HgHpZMauT0CW/fv4Q+8OhguoSQr/faoTgPzpYI4KsPa3 waSgyQUI7lGgvBtQ5USf3re8/56AwA3ay5rt5Nf7pvEBqeWFPOfoRWNLbsSu5v+LoNSCDHL2Zcsm HHscGIw8ACFVRI8AksB8X+qIuxp0xPUg7mroK3wp7wXvHBFXZCz0MyzoQBz+U+T9ZZ/D8aW6K3YO 2Uscnto3jQ/KLS/kOesWjSn6Ij5p/h0CUku/CJ9NkRnYnXdrygeyPBzcvu1pL2EsP8Hv28B8r/zA WMd5wFVcC9K1HXLL6xC9Y7VftE7tMs7dY72Sv4BIl4++7KMhy/Y9uXe6Nyi1vJTnrPvCmKIvYmfT bzV/nZGeLwPsS9+deNw0hyHbLqDGDOl6rJ9+NJCqjhZMhSO3HqRzJxBuNZG/dJZ0+zgJ7xe1o9kR BscIXMxR/NK26fwN528Z9Hy/pvzXSr2T59QUXo7tJ55GRPZl6vIyCPvSPROPJUxgyaoLICCV9pBO berMxpCyzljPe8GKPweWOz6asU+Yv2+M7eORQJDKeK24Ff78SowsuhzlhfMQdDiXHRZa337+4+nl 2WwXq6zaM8MbkFpfK/FOmVOV/3lsa/wNwrIfDCQTJcQAW+UD2eYAhNT0G+b7Ei4SCuRNBMovAxNz EGP9dlO+wCARBa8VtaCibD7GlSwEJQ44hELMGLkMpZ7Js1rQum3lrkkzs9o2mqzcPaM8ILVsLPVM njMybw62Hf8twrLPNE41gOJnjF1677lHk05dyxittJOO7c88CEIeAKHa4I85/QtQsxJNdYZjoaWK 0zkOCtRTH4K1bzOndrVUrwIJfy1ogrNsJlxCMfa2rtNcBODgczCp4hZ0hY6gofU1mRJh2T2T9mZt yvfK3ReUB6SWjaMK5o4v8Z6LbY3PQlEz9i9xfgL2he+dd+TdVAdlGwGqEnx5L5A+4DoqgpbOBR15 DcB74uQPDCpUbMxrBQrHIdc5Cntb1oGpaowihyUfth57GhxxYGrVN3hK+FUP76h57olPL3Bmumme +PSC8kCkZWN1wdzx+a7R2Hb8WShKJCNUHwx+sN6VD2Q9DCQ16UE6jdcNKFyk0Ikm8Y4BP+ZroHnj EQ3xVLznbUN7fhkq8z+HT5r/DIUxqCCmojCGT0++ghPdWzGj+k7kOCqX9Eitbz++a2ZVplrl8V0z x/VIrW+PLJg7Pt9Zh+2Nf4CkSgn30s/SzIBZ35/cu/KBQeAAA8oADiBCACEgnAf8qBvBVy/ER95u HM5zYmzpAuxoXN1rb2vs3IIdjX/CpIqbUZEzdXpAatn8ix31Fw20SVbsmjkuILW8Ma5kwZgCVx12 NP5RI6jJ76UPpRmMzbtv8uFd6d5PthEgYSJIasWZE0a2MG9zfuo6it1iB7Z7gzhvxE3Yfnw1wnIA KiO9lq7QCWw68mtU5s3A2NIF5Yoqvf7w9vq7+tsaj30yc1xPpPWNcaXXlRMiYNvx1VEUSuNe0ijN jGHeD6Yc7tMaxayRwO0bflVVU1l8LBb/a8owhYHGuQC2x6V7LrU/jhA0BD7Ea6eewIxRt2NX0zp0 hfo+mEJAMa5sPvJdVdh2fDXCsm+1Wyi74zuT3k97avjPt9XPVlh43YTya4sB4NPmV/t8HylkDwG7 8v6phw739cSsIUC3L5hAAAcSBvYF+vW6iBrGhrZVqC6cjX0tf0dn8Dii/+rdt6Iyht3N63G0fRNm 1dyBXOfIxT2Rlrcf3XlhTTpt8bOPJsxWVHnD+VWLixmAXU3/3a/7SFL2ALi4P8oHsvivYS63e+b2 3UdvlCQFJUV5EAXBHMohsbcmD/lShYFc0nNPRg5hW/cGOPlcNHd/ChOn6EfpDjWjvecQplR9CYoq lbf1NCy+dGnFR//8TeuhZO3w0NYJs1XIG6aOvNnbFWzE3pN/G/B9GMoeQtjF/zHtYHN/9ZQ1AxBE x1Ub3tx5+bq/bcGza/6Jj/ccBQMwpmYEKOV6gX4rzJsVb4L+ZMYECoFzYXPnf6M71JSx5wrLfjR2 bse4sstQ4B7lPtm9+6ZLv1kR+OczLe9bj31o66SFCpPWTqu+ydvecxgHWt/K2H0AeIcQNv9H0/uv fCCLHGBM3ajHunyBZfo/ZgOAqqooKsjBt269ErcsugROh8PUq4lF8YnzB63H0hTH0gafcuqnLzb+ pLg90vhIpp+PEIpxZZei2Dsam4/8EWHJv9Yjln373invND+yYw4fkjpvY2CrLqz7Gn+i82McbEsr KktX3iGEXfnjGQ0DXp6WNQMoLy9/hTF2nf5v2XrR94sKcnDvtxbi5oWXpIB+q4tIC/qbJRZ5+FTk +G/qRlwfAoCHt0y9Iqj41gDIz/RzjsifhAkVV2Lr0TXo6DkqI/p/QMUcdXgvrFuCw6c243jHR5n8 yXdA2JU/uWDgygeyaAAjRozYzBibris8mSHMnDoOK376LVRXliaB+WScIaGukwE/VZnyZE7JjITx /F9unVnjkzpeAjA908+a6yzDzNrFONVzGKd6DsMtFmBkwfnYdWIDGjs/zuRPrSeEffk/Z+7P2MLU rBlAVVVVK2Os2GoAdoaQ43Vh5c/uxGXzZvTCBawhX1TxAFYAeNxTMj2nDoXGAAAHm0lEQVTlHL7l m+p5RVVWMpClmX5enoqoKZqBfHcFwnIAR05tRXcoc1O4AKwlhH35wVn7MjpUnRUDqK6udgII2ine +AnAtL/8e0vwjVsXwHaghxCQmM+nACEhgDwNsIc8pRf06Z2897837l8BPAvAm/GHz46sJYR9+acX Zlb5QJYMoKamZgyA/b0ZgBUJVFXF7YuvxoM/vD0V9MsM5GnC2EOe8ln9ZsD3vztuHGNkLYBzM/bg 2ZHVhLCvPjR7b1YmqWTFAOrq6v4FwOvpGIDREPTte799E+6+41+t0C8DZDUDHvKWX9iQifv84Tvj vCqjKwEsycT1Mi9sxcOf33N3Nn8hKwYwZsyYWwE835viU6HBE7/4DhZde4kG/WRdOCLfWzhqXkYU b5X73qq/jYGsApDxYd/+C1vxi7m7s6p8IEsGMHbs2B8DWJ6u4u0MwOVy4K8vPrqOUrp8ypybsj5R 83tv1k8GyFoAY7L9W2nII7+86NNBmZqeFQOor69/jjG2pDeFpzCEN84ZPXL5ps073szG/SWT7705 IV9l5DkA1w3m75qFLXtk3qeP935cZiQrBjBx4sS/M8Yu7aviVVXd4nI67jly9NigKt4q92yceBdj 5BEM4lvUosKWPXrJrkFTPpCl0UBKaRWlFH0o210u13UtLS0zhlr5APDIxbseF5TceYyR4xkcteul 0EFXPpAlBJg8eXKQMeZMo8c3OByO5Xv37h0WS7Ct8uP/ubq4SzzyAkAuzeLPyDwTv/TIZVuG5KWT GUeAOXPmFFNKnb30+MM5OTlLxo4dWz9clQ8AP7lqfVtRcOKVgpyznDHIGZqqbSwyr7iHTPlAFnyc 1+utCQaDiK7KhfWzOScn5xcjRox4+pVXXonl6++77z7icrngdDrhcrmI0+mEIAjgOA6U9slG9YFy oI/oFp0zrEClYcgkBIWGIJMQ5HAQLqn0Z6cc+z7w802rART35bopRHaoOV9+5Mp3hvR1sxlxAatW rSKnTp2Cz+fDwYMHrzt27NhfLFDfmZeX98jIkSOfyM/PD4miiPz8fOTm5oLnecrzPOU4jvA8TziO AyGkP4qniM5v4Az7mRS1WzhesS933TMSCQ100Yi/LHTeouLw+DcpE1SOCUwhYfDMBU51gmMiCDgW nSgbm/KpS2x78eLFzHrhvkraBrB69WrrdBT9fBoOh2k4HCaSJJGdO3d+85NPPnlUC+e6amtrn50x Y8bTFRUV1oVu+nV4AALiyuvPM+jKF7XCI7YQMSOiLyuSJRJUD3j/98528UDKV7AmvVlGArWBS79R HjpvEwAJgIzoMmerMnXFG1+RZp0HrBrqjeewdI0jZQNpStcn2/Na4RBvYH07psBdu3bNfvvttx+s rq5+a8aMGb8rKSnpgb1CCOJKcyKuOIK+K45q9+A0XCsbBhABEAIQanbsOP+g+41bVSiu9G+Shsf5 r/4/RdKYXYgqP6wVSbu+8feAqOIjWpEQNxTdKIwGpBq2Za2oANRUxpC0gTTlCwAcANxacWnFoX2n f29UoG4wvSlE7/36+Q4M3AAchnszrEAdkBh7m0lpPVxbzh73Xy8OcO15vV1EYM5Qfc81G/PkypOw GBPiyjWKrtCwdkwYcaXKhvN1A9LvLaiVgFbCAKRkRpCKBHKIKrsAQCmi5KcQQA4AD+KN7dCOc8Js ADziijUqRBcdAQREDURHkf4oTUcqAXGUsrqr/ooRcvXeJQFQPUoxm+K7qfmA6w3SJO7KTXYBkbmU Sf5FTR61aBSAUTArMYK4Yq2/a1W0saeHDEU3yh4APgDtANoAtADoMJyTILaNo/V+B6LKrwRQq914 mVbnRVy5erEigK7cZIrV9zmYyVt/laafZ+35mTAA/TO+xNjis5uEXUKD8w1RIZLp90TVzSYHFgU9 aqHRVxtfUKTDuZXoxXgHEqFedw1G5YcA+BFV+EkARwAcAtCo1YXtUCAVAuiNqbsAL6K9PxdmA9Ah Xle0lS8kUz41FDty2ZukMpZszXSyg1EGABXSRJajlEkNjrf4Dv4YJYygUBmlnBO6WHaxXL0dkinZ SObsDM7o7/VjZUSRV4d93c3KiCKBG1H9pORCqTiACCAPQDmAakSRoFir8yAO+zon4A3Fjo0blctZ ju+L8o2okSk/31+x9mgZNuiQ5BzjeVYFG4/VuYfRXeiooaOA7u/9ALoQhf9GAEcBNAPoWrx4se26 81QIoGgXbdVuoB1x/68r3WgAOgLorD4Z+RsIYdOJo9XA9O8GW4zcQFeSHaGzO0//1P28DuWK5Xsr YYwgkQgaiZ/OAzoAdGp1Se+ntzDQSNKsvl6v14veK3tT7kBCNv362Qr3+iq6Adix9XTicDumrxtA 0ugDcdQwEklj0Y+NIBoB9M8AAFMuQIdeainW7Js1N2Dn+/ubtMlmuNcfMRqA3hsjsE/s2J0LJMb6 ulswHmeN+Y1kVIE5WaQaj+ktIdTnRtMMwniu1X8bDcYuHTuQtK2RP9gZ2FCJNTHTGw/QJVW2zyh6 vTXrB8vxaWcAdcla49kYit1v9ydU683AhkKsjL4v5xnPT3pMJvL+djIcek+/JA0DGyzJ6ODMYMv/ B8AyPL4SobJ8AAAAAElFTkSuQmCC "
       preserveAspectRatio="none"
       height="4"
       width="4" />
    <image
       y="12"
       x="8"
       id="image10-6"
       xlink:href="data:image/png;base64,iVBORw0KGgoAAAANSUhEUgAAAIAAAACACAYAAADDPmHLAAAgAElEQVR4nOy9eZxkR3Xn+42IezNr 7V3qRS21kFBrBQFCoBUEksBgBGKzQchsZtjseQMYg8cGo4/teWMb4/HzGPvD8mZsjCTAYAMCY2PA yKAF1N3at9aCWr0vVd1VWVmZee+NOO+PE3Ezq9XQre5Wt5+H+HyyKisrl5s3TpzzO7/zO3Hh5+Pn 4+fj5+Pn4//QYY72Aew1xoARoBF//7TRAwqgBXQA/9Qf2n/McbQNoAEsiLfxT37yL885/fTTVy9c sHD5wkWLTkVkny+a3L37wW63O7Nu3bq1v/7r710LzAITwB7UMH4+DnAcLQMYA5ZeeOFFKz/84d+6 5LTTTrtkyZIllzAw38YYXGb7DwiICD4EMucAKMsKgKmpqbWP/uTR73/sYx+94aabbtoKbAemjti3 +fk44DEGrH7723/1Fffcfe/XJ3btloldu2VyYo/MtNrS7fakLCt5MmN6qiWt6RmZabVlcmK33HXn 3V//8z//i3cCZ8XP+/n4dzAcsOrtb/vVV9x11z1f37VzUiZ27ZbW9Iz0er0nNeF7j61btssdt98r 996zXnbumJCyLGV6qiUPrX9kzUc/8rtvBFajoebn4yiN+cDZP/jBTZ/aunX79K6dk9KemRXv/SFN /OAoy0o2bdoqa358p6xbc7ds37ZTvPfSarXl1lt/fO3FF118EbD4aJ+I/xPH8re99e2v+MmjGx7Y vn2XzLTah3Xin2gIpTy+YbP84MYfy49uvV127piQqqpk48bND/zOb3/kjcCqo31C/r2NpxIErvrI 73z0gve8572fag41x+fNGyfPsyc8ad26ddx//wMMDw9z8cUXccwxxwAwO9th+46dTO7ew8TEJD4E vA+E4Dnl6ScxPDzEiSccv88P7nZ7PHj/I+zePcWixQs4/YxT6HQ6rW9/+18+8frXv/ZLwHp+njoC T50BrPrKl//hredfcME1w8NDLFgw7wlPuP322/nC9V/kggvO5/KXXE673WHr1h08+pMNPL5xE5N7 9lCUJWVZUpQVZX2/rO/njZzTVp/C85/7bC4471zGx0bnfMbGx7fw4AOP0mw2OPvZZ9BsNvjmN//x mte+9tWHywga8dZk3zijFX/PHOLnPGXjqTCAVV/+u79/6/nnX3DNyMgQCxbOn/PPiYkJ/uavP0d7 ts1b3/IWur2KRx5+jF0Tk+yc2MVstztnon/a5BdlRVn1H2s2Grz0skt4w+uu5Ljly+rPa03PcNuP 7iRI4HnPfxZDw0N844ZvXvPa1x2UESTeYhwYu+jCixZcddVVpy5YuHDspKeddKowl7dYt3bdWoBf 63MVsyhXMfMkP/cpG4fbAFb+6Z/+2ct/6fW//KmRkWEWLpqPDJA5d911N3/7t5/nmc94Bpdedjl3 3nEf7Xab3VNT7GlN15O7ZPEiTjhhJfPnj7Ni2VKCCCLCYxs20pqZ4c6772PdnXc/0SDKkvnzxvmV N7yOd7zlqvpzW9Mz/OiW2wkivPiyC/A+8LWvfv2aN7zxlz4PPLKf7+TQST/2V3/1HSdf+aorzznt tNMuGR8fX91oNlfMeeYTeKv+A+12+8EdO3esvf/++9deffWbbgR2oeTVUfUOh9MAFv/X3/rtl7zz ne/+1MjoyPixxy5GRAhBT8Jtt93Gdddez2tf91qGm2Ns2LAJQdgxMcFst0NZlpx5xqm88OLzWbhg Pps2b2V2draefBFh1fErGR3tM8R33HUvN/7wFr76zX9icvcerLXkWUae5Zy2+un8jz+8htFRDQvT 0y1uvXkd8+aNceHF57Jn9xSf+cxn3/WhD3/wG8CWfXwfBxwLHPv1r91w5VnPeMYV8+fPPweUpMqc I8szrLVYa/fx8rlDJFBVnqqs6HS7rR3bd3z/7778pet///d/725gK2oMR3wcLgNoXHjBRc/77Gf/ 12eHh4dPXb5iKY1GTlVViMCaNWv54he/xKtffSXdWc/U1DQiws7dk8x2O6xYvpTLXnwxm7ds4+57 7uf2u+5l0YL5OOdYedwKfPC027M8vmkzM+02S49dwllnnMZF5z+P5cuWMt2a4bov/T1f+odv0Ov2 yLKMPMs4bsUyPvKh/8KJq04AYHJiN7fctJaznnkqJ528ik0bt7Re89pXv3rt2jW3Au2B73MssPxr X/36lc8999x3NhvNFdZZGo2cRqOxTzC7v+G958EHHmVoqMGChfMZGRmm6BXs2LFz7be+9Y+f/r/+ y3/+PrARrW0csXG4DGD1jTf+8GMrVx5/1Y6dOznzjFMZHh7C+8C6dbfz5b/7Ci95yeWE4JiaamEw 7GlNMTXT4qQTT2Dx4oX84OYfcdzy5Zx4wkpWHb+y1W6312/fsX0tApOTE1sWLVq8AmDRokWrjXWr H33s8RU/WruOoip58xtfx3OffTYPPfwof/inn2TD45vIcjWCFcuW8oe/9zuMjAwDsP7BR3ng/od5 6cteiLWWH9162w8uu/xFvwXcjMb4E//8z//ikte8+jUfazabK/I8Y2h4iGbz0LmkqvLs2L6Lbdt2 Yq1hxXHLWLx4AZ1Oj0cfefSG97znXZ+4+Zab16Me4YiMw2EA8z/8of/68ne96z3Xbdm6jW7Z40Uv uIBer2Dbtm381V9+ijPOOINjj1mhk28M3aLHzsldFGWJtZbly5by7GeexexM64Z77rnn++989ztu RBF0QtEFfZQ9Aox96Dd/64xXvvLKN46Pz7viW9/5HhO7d/O7v/V+AD780f/G45s2k2c5WZZx0okn 8LH/+gEEDSU3/ustWGt53nlns2njFj796U//0Sf/8n9+6+KLX+A/8Sd/+p5VJ554VSPPGRkdptHI D8MpmjuqyrNt6w62bN6OtYbjT1jBkmMWMTXVat3w9a9f89a3veVbKDZ5ygtbh8MAzrp93V1/LWLO +cnGxzn55BNZffJJzM52+MynP0uz2eSss57Fzh0TGAwBYevObfSKAmPgBRdeQCNz3//z//lnn7j2 2r9dj8bCA4mH84Elb7rq6tPf/e73vnN83vwrPv+lr/Dud7wZg+GDv/17dSjIs4xXvOxyXnLZCwnB Mzmxm+995yae9ZzTcZnle9/7/uS1137uC1/58j9cOjo2dur8eWM0h5pP+MB2e5Z169bSbre5+OKL a3xxsKPb7fHoI4+za8cE4/PHefopJ9Jo5Nxxx53XnXfe8/4YzVKe0pBwqAaw+I/+8OOvfc1rXvep 2++6m8ZQg8tf9AJ85fnhD2/iBz+4ifPOO5/WVBdj9NOmZ1pMTO1mbHSUC887t/XgA/d/4upfeeNX gMc4OEQ8Bhz/h//9jy9+5RVX/sk/fud746951ctYs+4uvnrDP5FnGVmWkbmMD33gPYyOjtDpdPjx j9axa+cu5i0YYnJyN6985ZWMjY6yaPGCJ4C6Xbt28bWvfZ12u83ll1/O6aefxq5dk2zfvpOfbHic HTt3sWXrdrZu3063V9Dt9ej1enR7ikeOP24FzzjzNF5w4XmctvrpT/gCe3ZPcdedDyASOGX1SSxb fgyPPvLY2re+7S3vu+mmH67lKTQCd4ivP/kP//vHf39y954V23ft4rIXXYxzjuADX/3qDTz96Scj PsOHAMDChQtoDOdMt1pc+sKLW9df//l3ffA3P3AD8Cgq8jiYUQC7vvPdf9k+NDx01yt/8RVn/cv3 frDk0hddxH33r6csKzKXkTnLbKfDyhXLmG616HU73HjjDxgeGeLKV72aBQsWsGjxAoyZuyZuuOEb fPGLX+LCC8/n5S9/OVu37uTHP17Hj267nTW338lPNmxk67bt7JmafsLk93o9WjNtHtu4iR+tWcdX v/HPfPu7N9LpdFm+7FjGogcZGh5ixXHL2LF9gscf30JVVZyy+qQVL37RZReuWbtmzcaNj+8EqoOd pJ81DsUAxq666upnveTyl/7G2jvv4tIXX8SxxxxDZ7bDww8/wv333c+Jq57O7GwXg2HhovmsPu1p 3PjDW7nw+c9rfenvvvCuT3zij28GNrCPDPogxvQtt9y8tTU9ff+br776im9/98bmiy+5iHvufYDM Oay17Ni+k+OPX85se4bHNjzGzEybq656E4sWLmThormE1aZNm/iL//lJtm/bzjve8avMtLrccce9 bNy0mQ2bNzPdatWTbKxl5XHLmTdvjPnz5rFwwXwWLlzAho2b6fZ6lGVJ5hzNRoOyKLn/wYf5x3/+ Lr1uwSmnPI1GnuOcZemyY+h1e2zYsJk8z1h14vFLXnTJpReuWbNmzcaNG58SIziUELDq2//8vf97 8ZJjrlr/yCO84fWvotVq0+v1+O53/pVt27Yzb2wxzjmMMVx6+UX883e/z7FLlrDhJw//xq/9+ru/ gk7+4R7Hvv/9H7z09a97w3WPbdrIutvvpuiqc/G+YtUJKzhm8Xy2bt3K61//y4yPj7F02TFz3uCh hx7mM5/5LM94xlmc9/wLuO++h6iqiok9u9k9NUWv12N4eJjznvcczjx9NYsWLfypB/PgQw+z/uFH uemW2/jxmttpNJo0GjnNvEGz0WDF8mW8421XsfqUk+rX3Hn7fTy+YTPnX3gOixYtYM2a2294/nnP /W3gfg4zg3goBnD2Hbff84+Tu/esWLVqJSedtIqdOyeRIPzv//03NPJhxkbHcS7juJXLOOuZp/GV r36TU08+8bpfeNllf4B+madqnPz3X/n6h/ZMz77zjrvuARG8ryiLHhI8CxeO8vrX/xLLli5j2fJj yLKMEMPUmtvWcN11X+DsZ53NmWc8kw0bNmOAXXsmmWq1MAYue/ELWHXCStY/9Aj3PbCerdt2cMfd 99YeYeVxK1i8aCEnn3QizzvnWZzzrGcCMNNuc8M3/4V//s73qcqKZqNBo6GG8NpX/yIXXnAuAFVZ cfNNayl6BZdcegHee/7txh9++hdedvkfs3/m8kmNgw0Bw+9//wcvPvecc9863ZrhjDNWA9CemWVi YoJ77r6XkeFxfaaB885/DusffpQTVh7X+vCHf+ODW7ZsvpenKKbFMf3FL12/8QPv+8AVP3ns8fGq LKnKkl6vy7atW7j8sss45ZTV7JmaYsWKZXgfEBHuvec+rr32es5+1tmsWL6K7dt2YYDJ6T1MtVos X3YsL3zB+axddydf+do36cx2WHX88Zy2+ulc8dLLtrzw/Oevf8mLXrj1vHOes/WkE1eNN1zevG3d nXzq//08d997P8uWLuXSF13E5Ze+gJ07J5jcvUeNIG+w4bFNzLTanHLKSRhrWb7iWB5a/xOm9kzz tJNOYHx83jkGe+vNN9+0lcMICp88paVj/PnPe/45QYTxsTGGh4doTc8QQmDXrgmsdVSVzm+j0eDY pUvYtWuSjRsfv/62NT9+7HB+gZ8yPLDj9jvX/a+Tn7bqI3fdfQ9VWTDTmmbVCcdz/vnns237DgKB EALBe7Zu3caXv/z3PPe557BwwVL27J4GA51ulz3T0xrrjeHv/v4bnPOsZ/Kf3vzcLdu3b/v+bbf9 +MYPffiDa+krldMYftObfuX4l7/sF8954TvecgnGXnLTzbfx7e98n9e/5gr+83vfznXX/wN33Hkv zegFHnzwEZrNJpe++EIy5zj7WWfwo1tuZ8f2XSxZsog3v/ktH/v4n/zRfWhB6bCEgoM2gMWLl6yW EOpSb7fbI4TAzMwMwUs0AGHpsiXMzLTJs4wvfOG6GzhyLNe2973v1//lK1++4X2+qsZ6vS7TU1P8 2nvfzZ6paXZNTnLmmacpN9/pct31X2DhooUsPXYlO3ZMgAEJwo6JXTWqz7OcX7ryii133HH7p884 8yVfRSfip1b3rr32b++/9tq/vQW4/k1XXb363e967zvnL1h4xT/987/yrLPP5Ko3vhqARx/ZUIeC nzz6OPctO5bTTjuZpUuXsHTZMfzoltu54srLWbZ86alf/rt/+JXXvf7VfwZsOhwnaf9VjH0PNzQ0 vCKIMDqqFGu328P7wOTEJJX3VFVJVVWsWLEUX3na7dkHv/il648IuxWHB6Y3PPboj0eGm7Ra0zz3 3HNYvnw5jz2+kaIqOWHlCrwP3Hrrj5iemuY5zz6H7dt3aQVTYKo1TafbRUR45cteyrGLFlz3jv/0 tl9+09Vv+DRwDwpip/jpq7FASa311173+W9f/MILPvi5z/3vq859ztkP7tg+wQ3f+Bde8+qXMz4+ 3scDeYM7b7+P7dt3EYJw5lmrmZlp8+jDG1i4cD5nnHHmO88993knc5h0jgdrAONjo2PnSBBcluG9 VrpCCLRn1btXVUVVVSw5ZjGtVpvNWzbfiK6WIzkm77zrzoecM7RnWrziF39RC0qzbV540fkUvZLZ Toc1t63llFNWs2Pb7roVIc8zXO4IIrzkxZfw0PoHrrn08kv+4JZbbv4x6sWerAsugPV/8ok//sf3 /tq73jE2OnTDksWLePCBh7n88hfUk59lGcYa1tx2FyEEhoaarDx+Offf9zDOORYuXDD+kd/52FVo weqQx8EaAEGEIMLixQspikJjaQhUZVVPfllVnLBqJSLCPffcnUQRR3K07rzr9omZdosTTzyRRYsW 8ehjG7j4guezYN48vPfcc/c9FEXJ/HmLKcoSRBgZGeHs55zBli3beMklL+ArX/7iVW9+y5v+Gs1c DtWDTd166y1rX/Tiiz/a7cze0On0GB5qsnjRwnryjTF0Zjts2LCJEAKrTz2Jyck9zMy0WbR4AStX Hv8KVOR6qETewRuAhICEQKOR472vDWDPnj3q/n3J+JjW7quyIi6tI62C2X3HHbfvmZ6a4oILzmfn rgmWLj2GE1cdTy8a7b333s+y5cuZbXdBVNNz3vnP5u+/9i3OPP1UHnrowWs+8acfT4TV4RodYP2L L33BR8ui9/1NG7dy6mkn15NvUM3B+gcerb3AvPnjbHx8C41Gzvj42Ir/588+eSkqVDmkccgeAPoA MIHAqqqoyoqxce3LaLdnueGbX3+QI1zrjmM0hMDznvd8du6a5LnPOZsQhKJX0ul2mZiYYHR4HiCI wEknncCGxzdhjWFsZOi6t77tV77EYQJce40OsP4DH/wv14yPj7Z2T07NmXyModPtMjXVIgTh+OOX s/Fx1a0sWDiP008//RKOpgFIECSqfVT5owYgohlA5au6lBqCsG7dmqOlg5u/atUqJASGmg1WHrec Mq7+zZs2k+cNREx0UMJJJ5/AmnV38fznPqf10d/9nU+jRaqn6rg7a9bctv7Gf7vxmtGxkTmTr78M 27ftJITAwkUL2L5tF4AWrRYuvoSjaQBFUSCi7JkEIfhA8IHR0dGIAUqWLlOcMqgLPApjbNWqEwki LFyo56soSoIEdu2aJM+adQgbGR2h0+ly8tNWsWvnjuvXrPnxIzz1XmvH+97/69/udDprFyycP2fy MbB79xRBAmPjI2RZxuTkHoZHhsjyfPyaj/3BORxi+9tBG8DWLTvYs0f1Gr3eAAiMk19VVU2vpt9H aQyfeOKJSAisWL60f7xe2LZtGwZLVVV4X7Fy5TKKXsmC+fN6v/07H/4nYMcROD4P7HjwgftvGBsf mTP5BoMAwQvBC+PzRimKEoChoSYnPe2k1ahC+aDHQRuA957ZmPL1eoU2boSA9/0sIE38UfYAw8uW LSeIMDw8RAiBsqoIEpjaM02eN6jiMR9/wgrKquKeu+966IEH7t/CkeMsJt757rd/wznXcs7Wk28M TE9NEyQQJDA+Psr2bTsBGBsbYdHixYfc93jQBlBWJTMzqt8IQeqbkkCq2Q/B1/8/SmP4nHPOXSAR 9I2MDlOW1QBgnaXyFb6qqCrPosULqcqKH970g/uBySN4nB5ozbbba13m6slPeCAdr3P9rM85y1Bz aAXalHLQ4+ANoCwpozuSEGoMsHcImJlpH00P4ObPn98MIgwNN8nznKIoawAbQtDJ9xULF86j2WxQ lhWPPfaTFkder9+anJxc75ydM/nz54/Vxzs61pfEt1ptGo3mamD4UD70EAygoKwKqrLSlDBaqa/m hoCqrJCjiAFExChf0aDRyAkR8PV6vYhZ1GOlkysS2LNnquLI7zQyu3HT4w82m405mQAMeACrHqDo Fdz8wzUURTnOwddz4FBeXJa6+mdm2kztma4fT/FUUPAnUPMFR2OIiAlBai/UjYB19+49VJXH2hIQ Fi9RUUevV+Aypw8e2eGnpqZmRMA6i4hgjGFsbLQPpiWwZ/cUW7ZspyzLwwKuD9oAqrJEgLvuvJ8s 67+Nr7QQJAhBgm7tcvQwQNxaJtQG4GPNQgRC8Pgq4ZTA9FSL3Xt2k2V5hyNvAIhIraACwFADV9Dz WBQlO3dOUJQF3h86PXHQBlBEDxCC4H3fEud4AB8gGcJRGoKC02QAqV1tbGwU7wPGVAjCvHnjSPy/ MUYP/EgfazxGY/TDDYaRkeEaRI/PG8M6S6czS1H05pz3gx0H7wGqMq6iMEdJmzDAYAg4yh7AbNm8 nfF5ypcMImrvoyhJhHnzx7UWIII5CpOvhyE462g2m5RFyejYKCZmAYPDV56i1yMcVQ9QKEaSIAQz 6AE8ZR0CPMjRxQCgOGW2rZxFu90vSKbexTTxaqxH5xgh1csgy3KWLFlM5tw+47z3nqIo8OEoGkBV pRAQ5khLUwZQ/w85qlkAIN5X9cQPchLpOGEwROixGtOfkCM1JicnWu12ey1A2esxOjZCs9k4x+zV qOJ9RVH0Yog9tHHIWcAT3JOfawBHOwswSCR/+mAvjRQCUvt58gTplUc4EvjPfPav1n7ms3911cBj 42vX3L1myZKFdDraX9BoNKi8p1ccZRBYG4ACgfrxlFeDcgOLFy88qhjAoKxlOllhzrFWdRUwaQFC EIwoQXKES5cdtBcwjcXAeJY5jlu5jHvv0X/Nnz8eQ0DvqQ8BH7/69JXohotzWmTv2dh6+hwP8AQQ qGl0P38V3vLClS846/jxuTtqHIYhijFMt/BuYqYc2TVdzJ9oFYv3tKslrW51zEgui6qyZGqqRWe2 +wQDiO9S6wBFhGXj4enveckJr1y6oDndcDZYawQogXt+8/P3PxXagDTSphSLf+P9v3XBS3/hpW88 ZfXTtN0uHneeZzUGOBIh4KxfeefbP9kcbp7UWHw82cLlZKOLsPkwurb2vsHLXvFJdP2kx3Zzxaue yxWvuudP9/0at8/3qe/HPB7xeiMg3itak1Jp6KqgLHu0pqbYsWsn27ZuY8vmrWzctIXZwlBWJb1e j61bd8zxRv0QoBPfas0w2oR3vuP1rz3j5ONeS9Wj224x2+5QFr1Hv/+1z/8aT404BJTSXf1H//1/ XLl69alvXHXiCaeeepruhtbrFQPaiz4GOBIgMB+at+AkMFQzewhFQWk2YRpDuNFF2OYItjGKG5qP Tljgic1GgxNreWJcDTzRIPYe8sTXWQM+AxMgMxgx4Ho418S5Bs66SKoIVVni4+YMg7t7VJUnLnxE JNY3uuze+BO2Z12csxCEfGgEJJzEXp7wMA/3gfd96PnPeMbZ1xy3chnPPPv0+h9bN2+vPcD0dIvt 27YfOR5Ayh5YC2LwvRJrHJQtQncCsiGMdRhrsc0xTD6MbQxhG+MYN4zNR9DTa+NtXwaShv0Z/0vG g76fjRDdGhCjPUZBtHpuLMY4PS5jMYQaAyQOII3EWEICgprW2rxJPrqAPM8h8hzGPZVzH7+ZwLHH Lp4z+b1ewc6d/e0Spva0uOuue44cCDT5MBiDy4cJoAbgLIKnv2Itoapw0iZUBdKd1mKGyzA21/dw TYwbVtLIjoJR129wYA6ypB0UvIWyRSg6hGIK6U7g25sJs9uR9lakGqKqjsX7as6mVaCcBVDH/sQF GGPwZQ+HhhcjRo3tKR4iwtDQUP/4qor1Dz4655jXrLmNzVs269c/IlmAjZYfAuAJzkDVw2RNnUQD 1rrowS0SSmXTXI4JHjFAFTBSIaEDrgEyg7EOYnVLfImIh6pCgodQIaEilF3923cRX4H3qt8LASm7 SKgQkyFVReUtxWyPcnIXvr0bKVoQCpAmZVni4+qfkwZWVY3+BY0FIXiqbotyZhJvIVQl7gisfqD4 sz//+M279+y+6k1XXfXGhQsXXaE0u07yv/3bjWzfvp316/uJwhEhgkJnAj09AlmG+BLjHDYfUowm AXEW8iGsy3XiXQORLiFrgASMG8JIR8FjKPVjrYsfnwEJ4MWbVIDFZmNqAHYEyYIaQIgr2VUgFTZA cBW2rMAKrjlO1ijJXA/ncqyHog4B8sQ0cE4IUAY+HxpjaN4xES+oVPsIaBoK4J6/+dxnN/7N5z67 9mW/cMWnX/Pq111xwgknvGJ0dHTF2Pg4N930Q4qiv4/GEcEAoVIK1UiJdfNx+SgmH8I4BzaLE+7A 2ogHGti8CTbXVW4cJmtgrNVJN8mdauiow4gJYCvUADIIPq5gT/AF4mf1XxIQX4APEDw+VEiAUArS 3U0oZpFiBnwP43tAQz1AlZRAfVat8lW98tX9CxJQ7GBc/P6lhjLz1IeAOKaAqW/90w0bv/VPN9wN /OXvfvQPLj3j9DMvufrqt1xy5113jKcK5tjooV8OYb8GkI2qkBIpdDUCEvSkqHQlA+OwNouPOfqp HfQRfAKCMDdNTLe4woKP9z0YBY7WOLwdwRqJ281kQAmmwphcjafqYRsjGNPBIBg8hoAJnkr2DQJT CIC+BwihouzOUHZbmEaDqtfBl52B73PERgdtRtn0e7//kU3A14AFv/7e95/z9JNXnzMyMrK8Pdtu cYht9vs1AB9DgLExvlsLLgMqjM8wjQDi8F6wLgeXYyQHI7hsWJ/rS1S6ZuN5FLCN+PFxQiREnKFu WI0oxNfE3ThFQagYD7ZCxCPBI1WJDQ7rBJeN4YZKbF7g8mFsaFB2qp8ZAlIaKALBV1SdabrT2yit Q7xXj5AdtWtOeAZ2TvuLv/wfDwI3DPz/kKME9MoAACAASURBVPot92sAbvRY8EVE75paYS0m0xCA deAaSgZKGV8lYDKCBKzJ1EuAegfrYghIt2gExoAVCIMcfPQEoquXCBYlGCg7SCgIVQFkhKKH70zi Z3fjZ6eQ7h4o20hwVBEDSAiE0F/Je4cARNPIfGgMlw/r986aZM2h6Jn+XYwZDqNecb8GULW2aZ6f 5QjgmmNQRTYOwWRDWJdh8lHI8hgCLNY1MdYooBMBGiAFSFr5CQMAVGo8IYHAlGJGT2DBEgi+ovYM rgkimMYwUhUYZ7FDC3DDhmzIkDUDWV5hg1MeIKgRmUEMUPW9Z40BRDDW4fIhsuF5IAHX6Kdm/9HG /jHA+HJdCQn0xfTNOAvG4bJGfMzG3/E5JtMY7vK46umDwDkYIXoBY1C6HTWiSPtS8w1gXTOmfoAR xOZIVSBZEyuCdQGbFRg7g41Y02CUCfSeIILdGwPQj/9ZluFL5TF8MYaUHcRAA4PN/2Nedmj/TGB3 SplAdFKMOBCn3jkbInjRmE+OMyZy9PGtbVytwevrjYkeIrn4QWBo5nyOQoOIN2QgPbQWQsoWAOOQ IHjfI/gu4rsYqdRrGU3hyrKotYDe7B0CSMUAFiyYp6u/MUrWGMVljlBVBDyh7BxxfcCRGPtnArOm snrWqYu3TbAGmzUiJnDqHYyBrKnUbDrJISJ5GzMBiaCuzgzSKt/rJgkIDtQJ0tmXCiLZ5INmJqHs IeUsUvUQXyC+wkQjMaIKpSqCQC3s6dinIASDzZrYvInLm7imfhdjHSHIQcvo/72OA2AC7cDJD5Gk iS7c2DjZitQJoaZ4iWFBDSDet2n1DwJAg2YyA4/Xi9SA78VJr7QeEbQCKL5CvCdUPXxZ4Evt8PFF T4FhqLBG56uqqrofIOzlAWCABo61ABEoel3ESypI6lH6p7QYdFTG/g0gSE3zYlxM6QLBWIiu1ojT YkyM/8Y0laihAWnFWUENZxD8pTFYJUxoW6hTxOAJCDZ4NbJQEqqSUBVURUFVCa2pNhPbtzHb7jDT ajPbmqKcnUX8vBoDyF4GoDxA4jnVK5VFj/bEdvYMidqhNZhokSJy9sevPn3zkzzHR2N0UO3CfjmC /RtA1kTTOsBk2Mawun7rCJRKAKVU0EYjScZCRGJ2kPVLt3zgMagnOxnHHBux2BAQPIYMkRyRNpUX ut1ZZttddmzawsrjFmPzZbj5S7Fjx+DFUknGKzuBsdFx5s0b3AvY8Def+7NYMbSsXr2CoSHHy668 FN95Ds1GBLGizxURnv2K//S2kXkLX7VP3UIMU33tQgAJSp5Fz6n3q/h4iKJZX2MQTFwv4qOELYZN E6uUhMhWBq2dBB8/T5ht7WZ6cpJOp8vundu+e/et//o3wB2HbADV1AYld0IBjVHEZtihcYxTDBCw mPgFXawc1hNr0BVrJQK5NLMpFKTafwlENx+qSAN75QSi6ycUuuq97j7S63Xptjt0Zkumd7cxxrFg 8SKdUFdhq93YkXlkI6OsHJ6PbY5is+Ycy1pyzLOZa4SW5SuXAcv3PcGY4+KNPoAdNIA4MXFSdZIi rkmTRTQM7+Nz9fsqGA2YaDQhGhDi+0blS5AKX3m67TZFt0Ov02G2PYOvtNllaGSMhUuWAnxpf3N7 QAbgRo6JpyFA1sDavJ/emZSe5ZqXmzi5scqXiJUaL8wJAYNegfi6HKWAgy4FE8DEFWQaWFMi0omM HRRFxWy7R3t6Gt9tQwiIJRpLQGZ6hPYEuAzjGpgsxzZHccMLMFkTkzVxzXnMdTeD93+WPuGnjWQc EcCmffIjHqnxr4khJnnJQT26RUvQYihnp/FlD1926c3soddpEYJ6hCAGsY58aAwbBPEqwnV5yYGO A8AAJSIBkzcwGERKDM2YqvlI6ULwHUywGOeQwtdhAhMwkuGcUSOxmX5D26QPAmO+X6/2ED1BTPmE 6BECgkUEqkooeyW92Tad2a7m904LUMblKuKoWUfFExIqQm8GKbsYp0KWylhsPoTJhtUoXBNsE2NT 9pMuCrF37WJ/tYG9/t+XHpGsIFSzSNmGUFLNTiAIvtvC+4AvuipZMxYfpO7A1qxLU2YrCtFC0DAQ fBmjyYFXCfdfCyhmsPkIUpWIE03/XA62gU2TLAHr+hW/PjGkK8C4Jri9MoK9FUA1+9uFUESUH2No 3HtIqpLQm8V3S6pilrKnbrCcbZE5wUTvZLB1mddIUKMz+vnGRDo7Cv8Fj1Qp05hFrIpYJBqSuL7C SMRSaxSjLlGrk9WApqE3cMyoe/dF7I2w+O4kBqcuvupGrZ+N/YtWV3VMg/UzY/jzlba4hYD3AsbF 7uYSX8Z2/KoEHGXRPXwGkA0vRqTC2MjZiyBlGyMFIRvCkGHIQFq4bFRdtwTEiz4e5WQEG0mcAYA4 hxGE2m3aIa3omTg51uKrEjECNtffQkwHvaZupiIUumWNGBM9udK6Wo6ONuYyBaxZVmctgkOMw2BB cgwF1g5FL+di8St5q0hZhwoRFakQoI5LMnCLW+mFoK8xYlQbgcGEgMkzNQwRJHjtVYRovDH3sA6L BRswElVAVrWMWCEzGdY1NQQEPX/SOfDtGA+AB8gwQXerUUBsMLahyh4zsIpNQ63aq67euLzPH6TJ FYmxPacPBFPBp6Kf9hVK8Yog1QxaRxCtF6Tf0YDS1mqEilC2ddIB2xxROZpr9NNT68AlD5XXuMCY PD5uB7KZvtfoY5f4fYwbMGYPxqviCWKxqgdBJ1VJKb3msWYBJm6qpZtP60Ihuu/4uQR9XvQ2EqVv 6fTYrKGkVtDzaTQOaFprLC47cLpi/1Rw0UakwrocH3o4n0EjqHu36eW+f2KQmAoOACAAmrqSzCAI jHgAteraGEzA2IAJAXELFAkHD84jtLGFln6NMRhjsS7DmiauOV/fQ6ro7m18jgpXEkawsT6hWCGv q5zGRMOoJ38QvA56qkgNyeDf+ttgEJPFzCfmdUaPVYxS44JgonwOr4hfqkJdPCaWrVH5m7F60eyq VGgUM0MxDjFWq5vGEnyg7HUIvqToHfjVd/ZPBTeGMSi4y+z8eJKcFkdsVoOtEM3T2jzOe+IE8v7H JA8whwrey0vsTRMHzZsJHnwR3WWlnH/oYXwH4ztgg6qXDBgEvMc7i5EGFo+lgTGCiCNIFLRQKagV izENkEwJLJeD2LjijP5d6xOSx0pAKxm5Yg9M9CQJ45uqztlNUEmbMdGgQ4NgA/hKMVVkIgmKMULQ UJd2CpGg29v4uNpDoBa5BK/yd2RulfOQDcDmYxBLpFirX8ZYdUFWAUw98S6unNqFppOWJjoVdhIy J/4vFndCUBlY4gHEQejW8dWgrjOdfGNzbDaMzUawtsTmoyA+ahZQY3VOjyt5H5tHnOIRsZjoaoME LWalukNa/TVxJAPHvXcGMPCcCAwJvp5MqXpx8mIBy5f4sqvAMWh2QhACRotPvooT2sNkI3gxhKhq BoNzmqXoFjwF3nfxVQnGYLMc8ySacfefBczuRCSo8jfLsdkIWu8fIfhKmyeAEDzOJFl1jP9SRQ8Q T5KEyBEkAJhWilUjsPGQYlyl8mCHVEhqDOAV8LgSmw1hXRdrMs1GpCAU7RiaNGabzEUCpgRxiDSw ruqnoyapjSKnIUG5B4wa6hwMkHL7SMoweBswBGsxPu2OEpnB2m5UACs217vGaZiL+MAEwWa5hkMX cLYRuREHZQ8jJjbcWo0sWGxmyHBYFzQAuVxD0OEyADe0kCCCkbJOnRRwzSgTGAqMZNFNDsUTlrj9 RKokJVCacNEJZxBDpJNbxeR2UCXsCaHC1GyiiwCrQKRQA7FgG6Mk5I9zGvPThkvOaarqnKaLNnqG BAiNpVY4WTOQqQyyfdEYTKpsJkMeXHEWjGBtjhA07MRQaIKPghMQ20BczHJi841FCAT1DF49gVQl QYwWs3ygKroEAR9xAq6BZqWqqnIuG8Bmh8EAiukNYBzONQhU0dU7TJbXOb+z2gEUTMxP8RhyPdFA 320O0qt7r6qin0aFQuN86hPwBVK2Cd5TzuyiaE3iWxXSq5BiBqlmY7SJegEEIxINJmYKxqmQRHRC bXT3Jk2siWmehPgcBtz/IPmTahyRpDIBqPS51gE+8hAWQ1zZcedPjS4ekSq6/VgHsAbjTUxfjcrn rZBlUcRalQglBsHmEXz6SjEHGcGCGM00QqgI/sA3ONuvATTGT9ADtJkCrKQISivLpvQpq4tBxiRX n8QhVVwk0R3afMAYoscwTWrdgBnWPNmGGimbbCEikGdLCXmHKpvGhd247iS26TB0a+Rfx/qU/rks Hn9qGUtYYMBbKbTue7knaBfSKk9/JwMZoH6NjSA3CV37mCBIpbjD95TTr12/At36volim3huVQTr wDVxJsOJ4oSqKohRhiDo4yEgxhCexGUE9t8XICUEF0mJDIdV4sWCTTtXJp4boyvJJjfpB1ZRUvim jxxkAlNYSB4ghYESqp6Wg32lbrHsqFSrmCEUe5ByGilbGBddP6a/4iIXb0w0ABtTPeP6kz3ITqaY n+7XI638QUMY+Bf0+QmfVvbApIeYxYREIvm6v0GJoEjgJO8jAmIJA/swgUNMpYJYBOsaSJTJS6UY pz6OwwkCieVJ8Z3YpaPx1ebDBMmU2TKo+hdL6uqpizvGar0gxt1oSQO3QZSdXg+13L3mFiJYs0SQ aGMMz5VqNtUAQI+0X1D2MBirXkkcxvqI/B2WTEFqYCAEpOxk8BjTSIaQjrc+QfS9SEUQH8mZwYpf NIxkcF71ExKNRkTPQwhl3MYuLSL9XAkVqVVMxETK2NTcRvCR+t5vjWLuOAC0oNZpsmEVf9SCzfiF fS/G/RJjhjEmqERMvFqzyXQ109WTZ6KcvCaDItALEcyJloEVA2hNAKx6gVrRG9NA04geJ+uHFkN0 n32qV1GXoFfksLU3IBltInUs9NnNvYDfIBNYS9Xi8dSStxQmNfU1WExIk2sRCqKitSaMkkeSsuhz HojSzKJkmxEwWaZdSgIExSraMVXW+zQn0UuvPXX4DMDaJqFm95RFCzXoSby+gG1io2QhVB3FDUFp S0ymLkqMrrha82fQza7DAHJV/YAJEjGAhgWpFBlbEzANtKHYVhFoWgglvrMz4gDRVnXXUEDlIudv I7ljDBZXG4vOGsyN9/vqA4iAj2pgVYf+bSCTSU0rigEArHqqoOksNsd4j5hcMwTb0DRQrG5gGfSK LBIETJS0m1hgE23UsVkejStiq+jF8uowhoCqs0O5f2MgH8JXpl40mnO6yPtrdcq4pmKDGigmkJeM JagRDK6gKJKoT2iag1BGLFBRF1h8qYyg72nMTd4ILbSkuUygbw5tI2gGk6jepFQenPv6uPa+DT6e 2uIi1WuT6CPE+w5DFTMbAzb2GwgIFSJF3e0cQgwBQdO8EOlfcBEvaAFIN7B0WGcQQzSMxP8nI45h wB3GNDBUFUhH39R3VfWDV4WwhMixZ5qK2QyRimCGQDJcPqSTbQbkX4nY2JsIMqW60gB9djCRLqlI VBGqloLAKt58J6Zj0nf/Lq+zFp3bgBEh7UOgaVjAohtdG+MGyJUMIxb1TPE4XaKzB7xDbXgp9icr SpDWYkyGGOUC0vfQuYp9EpgoXM0QqxVNkwpGMRU11mLzLMoJdB8GiQ2zviyoqrImhwRL8J7e7IF3 i+2fCMqHEBlo/jAOkw9jXEbwHXVxvqfESxSKSjmNsZZgF2BJ7JoD8pirD67LxPtHl2tddJOxSGTi b0qwGdaNYDKDyQImKzFZAbaDhC5SdbU1Pb6vifUKrVkkgxN0U4rE25sYh03UM+T90Jb0jXWWEg2g 1v2VCjR9pZlR8OAj+xdUI6CTGSt6wUf6VzuaTSwDK77R+C1Vha8Kgtg6A/CxMITN8GWpBSGvGZbL NHT4oMbiGiNPJgk4ABBoovY/y+q8GuMgGyVrLlBgWAtAMrADwpAsZQFJFp4PZAGD6uAy3k+ufq+V JhXBdxAfCKFCQg+pOoRyGqnaSNWJmG44chHxfYOCVENAsqRi0phq3ZBOaOQpVNcwWKhKqzoN2et+ LAwZDQfG+BgOojQrKn8kcQoDGj8Ncz5qGSJYTiHQWEzWxIpetNJ6T6BfVzAug0oJL6m8yuCDICbT JMNU+OowCkJ8Z0JTsHwYMZ5gHG5oHvQKQj4a3a3Vootk2JiyIU7FEnVfQRRVGDQtnBMCqn7+Xyto u9qZKzb2BCaCJoUE6a9qDfoq6aorjvSNzQwQOoKSJUHbx1PGUFO7iV2RSMrMSfsGawHp/aI4JFS6 b4G4/vPq19k+Xojpaah6+mdUBOsFLDzio/wrCJWvCEWPyocoeskIREW2D+oN0s7nIvjKY7MmT2Yz iwPoDTwOCaUWg2pRRaa9gRKrd8T8XAwh9DA4DLnqCMwQc2XhadWnFEz0JNeEmo+p1Iiu3OCxiQQh w0qGcQGTx1tWYtwsyCxUPQISpd8eyDF50h3EkGP6DJ9qVhOYS984ZirJ09VGkAzBD4C+qGPIvFbg bAKxAWO9Nq2aRPpU6i0yNQhrsuihKkLVRUOT7r0kseRtRDAuw1mrF44SJX2U8hUNAY1hBY9FoZ4a g8sO/Coy+xeEhF5cOFEJlM5U4vljQyjGYl3UCNTUsOufzDkhIAGqhAX6NQDQmrZUbaSc0fJvVRK8 x3f3qP6tcJQzbar2FKFXEIppbBZJEWNjGIgrO1OiSMOT8gASWUJbC1cSso/GIgOZSzKK2kIGxCEJ fNe0QXw/UeCJsYr6fRm1goWC6hAZTa/1fcqu0sWxqONDQGVqUbWEi2WGCodK2CwQxAAZxmoo8r7S OQqHURCiZdWGxqUsFngG4z7o/bw5AJ72olfnMGq2ft853sCkwpABehjbQNwYhgaYCkMP1zCIKTBl B5eNYrNSvzxgTKZ6gFj4ia3BcRJi8ScCP5vUTHWqmiYf6nJwalKdQwEPAFZJ1G5M/0Tm/h18XwOA RC/YVCwVPNY21SsEj7ghddsBCKLCECw+qGaBIARfaRqYWUKAqtehKguMG0KvhNqpO516nfbhMwDX HCeE2Ls3J04S897o2n1/92rj1FXrqo+rq6aHG/379cdHrR/Qj5kZNssQ09STZCqwYxjbxVYdTHda MwAXVLRCrxaFmghAVQ/oMGQE8VjRYo024SSwmQ0Az4HTUfc0DN4GjrGu8AUwUcBSdz6rsamaGM3r jWBMQKwaiIhHbBSIZCORJzDY4CPdC/iA96lpJi6ouC+Dy4fA5gQsNgi5cTHQRcLpcBmAlhaTrxug Q+s4GVe9c7qNS3LBqRHUmIGPSTF1kFwZcKeDPLZoPA3BY5O4RDz4XhRdlhF0RVbO6G5kUiP4mHYR dJs66wi2qtXASAxHg6AR9LhsAm0p/UteId2HfgiLo+bt9ToJRqLuz0RxaCwEzan++dj1U7+liW+R OoeIFcEcY2WgD0CzC1evQ9GLc6UO51qEs/+xfwyQUorQxftsAAy2qevfFo2zmWIAlw8rGq71/wMr oxZ1DBYtVJ83RyNoMjBB3XUQ+jX3fmm3RuEiCAHfnVQsYpWSNi7DOoc4168NmGZU6eiKFwRr8r2O x+zjb6hDQDLGSAcrDxBr/FWBVF2VdRUtPX+icVvRfojFn6AZTqzeaXeyUaGIgDGN+KlW09Mor1ey KimFfZ1FGGvAa6jw1eHEAMFH9WyK0+mcmAi0miQFjnXDcdL1wGsUbW0dc2sKdk4aGGOuzeNER/JI CnWv1sdwUGElClJyweYlJvPgZvUdGvNq2be2KCaNQtxkKhlCVAKZvVd6TfDElDNY+p1FMvC9kpws 0ywAH3mACqSJtcNICBg3FoUfMcLEptCUNiKi2UNs6arZPgERp32CPj4/vlblkFaBpNf9gvVyfUl6 LlTFgV/u+ACyAKUekyZQmbqgYKbmoPWEhVBhbdpJ3PfPWdCWcrCRVk2AyvafS1zlgxU3Y4EiToy6 0OAVTWt5Ou0sGmnkJIdKYtAI8mQOWaVGqexfNJD0ecnNJyOwDByPGfhtBl4TdIUmj0Bq7NTvpO10 eoy6o1nUN4Sgi0qSgelvBY2xJ6BuKI2fbDIta6MZjs0tJtP83zhd/VXRwx5OSZgdmh9PlMNm8aKG Nu4KYl0UW5h4ci0iFQbdtsXYBJzSlzAxdyZOdgoRiQqOmYAEdfv1rmPopMa/04aUg63egC4hXyJ0 YmuArnbjckKm29ho09AAMWQGvICJIDWVixkMYQOvSUZRs3upqSUB5b7R1JgkTbLVSddKZ6WrPzaQ qMQ7xvnkkIxyAL4q68dU+ZP1+wIwsTLfqRtJD3Ts3wP0ZhCpcI1Rgt+r7y9raDuYaDND3X2TikQM VAPTSbTJ/Q9qAlL5NcXXVHZNJ9nHNMhijY0xV7V1qiGIExGZPUwUg6bVLT6WGgStEAbENGMZP3qh lPvX8d3tdXzJUNOOZhF8Cpru+dT/H4+5/u7JsFQqZ2wT4uSL94jVzSyD6WIqr6XsEDA+gHXRExRR JOrj3sGGIEU0FIMxOT79L+kdDpsB+AKTDyniJtN0hrhKMKqndw3dJzixZy4Dl1ylRfcVSpO/96ra y7WauPoCcUJ99I6FMmB+FkIXqVpI2UZ8j1B1sFmqvpnaELXvL0ROwM6ZEBP798V3MdYgWJzJ9fPF gMQSuKRQJP3jjviiv7KbigHSDiY+bo1nUT4jNnqQNsM08T1NZBON16qg9fUWuILK4sT3gHisEkOg V/FH2vxKKQTdmg/sk9pGfv8hYHi+9rclEGUii5c2TpQOgQIqo8Uf0c2kyYZx2ZD2EIaBk2cHV1Zi 1ZILNfS9wcAhGsHmDjEl1jQx1TB2uIEdamCHc+yQYGRWeYB688pcY7+RupKmCuE8xlWjBaBaJ2j6 md4c1D9gyLXrJyK2SELNMWIhlS1MFISauMmDkbQXYWwYjfLvlB3oW8ZOIuIOIukosoauKdsEk2ll JSqBJEisEWQYY+n1DmMI0OpeU3fXsESWLdYCBlrDtGuowNhhki5ej36wNhkLQ3MUt2kkV5vy6YQL omv3XV1FPt3vIb6LlLN6X0p8MavMoNUNIazLVITkomiFHLFG3SsOJEdMA6zVVLDe1dT2UX5dCxjM gKDGNQkDDGwLo0uyUI5/oPEjofxU1Krz9lg6DvVFrNRTJQWQjVxFMIJNbeL6ykifWKTsUflZMAZf HkYP4NvbASGkVA7BOodtjmJcA0IVV3xDt5C3mbozM+h2dfVhGwOPDTKEsd5fV9jSbz25IfbcS9At YtIJrRE7qUk0R2KVMKmRrNOQIlGQaUIZY6tRzrwqwDUINkYtF40xqXPnAL/knZILhzm9AylcRaxh 6uYQ9WIpBEjCLQMVSv0Ork4KjCioTjsdWAkIunF2qMookROtCgaPrwJV0UFE6B5OKjgfX6lfzyVZ daQ1a0IobqWe2q4j+Gq32npQVWBmWq8u3ut06XZ7pC3ZOq0W3fYsPqiwMZVHBYMPCnp6nXbc5TP0 S6BVRVWUlLMdQhWoegXLls8HmyvnX+f7GgpM1lQeoN68ImYHkZdQA25SF7aSse8NYPsxgjpMSfqh hiviCak9PP6tkq+yLwqJRiBVVW9pJ8ErondNxPtaFKKG1he5KI2tmZAzFjEeG5x6iCgwaQwNeKtD NQDfmVQX2RjR3vlY2HA2Z7bVpigril5FZ7ZDWfSYmZ6hqirK3qzmp1Z3wyi7sxiXqVjCGKx19Y4X RdEBm0egI+T5ML3uDLOtPdpzmA3pBSl7XWbbU4RKCJWn6HRV2u09RS8jFC0Ff6KaeRNyHCM6PflQ PVEGZd4MRrMZ0kZXUO91WAtXU+VyIKWtXb5mLSJJ368ZAcQG0URTp8ym3kQqYgebKbapemCqeCwo LrE5RiSmfr7mWsSXBD9ACpmsxhA27oUU5PBhgLIow6P5UOOkzmyPbtGl263odQs6s7NICHq18N4s VVHgfYXNG7i8iTWObndaJ67s4n2gNzNF5Stc3qTodul1ZqjKApfUrVabOnq9DtbltKcmyRrDFL1Z GsPjGJQ69aVKrRqNEcpuV08+DtucB4gSIS6RP7HxM5FREvvzATFadrU2qNDF5P3Jn4P+ExCM9/v1 37hCc63/B1H9n9WLVYlxMTMBZf1ihbBK116I/QMmU9gRRCnjpIwWoKw008FGDUAMDdb01cbGYayQ rtTqDqMg5J7P/eVf/RpP7eXS9jkC0HQOfMFwlun28IJxAWc8I6Ey86tqerF4lhjDsmaen2msPROg v/mDqzMCBfLxb5NCQFa7fZP2MkjPSeGsFpOkW+IcBpXKKlANoYSq0t0+ytmIfx1pGxhDFsFgrAmE oPX7TLejMTFbsnmGiQjfNNTbhUgU+aqqsXQQwXg16FCpQFRCoCwOUy0gXiVz08evPn3xk5/Cp2yk nCxDDTO3GUsWHDPvDWDPTNcs0jbrgd3N04ZVNot7BiVyJtUIBmoXiauoBaEJCxAfj1oBM8DwpZVb X0k9gluJzaIi1OKQ+voJEKquMqfi8WUBRjeKSs0eWtSMVzszsSta+iRTuoaSbTTJs4Y+xx7OPYKA 3/z8/RP7f9bRGx+/+vTdowvmbTfZcEJI0VXqKq7Ze2N0UQdPkAoTLOKs4ojEUqa6u2R6G5StpWrg YFgwNq7iTLeyNZXKu20ZVcEy4AGMtoQnQkiSliBgvO7AJqniJ2Cs8sKqXFaewGbKq4SQrtlgaxyT PEM/M9n/OHDO8N/7qNH4oLuOY3BlR7WSqWXgqWyN/l+07LrP96k/aO8Yq8AybtGgBShjI27rg866 hF31Is4g9iTEfoG6ChlBZ60s1usX6g5hujOI956q143XQ4wEomi4KA9nNfD/L0PJlF4N+IJkmFi7 kLr0K+CjdtFpBLGmQb8OoEBU3zDl/XsbgqNftRysFNroZQaMI4JFnceUCaBGVxURyXcJ5Sz4QIjN Hb4qkSgLl8j315oBXyiGMRbXGMZiTcyLAwAAB8VJREFUNXSEgAmCy2zsLDqw8R/GAIi6+rojqN6i hZpfMPHECGBNnLDUkj1YL0ggcA5lPaCGqsOFilaw2iTSbwp1qgb2Df1tfV3/V3df6XVQYmHHNsbV IAQQ7Vv0PtLtkUmVuvso/h0q0l4CxuUYKZX2hsNbDDrC48CD18DolsGE4I3EjZSsaLkUsdpq5bJI YPWvB6iqm9Q+lljHJAihn/rXIHCAuauPNhlNTBljjm9Il6FNaacGBxWEpB6IVE/R3UzEZlGPqkUt a4n7C/YbRA1aGiYC2SCqIrYEJDOI94SiG3cMPbBxsAZwoBN1MBP6pF8z26ssNjemMdJP8eKOJSam gYM7m5gkVpWgoKu+LlGoJ7Fmfmtvmu4M9CrWhiP9xxJdEB83xqBav1QDSeDPxEJZiPYVcQBG9Qpe CLFUbINgXHTtVawhROGACl5iN1Is2pnDHALMT7m/r7/39/ih/O+njj3tyvmqNFQF2BLdrEr33tW2 9AqyZmzETCtKGzHqtK4meNJjg1qGFArS/5N2YdBr9O8HiVcch5rdVMl4Wbt1tZM4gSH9ndjE2GuY Ns7G1mHNSNoLSAFfVSgRljaTlBAIh0kTuFeh/gmPDf7e+/6+/v5pj/2sx/d3bABMzZZZVZZOfKHl Xt9FSFcyRcu1sZ5uBi5pW2sGB0mfOc2hgxggrapBWjj2H0Qmsu4pSNW/0Is7funVTfDaEkZVqNRe 67x1mqgkT1N5gLg3IDi8oMAQbcGXEOIO4hJrCJpNKAei+wVJ2nJkP+OnGcDeedC+8qIDNYYDNYSD fb2ZbJfNUmxm8nh9v7poFSdKRAsugDJ4Tm9Bdw41rqmVTUxMxWxczalEHSd4Dg9Qo0sSH6A7hFgt lRuv1U/nMd5jsmiAXtlCWzeHVlET4MFWKuwQo8dGlImX2lWc0tx0zSRf+bhVjCaiEkvPZXeWuAXx 4HnaJz+8LwPY++QnH3ighvCz7u/r78HHn4zXqd9nplMNFd5kZMMYY+JWdoakZcSlfYD7bWPK2qlb 1zcajP8uEkEktMhAcI+fGn/X8T8ZRtCNo6ObV0efWsZ9//2M04tCRHEqwSsswOJFiSFndf8CrME0 RrX8m7qEQsB6BYm+KvBVqOO/zTJTliG5LwYOfK+D338IGLwNGsGBTtLe93/aYz/rs/bridqFH+51 2o3Q3RNBUSR30tap+VDsA5TYI5Br51AqFM3BAP9fe1ew3LYNRB9ASrJpeeREdSa3ZvoL/c5+Vw+9 9tI0GR96sJ1p3Fg2RRIEsD3sgoJgiqKUNvYhO6MhSEIixF1gF8Db3Y162N4ODq9KcIFb2AXfqRiO /MXwsODuRRJenn0fgx1iASf5AgT+HZJCOO9AzsM62fMnDWjB/VnDtk02lceLsZllUM7ytrn3at26 CTjKRWC8T44EFvNBIvRLz65eHO7FdeLVEgxcAzajTYQi2S8QTetPW8on2Wwh2ASZ9mne7u30fhgB okzn8R5AvTaoqxXjGe4fYS0DPAgKD3d3sKaF68LYbGL4eM/JGlojDiHC0IDT52DOLZQM6WfzM5yc TARESjg9meD8fA4iwsXFAnk+gwd7RXswcpjT43GKPE8ahKpzIQcpeGg464ItocvazQCEPfAIdbuV rLFXAGImAltznsHeP1QeOk97fdztYgtM99RTAOA8Ta1lIxCZJLDoEDu5CIBGVXNI9sfVHTx5rP65 BxHh7vaWY/FJ3ADXGl5B9JBwglrm45yEkvW94ApVhqYuYeo1nOdA1dYyPt80FTirKec01PmEe7n4 BUBpTE8LaJ2jbWpZxGGZz7TCq1cLOGfx5s0S3jlcXi6hyGG5XEooJcu+KDpjIXFGUEVKrRs3A1BE DLdg2JVC5ICxawSgpJwy/2sY31c/ZnACInxy/4lN4j2y1eqxCc11toWxLaqqRV0ZNI1BVa4Zm2Aa xth3AIpcDKdSoNUtbNPAmhpOfBtsa2Camtfiu8UfMHO9g7MWTVV2gqInU2E8gzc4R0EOU5c8xAuu L9gH01nB6kocbT0RGtPi5uZvONfi+voTlFLw9J4DRgFYLC4wn59h+cMSRVFgPj/H4uItAIXmy33t PBVgFRB6fejUYXXDA8M2QCoEhzJ27PWYqX31Y0hOBMvZjAJ/3pSff/3t9z+01r9MpienTeN4RZ4I RKS8rKP7EHHUexWyhHNP9xx6lfUnQ7IkAZNSquvBFBZ2oKAktY+XlUNnW3YGJQ7jEnKsBAcZTj0b sABstxMR8gdDWX6/ESy+IdFBxasIisIiUZgYPDysIQYIERG8c1QUBX58946uPn746/11ebXjnY9i zNfWP+R3gxDEHiNhrz/YATt7f/z5+afF5ev5ZA5wpJjQDkHfdm2itH20de+ghicXRn1dhcfINEFF TY12ckOjSTyg+FyixLEsKArnSoGUUrRuXPXxtvx89amqsIVi7VSABDrkkeFQATiW9j0nFoI+/d+n +wdnBjvKSK4f2s59NFZ+0nrp9KxPBe8q931Si3+XEei/lQCMoXQaqJPzlKH7mJ5eQ0/5pfz/QwQg PR4rFIRu9Hk5NMTAMTOQfT19yI55jneRMnps+Zhj70LQSxOAmMYM0ccaps/N+Jh2qYNDro35Tq96 eu4//1/T/2XUfgs6xP48pv53+k5P6V/aA29wwC5p2gAAAABJRU5ErkJggg== "
       preserveAspectRatio="none"
       height="4"
       width="4" />
    <image
       y="12"
       x="12"
       id="image10-7"
       xlink:href="data:image/png;base64,iVBORw0KGgoAAAANSUhEUgAAADAAAAAwCAYAAABXAvmHAAAAAXNSR0IArs4c6QAAAAZiS0dEAP8A /wD/oL2nkwAAAAlwSFlzAAALEwAACxMBAJqcGAAAAAd0SU1FB9oBDBQnG0NIc8QAAAr1SURBVGje 7VlZbBvHGf5mdkktL5ESKUqyJcuXLMdOc7WAA7sPQVGgBdoGiZMmLewieanTPjSPfanQtwJFEfSh TQs4fQkKFA2a5nIT9EodW4kdx4ps2ToZ2bJOSrR4ieRyyd2d+fugpbJhGNeWAhsoMsCPJXfJne/7 75kBvhhfjE0NdhvfzxvcI+cqG9y7YwSY68pdV8X1GS7gBEC4PksXCbrdBGoAOQD+5BNP3BcKhR5X VfUbjLFdjDGf8xsiIkNKOW2a5tvZbPaVN06cGAFgOyJdQreDQO09CgDl6aeeOqxp2s/9fn9ve3s7 xeNxHgwGGeecgdZ+LaUkXdcplUrJVCrFdF2/UigUfvnnl156A4DpEBGOfKY12Oep9ccOH94ei8Ve aG1pPdS7p5fH43Glvb1ThlsidnNzWDSHAmhqahLValXRdV1ZXS3wfC6npJaXWTqTlonJhExn0ucm E4lnBwYGpgFYjnymNdjnBF45euTIQ6FQ6E979+6N9PbuUbp6euytXV3VcChEkogkQUpJ6wgYwDgD FM54WdfVxcVF79zMjHJ1+qo9Ojq6mkwmf/jGiRMDACoOCdGIhLJJ8AyAevTIkYdaW1tfPvDgg6H7 7r2f77prX6mre1tVUTyiakvbEiSEJLlGZE2EJCmIpCVgQ/HYrdGoGYvGEAwEPMFgUCuVSt+OtbWN TE1NLTigG7rQZgmoDz/88M5YLPbWgQMHQvvvvoe69+xfCQSDVLWkbUkppSQSkiAkkZCgtWuNxMff TUGCe5ustrZ20+tRtCav17Oaz3+dMfavZDK5WhfY60PdBHgFgNrZ0XG8b+/eSG9vH2vr2ZPkXPGU q8KUkgAQI2rksuuORHUPbc4Z79y+O1OtVGKZbDZsWdZzg4OD36+LA1F7ibIJv1d/cPToY/F4/CcP 3P+A2rlrb9qrBWzDksKyhbQlkS1J2lJKW5J0tC1tKcXa/U+LkCDTJmlJ2D6fBjIrvpV0ujMabZ1J JBJXGsXBRi3AAaiBQKB/d28vj2/pqkKLrOpVwYWQBIARgTV2W3YzRZdUNZRt69zatGPHdk82m3kW wD+cYLZdqXVDBBgAfvjRR+/1+/272+PtCo/E50xLCtMWNhGxW+wG6qA7M1gSSqhtJd4W79I0bfuh gwfvPnP27CCAqqvYkbpR9wmHw9+Nx+NojcZsXfrzqFiKbUu48+SGCTjDo/rtQKS1GgwGlZ6enm+d OXv2skNgPa1u1AKK1+v9ejwe515/qJSu2JYUUhBovdJuehDALAHV41+NRqOtKysrXwXgBeBx9VUb ciEOQOWc7wwGg0x6A3nTkmTbwv4ES7ZxFmuZa80UmhIoRCKRDlVVtzkEVEf4RgjUukqFMeZTFIXp 0HJCSBLCSZhsLT2yTVqhlgRsNVDy+XxgjGku8MpGCbhrAAMBOpQyiFjN+xkYMcZAm4pkMAIIBCZU zfR6vOuFc7ME3D0+gYFp0g7YTC17OOdgAGO14sQ2k4qYMwVTbMNbscyaTynudn1TlZiIDCGEzyfK 4YoaNjgYlwQCY8Q23SauZWIG4lQpBQzDABFVXP3XplsJEkLM6Lq+1yvKrYFAS5YzxqWAZAwA24z2 17MQUzi4saqHM9msaVlWw6ZO3UCWlgDIMIzT6XS6z66U/MEW1atwpliSpGN/wiajmIiYyhk3qno4 l82iUCicd7US602durEMDTE3N/dWe3v7sWwmo+xqr8SafCHTJghTSJs4iD5u/W+ZC0mCqipKtZj3 FnOZJl3X5UdTU++4lpxiowRqzMXpgYGxvr6+a+l0eufW/HI0qPmMZq3JNombNpEtAClBkm7UDhGo PlsxgCmMcQ9n6nxmObKwsCAMw1gYHh6+8nkQqJEQAOylpaXnr1y58lw8Hlf9/og/4t9iagweQRAC kASSBCJioBoRxtYihJjzkEHKtadEAFPBuFdhnnw640kl57T5+XlxdXr6j077YNYt/DfsQhKA+Nub b/67ra3twvT09JcjzS1KR7zTqzCymzhXiTHpZCUnJBusChgjYrTubpyBcTBu2wLJ+Wu+ickJkclm Rk6ePPmeA74m6+sB9RZrgFv4dx55/Mkdu/b3joyOFAL+QLOqeJSurbtY0K9Jn9cria2vZ6juPeRO +cRA3HmvJaSc+mjMMzJ2Sc7MzpROnTr1Wwd0tb6RuxUC64v3bDb7vdnF4oG/vPJW1KuUv3b40W+2 hFuexvO/O46qadqFQkHt7NiGndt32KoCroAxAsGprDXorKYG7phISKLsao6mr001XRodFqPjo9UL Fy48NzM7uwjAcMS93XLTFlhfPl5fyTzDVX//YiodC7b04itfiqFvz05cmZ4F4wpOnxtT87mc1dub Vw2jyLu6ttstzc0KZ2CcMcb4J4tQbYFf1EuYX5zj1+au8omJCTEzN6MPDQ39+sOhoWEAOoCSQ8C9 Friprn0d/HIq9YymNfe/f3ExdnF0CR3xENqjzbAqKxi9dBpn3z+PqimXt7T50+1t7X3d3d2su7tb aW/rkNGWGEUiEQoHmuH1ephlWSjqJZYv5JHNZ9lSKskWFhbEzOwMraRXJk6+887x+fn5WQCrLqmR sG7WAuvgl5ZSx/z+cP+5iwuxi2NL2BIPIhjw4u8DVzExOQMyliS3aOk//3z1FwDEoYMH9+dWc49c m7m2NRKJyFg0xpvDzYqmaYxzDiklqpUqFQoFmU6nZS6fY8VSMZlIJF5978yZs47WC44UAZRd2hfu GGI3Af5H/mC4//xwMjo8voS2aAChgBcD5+ZxbjiJ65kyZHm2OHvhVz91mdkCIPfv29fT19d3qKWl 5QGPx7OFc95UC2IpZdU0zeVMJnMpkUicm0wkrjmbWDWXKTngdZfm7fp2Qr0R+MXk8rFAKNz/4chS dDSRwpZYCIGgB6fOz+H85SUYFQkhbFxfKdUmKToTVwDIsfHxzNj4+CgAzbWacs9Zy+mmK1DLjugu zbvd5oa90Dr4ZDL142BzuH9odLl1bHIFW+JBaJoHA4PzGLq8DMMQKBsmysUUbGNu1Jms5q+GA4w7 wL0Ampyr4kqlwgFXS5EV578V53t91vlUXVcbLdjT6fQxzRf62cXRVOv4Rxl0xIPwaQpOn5/D0OUl lMsCRsXEam4exurkoJ1+80VH+3nHb8sOMO7M4dY+d7mucABariJl3crudL0FeC6XO+bzBftHJjPR 8SsZdMQC8GkK3h2cxcWRJZQNCV23kMvOo5wbH9QXXv99XcAVXRaobZ65V1LMZQFykbBdn0WDww78 LwIMgPL26cstUzP5Zp+/Fffc3QOramJgcA4Xx5ZRNgR0Yw28npkY1BdfP94g1dX8VjQ69GhwQlN/ mHFLJzRKvfu8/NKLw4OT/C6zau3evaOLJ64V5AfD86xYslEsmUhfn0MxPTZYTr72ggM657jOqgO+ 4t54cjV/0qVpu4HW5Y12oW+GQC2Am6r5kXeX8sG+yanrPdkCU6u2l1YLBru+PIPCyvj5cvK1P7jA 1wi4010j05OLkNwo4Bttr3N30FnFyQ+U0L69qVR2m4TCc5nryKdGP6jTfNYBX6oDf9uG0mDfp7b3 oxavD73PtF13lfRiZ7kwP1Ra+OtvXNmmpvmiq9ESn4dWN3rMWnMhDwAfgCCAsCM+577t+HnRlXXu GPhGaVQ4RKqubGE7lVRxnldcVfKOgq8nUNuWtesIma4NVekqONU7Df6zmjl3RlLqtvJq2cNyVck7 Bv7/YvwXQ+NCaGqHkmQAAAAASUVORK5CYII= "
       preserveAspectRatio="none"
       height="4"
       width="4" />
  </g>
</svg>
