<?xml version="1.0" encoding="UTF-8" standalone="no"?>
<svg
   xmlns:dc="http://purl.org/dc/elements/1.1/"
   xmlns:cc="http://creativecommons.org/ns#"
   xmlns:rdf="http://www.w3.org/1999/02/22-rdf-syntax-ns#"
   xmlns:svg="http://www.w3.org/2000/svg"
   xmlns="http://www.w3.org/2000/svg"
   xmlns:xlink="http://www.w3.org/1999/xlink"
   xmlns:sodipodi="http://sodipodi.sourceforge.net/DTD/sodipodi-0.dtd"
   xmlns:inkscape="http://www.inkscape.org/namespaces/inkscape"
   viewBox="0 0 22.000001 22.000001"
   height="22"
   width="22"
   id="svg2"
   version="1.1"
   sodipodi:docname="document-share.svg"
   inkscape:version="0.92.2 (5c3e80d, 2017-08-06)">
  <sodipodi:namedview
     pagecolor="#ffffff"
     bordercolor="#666666"
     borderopacity="1"
     objecttolerance="10"
     gridtolerance="10"
     guidetolerance="10"
     inkscape:pageopacity="0"
     inkscape:pageshadow="2"
     inkscape:window-width="640"
     inkscape:window-height="480"
     id="namedview6"
     showgrid="false"
     inkscape:current-layer="svg2" />
  <metadata
     id="metadata8">
    <rdf:RDF>
      <cc:Work
         rdf:about="">
        <dc:format>image/svg+xml</dc:format>
        <dc:type
           rdf:resource="http://purl.org/dc/dcmitype/StillImage" />
        <dc:title></dc:title>
      </cc:Work>
    </rdf:RDF>
  </metadata>
  <defs
     id="defs6" />
  <image
     y="0"
     x="0"
     id="image10"
     xlink:href="data:image/png;base64,iVBORw0KGgoAAAANSUhEUgAAAIAAAACACAYAAADDPmHLAAAAAXNSR0IArs4c6QAAAAZiS0dEAP8A /wD/oL2nkwAAAAlwSFlzAAAN1wAADdcBQiibeAAAAAd0SU1FB+EDHgwbAqiIaykAACAASURBVHja 5L3LjyVJlt73O2bm7vcZj4yIzMhHvftVze6eHpJDSgQpStxIhAAJECBpJ0CAoL2WWmintXZcC9A/ IEgCCEEbgaJEDCnOUJzmTHdXddc7nxGREXHf7m5mRwsz93sjK6u6qrKqB6ICdRGZUZH3uvsxO+c7 3/nOMeFfjy/5Fn5fv8Hn6v/fHtz/l67927w3/dd1IchfglH0FT5Xvsb/k9/xb+QrGFC/4P/rd7AY dOf5vMrv/KUtAHmFn33T65QvNPitv1Gd7v3kEDM+Nqa8dzCdvlNV1fesKe6LlSMxZkzUwgcNMcY1 wlXr28fLxeq36/X6N6r+0xgWZ+fXf/6c+R8vXzCCfo3F8214Gv2uPI9828a/9e7fHxk3GBJavfjN /3GtzexVdv9XNXx6Tf9oeLL3s/uTvTt/fVBWPzm9e/hXHrx264cH++P9/YNhMRoNbFEYi2AlfdG0 gaioj8TZ9SY8fTYL5+dzf3W1Xq6Wyw9n18s/26zWv94sLv7vq9VfvM/yvTVc+Jcshm/DSJ/b4cc/ +Q9voSp+M7+++u3/Xn/bYUe+xX8vg8PXZXP5iZz+/D/98ezhL36z/+Zf+58E89dUo37dq1X9al5W I0g0xunQ7o0Oy3u379g3Xju1r90/ljun++ztDxCg3rS0baBtAstVTVN7xBgQiAjrOrCuA0GVpvbU jadtI6vlmqvLhT47O4vz2VXYxHmrdt2KjVHsV3uUIvINH6qcPf7n/8NPp/d+XgyO3/lhaNefPP/l P7x8SXj6xmFBvgXj9ztwfPvd4uDNv/Ffiy3+GxHpr0pRJH61T/tKhs/fYlBsGHM8vc2b9+7w9tt3 +cM/fIPjkwmb2vPk8RXnZ3PW65bWBwaDgrYNzOc1m9ozGhbEqFxeb1gsakJMb2wEjBWMMRhnGe8N UbE8P7vm2ZMLzi8uWPsrKNaYIiBidu7t21sIqppfgRj8/+br2X95/q/+l4c7nkdf1Ru4V931u69y ejS0rjg0tgAjiAqKgirYr2v8nY8Rzd803WkUJJQc7R3z/dde443Xjjk5mTCZDhkOCy7O51xfr7m4 WLBYNjRtwAelbgKrdUvdBFSVCMzmNfXGo+T3RvERjCrGRLRpCd4zPZzw4M0T7j64xfmz2zz8+Jyz i2c0zQwZtIiJycDy5ZHu6ywC1YjGSIwCqk6geMkb736YftcL4IuMbwBjjK2MKybWVRAaIIAYRGR7 4/khCZKeVecplJ0HKPmDBEH7h6oK4h3SDHnz9VN+8oMH3Lu/n7yBQtN4zs7nzGZrlsuGTd3StIHW K60PNE3Ah0jdJC9QlhZVRayAyvYpqpIvDYzi28jV+Zy28UwPxtx97ZjD4z2ePb7Fpx+fMZudw2BD OY4YK0AENaQlJskqeXGrxmwygW5BE9Go/T2SN42iqAEjgo+yxtdC2kqaHu7nYuLXDgXuW8AAJr+s deXI2eLIuoKgQVURg5D+2xo3uVnpHwJ5gXQLolvT0q9tRaJQMGB/cMQPfnSPH/3wDqNRSVE5hqOK orQMxxVF4fjgwzMuLtdsmkjTRHyIeB9pfGRTex49nXN5tWZ/f8CtgyFV5QAhhmyczhOZvLJUMdZg naWpPSEq1aDg3mu32Duc8OiTKY8/e0JzPcNNWlyZ7tlgswdk515N72mk8xa66znS76sBif3PvFjj jLOTbLPO+OFVQaF7hd1vdr5boDDG7BlrT421qBdR3e729J9JzyF7g/RcTO8FkgfYrmMx+ZlFYWz3 +f6D1/jeW6ecnqZdPxiV3Lt/yN7+MNkJYbGsub7edOger0pQaEKkjcrF9YbrVcvpa0f4NtBguH1y wHhUMrtaMr9aguabM0IUhai40jG9NcUYQ9u0iDFYB9O9AW//8C57ByM+/M1Dri/P0D1PMVDUSBe9 8tPL3k0iqunm+kUgiqogxHz/BpVI8ieqzpjj6MoT4MP8Rj4/wviC8b+WF/imGEBeML4DnLF2bKw5 SoY0iGT33Rk/hwCTr9rsunzpNrtu3x1QbxnLPn/4g+/xztu3GY1KWh9xhcUWFmMNYg0SIYRI6yM+ JqPvHYxw6ybFfR95PluzbCKnD25hjeH4dJ/DWxPKskBRBgeGVRO4PLtmWDkGrsAQURFCUFaLNdPD KYghxogx6bqdFNy+d4vBqOTD9wc8efwY3dtQjkmLoNvoJnk1xSKiaMzbIOMlcrhLC2G7A0yKScfG 2EMSDmDH8L8XDCBf4PrtzgIoVHUsmP3ek/exPz8EpI/zpovxsvO9C/f5E/zKsFfu80c/+QHv/ugU RJJxQ2Rde2aLmr29EdP9EVEjIcJgWPLGWyesa8/RyZThpuX6g3M2baQOSjksqRsPMXL7dI9qUCAi hAiucowPJ3z26Jr5cs3pbUvpTDJeVOZXK6yzKIbNusY5Q1k6XFlgrGH/cMIP/8rriAhPHj9Btaaa xGRgw43Q1kWFiCDdou/jTocDYvaWImLMvgj7eQHoCwtAv6kXcK+w+9mJ/w4oUEaImaDbmN8DO0k+ oANYW+MbMCnGb4O+0q6Vqdnn3/j5u7z7ozvECE0baHzA+4gqFFXBYFwSohLj9ikcHI44PJ5gS4f1 iljLqg2YwjIoC54+TTv8ow/PWK5b3nzrmOjTNVfDklsnU+r5KmGDjAnEJIxw/mxOK4aoiviWYVlw eHuPokwAfTgd8oOfvM5gUPLRRw+BBYO9bA0jOR1WNIdFkyFA+gzTgz+68KiABIPKBNVxXgAhb7yY X/JNvcCrhIBd42cPEAYiUmlaAYhs3X4P/mxC3ruuH807JKP+thHKMOHnP32bn//sPk0bqZuWuvV4 r4QM0ibDgqoq+ruOOd4jwngy4PJyzZNnc+oQWTeR03uHTKdDbOn47JMLmtmGKMLduweMxhUo2DHc PniAX6+JbSD4QN0E6tpzcbliMa9ZrgMHxxMoSq6XNZzPOb5ziLHJgB1AXG8anjyKiFlTTSIGRw79 GBSliwldlpMwgUFQIkrCBCJGQG2MYQCUeQF0L7OzCL7zNPBl6L8HgSAD7RKfDtipIeE8QWO6JTGC Iph882qzG1QleIXlkB+89QY//el9jDWsZjXrjL5DVNoQcc5w584eg0GRY74S4nYnnZzsM90fMZwM eD6vCdYxn29AlT/4yV1Oj4bUm4ajgxFv3Z9w93QfH5RN47m+WjEPLeoMrhjiQ6TdtAwGBfdONV2r NVzPGmYCvvWgEVdUhBCIIRKaljsne2iAp08fYq2nHGtPGgkm8RqaPJ8KmMybmIwDogYQiwUJPhKj ltlmXeg1L+x+vm4YcN8g/r/4/3ZAYHFrG8my2xfJCzwZvg8NKGAwprtKIcZIXJa8dnKHn/30Hgf7 I1Z1y3rT4lX7MOCj8trrRzx4cAtydhW18wIQYnLZReHYOxhSlI7DccHzyyUaI288OODk1og//bPP +OM/e8T7jxa8++5dFOHycsl7v35MvaoZj0rEGjYbT2xalquGpvFYA6OqYG9SsT8dsH8wYv9gyMH+ kKaNnF8sWdaRi4sFhyf7bOqG2eUzbOGxVcRg+hDQYQJRQUVzFJS8w2zaFD0ukP0dj/viApDvKg3U LyCAzM4FWGPL0rjByfaXUiagPajbyfPJRFB+e5Pdt19ZjsfH/PwPXufwcESIkeWqIUTFR00YoI3s Hwx5681bFKXFB03xWLYUgnOGQSU0tefifMMnD684v1wzm204Op6iz1Z8+PEFf/H+OdEHWh+YLxvK yvH0fMHjszkaIs9nNTGmVOxovwKg8YnxE6sszpd88MkVh0cTZq1w96Th9Xv7vPlgn+A9i+WGdRvY Pz5gcb1k9XzG+ESxLm/Pzt1L3KEAMpG0pdLVGCPBGNTaA1MMB7Fd1y88/2+UAn4THkBeAgYtYEwx KE1RnfQsnkkMYId2d0GhZINpF/tQ1INtxrz7s/scHU3wIRKjst54ah8zo5cezMnJlOnekBBfiPtD i7MJoD27WPI//q+/5F/+8imLdYsY4WBvyMXSM7lYMZtvqNvAnVsjDiYlTd1QlImvFmM6foqqdNy+ NSL4wPWiAWOIEcRaptMB032lbQPLjeezp0uCwsG0whjhrbfvsFnVnD9fMT3c4/zpCjf3DA80hUXt MJBJu7+3n9nFSSKSwoJg9opqMqzb9fyFBWB2SKHvnAd4mRcwxpWlKwZ3srFVelaHnvbtfiR5q/aL ICjN3PHa0RFvvH6Iz4ZWoM3sXRsUHyKTacXx8QQxhqiJrBkXlsIaQkxg73rR8BcfPOdf/OoZ81WD AtNhxR/87AFF6fjTf/kp88Wmz6WGwwKCZzlbUdctrrB4SUWh6aRiOhnw+GzBYFRSDSKLZQtWEGsZ jgs2qyaFIRGWa09oPZ98dE7jYX/oqCRyemcPYsvz588oR5FiYLekp5EexiXr7YJCzWDZeOuKA1eN x/XizL5g/F2bfKdZwBd5AWNdVRpb3k7G1nQr+iLZk1Z5WtzaF4piY5gUU370oztortHb0rJuAuvG 04ZI6xNnf+fOHkdHY5wVCmcpnOB9ZLbyzNctmzZRv+Wg5PR0j+XHF6jC4cGQB/cPKAvLZtPQNIGP P3uOkRQyjBFUI0d7JfPFgIvLNSpKG5XZuuVgf0jwgcvrNSKwqQMhbJhfr3HOcHAsFIXFK1zON1zP N6yWDY9XLaNCuH084sc/vs//8ycb1lfXuNsRrM2cQMIs5Myg4wV2F4MIwRXViRuMxy8Ynu8aA/yu UrABRKwrjCtu3eT9d1HvDgDsmBBAQ4Sm4q03Tjk6mlDXITlBMazWLU0TEro3wmsPDvmDn9zj9GSC tYmdW2w8i7WnbiNtDqVBYX9/yL/zt7/PcFTxy988oxyUiTkRw2uvHTGoHE2I/Oo3z9if1xzsJd2A OIOPicY1xjAalZzm8vJHD69Z1QHjLDFENnWAqBTRspitKZwlhsCjTy6YXW0QIptNzeLac3W1ZjQd 8cabp/z6vZq2rimH2zrIDRv2qeEOABPB2uKWddXwhd3/SpoO94rG7wkhY6wzxu4ldkMgxi3Pn1F/ cvmaF0aC7pu5clhMee3BASEkGheTMofV2rOuA2INr792yF//+QPeuH9AVGW58azqBAp9NjwCzll8 BGsNJ0dj3n7ziKtFzU/ePWU8qghRGQ4LBpXjrTePeXS+4NmspolKCMpy3TLfeMQajg4GvH66h/eB h+dLlhvfhyZxBhMUjNL6yNMnV0QN7O2NmM8bVqs6YZ3s4n1UHp0teHB7xOnJEc/XT2AYt8xnb3x6 L5D8qCIYjBhRa/eNddW3KeX7NqqBGalYJ2KnHZ9/Y+cLKfWRLseNqCqhjfil4/b3DiirgrpNhRDv I1FT/b4NkYPpgL/603t8781b1G1MOz7lxUTtDG8oMvBEBK/Kug6MRiUP7u1z+3ia0tC0Ntk0geGo 5Pvv3ObP33vKbx/NMvxK6NwWhuGopA6Rx2cLZqs2L+y82PIvaxSMVQpnKKsSVzjKyrGUnPaKoG2g GhYMJiOWXikGJcN6gl/PKMddEvwCD54upK8OiliD2LGIcS9wMPL7DAHyhXSwiGBM1YG87mUyzdlV xrT3/YqvlYEbcXI8QTUJMWJUmhDxIZE7+3sDfvbuHd58/TBhgizbIrt6FSiswVlLBNZ1YFWnkBBV uXMyZTqpqKoiUcYBmtbT+MB609KGVOqNYhgNHNOhQzXxDZeLhrOrDZu6zRxGRusx8fQCGKNoFMZ7 I/aP9hCUwbjCXq04uDXBWcPzp5dYk4J6NAValhR2jNCgsU4MomzTZyFxAkQQTZsipAdqsrRGvsAW 8nXJoG8jC8gIzzgU0aiIMzfq+x3q315hYu38xnL7YMp4XCYCJ0Q2bSBoQv8nRyOcs5zcnhIQvFe6 ZKljF6vSYkRSfA/JHbdhG1sLl9I175VIZL1qefhszgefPedqtmFvXPHg7gFtiPg2UIeU1nWcQ041 EKuZvNqWaxN7GdOiylXIqrCUg4LhpOLWnX3K0jGeDhGJlIVFMBTDAbM4g9YhgzrXR6QvGffewAAx kcaImEyW2t9h9K8lSHWv6P77xVAMptNtDWAr8OhuzEhWu3T4L0RMqJhOqlRujVm100bECJNxxeHh kPc/vuStNilmkj4uV0Ai/WfUPtX+Gx+pfehJobRrc43JKETBWGE6qfBBWW5aVKAalgQRFnXo9Dto yOLALS+DFYjRJPVO1Extg9jIal1zfbXk8HBMiDA9GDEaV4gY3IElek/0LSDYosAUBctLGA1TRair hXQFsb6GkquI1lpaQEwx+R07/zvhAeRLNPiCGOOG+8e9AxPT5/29pqUreeZVoK2wWcD1rGG9aQlK 4vRj5M7xhOGo4Mn5ko8fXvM3/zpbaZVojv3p/eomsG4iEc2sIBhjKE0KDzEqtU+lYrGRiFD7wNGt EYuNZ7asmX96mVIxm67fCATJxlVNq001G6eTbsVsnFTwil45O5szn60YDSuO7hxgC0PM5RqxglGL KrjScXA85fr8OXFjsaXvn2ZeshkAdmkgapLWDFMMDsRYqzF8K4vgm9QCXsYDSFFNTjTLnEwvAsma AN0CHEUgKqG2bNbKR59eUo5KHtw/wFWOe6epwPPo6Zw2KLVXGh/pvEunGVES5+9D+rkVQ9SIhpRT DytLWThUU6qoNGwWLX/+m2d8/GRGWRh8jFhn+jfttShCT8/GmNU7on3BKlXxTe+VhLSDvQ9sNHJ0 vEc1rCCGzHfkzWAdGgMoHB7vcbk/YrVqsROwpiN9TC6W6Y4kTkTEImKwrjo0ripCs5KvEQq+8Mt8 G6JQY5wtBpN7JiHfVOXsQOCLIUkjRGjXye0rwsPHcz59PGMyrigKy8ePrnn0bIEYoQ2R5bpNoaHb f7JdACpgTMICzm6xR//dCIPSYoD1uiHGBCKfL5rEGxiDGum/BxEigopkQUtWHBmT6G0r+c+SxKQi qCSjpZAhSaVkDJ0KRIwgxoIxOY1MmcB0f0SzgdDk1JieP8tIwOx4U4MRaVw5OLHFsPgSECjfdRr4 +Q8UMbYc3BUxiDFixHzul7UXPyY9v28S8nWFYb1JUm0fIr/95JLF2jOalL3k5fxyxeVsw/GtUY8j 0C21XDpDVVqCgvMR6yxVYRGEZZ1A3+PzBct1w+3DIc4ZPny2YL7yWZbVXWGKwSKJiEopZhcCUtkx ZYJZy6eRFHxMztfJCyKlgJ2qS1QYj0vWq5Y2a/1DVMZ7I9QLzZokH6MDml1kldz5YrqdFlwxvGdd WfBlbXG/J1HoDgdgxNjyRLIrlvwgVV9ktmJu6AD1hqJIbzGZVBwdjfjFr56xbgKTvQE+l3b39gZE hdWmvRnUulKqCM6a3gukbDSZI6qyWrd89mzOpvZAomtPDkeItTx+vuJqlRZf1M7Fy1aJnGXb0hVn svtJ/Q4xZwLbDjGjIYlFOx2gNYg69oaO7z3Y59cfXDHzAY3QtoHhuEKMxdf0BTL6qqZuQ2i+WWOM urK8vbMAzAvG/8vrCzDGHnbuCnOz3IsYJIa8eyNtnSp4ZeXAGu7f22O2aPj44TVF5Vg0gWkdeOM1 z2RU0GRVTmefXmgqYA1Ym8KNNUJVCkFTlZAIm9b3AG837t25NeDWXsVs3fLkcs3j52t82GF5JGEV Ec25f9zGHs0sUMzAsL9ng7NCOXCJW4iCc4bvv37A3aMxv/zgEjGCMZa29QydwxUO73thMLtAWl94 6MZYI7Y4FOvcF5BA8l0vAF5KQiQXMM2cMF0tqFcFd00OmQaKXohBKUrD7dM9ytLxm99e9NW55bql jspsWTMalXz6ZM5rdw/6rMjkOkPdBqxNO84H7TtvRJXFquHscsWnZ3PaqH0fYOeQxEBlhaPCMh4m Ueen5yti1weAEnsVU0QlG1xN+nu35ToFr6aLc6WlHFSIMYhG9icFb93bY7FqMqWQAGUkUdhFUdBu OlVQ+tz+IRvpNw0pvBoRM1FV9y209n17PICqWsUMO22/MTkOdsrWHDM7jxDbVMgpS8fB/pDPnsyp 20A1KHLcTQDx7HLNg0HBh4+vee3+AT97907aQSgXz9f88b96QlVaXrszTWXdQcHtW2MAPnh0xbPL 1db4N7T520WEQCWW0cAlsIf2yZcRJUoyvuTdrrnGYVBUYh/9VQWipRpUuMLm34E7xyPGI8eT82VS AMtWF9G2gaJ06Cobecf4fW8EAmLzhnImrUSRFzyA+aZe4FVBYNqQxhoRcV0Vr9cDbrFtirGdljmk Stv+3oC68Ty/XCE2IWvdaR97drnm7Tdusdq0PD5fUDeBQeXwUfnTXz/jX314zg9fP+CDRyElZlY4 n605PZpwvWwIWdxhXtA0af+YOl1eZNl2bA99m1ivzmUbBjoPo5qzhWiSdDu3kZWVwxrTax9bH7mY NcxXbeIOuvhuLJGIczaRTrCDbnf7CLdVQWONial9zH5Jef73VgvohQjl6HDcu9+uILPb5LGzCBKJ Yqgqx3hccna5Sm7c5fy3FzkL18sGH5WDvQHrOvT9g/NVyy8/vmRUOcoiof+u82q2arm1HygKi/GR uFNTlRsdSdm0mvoMlm0EazCqvXTddO1ZMW1QFZO+R9BOz93VODI4ZIcEi0E4u67ROGO92vQNrmIU wRJo+uLULnErPSvUkykYBecKUQVTDMYvCEG+0xDwZa7FADKY3jnq9orpq4DaP+AbXcwKzjkmwyFN G7i4WCGFoyodkR3FkAhR4fH5kgd3piyamNk/YdN4LuY1b9+b9mKTDp/VPnAxr4lZGxh0x6fuNhx3 eC4KqzbSRLakUEyxOGRmUUXBxIwPs5GN7qSkMWUGUbN6Oe3swiXR68PzFcF7VEOixa3rO541RqLG jDu2zTPaYSiyh0HVWCcightMjz5Xi3l5Wvg7swLzFYyvX8AGbtvCJ0f3REzqpzcm6dd2mkHYaQsT IsPKMhyVzBY1PsS+L1+MYK3cuJ2L6w3joWO2qvn1J5fEGCmsYVC5TLAIZWExxmBt8iLXq4Z1E1AR 2qhcrjzPFg0Xy5ZFE2k1cXmKEEWY1YE6JtAX889UBDUpzeiIoI4MIn9uJgy2f0aoa0/TBsTAcGAT nlHtvZ+xFudsn7Uk/X/sXX+vCtzpJTQdF2gMRowW1eSEbVWQ31EN/E7LwQJINdy/b0Sw1iTml+TK RVKXpQTta+1BhMEwMXObTdu/cQjJ9doyLaKQH+x87VluAlVh+Yf/5COmk4rTozHff3DAfNNy+9aY u0djPngyY91GRoOCsrRs2sB87fn0csPHz9e0mSKuCsPxtOJoXDCuHANnaJP0dqdSpRm4pgyg0y6n P3cil4DpcECiIxGNqIAPgaowlIXletMCMekgrCMGZVA6NlGxlUMkJq9JAssmg1zYbardYiMRNuVo ehfjDNHzqqqgV1UF5/rE6L6k3b8VgnZNL3rT5aaQFvIC8Df8VBsiNprkOp3FFJbGB86v19w+nvB/ /cUz/uf/80P+o3/7Hf7uH95jvmp5cHsCInz4bE7IvH8VFbEGL8KzZZsBXkKgdR1ZtGsezmompWNc WS5XPu3kLmVV+q4c1Oy04pmckuUOZyOI5sYG0zV7pvrBeGAJPhA6ZZQB3wYun13j9geYoqQoDdEH nN1WThPgNDvd0uYGn2Ks9WU1fl3EGP18CPjOqGB5SdjoY5AtqtMEmmyPkrtMRQ1YlKBZCwioNlgr NE0AYxK9qhkzxFTWLZyhcBa1hocXK+7f3eNwr+JP3z/neuP5+Q9O+Ld+do/DyYD3Hl6xrEMfdlZt 4OOnC1pNrvxob0BQmGU2URG8wnUdeL7xfTeR5muQmAs8yLaRMzEDuYs3q5l3O1ozAI4xQPA4iax8 Qvti0qSPq+dLLp5ccljeoioKiJ5NHelmDeUSUHb5O1iqZ1cFay1FObgnIlZfHve/s2rgF3HPxtji yBhJ6U/mwBONLmybYqXvhmlp0boh+IiUKe7HkFC4Zu2gD6kFzFrDYt0yX7V878E+F+9d8P6jGWeL hjoqf+/n96lKx/3jMReLmnUbaVrlbOm5WLY4Z3jrzgRrDB+cL9m0ceuhSCi/m+Ahme7VznV1wtbs nvtqNnFLCafVmyuEgcKC1chHn15SDEcULln3+mrBk4cXlLkRJniP1jV1HbFu6ybTA81do7kyyE6F wNjCiHVHksiNl3EA3zkPwOfVQHava6jo5d/54UjMrWGGNNsHsDbSrkM/PUMk0bc71aWtti8q0Ud+ +2jO3/rZKXcOh5zNG1ZN4B/94jHLJvJvvnubn7xxi3/58RW//uCC80XL9cYTsmd5/2yZxqxo5ud3 FkC/y3Kxp0P1RMnofstlKNnougXZCRf4jO4Ntw/H1F754NMzptMRh/tjfN3y+OMzlrM1B8dDNpsG iS1V9MQIrozszsa40V2N6UvpooI11iGm0kyK/75l4fLylww0CzFEOtSf1mz8XCsYaUJG8Fkg+rks MYHrXFDxuc/vfLbh7HrDW3ennC0uEFFWm4Z//OePOJuv+U/+9lt8+nzFL58saCPYwvRl25h6bDNa 3/IMW/V63vkkpY909f9osvbPoOpzwt415aZ3TZmCA1UOxwXTUcEnj+aJADqfc3W+QFtPs6oRgbIw XF/PmeyPU2u4BqyNCdT3hBI7Y3PkBoAy1hqNOOlcwysY/5voAV66IFRkAGCN6xU17IhCzc7NiAiB ALamLCQriEmiyZ4Quxm+JFPD7z+ac2tScWtvQBSDWkfA8OHZkl98egVEbo1sQuiiFEUSeo6HBa4w SatoDWJtX7OXLs3LdX6xJs0DsoIYTdqw6PtxLgnQWbAFuBKMAzGMBgV3j0bMVi2LddtzIL71tG3I xRxhuVpzNdtQ2oL59RqlpRr6Xkgj3QAtXjC+kSwIKW1M08O+qDPo98oEipiiQBKMMZnOTWh5W87c nQFkMoniyhZrBqiPVIXBDQpWbcrRd+3fsWoqwtn1hqtlw7uvH/DPie0u3QAAIABJREFUfntJk136 Ogj/6L1L3roz5u3TffzZknVQTg9G/PjeHm1Uni0bFk3geuNpY0L6jY+YbvfnFuMk+ok9PWsKQU3M EuTE/0sIOTwknFA4w1unE3wbePJ81auXBMkzplJNJLQbzi8iZTmkcIbr6xVITVFxo0YgcvPv2mcI 4FwpMSrFcH9YzzfmS9Ta34km8HOS8PHR60fbzhWbrSd5vE1ypyKBmFFy+j1DdB5nk8pns/FU1jId l9QRNpkT6L4GlaPNjvf9x3P+zs9OOdkf8PB6kx6UEZ4vG+KZ8M7pHicHI+4dDvnhnSnHk4p54/kR CWdcLFuWbWDVBH59tuTJvKafYyo75RiTKSybwkca5RZzb8A2lFgjPLg1ZlA63nuywMddJ6YZXAZU WwQhBMPedEhoW+azFWXpEw3ej8oxeZ7SdlxeqgqmR+5cgQDl5Pi4nj99+AVG/8oTQ9zX0AK+dEEM 9+/eNWIwWbOmPceWH1yXyxqDxJ1at9lQlBVmY9GgrJY1XmG8N6AcWtqMIipneePOmEWrXKxazmc1 Z9cbvnd3wtNlQ+jUN0aYbQK/eDjDFoafPjjg3sEQBfZs2Q+QGJYu/1nZHxX84umczy431D7RsRKT elglDXjaatASrlGz/TxR4Y3jMbcnBe9/es181bwgyg4ILaoBVZufg+fW/oDNYsNqtebgxGNsFzql r6cgO/MUdlQixlnBGF+ND+/O4Re/Y+d/J7Lwmyzg9Oh1Eckl0D57TiCpn4xk8qSQ7gZTplBULVZc klnbRKO2sw3DccVwMqAYFixb5dH5imJQsD8uGQwLPny65K/94Jh3H+zxyyfLPsxgJPdICysfklgr VwM1czrdMAmLcP9gyLhyfLZf83RRc7VquV41bJqQc376f5C4f9mqdES4d2vE/aMhv/1sxrPrTQa0 mlvCPKoeVUnGJ6LRMygt48rw2ZM5YmrKQW79zlRz/3x6etlsK4NWBVGMsKrGh298SbPuV24O+bo8 wOde5WByT0Sw1u2UMOkJE+lEk53A0hgkJtBlqjVFUdIEiy1tngKSZFyNwr4zVGV639XGY4IymVTs TUoeXW64f2vI2cpztso9e1kE+sbRiDdujSisSei/676N9N5J82Cq6aDgB5XjzVsj5puWx7MNf/5k zvWy2aaGRuizrnx/J/sD3joZ8vRixePLdVdZADyKJ7UO2F5g0pGJt/aGEAPPL5YMhp6iTG3mknN+ 6UrJYnuCqa9gqqBqcK4I1XDyxksbdL4mDvimsvD+Q105OhUBa93W+JnJSpo6C5J2omq3yg3GOqyr KcsGv3HpGfeyqDSWbbVqCU1kMILBuMQWluezmrWP1FcbTGH44d0Jlx/NCBk4nUwr/t13T3jneNTH 45h9kpEt0wYQJSt2U6c202FB5SxP5g2zdZs4jLwbtY/7wvFexc/uTTi/XPHh0xmoxxJQiQRkx/C5 nyCXmJ0Vjg4HPL+YU7crDvc9tii2GwNzA/x1DGA3YqcDls45XDl48BLj77p++TbSwN1q4MtKjmKs O0FkSwOzc/GmaxnMRs/l4q5qaJ3gBiusiThhR3dPj8yjj2w2nvmyZb5qaH1g0wSMCA+fr7mzN+Dd e5P8nsKospxMy+xW5fNjaHdQtjG7PYzp5VGGleWNozFvHo85HFVULs0LLJzh/sGAn92fcr1c8+uH V2hIOv8QDSFaVE2P/FW3jTCiynTsKJ3h2dmMslwzGHdyb5O1giZTx3Y7TCNrDTszC2Bd4YwtTn5H w87vqRpo7J7m1iVyFzA7sukEXjpQY5NCxzo0JPQ7GDeslwsIJVVR0LB9aElLGFGNhBBQb1huPJsI AwzLUPMXD2f8+I0Dghierj0n04phYVNVTRXbbUSEPIav9zQSU3U37mylYWF583CEE6UQWG48dRtQ 75lY5XDgeP/RjF98tqD2yc0HJV1nbhcjJvWQdpOr0lAxTm4NOT9fMl/MODjc4FyRFqG1CQjmDMBk kGkwfTHIZDGjChhbWhE7+RIO4FsPAV9YCQQz7Orc/e5nJ4/NU7OtGqI1aLRoDIixqTZeCtVwxXI+ pHCW0tmE7LuqYp74oCH34uUHGkLEA796vKCoHK8fjTh7tOR67Vk2nkllc/qWK7jZ6EYTTR11O5r2 xpAdheORI8ZICBFbWXzpOBqMOB5aPnu+4eOrhsZ3Hl5vuPluAXQLuFsBw4HFiuHs2ZzBIO/+vONN 9o7JC2SyiZ3BEaJ5+rhmKr10IUb7qvH/m3YGvQg8Ko2JBSSXPbumyiQTzzdpUqporMVmJs5Yh7WO 4dhj3ZJ23UKISedvk0u2djsHTmPOxfPDJvcS/vLRgjZEfnJvzMNZzT/9ZMaqjanjOBdyo9ALPbbE u/SNHLHvCDKoMUSxqFiMczzYrzidFpyvPO89W3K1qIk7zapoWqCEmCae5BpC+og8ss45zs9XrDfX jMYbijI9B2tsZh+z67dZUGPs9nnKTdGJKwsbo9q/TCq4XwSquDSaze3UtLt41qV+JhVhjElYof+e FkQ5MIzHS0TX+LrFNx4RKEqbWqo7wV/3kHcWgcbUO/hPPrjCe+Vvvr7Hnz1Z8BfPVmz7bHfFlVvd b5StMmirwdtihoET3j4s2asMD2ctvzlf85vH11wvm+zeExuYvNP2uvq4nwdJgTC7XvHs6RXD4ZzB mP7+0+ZwO5tEwNguq73ZbJtBQGFLE2PMJa0vqs98tx7AJCnY8QQR26WBXQgwYrePvgM4km/QpHiX dr/FGod1BaOpMtlbUNmI+EBbe0Ie3lCUWV+XlKWojxDSw++GNWzqwJ8/XjByhtuTgn/xZMGzZdOP prECpRWGThg6w9AZRoVlWhompWFcGvYqw6gwlFY4HjrePiyprPDZrOXJvOGjpzOeXa2ym0+zA2JI 10JM12O6JZbdOwjqPe1qQ+muGE+62G97D2iNzQvCIZJUxUYMXUPojRF7QDkYiKoyPHxw9CWGl28L A3wR1yzV+NYkVYG3U78RvTEfWFCM6eKxIhoRNVjr0OhRazHqcGVgOF5R2DlNLJjXLc267UUhkpF4 zOGlj7Ua+/BwuWz4k89m/MHr+ywj/NPP5vzV+1Me7A0YuERBd0OkOkIo5mEVcadnrzKOUpQni4ZP Lxs2bZol8Pj5kuBDb3xihFwXMLmNTE26VmKuKbQtutlg44zR/izJ4azBOJc2hLUZBKYNkja16QdH b9PATqae6wOoLwZ7e+tX7A5yX7EF7KWEUDncP8gpnYrplkBXEMrKFrQT0iLdgGstCCbmbCBgbYDo KCoPXDJghNRTlpsGhgXYLrWS1HtoBCvgTJ4MsrMjn1zXmEcLfv76Hmd14J8/XjCpLPfLKokwdyTk oZPhZ5avNMJekUScZ0vP5TrNFSBGLq43rDY+IfwQUoNj3vWJUzBpdmAmmGIb0NYTNxtolkwmMybT tBnSrncYWyRvaHIGIAkDdMfs9Cpp1R2STbtw4Yvh5OAruv4vZANfBQTKcP/268aIca7YGXwrWx1w 7pnrS8IdEDTJA1hbYIsCawqMK7CupCgjmGfsj9bsFUK7rJEQO+0RMYtHurnAMSS3W4hQCFhVns5q /uzRgrf2S/7o7pDzdcvZur3BaGzZY2FohZOh4XiQRsSdrwIbr1QmhYzluubJ8znqfZ/eaTefXpJS uNMwmqwA0sajmw3Uc0aD54wnDdYWiCuS4V1y/ya7f5PxUHL76X3Nbi0gn7bSMYOFs81wevQ2Lx8X +61VA+VL8kwpB5O7ghHnEvES+5p5Bi8mCyok9dKnfNxmylRzh21EXcQSQAvQiI8brJxxe29I2TgW mybduLOIKVJd39ncSZTazGIbMRJSPI2Rq1XLx883vHM04GBo+w1gdk7tKq0ysoITWHvloo6s2jSX WDQysEojgZEJvHZQ4TctZxufj/4xYLshITkk+ID6hli36HKFX8wZFJdMpmuKKu1218V9W6QFYF1y /53xc5jq25ckVyK7noG8j4ui0mq49+aXpOpfSRv4SkSQK4a3EcS5LejrHEs3IkB6eTAYsWkYg5An Yzu8U6ymcw+6unkaGz+j8Z9xMnmdiQ64DMp606ZsIp/a4Vziy9WYfjGkKSGG1kd+fb6iBv7WG3v8 +KRk6NJBO1ZgYIXCCHVQLhtl2ca+Q6f1yvNlzWxZU9ee0gpvHY+4uKq5sAY07dJoDGJBfUAbD95D 3RAXK+LqmmFxxt50SVkmg5uiwGYPkIxf7HgA189VZEcG3uEA2ZHPqQhFWZm2HN7ni5XBXykbcF9z 99/gAcS6IxRxzvWiBbNzHJzZnXxlyJIqSX0CxqFWsWTVjSYwFXYIlMZfwiownb7B8a27zFV43irr ENBgEHF5J6ZFIdb0D1EV1k3gV+cb1ircnVa8s1/mZhGoI1w1ytqn8XRd4SdG5XJVc7lsiD72bVqL OnBVB7CWbp6T8enaYwxo00BdExcbwuKKoX3KeLymLG0yuivSIrAF1rn8d4dkL9Bdeyee1axnNFlW Jxq3I+bRTAfb469QDn7laqB+cVu4naaRKG4rXMhuVrqJoeyop7vmCWux0unvOyYtP+yugJI/tm2v OT//FQdtzdHJ69w/2aMpCq48rBBaawnGgLPg0kFSg6Fjf1JxOCk5mlb84GTIg0lBE9KVt6qsPTSZ Xexm/dQ+cLlqmNVtnoEvxMztL5p05pDpNAIBYgzEpiWualg3mOUGvzxj7B4zGm0oqoRvkrsvsa7A FmXCArbIrj99p6/+9Qco9EeBJEpc+swABWMrE6OMv+u+APmyLCAiQ9VEA+92suy2YXcwxuTOG0Xy eXgQC3CiqYtXIqGfjCE9ZSOihLbl4vl7nF9cUIwecHR6whvfu83xnT3KcYVaQ8jp17ByVKWlQbDO Mh06KitcrANpyKZSWRjadPPXQbncJJXxqvasm0CM23ONTO4SWm6Sts9oSv184/GblrDYUKzXyGqN bp4wME8YDdtkbFtgXDa8S4bvfi4uhYCODibXAVR2GmllRyUsum1cygWhEGPFl88K+lYwwBeOhlGk 1BilsEU/DCI1hqRhCZJPBJFMxpssGOm6m0UVY+mFoT3Pn8dlBHaGTZkW315QL9d89N4lv/34nHJv zPRkj+HhmGI8oBpVRGtZRSgGBX/znQMqm0bF7ZcBHaaHOq+VOoR+7EuhkeCzgXM6qT2/oMyXLU8v 18QmnRwSNw1h2WA2NaN2g7RXtM1jrL2kGmra3X1mU+Bcmf6cd78tSkRczwCmBdAdF5eenYm5SKVb 8KpoLy0oXGV8CO732Rn0uZcgLipY51KjRF/H5kbKkgYv7ZwcZrYGT4PAC6KHQLyRngkQ+pKuwdhU M3DNmqadU5/f4slsRXkwRcZDGFXYUYmtSvb3hzTrljCwEJXLec1elYpNl6uWZ8uGOkSswMgZ9p2w N3Isap8GVinUedLIh0/mPH++wtQNZtPApqUMNYXOCPVT6tVTKrdKsT3n9mn3dzu/TN9diXFlBn8Z vxjba/+7Aza6CTR9b3vfbd8TbVpUlYQQX7kW8I0bQ9xgOhDBSW53lm6wUoaCbA+8IA3oMB0/lDyE gk0TUNGwHekW8qIJ/RkDSUMQTOq3NyIY4yncJWU7Z9Ps0ZwfYVa3kNEAP6qIo4rnm4Z/5lveurvH O3enaIh84D3WGjY+pvifH/YqT/8yuUVbVNlsPJeLmourNfVszalTggm00dPW17Tzx9Srp4guKEqw tsQY19PcCex1cb/qw4HJC0OwSBbRqJhtY9hOj8TuKatpHXQBUqUoyhTOJifTenG24BvODHJfUQz6 uSrg5PitU8QULlOavfyLXVqYG8fG6O7sQElz8KzGTKHKCxxCNrYVYtskZkzSUOc0iSvgikjRXlA3 M/z6OaE+ICymhMEQHQ15MltyfTbn6nyf0+MRB9OK0aBI42BEuFg0nM0bFhvPpvZsmoBvPaHx1JsW Go/1nma5wS8X+MWMuLkgNM+p3JKi6AQcHa3bGb4je8o+9ifjuxQajM0FH3MD+EnSo97okpEdk+hO P5IxBiuyGd968KBenD35Ak/9Ow+TdN/A9QPIcHpyV4xxzpU31k1nQCM3+0m76aEmx7juVIxti/UW MooYjJes+DW9pDwGQwgWDZZoPDGmIVFlGWj9OTFe4kPF5npCfTWBckwYTnjv2RUfDCqKyrG3N+DN uxMmo5L3Hs15crlOk8l9AB+RGAl1Q7tuiOslNqywfo7Tayq7obQtbkQu3HQCl2RUsS6DvBzzbbnN 912Rd7zLC8D0yL97UnHbCI5G6YtKxJjV9jcnrhdF0QymJ68Df/JNC0Lum5JA5Wh6asU4VxT97Pzd IRy7zQx9KJBuQBO9YljzbB9icvXRCuK3EmmT0zxjLCFYjG+J1hKDTWmY90QJlJIWhOgCledYb2hm Dn89ZGkGNF4oqgnn1ZiPi4rhcJAbSUPqxw81tCv8ZoYxEUegYE1h1rhSKQuDczlnz6lvR+JIZvdM zvOT3jHFfrEuFX5skcUfifFL8wgMO9MI+kM0dMebfr5LSvuO5aIqTTWavsHLTxB7ZVWwfElTqLHF +BhjrXPF5/9Jr7eQfm10LsxmijA1OyjG9IcioWowmgZhxawbDL7FmPz3YIjWEX1LtC0xhLwYAhod GiOuiAy1QqNmVnBNjEsunn7M69M97txJk8aWixV1qBkeDhlPxqxXS54/v+TjZx9xcO/HFNUo6/Gq vkrXizc7Jc9uzDd5EXSuviv0uAT4MG6rARAh5vbyRPsmxNfPGOo6kFS2jSrZ8HHn8OGiGDpfje69 iibAfUXjf8612KI8FCPWFeXOlOu8kvtetnwEG1uWcLef3nSTuojgMjiMQjQd6k+Foxgs0VhssITQ os4RfF4I0aI2sXExJjYx5kqdakQLi0YoS5dG0B+MMcZSFcJ6bRiPx0wmUxYFtM2KshCKqqQsi21Z VrZqZpGOtzc3Dd0b3GHk5s97tC9uG+a6o3JVU9zXTqiiO1CvK1fmbutuQlnHBZQDZ1x561V6A9w3 AID5kKhyaqwz9gUPIDsHROiOJ+iv4MY0cZtTRJtk4bHbAQasRUMGftYRc+y30RGDxxibFkLwaPSE kOjk5A1CyuM1DWDSGHMZ1lCWJc452rYhhEBZlgwGFW3b0AFal8Fbmntk82LeKdj0Kh6zY+gU/xMg zBRvBoiIy5KurdZP8zG36fBIJWyHD2QPkUGgSj/DmLjFSYqS4q+dvsqcAPc1AGD/s3f+1n/2X5Sj /b9rTCGqqnKD+6M//1Z22pp3D5Ds5OP94RLkRdCPSU9CUs25v4ZAdAYNBTE0aQFkQYkLnhADLnhi zL8bfZKLhYASUmhwjrIsKcsyTedsW0IIDAYDBoMBdV1TVRXOpRzeFWWvZ+wkbD1xk7WCSce3Nbg1 yeWnf+fyK4G9Ttih2knBdXvuu/bTFPsFYDCpi7rbvjfOW0gPsygHTtzge9//O//5f/v+P/7v/6uX GN7w+aPlvzEVbLbt4KZCrIixOFfK7lkA3RhW3Tl2HbbETl8c2ukY7hoiRGweiZIKR8bGNIjRBow3 qAlZWRywwaPBE4PHxoDGNhVloif6tAii3YYEax1FUTAYDCjLEu99vwCGwyFN01CWJdZaXOEoinKr 0c9Gt871aZ9kYUcy/s7isNtFktK87DR3vaBKItIRJB1NQiTkNDlJlmKeWr5bGu7ENZ3u0NrKpMcs 5TdVB39dJrALAUONUVRhevyA6WRC3baputWPibM5l+dmbr8rfza5Z1C0H40yHY2JZL0fgcK5LAAN RA25EcOnESvZ4ME3xNiioSWGlhAaYtsQtSX6BtXA4vJjiqKgqirG43G/AIbDIePxmKZpGAwGFEXB wdExo/FhrtSVN0ieNA8gnXxmTC7oFBXODRLqz/G+ww+hnzHdzR02LDYrXFC8BkzUJGrZOVQjqOIg 33MSnYYYidHj20BoGwY20hqIj5WglLxkgOdXyQi+bl9AKgLFOAhp52ld12JM2jVfaSWJvOQDdsJB boiQ7uRRW+Q7SXFdbWqytDbF+hg9riiIvumNb4MlGkPQ9D1qi7UFZVkyHA4ZjUY0TUOMkdFoxGQy 6ReAc46iqHBllev2JdZVKf3LMi7tpomaJGzFVThX9SSP5iPRO01Hd6hVv+vFoIRtmXQnY/qqX6u6 1bZBYlBiCBWfP0v4W9EDvOxlNvOL9205XbXejz56718wGO9RDYdYW+xMOJVefs8uwyfbCVhmp+Ks mgYvD4aD3sWJKkVZ5Nm7un2/LCCJOQT0rj//PeTvmnFBDJ7Liyt+8vZJb/C2bYkxMplMmE6n1HXd e4BPP/mMYniVGD0xmKLASLEVb9oUKjAJ8WM6954LOynPRSUdUdcdPdMJT9d1OpU8hpA6nroKT059 u1lLmkWrGvI5i8Hj24Z6s2aznEm9XuKE0GwWn/6ODOBbSwMNYHwI+/P55WB6cHJTOJAlYV/ZE+gL TOUuddz9tOuZ6/qQVAhhw/XDX7C+fNSj/O4wSmNdP54lzfdN+j2jDb98/xM+/fTTnAW0tG3b44K6 rlkul8xmM6w+pl3anPrl/jwVQlv3x78Y2c4FnuwdMjj+EcX4mDTadUt0pd2u/SEaO5Oqtztff/fe /6LfWS3nlhD2yae48+XnCX4pFSxf0QuYqHLH12vzH/z9f89P9/fpqasd2XJ/1lE6SXxLee6cldt3 keVyYRqcrOn383wB772E6NOIwZjGtcXLX4lWI2J8OzWQxmT8qEK0VacU74s9unneP8Tu9eLX3t4e t2/f5q233trOMxoc3WgisnGDEPphWN3309NTxJac2Tc1tXUniZoVo9alcX474F1UtU/1dTugSro2 szy2TjWXyWPUvi0sdhPLRdS3Lf/gH/x3zhL3uXmaqPkSXcANHPB1RKFmiwG8xNjy9Nkzt1xv+saF flT8zgHS/fAjszMjQOTGYUjdTu8Ikr4z0LAdmdYd1abKO6cjSvOD5EZ3XkEcIWYJeUwafxvmxHiY uPa8UL5sV+0Os0qilf2+PG004KS5YXwR4ejoiP39fc7fX0sdBv35BIqK0ZTTaz6dXIOiO93Pnefa vvI15pDRja+58f9IQ6abts3hMPCS2G++aRbwott48U2thig4OL84Z7la92NNTDdFq6vf9xW+PJWr HxLVNUOmn1mb42ZXAexbzWOmYTNLKEk69u//x3+PyXiE975H8yGE9PcQ8D7S+tD/XENzc6GE0C+G zoPs/r37arRKqVhMsnSLxxBvLCBVZTqdMh6P0V89ZbVe970HMaRx9Z30rcMBabJ4JGTCqtvhGv/f 6q5tx5EjuZ7IupDsy/SMR17N2JbXxq4h+8FYL4S1X/QB9nf4xR/lT/APGDAGMPwiYL2AoTcPNLua Ge3ImpG6h93sJllVmeGHjMyMKlaRxWZL6iVANNm8VVVERpyMywkbcYKzwa05gURWSteCIvtzA4A8 y4oBANiHCXgfDEA9eQAp9zP49t07TKaL2ATKtoZbfOXpVcLKl9rANE9QWwFSSpHcQiweEVdhVJLJ uQbFP/99VBpjTEuw1jphIHdw1l9k6xzYAY31Nf0Z1Z1V56/JsjGtyxSbcyVbnxuXOHzVLQSTvnn5 73j9+299gyk7X8ARVrh0Ols4xUYm+YoNCxCALlAUOdYNkJ9+5IElW1EORtM0yHMDZlfks4cnzfL9 YgT6H+0CaCAGIC1/hPfzOYqbZexm/YtHa/ztLx4jzw8dSj4MepbLGrl0GBMRrPU+2Vorptkhy/y+ 2StBBitNHJa9Ujgu1OpPK/moQHQVsb6RHQwBuRl2HT56mOHnH+Z4FEPj2c7t767b8fExnj59islk gn/9t//Ct6uHPuchwS1nrfQQclnOzs6a5fu3O3ICBweCdLdCKPqNLUs/+8uP8E//+A+YTqc7Bdn9 f9/zPn99cXGB58+fYzqdRvOtXw9/nQi3kXEiHNKsyg6GXQvHSnyOU0ki8DOxSr8lRI0TAib49NNP N45Hf2bMOetbURQ4OjqCtRY/++lv8e3/LmIpnf59AJnJimkHAB60DRxqIVM+JvXGOymp+tXf/TU+ +eQT7w+VAA99HC5q0zR4+/Ytzs/PsV6vNy7c0AWNPIByLZxjUIeY1CimUkLazjZ9gav2xUdRFMjz HB9//DFOTk5SoEi2eLc99+Di5vM5Hj18COBK3El7rgFUkci+pWH7loUTFJ1ionEJkTHTWhVxRs8W TR+7KpgZy+USZVm2hD/mO3b9f4yp7v5fPw8BpCB0E6nnxx3jtteMMbi5uUGWZ37kTNBYsErzMBLJ wX49n/uWhavgnWxrpOUbDFy8v8RyuWxp/m3uYcVrZF5VFaqqwvn5Oa6vr2Md4j6CPkQBtr02m80w mUywXC6R5/lB567vRISiKLBYLHC9WPiIJ2srwW1qte8hGcQ9wjchFOvHAlppaACef/EKL168wGw2 w13enHNYLBYAgMvLS6xWq6gAY4S6jwLsC9j8/D8fVXz9+nUL/xx6y7IM0+kUVVWhrqs4XoxV+DxG 1zwrhxmL/scqgOn/IhYMEGpY/DarnJR49OgRjo6O7lT48/kcp6enPiVkLS4uLnqFuY8y3PbWpxxV VaFpGpycnODBgwd39lvGmGgBJpMSjm0cX8tIWIHYXV2//eL1wBb+TkBg/5eyhXOeaJEMI88MZrPZ nVkAay3Oz88jryCRJ0lcr9cxCHIXK/4Qa0BEWK/XMa9wl9YvBMnyPIch45NCAaaK7/cpFSrz6elx s7q62lLG12sN9q0ISttARYPOUsQwfz/Hixcv7sQMrtdrXF5eRjwQbldXV6jregNo3Wa7eRvwyD2z DLyJrvHy5Ut89913d2oBQq3CfH7ho4EtLB7a7ikvZ2enzerq/7DnFLHbloW3/ZBw7P/u9Vd49uwZ iqK49UnXdT24wokIq9UqbjV1bP9QwHXb7wgYoGkafPbZZ3c/R124AAAMNklEQVTqhrIsw+PHj7Fa rfD8xVdwrlDl4gSOsQuXG1NORgL5WyuA2iYLAnUyU1cU4Ys3K/zu1ecgbmLbN8XgCjolYd2Qb6oP jGQTZFDU73ByXODpk6d4N/fzd6ezYxzNJrgPtyzLogv4zefPMSsafP3mayxuKqzzn/iKZ5XyjdyC 4M5jxHAxx84qXxjTIAeVZwBZBB4yADHP4LPMbtsMoTvtC4gRNQeHnCmWcDl2cHQkO4QGgSKbVLtT axyKKhA1MRtIMZMIyjBx7zEpS5w9PMPTpxOp6Z9jcXUv5I88zyPw/bMPT7Fe18JcksHlJzIzgKKw mVyaSgIN5jgSQHAkipbAnjGelIqM8ATophHW0qV9Vv9tLYACgb5ihTjqI8A2pm012QNTagcDGbAV nh3rU8IutJNZYegOKRjhCV4ul3Dsp2zO389RVdW9UICyLPHkyRPUdY3F9Y1UG0t9gvQpxERWcDfM wiabEkUxYaRibS404bOeKetiUUn6zCDwu3Oy6I0wgR6NArdpa2JnSzCBCIpgYsotnF8IKRPCBE8P AOumwWKxADtPHMlgXFxcoK7rH10BJpMJvvzySyyXSwDA9c01GtvohINgZm5dg7BymZWFZo7mPYxd DdwKcOxnCbJvGGFNwEGjZH2nCsAxJMnOs1gjsVioiLpKpKj5e6QPOoHWQDMPNTM3nxyjqi7x8tUb PP3JY5STCcgYfPDHH6CuKzSNbUUNI1LnjnHsnoC0jsVahF1bQYbiPqDo/8uixPn5OayzqNYVvnl3 jjw3yCcPhOEhjHvxpeCx7TvkClrjufVQCpP6KQJZJHTQjxORGNOQ/A8aGTP4YZIuj/S7RoE3NelS /HikaIubSIo0cpGzOdTZIbWJMwhZeQRHjKa6wtfvLmTbI6VS7NPBLAUVSOunZQDTEOZEQeO5CoGm cYqriCKJZFQexdCpvzjE/DMjfIVSudQ4g7I4RVYegSrh+4n9DomvPjKBGhXX16E2AcHUicVxzF3K YEvFzQiAfwgLwPEHpV8tUK6nGTcEIimIj/x8qe69WxDSmplHeoIWoZyeoiYDhxVWdQ0wwxALU6tL dO3g1hVIBlLzDkFZFxeCKAmA8cBV5FSyLbOb5Jusn0sQmj0NYEyBbHKCYnIMqinSv8Sh1EJwTWIN TCgAibspailZIocKLWKBgtfF40nmd38lyPc0+9wNJcVLQxmYnRwHpxpRtQsINGgUewBMi1wiTPHQ J5/lDnAlkE1QNwTbNHDs2lmxzmNGm1hBIZFOE1vHVEQfzNg+ea2tTOF4syxDIWxgZZEjy7PY3ePx r69IcoZlaqhPpDlVDErcjsQngg3TotwJvYUjp8MdrADcfkxiBbhloryAw8th/5/FdrFUHaynh5no AgKbWFASB0Je+ItUllMwE2yWgZ1v+qSObjJ3oSf1uIO0lEkKRfTpcees26/Q5pcJoPUjcHxLWZGX vrEkzAOU1e+ZVDnFAMSCmVgJ7KSUPVWQs5BCBFPP0mCoRx0Tb9AIfG8uQF0tijjAcFoFIT7tzT7i NPE0p8eoOkGDLAaDPO+qUfNyiYFCqORmR0cAeb4Aa61sCSONdsqMdVfFQCzf1yH6ws3B9cNtp9J2 JYiElGH1mzz3vYeTqe8tzA1iVwD7MTIOQOYYDg5sxCJIE4wTTEARU+hdRGv3HV0b2A/V4VuGIPdJ B0OhOSldF8oSMslwhrn3CtWaLJl1xNmBWQr8xKlZUNXFvo/QGcZkanDygGCyS1TrCo10A2UCpDaq YlINfn8WVOEO10mxatwSLzMrl6f4j8AEy75yOc9yFGWJ45MHmMymcCiQZaZVauYMwzgGG4aRZhZH LDhAXovTRtOWmQNBFJMM5kR0G85vmet6tbjctNR3jwGUYYyRiVQ9S0Yh0gDskGbhGYpU6JFwIU7J kFJySiARTKgdYVoWmJ5MkWVGFMBbgUzVBKQW6nR4zMpoU9eL+x4E57j3THkwg67NP8E562cf5b73 sJidIc8J12vyfaRIc4kNvPB9c4fxpWkqaEbwW1OQxwguKHdwD4EbQMUTpCyvsfVy/X2DwOQCNAYj hmOZFRaiVmrwkW+TSkMQScgWgvB9tNP4hlDdPCIEkxaMZeOrfWenjzA58o0QxBZ1w9HtsAKGm0Pz eCMPGi987OXTqh0SLaYNLOP8PpLB0A7GEHKZYp4Zg8oaXNcGNYQDKrTJE8OKqTcUMIyTcbp+JTvh U3S8OXSKyUipuLSIh8BrLM9g3lb4cds4AKef6kQCQr2fg/D8mLiyGIkJI8StjczBIRmFBpP4dgL/ jp7Z4wklCWtLqC1wNMlQi8LlRpopMqT9vwAjakd7Irs2RX9uJGDl0nRzTu4qmOzIyCVWhYLfk3da 1b3ku34MGiY0TLiu/ICqnPxwyhB4Imdl2omwQGbOB4ec89NUTQOGAblgCRC5AznGV4zQyjgd6GJO aJa/Dwygv9w1q/nnpjz+ZLVefRD58SgDZWo4EzNm0ykyyiUO7mCQpXSSMHOHeXjWcOQQClx57DxF DBtC5Qi28jEAMnkkeNasGcyqfJnaTFupQU5QNWl2rnS6rrubjoQM+uomQEiyRFyo1GGCBcVMqbN+ blns6lHDrnRegIOPD8/Dex1juV7FvAg7jh3P0hS7cvXqS7VQu4pwMFfwhhJcv/nNf1ZXb35/8ie/ /Bdk+RlcZthkhhpqUQKt2B6brJiyCHtjTx6MtZqJoykRHTt8+OTPUZQT1JVYEkpgjQy3gL4Gnn67 pQislaBJ/ZIKUINbGCA2aXaAoOzBSZB6q8mZWqXoTV3hm69f+WBQtxO6DT3Vcat3eSY156qbcxl8 62/OMTtnnW3q9eKb/6jmrz/joGnbrcCGexiaDWTgW1tyACWAKYAZgFMAJwAeqMcn8toMQCHvzwCY B3/6y7+ZPfror5g545Q4CnE1Hqo4SftM12TTP/opGeQJdyZgFMCfHjerUy27EuJ6W0dbtV9v/hII ZD0kU7+LIji1dvX+JWBMSgTxQHRdU6xTBNFNtbg4f/7sGXwHaAOgArAGsARwDWAB4Erul/L8BsBK 3lcjjU/kvoDeLgUoAEwAHAE4lrtWgGMR/lSEn8vdYLP9fFfKaiNEd/bRr36RTY4eqHCdzqClEHi3 +4MGKiJYa4zmtSTqO7peVaUuLZYidVX/t9XN5fzVr/9ncDu9G38FDOaUAtQi3JUowLUI/kqEf60U oOoogOv+fj7yIFgdhJUvDQdTIZET6PcZeX1brTpthO/bj8389a//G/0dy7fOgR946wrP9TzmLRhq jCJ0r30QYK2ueRDuWmRh1d2NxQL5SL/fp4VrEbwWfnhd/39br/pQF/KucTXAnj1wP4AydIXvRijB rsCNU9e1e+2XapVXalHq1b4TCOZ7mKGms+rXSsD69VwpQF+/+pZszPB0koHnP5bgd1mEIaEP/d1l eYeuf/DzXQUYAwgHFWDb6q/lM5USMNQBrgUz9CmA2YE7sEX4Q4rAuP3847u6OXUsPCDEIVPMA9dd K1JXARq16lc9SqAtwE4lyDsH0Mcm4TomqEKb/zkoRtEBgMEFDNGWbLMCG7xEOHBE6g9oCfpW8Jj9 OfdYke4C1PhrrZQgPG6UEoxRwNGRwKCB3SS5U0pRKPNvtrgAGgHg+oRvsGfb048kfHQE70ZYgT5L 0P28XoTaCnTvtgf1j3YB3TlzGoVSjwJY5ff7fH+2w4T3WYAuF0HfY7oHph8D1pJ7sIDbAg53WRDu CLTpAEJ9D8oxZP5HNYdyx7en8Hf7PbaDC4ZWvlGC3Qbe+rZ2hO1M2HRPzT92mH8MrE4eAODaFevd mO1ggy4IBA4gi9bWwPVoeiY/lHX8vRkpvCEcsAsE3qcdALaY9F0+mG+hRK6DCVxn/9/dAezcCuYj hI8BTdYBH7NjxW8jLRiDA3atfLoHgt8mxF3+n7bsCHgAU7gehei+fnA2cFtUy2H34OIxK5Z2xAPG KNF9wwK8RRnGBIDGWBQ3YCHGWJvRK2fs/hxbtnljzTZteUwjFeg+WIEhS4CRQSAaoTw8ACp3Acxb Xbxd+/VdAZ0hoXIPCOQRn6OB992HlU8jkDer6Cm2XJM+ZdhmHcaGlw9aPTTi+SGrdB93cd/dwC6z fsj37FrhfFuBHvo5uoPf20Vr8oeAAbbV5R0i/LEKNvr2/3k7cyG09k3xAAAAAElFTkSuQmCC "
     preserveAspectRatio="none"
     height="22"
     width="22" />
</svg>
