<?xml version="1.0" encoding="UTF-8" standalone="no"?>
<svg
   xmlns:dc="http://purl.org/dc/elements/1.1/"
   xmlns:cc="http://creativecommons.org/ns#"
   xmlns:rdf="http://www.w3.org/1999/02/22-rdf-syntax-ns#"
   xmlns:svg="http://www.w3.org/2000/svg"
   xmlns="http://www.w3.org/2000/svg"
   xmlns:sodipodi="http://sodipodi.sourceforge.net/DTD/sodipodi-0.dtd"
   xmlns:inkscape="http://www.inkscape.org/namespaces/inkscape"
   viewBox="0 0 18 18"
   version="1.1"
   id="svg12"
   sodipodi:docname="draw-cuboid.svg"
   inkscape:version="0.92.2 (5c3e80d, 2017-08-06)"
   width="18"
   height="18">
  <metadata
     id="metadata16">
    <rdf:RDF>
      <cc:Work
         rdf:about="">
        <dc:format>image/svg+xml</dc:format>
        <dc:type
           rdf:resource="http://purl.org/dc/dcmitype/StillImage" />
        <dc:title></dc:title>
      </cc:Work>
    </rdf:RDF>
  </metadata>
  <sodipodi:namedview
     pagecolor="#ffffff"
     bordercolor="#666666"
     borderopacity="1"
     objecttolerance="10"
     gridtolerance="10"
     guidetolerance="10"
     inkscape:pageopacity="0"
     inkscape:pageshadow="2"
     inkscape:window-width="640"
     inkscape:window-height="480"
     id="namedview14"
     showgrid="false"
     inkscape:current-layer="svg12" />
  <defs
     id="defs3051">
    <style
       type="text/css"
       id="current-color-scheme">
      .ColorScheme-Text {
        color:#f2f2f2;
      }
      </style>
  </defs>
  <g
     transform="matrix(1.5,0,0,1.5,-635.565,-800.63516)"
     id="g10"
     style="fill:#000000;fill-opacity:1">
    <path
       style="color:#f2f2f2;fill:#3daee9;fill-opacity:1;stroke:none"
       d="m 428.71,539.79 v -6 l 7,3 v 7 z"
       class="ColorScheme-Text"
       id="path4"
       inkscape:connector-curvature="0" />
    <path
       style="color:#f2f2f2;fill:#0000ff;fill-opacity:1;stroke:none"
       d="m 423.71,535.79 5,-2 v 6 l -5,2 z"
       class="ColorScheme-Text"
       id="path6"
       inkscape:connector-curvature="0" />
    <path
       style="color:#f2f2f2;fill:#000080;fill-opacity:1;stroke:none"
       d="m 423.71,541.79 5,-2 7,4 -5,2 z"
       class="ColorScheme-Text"
       id="path8"
       inkscape:connector-curvature="0" />
  </g>
</svg>
