<?xml version="1.0" encoding="UTF-8" standalone="no"?>
<svg
   xmlns:dc="http://purl.org/dc/elements/1.1/"
   xmlns:cc="http://creativecommons.org/ns#"
   xmlns:rdf="http://www.w3.org/1999/02/22-rdf-syntax-ns#"
   xmlns:svg="http://www.w3.org/2000/svg"
   xmlns="http://www.w3.org/2000/svg"
   xmlns:sodipodi="http://sodipodi.sourceforge.net/DTD/sodipodi-0.dtd"
   xmlns:inkscape="http://www.inkscape.org/namespaces/inkscape"
   viewBox="0 0 22 22"
   version="1.1"
   id="svg6"
   sodipodi:docname="distortionfx.svg"
   inkscape:version="0.92.2 (5c3e80d, 2017-08-06)">
  <metadata
     id="metadata10">
    <rdf:RDF>
      <cc:Work
         rdf:about="">
        <dc:format>image/svg+xml</dc:format>
        <dc:type
           rdf:resource="http://purl.org/dc/dcmitype/StillImage" />
      </cc:Work>
    </rdf:RDF>
  </metadata>
  <sodipodi:namedview
     pagecolor="#ffffff"
     bordercolor="#666666"
     borderopacity="1"
     objecttolerance="10"
     gridtolerance="10"
     guidetolerance="10"
     inkscape:pageopacity="0"
     inkscape:pageshadow="2"
     inkscape:window-width="640"
     inkscape:window-height="480"
     id="namedview8"
     showgrid="false"
     inkscape:current-layer="svg6" />
  <defs
     id="defs3051">
    <style
       type="text/css"
       id="current-color-scheme">
      .ColorScheme-Text {
        color:#f2f2f2;
      }
      </style>
  </defs>
  <path
     style="fill:currentColor;fill-opacity:1;stroke:none"
     d="M 11.037109 3.0019531 C 6.9387125 3.0971661 3.5322344 6.5834089 3.6328125 10.724609 C 3.6520807 11.51798 3.8060941 12.282255 4.0644531 13 L 5.1875 12.632812 C 4.9659787 12.031223 4.8313418 11.390553 4.8105469 10.724609 C 4.7011585 7.2215535 7.5755743 4.2659169 11.037109 4.1640625 C 14.686754 4.0566686 17.761794 7.0817754 17.861328 10.724609 C 17.965917 14.552722 14.823099 17.776708 11.037109 17.875 C 7.8644041 17.957379 5.0964906 15.867092 4.0644531 13 L 3 13.347656 C 4.171463 16.736488 7.4591783 19.073215 11.037109 18.998047 C 15.437548 18.905551 19.095185 15.168588 18.998047 10.724609 C 18.904687 6.45354 15.310337 2.9026874 11.037109 3.0019531 z M 5.1875 12.632812 C 6.0670094 15.021311 8.3855548 16.758 11.037109 16.667969 C 14.159867 16.561948 16.748074 13.888412 16.632812 10.724609 C 16.524934 7.7633455 14.010746 5.3084162 11.037109 5.4277344 C 8.2705401 5.5387433 5.9788424 7.917312 6.1015625 10.724609 C 6.1246171 11.251953 6.2531305 11.751549 6.4355469 12.226562 L 7.8320312 11.771484 C 7.6933049 11.441843 7.5932333 11.092801 7.5664062 10.724609 C 7.4190805 8.7026005 9.0561622 6.9725667 11.037109 6.8476562 C 13.256166 6.7077348 15.147389 8.5251478 15.267578 10.724609 C 15.400318 13.153666 13.425484 15.218808 11.037109 15.335938 C 8.9589414 15.437856 7.1500895 14.087235 6.4355469 12.226562 L 5.1875 12.632812 z M 7.8320312 11.771484 C 8.36061 13.027493 9.6148974 13.924373 11.037109 13.798828 C 12.568418 13.663646 13.830165 12.298069 13.658203 10.724609 C 13.517314 9.4354978 12.356679 8.3683608 11.037109 8.5625 C 10.026995 8.7111156 9.1798729 9.67107 9.4101562 10.724609 C 9.4458352 10.887832 9.5167295 11.046453 9.609375 11.191406 L 11.037109 10.724609 C 11.731715 10.724609 11.470487 11.545042 11.037109 11.736328 C 10.479339 11.982515 9.9130313 11.666507 9.609375 11.191406 L 7.8320312 11.771484 z "
     class="ColorScheme-Text"
     id="path4" />
  <path
     style="opacity:1;fill:#3daee9;fill-opacity:1;fill-rule:nonzero;stroke:#ffffff;stroke-width:0.06853583;stroke-opacity:0.94117647"
     d="M 10.294081,18.998179 C 8.7052275,18.822207 7.5607829,18.42722 6.3465752,17.635759 5.6237902,17.164624 4.6189628,16.202413 4.110428,15.49445 3.7035905,14.928066 3.121139,13.827191 3.0560027,13.501509 3.017657,13.309781 3.0270726,13.302867 3.5297965,13.153625 L 4.0427135,13.001356 3.9164424,12.584312 C 3.5909688,11.509345 3.5589538,9.8009369 3.8442307,8.7308863 4.5724813,5.9992753 6.6709654,3.9341238 9.4695403,3.1949294 10.207801,2.9999309 11.64265,2.9525022 12.464659,3.0959262 c 1.637277,0.2856716 3.191982,1.1296872 4.358263,2.3660065 1.099335,1.1653524 1.891586,2.7855327 2.111362,4.3178012 0.122684,0.8553521 0.04819,2.2127161 -0.167009,3.0429051 -0.796268,3.071885 -3.372787,5.487414 -6.444942,6.04224 -0.597337,0.107878 -1.639418,0.176365 -2.028252,0.1333 z m 1.953271,-1.288202 c 1.413692,-0.303945 2.611521,-0.975783 3.637344,-2.04011 0.835197,-0.866544 1.352185,-1.760187 1.718301,-2.970179 0.17165,-0.567292 0.186637,-0.710377 0.186637,-1.781931 0,-1.068039 -0.01543,-1.2164992 -0.185145,-1.7819315 C 17.005367,7.1398137 15.723599,5.634275 13.893057,4.7764542 10.298955,3.0922014 5.9773828,5.1844149 5.0019979,9.0809044 4.7948504,9.9084217 4.797803,11.223323 5.0085726,12.008777 c 0.080101,0.298503 0.159031,0.556126 0.1754008,0.572496 0.023832,0.02383 1.1228095,-0.308987 1.1865253,-0.359333 0.00948,-0.0075 -0.044497,-0.254952 -0.1199377,-0.549923 C 6.067852,10.957633 6.0669402,9.990481 6.248307,9.2813438 6.4772764,8.3860822 6.8715644,7.7210962 7.6182298,6.9709019 8.1788471,6.4076351 8.3652792,6.2681377 8.9233645,5.9943389 9.8314039,5.5488512 10.299441,5.4375346 11.253583,5.4401269 c 0.950021,0.00258 1.439712,0.1172488 2.296048,0.5376487 1.433542,0.7037683 2.497571,2.0061632 2.922834,3.5776156 0.193192,0.7138918 0.207063,1.9682858 0.02946,2.6645468 -0.16418,0.64365 -0.631635,1.617691 -1.026179,2.138264 -0.822273,1.08493 -2.155311,1.929604 -3.502539,2.219371 -0.637318,0.137077 -1.88323,0.103264 -2.5358258,-0.06882 -1.7699927,-0.46673 -3.3333458,-1.784115 -4.0751724,-3.43401 -0.092748,-0.20628 -0.1750182,-0.385362 -0.1828231,-0.397961 -0.031727,-0.05121 -1.0039587,0.300995 -1.0319063,0.373825 -0.048355,0.126009 0.3572194,0.955872 0.7713108,1.578213 1.1285464,1.696101 3.0276895,2.894843 5.0295399,3.174656 0.5847059,0.08173 1.6938149,0.03662 2.2990219,-0.0935 z m -0.611436,-2.473345 c 1.662894,-0.318164 3.066439,-1.622224 3.485162,-3.238129 0.137343,-0.530023 0.138091,-1.516972 0.0015,-2.0429821 C 14.697646,8.3183397 13.385244,7.1326479 11.731249,6.8915757 10.24585,6.6750766 8.640868,7.5400612 7.9623207,8.9227919 7.5867474,9.6881281 7.4942907,10.328359 7.6527306,11.066595 c 0.063331,0.295086 0.1206931,0.579234 0.1274706,0.631439 0.00802,0.06181 -0.1908641,0.163461 -0.5702317,0.291433 -0.320405,0.108083 -0.6228271,0.211557 -0.6720493,0.229943 -0.064966,0.02427 -0.009,0.188157 0.2042136,0.597974 0.4042505,0.77702 1.1853887,1.562558 1.941356,1.95229 1.007115,0.519208 1.9225832,0.664 2.9524262,0.466958 z"
     id="path821"
     inkscape:connector-curvature="0" />
</svg>
