<?xml version="1.0" encoding="UTF-8" standalone="no"?>
<svg
   xmlns:dc="http://purl.org/dc/elements/1.1/"
   xmlns:cc="http://creativecommons.org/ns#"
   xmlns:rdf="http://www.w3.org/1999/02/22-rdf-syntax-ns#"
   xmlns:svg="http://www.w3.org/2000/svg"
   xmlns="http://www.w3.org/2000/svg"
   xmlns:sodipodi="http://sodipodi.sourceforge.net/DTD/sodipodi-0.dtd"
   xmlns:inkscape="http://www.inkscape.org/namespaces/inkscape"
   viewBox="0 0 22 22"
   version="1.1"
   id="svg6"
   sodipodi:docname="draw-brush.svg"
   inkscape:version="0.92.2 (5c3e80d, 2017-08-06)">
  <metadata
     id="metadata10">
    <rdf:RDF>
      <cc:Work
         rdf:about="">
        <dc:format>image/svg+xml</dc:format>
        <dc:type
           rdf:resource="http://purl.org/dc/dcmitype/StillImage" />
      </cc:Work>
    </rdf:RDF>
  </metadata>
  <sodipodi:namedview
     pagecolor="#ffffff"
     bordercolor="#666666"
     borderopacity="1"
     objecttolerance="10"
     gridtolerance="10"
     guidetolerance="10"
     inkscape:pageopacity="0"
     inkscape:pageshadow="2"
     inkscape:window-width="640"
     inkscape:window-height="480"
     id="namedview8"
     showgrid="false"
     inkscape:current-layer="svg6" />
  <defs
     id="defs3051">
    <style
       type="text/css"
       id="current-color-scheme">
      .ColorScheme-Text {
        color:#f2f2f2;
      }
      </style>
  </defs>
  <path
     style="fill:currentColor;fill-opacity:1;stroke:none"
     d="M19.513672 4.00781A2 9 45 0 0 12.06836 9.105469 2 9 45 0 0 8.525391 13.21875c1.07606.34264 1.915172 1.181743 2.257812 2.257812A2 9 45 0 0 14.896484 11.933594 2 9 45 0 0 19.845703 4.15625 2 9 45 0 0 19.513672 4.00781M8 14.664062C3.99999 15.735863 7 18.26795 4 20c4.00339 0 6-2.00082 6-3.335938 0-.66488.0676-1.88944-2-2z"
     transform="translate(-.99999-.99999)"
     class="ColorScheme-Text"
     id="path4" />
  <path
     style="opacity:1;fill:#3daee9;fill-opacity:1;fill-rule:nonzero;stroke:#ffffff;stroke-width:0.06853583;stroke-opacity:0.94117647"
     d="m 3.1969985,18.883065 c 0.9745922,-0.734498 1.1661711,-1.117982 1.4417262,-2.885907 0.1933079,-1.240238 0.6803074,-1.785015 2.0022956,-2.239845 0.5741949,-0.197552 1.3665836,-0.03364 1.8637478,0.385541 0.356417,0.300508 0.4839799,0.651017 0.4849575,1.332535 0.00105,0.73333 -0.1560472,1.100326 -0.7357973,1.718884 -0.9684544,1.033281 -2.6209164,1.670528 -4.6763582,1.803367 l -0.5825545,0.03765 z"
     id="path817"
     inkscape:connector-curvature="0" />
</svg>
