<?xml version="1.0" encoding="UTF-8" standalone="no"?>
<svg
   xmlns:dc="http://purl.org/dc/elements/1.1/"
   xmlns:cc="http://creativecommons.org/ns#"
   xmlns:rdf="http://www.w3.org/1999/02/22-rdf-syntax-ns#"
   xmlns:svg="http://www.w3.org/2000/svg"
   xmlns="http://www.w3.org/2000/svg"
   xmlns:sodipodi="http://sodipodi.sourceforge.net/DTD/sodipodi-0.dtd"
   xmlns:inkscape="http://www.inkscape.org/namespaces/inkscape"
   viewBox="0 0 22 22"
   version="1.1"
   id="svg6"
   sodipodi:docname="earthquake.svg"
   inkscape:version="0.92.2 (5c3e80d, 2017-08-06)">
  <metadata
     id="metadata10">
    <rdf:RDF>
      <cc:Work
         rdf:about="">
        <dc:format>image/svg+xml</dc:format>
        <dc:type
           rdf:resource="http://purl.org/dc/dcmitype/StillImage" />
      </cc:Work>
    </rdf:RDF>
  </metadata>
  <sodipodi:namedview
     pagecolor="#ffffff"
     bordercolor="#666666"
     borderopacity="1"
     objecttolerance="10"
     gridtolerance="10"
     guidetolerance="10"
     inkscape:pageopacity="0"
     inkscape:pageshadow="2"
     inkscape:window-width="640"
     inkscape:window-height="480"
     id="namedview8"
     showgrid="false"
     inkscape:current-layer="svg6" />
  <defs
     id="defs3051">
    <style
       type="text/css"
       id="current-color-scheme">
      .ColorScheme-Text {
        color:#f2f2f2;
      }
      </style>
  </defs>
  <path
     style="fill:currentColor;fill-opacity:1;stroke:none"
     d="m11 3c-4.418278 0-8 3.581722-8 8 0 4.418278 3.581722 8 8 8 4.418278 0 8-3.581722 8-8 0-4.418278-3.581722-8-8-8m3.273438 9.302734l3.501953-1.75.447265.894532-4.496094 2.248046-2.441406-6.509765-.958984 9.583984-3.513672-7.02539-2.554688 1.80664-.578125-.816406 3.507813-2.478516 2.486328 4.97461 1.080962-10.226638c0 0 3.519664 9.299329 3.518648 9.298903"
     class="ColorScheme-Text"
     id="path4" />
  <path
     style="opacity:1;fill:#3daee9;fill-opacity:1;fill-rule:nonzero;stroke:#ffffff;stroke-width:0.06853583;stroke-opacity:0.94117647"
     d="M 10.184957,18.969364 C 7.2501144,18.659758 4.6591847,16.713969 3.5743913,14.004826 1.7683114,9.4943553 4.3230052,4.4593116 9.0402891,3.2320925 9.9501237,2.9953956 11.358862,2.9363102 12.293599,3.095642 c 1.241117,0.2115562 2.535081,0.7595832 3.485519,1.4762071 0.562007,0.4237502 1.462788,1.3575884 1.826597,1.8936297 1.553611,2.2891179 1.827616,5.2618222 0.716985,7.7786412 -1.14722,2.599732 -3.66537,4.42412 -6.520831,4.724309 -0.720482,0.07574 -0.90676,0.07585 -1.616912,9.32e-4 z m 0.581805,-6.800828 c 0.239853,-2.4218849 0.458293,-4.5267915 0.485422,-4.6775703 0.04759,-0.2644698 0.05177,-0.2680974 0.118604,-0.1028037 0.0381,0.094237 0.585784,1.5499103 1.217069,3.23483 l 1.147791,3.063491 2.202892,-1.100684 c 1.211592,-0.605376 2.216103,-1.113044 2.232248,-1.128152 0.04438,-0.04153 -0.354513,-0.848301 -0.419431,-0.848301 -0.03105,0 -0.825806,0.384909 -1.766116,0.855354 -0.940309,0.470444 -1.722102,0.832827 -1.737315,0.805296 C 14.232712,12.242463 13.45444,10.191764 12.518431,7.7128851 11.582422,5.2340062 10.796858,3.2293333 10.772734,3.2580565 10.748609,3.2867796 10.50631,5.4537383 10.234293,8.0735202 9.9622751,10.693302 9.7216328,12.928765 9.6995313,13.041215 9.6644343,13.219787 9.5021414,12.931432 8.4175241,10.763399 L 7.1757009,8.281128 5.5308411,9.4479783 C 4.6261682,10.089746 3.8428427,10.640519 3.7901178,10.671918 c -0.076311,0.04545 -0.041365,0.135675 0.1713395,0.442394 0.1605338,0.231487 0.3036799,0.371747 0.3585761,0.351346 0.050255,-0.01868 0.6118208,-0.404034 1.2479236,-0.85635 0.636103,-0.452316 1.1809664,-0.8218027 1.2108078,-0.8210817 0.029841,7.196e-4 0.825285,1.5268187 1.7676526,3.3913287 0.9423676,1.864511 1.7293376,3.390556 1.7488226,3.391214 0.01948,6.85e-4 0.23167,-1.980348 0.471522,-4.402233 z"
     id="path817"
     inkscape:connector-curvature="0" />
  <path
     style="opacity:1;fill:#ff0000;fill-opacity:1;fill-rule:nonzero;stroke:#ffffff;stroke-width:0.06853583;stroke-opacity:0.94117647"
     d="M 8.9935356,14.069479 C 8.2999653,12.712979 7.5301164,11.196591 7.2827603,10.699728 7.0354041,10.202865 6.8159591,9.7942202 6.7951045,9.7916283 6.77425,9.7890365 6.2057917,10.172538 5.5318638,10.643853 L 4.3065404,11.500791 4.1564845,11.35982 C 4.0739538,11.282287 3.9493254,11.112815 3.8795325,10.983218 3.76782,10.77578 3.7647143,10.735634 3.8535767,10.647696 3.909094,10.592756 4.6777179,10.037845 5.5616301,9.4145597 L 7.168743,8.2813136 8.3038904,10.524769 c 0.6243311,1.233901 1.1866294,2.316687 1.2495518,2.406192 l 0.1144044,0.162737 0.039867,-0.231273 c 0.031747,-0.184165 0.3849214,-3.4626255 0.9757154,-9.0573866 0.02301,-0.2179142 0.06584,-0.4110403 0.09517,-0.4291691 0.06247,-0.038609 0.562878,1.2200312 2.221913,5.5886167 0.665654,1.752804 1.234799,3.212182 1.264769,3.243063 0.02997,0.03088 0.819689,-0.315244 1.754934,-0.769166 1.132325,-0.549576 1.726408,-0.803765 1.778158,-0.760817 0.09533,0.07912 0.411711,0.743402 0.371815,0.78068 -0.01582,0.01478 -1.021086,0.522691 -2.233932,1.128695 L 13.73108,13.688767 13.530034,13.15996 c -0.110575,-0.290844 -0.642663,-1.70848 -1.182416,-3.150303 -0.539754,-1.4418221 -1.002736,-2.621495 -1.02885,-2.621495 -0.05699,0 -0.04315,-0.1199266 -0.549803,4.76324 -0.222929,2.148598 -0.429866,4.014069 -0.45986,4.145491 -0.05246,0.229845 -0.102584,0.144971 -1.3155694,-2.227414 z"
     id="path819"
     inkscape:connector-curvature="0" />
</svg>
