<?xml version="1.0" encoding="UTF-8" standalone="no"?>
<!-- Created with Inkscape (http://www.inkscape.org/) -->

<svg
   xmlns:dc="http://purl.org/dc/elements/1.1/"
   xmlns:cc="http://creativecommons.org/ns#"
   xmlns:rdf="http://www.w3.org/1999/02/22-rdf-syntax-ns#"
   xmlns:svg="http://www.w3.org/2000/svg"
   xmlns="http://www.w3.org/2000/svg"
   xmlns:xlink="http://www.w3.org/1999/xlink"
   xmlns:sodipodi="http://sodipodi.sourceforge.net/DTD/sodipodi-0.dtd"
   xmlns:inkscape="http://www.inkscape.org/namespaces/inkscape"
   version="1.1"
   id="svg2"
   width="22"
   height="22"
   viewBox="0 0 22 22"
   sodipodi:docname="edit-download.svg"
   inkscape:version="0.92.2 (5c3e80d, 2017-08-06)">
  <metadata
     id="metadata8">
    <rdf:RDF>
      <cc:Work
         rdf:about="">
        <dc:format>image/svg+xml</dc:format>
        <dc:type
           rdf:resource="http://purl.org/dc/dcmitype/StillImage" />
        <dc:title></dc:title>
      </cc:Work>
    </rdf:RDF>
  </metadata>
  <defs
     id="defs6" />
  <sodipodi:namedview
     pagecolor="#ffffff"
     bordercolor="#666666"
     borderopacity="1"
     objecttolerance="10"
     gridtolerance="10"
     guidetolerance="10"
     inkscape:pageopacity="0"
     inkscape:pageshadow="2"
     inkscape:window-width="640"
     inkscape:window-height="480"
     id="namedview4"
     showgrid="false"
     inkscape:current-layer="svg2" />
  <image
     width="22"
     height="22"
     preserveAspectRatio="none"
     xlink:href="data:image/png;base64,iVBORw0KGgoAAAANSUhEUgAAAJYAAACbCAYAAACAn2I8AAAABmJLR0QA/wD/AP+gvaeTAAAACXBI WXMAAAsSAAALEgHS3X78AAAAB3RJTUUH4QUQBBAvby89vAAAIABJREFUeNq0vXmcLGlV5/09z/NE REZkZmXtdZe+3X17obuBRjZlE1CBccDBBUdcURhkxG3e12VeHXfHEcRlVBRF39eRz+suuOHGgMoq i83SNLI13bf79t3r1ppbZEQ8y/wRkVlVd+luaMzPpz5RlUtUxBMnzvmd3/mdk/I3d58L7/vnD/Oh D97F5sYArWMkKPLJhKRlqB+eEAKgCAEIhjgUPOVxx/jhH3wlcQviAJWFOKo/MckhTurfVQCnprsK oIQQAkoJIYAECHLlrSegEFCAZ/YI0vwiPOjDU3909rnmIw6w9ZkBECFEgA4BE+rjwoOT+ti9grL5 nAM0kAVP7NSB/yf1MtWf3//c/mOm3q+Xq5932HfKD7Y+D3frFYir114CIJ5YFN6DUjDIS8bFhDe+ +W/46Ec/zWhcUVjNMHdUNiAmQiTggiVgMUozGUxIkwzvPXmek2UZ11xzDYuLi5gTpy7w0c/cy30X NigLwaioXjpvGPQ9QXnANQstEBTiPbHkvP3d7+FH/p9XopvFMo1RKSBpQST1hQz7V14LqllY3RiG lvpiqeb9Io1BCHhktsBKgQsBLTKzMf/gdjU7tuljui89e02Q5nkFiMjMAJSCgCeIql9rLLMSaiMU hdb1slz6kOaGutpr01s2BBC1/3z3bR/q9c92q+t101KvRJ5bTKTRSmilmiSdI59U3HvyFKNC0Z1f Y2fsKAuHMhBEsKEkBE9sBE2CcwZrLYUz5GOHW99lfVBizm1scnFjC4siTtsUJRQTi1KGOG2B8yD1 5RO7d3nEOxIVkcaBohRMXC/YcFAw303wvjaQIPVWN3f61BikuaBTL6IucUDqKlstMvs78NAPCYEg ss+D1aaqpobV7EQ3W5FAaI5CBHRQe+9p9hGH5tyaG+Sq3lIuN6jLjk8e/Hwf6vXPZeubY0kTgwtg PYwKiFMYF44yGLqLK4jpIkWJdRVog4jgnEZ0IJgI5xyFF0THmDQiBNjsj7BbfcykKnEIPgj9cU5V KuKkTZp1sNYiylPZgqIoSExEmmSEECjGFpMoFEIaNx4LmO8maMBo8DhMUIQgBxZpGo70Q0WycOU3 TJ8O++78h/9Qe66iEKgCIo0LiiB4wTuHJxDHhuACRprwMfGga48mWiidQ7U0rrQQabQIrrSI0Sgl D3FioPBIUA99c4g0UOTg3yLCI3nYEBAleIE41XgCQSe0Ol0GRUk7NgzLEePSEye6QTIaIxqL4L2D YImihKLMiUwKRhiOCkwcx2hj0HFELBGiNUYnIAptIhyh8VolVQDjLMF5KEsk8QdCC4DytesGjwoA FkERaO5+ICAIAZEGyFwNGIi64usy3e4Fyatv5SrPB1XjPdPs1jqsq1Bxgo4URgLWVzhniWiBESRS e557XBItRJR+QhUcUYgIoohijQSwWPSlgXh6HoAE39wzlhCk9pRX2/or/01QDwNg+cvf5zWogBJw +yKHR/AELAoXBIsGiVBaoaOUEALBV1jvCMGjtcGIwUQRvsHMVeUZ5UOM9xbnK1RgdgdU3uNLjzGq xhjN/RW8xTkhOI8Ei1AbloS9cIc4IBDw+5yNqz1McIjInkEECDI1sytsQzjw+tRVXfZ6CHgJqH3b 6fN1zHKzv2dbPKIN6Np+rQ94rXFYylCxvbPNysIyJolrHNfcnVQBo2PoGEQCdlLSTtPaRGwFJlDa in6/z8rScn3cV4qFU5d7AIU++DYE31yjsJdU8SDrN9sCob7jAyUi9d0kYtASmqtT782H+og9gvWe yguVc5jSzQ5fK01wDoLDqYDy4IOFoHC+wroSU9oCW1YUtsJ5TeUE7yxBPK04IVBhncVTh4SpKzZm H8q5WrjyteEAiJp6mEAIbrafy4GtPHhIIMwyrRBCY7ChAbp7W5ltQw2AL31ewEce5yFYT0WJMRrt FYloDi0sAA6Fx6LqsB0p0IINgjH1DWOiGj2O8gneerrdNnFkWF5cIeAuWZzwkCHvwd5z6XodPM8H 27r6/vIeEdNkrAGUPQAmpuHWe9+cMQQcwXmKokAphVaeSJsa6xBwvsJbR1VVGKWbzwpGTbMgEbQY lFJN/AxUzuLwiPezZbHB1phDhECdZTgCZrqAsg+aq7BnKNMUXkmNK6RG90JDOYgA0ng6hTTuSahD ojSQMxzIE4UQfEODXHnrvW0W85LXEYZugo4MEYqUiOAryqKPQYiSmGkuHkpXu3sdg1aUriSvLNo7 sjSr8aWOaKU1vzIcDIhbCXEU86DwXRqs17ivOtTtd2efn63MQrA0EWAvVdpvxkrUDLt56psv0gan LcZowBOJoILHO4uIoBr8qUWhRdWh1XrMNLPxBIICF8CH2jN4ZWoH6WvDCxIIKKwvUQSCqFmGV01T bAwzkwv7SBxklkkhNOxU/QnZlxIK+iqIXjXczvR13ew6XEIsNFtlwAdEmebiHXw94MmilMpPKPMR +HrRUp2ArfCTMco5yLqYyhGGOSFuUflAIYFer4cv3OzYEhPNMFyn29tnMFfDgLVRedGIr0M0ogi+ viG9gJqC9hltM8MC+9bxYWzVwfA7uyLBI0hDP9T7V3ovf7bW4r1DGyE2CnEBhUd5RznJ69CpA8rE BAK6cQnee0zlHSEEqgDeWkpv8EGDMs3JKNAaJQEfHN6VqOCJACd+xiOphvsMIngEjarx1hQ8zoKB nxnJQ7GbM0O8JJjUuKE28oMX7yAzKkFmvFh9Hff+n3ihHG6TzXUhbhF2RsjGFvkDJ/n4HR/k4x++ kxMnTtBbWGAYKnatQ3rzVEmEdDKWrznKYx//BG657VYOHz7K/NI8k2HOYLDL8qHDFKMRrU6X4CBo QQVp0I7sO++ajwn7M0i1ZxF+6lUaqIjU5zPD4P6RZYYqNM7ikn2I6Do58AEdwHuHBE+kNYk2RAbS SCHaUDhb3+CVrQ/YKbQYjJEYEU0kUEptrlprtDI1cA8BGveoQqhZQy9oHQFm76SnFj8LmWFGxMk+ j7MXvfd4rauf+N6+3SyATRkwwUmdsl9KlYoILsjs/4QgdbbanEsDOHj/W9/OtUtLVBc3+Og738m5 f/0kPRG6JkGPc46mHdAxZdzipiNHeOwXPYXO4iI7gz6lUQzLis/c/Sk++aEPUYyG/NPb3srKygr/ 49WvIu7NgStBQPk6Y9xPd4gIrgHMgtTnOgXpDTEc9rH0eh/pqhosJFJTBVMi9rPZTteldgQeTU0d SQgoqeNJ2moxGZdgLcqPSEzMQjul120jInSWltjtDxkOh1zc2KKqqjrBEY+JJSY1GSPJKUIA6/BS omMQ8WgJGF0bh/IGbEVwQmVLkk6Gln1eXwTnS5SixmGzsFMbwpTdDrLHYz2Ux5q6KXOZh/NE4tnc WmdxcZm8GJImLQTFaFKQtDK8RPhJRVwFiGMoHR/5h7fQ7XWIIs1KlPCHv/Y6bsra9E/ex82dlGpj m+OHr+He3U0mc23MTUf4sq/7SlzaQZeQb/ZZm1ujwvKA7zPJ+6T5iMceWuVTRZ+ND93N9/7Hf8+N tz+Oxz/j2XzZ134DdjxCtzoQ19CiyEvQBpKI0gYyIwQLOIdKDLgmw0yiOtw0CNMA4gOqYV5F1+si Mq0aHNxyleenkUAazOUpm70bOu0UW1haeg5VOloCZdnn/IUHuGZtidse+zR+/We+44CL+88/8wdh Z/MsQQWSLObkYICpnMNbR/Ae5RrYHOpTqeNvQIJCi2sOpOZGjBgk2EvKJwEvDfgOU+pBX5HtrJPc K5uWXJL5XDmhqldnafEQuzub9ObblLZACbRbCcXOFkncBpXApOS7nvd8FuY7xFlKaznjFd/93awt rPADP/Bf+fT738OHNs5ALPjYc27zDEF5XvSiF2Fuup7TWcbJ3V1SHXHs+mPYi9ucP3eB1lJKS7U4 nrZ5w8//Akk55Bo848mE9bvu5I8+eCd/8ptv4MTGNm+782NMBiMmtqI336UoS5xXtIxme2fIcq+N aEN/c4e5Xo8kVkwaP632agGzysP0xru0ZHq1Eure834WRaYOQQeNlX0ePygIQqwNpTKoUBJsjvLl ZUYF8Ns//s3y9K//oeAa3iyEUOeaIYTaxUoNsLU2RE3qiDR3iWlAo1KI1oirgaUP/kCWMQ2JQeRB qYOH+xCpwaBS6iD77AQ/1IgReskKk+GAKli6aQRVQRQCu+9+L6/9mZ/nliPX8fTVVU7uXOBHXvWj 9Duwk4/wvkWyssix5z6Dx3/ls1CjEcVn7iZZXuNjf/82Fo6sIJ15rt/sc838MmfDhIkbMmpNOHb7 cbZ3trAXdvm9X/8tHtVdpNiyxIliYzxiMi5ok1G6wA2PeQKv+b7v46/f+07+5m1/j7iUlg9UlUMn ivlOBiJsbG2ztLxAACaVwxizj6Wf4lcOJDufA7Layxdlamh7rNgeZlOUlW9qwClR3EJH0VX36nyN +ZQotNYYpVStNlCgtRBrDUqjlMJ7T3Aej8XaGjMpwDXoKITQpKiXFn4vP+NHUoLYX9KYkn5B6qJq MFCOLUmvS+wFXEW4sMnv/PCPkA09N/Y6DPrrvOjbvpn5x9zEmf4FVq+7mcHOLtonTErLyvHjPPDx D3Nt2uL8xXX++ldfy2OO3cQb3/1LRCoja8/zZd/4Yo7feIhzkyGjvE9lAi0Fd971MY52lsjKCflg Qst0WWt1yScVvlJsbA45N/wkNz/32XzFV7yAn/7Z/0Gcl7zq136dCM322XUWjqxRVCWdhS67VU4S GaIoRoJH+YMqCa/Aqr0S2ue0nvtVFzMqh4YYDbMkwQWPQ3AieGVwcuX/+PKf/r3wsU98Ek+FiEKM OZhK1ZlH7cqCa7Yh4L2f/dTPOWywBzzIAeC8n2W4Crn3cB+XZ4X1M1bBbhc2JSCLhvHGRdTIEt7z Ef7k5d/D6voA1d8mWe7yxG/7SrYfvcq5wy26T7md+y5eYK69QJpmdKKEwf1nuWbpMH/1mtdy71ve xRO6KySnL/D49jy3ormuP+Kjb/h9/viHfoz3/7//P3NnLnIMw1IUc/rEfZSjPgbNE7/g8Yx2hiRe k1pNr1Icn1+mLYpeJ2V+qUu2kDG31ONLvuB26A+YX1kiFAXj8RAtqlGIKMZ2iPYe8VIn1+6g5KaS h05+HmpNxYcrGlzNN2p0lGCDJi89eQnjwvOKn/pfl110i0ZHLZAIF2psbXxDANQXX6GU4F1tTFqB c7W3Cc0lDftwTwhhVilXl0hVgvB5CIQNmRD26Yj2cWIVgVYiFBfW6WZzvP4l38JRD9m4YGFplWuv PcQTXvqNbM4Zskcd5xNnHmDJG9qLhxESlBLiJAHb4h9e+1qO6zajrXVuWF4iH1na3jIpCua6K4wj KFWXne0+7/vLN7MTwf/16tfw7d/1St74qv/JsHSc3NkmXlwgW1igOL+NKy3KaJbXlun2ugwNJElC f+s8L/66r+U/PPc5DMcj3nHXXcylSYNPhdIWdE2b4JqyFL4hsWv6x38e1hSoaY5pSXXKOTbUkAs1 EVpYi1IRSbtLMAnnNvuX7W9rewcb6oxfEJSJMEKtbzLG4EOCDx4vUnMZwYME/JSXk30FS++v6LH+ LR4iQvDhQJpoCMy5MbGtYDLiTa/8HlbXdwHP3OFDnM1zvv6lL4MsYbG3zPkHdrl28QbGuaW3tIob 9NnZPc9Kp8vf/uTPoU+dpfKWm5cWcLsbLCUxQRxFq2LHb2JDQphM6HXnMYvLvPS/fBelBHynzXf8 9E9QXNxg9+IF3vWP/8An732A+V6HVjdm05acGu7y5KOH8WlA+jvkylD2x3zJs57Ou9/5Lr7w1pt4 5wfeh08jkqxLW0dYW6FULVUhmGlBA1H7JESfj7XV++pvNaCeyX3ywlJZj0k7zEcKY4RzGzs8+cU/ E1qtFJNoAiVnL5yvaaygUFMhgxKN1prE1JIIRYRzNQXpXJOTiNQSD2loB6Xq2t8Vw9vn7qemhdOr 1sl8qMlGhOAd8WgXbOB1L/4GVm3E4bVVht7xic11vvPXfhVMio8TylxxaPFaKoG5TLO7sUNPOebn urzxh36Y21xMt9tD8h1cf4vlTpvzp0/RyjK6nTY7NpC0NHOloTIJd953L8+LFZujMbrbZWuUEx1e pr3U44t6c3xFp8df/umbOH/6HL7Toh112B1sY8dCKpB1ewxLRyIRq0vznD1/lhc+73n844c+jB2N odPFTgqStC6ST8NCaMKUvkSN+jkbVZhGH99wkFNCsiaetYlRqsSpgFEpHkc/L6nGFa2WpXQT4iSC UJfARE+PS2FE1eI2xOO9oyxLbLVXbFYiREY3uCngvMPjSYxBKTtj3L1cxn1/Di768tUqy5IoipAA k6IghEArSwmuJHzqbn77R36Uxx06zGBjh9PDXW581jN43steQujMUzmF6fRQuwXF7gQda+JMmC8t sa/42GtfyxMmFXO7Q5aSiKFAqR1lNaSdGWLlcOMxkVfotMPy8iqfnAz47p99DSRt2u2EsVLkSYJU Dl2UxK2UYVHx3Jd+KxvbG8zN9/jff/93LHbmEC9Y4EJ/m1anR15s8OxnPJWzD5wkco5/d8tjePPb 3oJJe4S8hHaH9c0NFpdXaoWBqss/RsAWDhLzyBa80TuJCKpJBXST1ak4Zly6WpodaqdSFgXeQ6wS hnlJ0oqxzqGUQUmMUxXOBcrKo6ag3DlX0wshoETqrDDUz9ng9xSVTbHxkYrMHs5jPB4TxzGTcY73 nriV1McI/Ot7/plfevWr6aQZO+Mx0s5oX3OEJ7zi5SCGalLiK0FKIcRCMp8SLaUQWeLMwIV1wt33 cnjiWW0nFOM+g8E2JtakvTaSxcSdlImrWF1dZZQX3LO1SXb99XDNMVhcRqIWYhKKJGOUtpikbYq0 zbiVMchi3OoC26Gk05njn/78Lzj1rju4rbXIqjMsqohr1lZoec9znvY01KhgUSc898lfjHvgLGma Yic5c/Pz9U2tNWcvXqiz6wDKB/g3gCJTe7DWNlUABUHjReGVBtF4FSE6burKGmdDA42mAsSAsc7h mp/gXAOMa8NSYghUqKDx4pvCcw3hxf/bG1aWZQyHQ2JTx+18NCLrtBmPxwyLkpd8/w+ylrUgpMiF LQab28iJs/hOl7ibQjejOH2K5LHXs1FtE+tA1N8l7Qfe8ZpX8Zg0pn/uLMNWzMLqAodXOwzyHdbt BL3Qpl9aWJxjKIGi3cIcPcpTv/VbCO2MnBhjImKBSHuCjlHeQYjwGLxXTELBYtyhVZYsDCzjU5/i 7//1HpIbjnLLUx9PfzxgbX4OM1ll69rrOHnyNItxi2c86Um899xpgi0xacTGsE/pLGura5TjCUo0 kkQPU5z9cDLu0JTvzL7Mfy9Bm/6u0YgSjI5rmwkTQqhl3i40ki8USsBM6QTnXF0nCo1hGdNQ/wLO zkLl1GM47y9hxz//hmatpd3p4MqqVh9EEZNxzofu+CC33nobKybgLqxjiPiz33kDWhQrc4tU4wLr DZ3uHE956TdRfeaTLN9yhJIJ8VzCu3/jdWTtmFgMC9ddS9USdgYDwmBMmiRobXC+pHBCt91lZGHL O57xNV8Dj/0C8v4AHwlJlBDwtGoqEK0tPmqky96z2lshG4+45wMfZO7CDjd1ar7qwplz/OUb7kSl gSd90VO4/vAx3nr6DMVgwE033kK0vcVL/t3z+f23v43tnW268wuz1U2yFpOdIW09rec8Au80gy8y I7lFQoOfG/HTFIeFQFBNUqcUEqTua5IKgprRUiEEnPMYUWFWwJ1aplJqprlyvu6M8b4Wi9US2TAz sM+HOe1XO+7HWsYYiqIgjmtdUxRFvP3tb+f48ePs7u4SRZpetsA//9yvs7Q15oZDq2zccy+ZCEcO HWXj7k9z6nWv50LPcH9U8bxXfBOnBtt85MSnubHVZcFpdFmibAQh5lhvHp1lhK0LjMoRaZQyLAOu 3SWXgvCEJ8Lpc2QrNxIMBD9GY+l4ReVrhaYVmBiH84rh7hadfMLNcx2WcyHd3KadxpzZvMihXkIV LB95x7t5T1HxvGc+k7vuvof7L26Sphl3feSjfP3zv4I/+uu/oiwmREmLze1ttCiW53s451ASrloW +1weRgRtBCOKoA2VhdDwmuoSzis0enklUV1/9DPJBeJrZXFjKPaA6wshUFXV7Md7Rwh7Hgtd1wPD VcjPg1SEf1igfU+54JtjAqUMw8EurrK84x3v4Nprr8W5QBolhFGO2tqlfOAU1xtNurnOkh9x26GU sHUft81FZJvnWBvnHBPDibs+wY2PfRLf+6pf5AWv/jkOf+mzsY+6icHSCpPlNfLeEr5U7I48nfnD dJfWyI1wIVQ8+YVfXms3OnOQ1YSlTwxiNJnSdFCkYoi0wUcROjIcWVqgjcNe3GAtNrSdhfGQXmaY b0Vk3nM0a9OLW3zykx/nmc/+Yp75Jc/EBsutt93C9vmLvOwbv4XIKTSe1YUF5ud7bI4HOC04+dzS pUvrr1PxeR13NCJgVECruntJNdIq8XWTSQhuVkkRrWZbtS99Uwe4IteUcJzDu1rjLE2OK02I1DpC qVp68WAp79TYpo2u+09qZmbBXcXj1QdblhOUgk63x2/+1ut59KMfjYgwmYw5evgIi915/vTHfpwj eNpln4Qdjh6JOXn6TqK4z9heYHE5oZXU+3viF38pJPOQHWW8OabzVS/gUT/4PTz2e7+TcPutfDQW 7uvETOYXYX6JsRjUyhqDQ/PMP//LUNrD0WVGGi5GULQ0JHX/ZIqm1VA3EgW0Cfh8TFJWLGjFZGuD 8XgLbSyLS202N86iJgXLWYfYe6pJjhe49oYbedoznk6WxJTjnJVsDu00o/UhwQbyoiDNOuSXyZ4/ O15wr6ZbG5Of0t/eE6bQSKmGMdgzJuXrG965Rsg0lVSpmlxXqr7Wxst+K3b44MEbnHNkWYuydChs 3eihag2PzHj/S9j2gyXOWSLg95V49rybb2qAjoDGS92FXCv0avfearUo8gnKC09/8lM5d+YMaRLz mBuuIz9xgve99rc5rhLmraNthN1yQDEOXHPsEJNxVWuzWxEXtOUpL305YWmVIrfEWUb7+HFcVDDs X6S3tsKt3/DNCAmcuI+Pv/FNXNi+gHUVc0fWuOW2GwhVCYsp27s7WNOj3WkEccqA0qAEFRxRUERK o11ETxn+8c1/RUsFWrGis7qITSM+dc9nuPnaaxCnOHv+PLEolubmaccZG3lO7/Ahbm61ONQf8y/v fR9f/oVP4q3v/5dam2AdKqnb9R4pDlGq7qrSonAiOATrofQVynuUqYv/TqYS9LrfynhL8BXeG5Rw IOELofZ0KkKRaINuNE9pHBFrha9KJuMhElytx3IWSksoCrRXmFATlephUKSKqUZ+rzm1lucUiFSs j/pYYDICKXXdwNOEYx0Ub3nT39ANMQphrh2Tn72Xu9/+v+mevcj1JHQkYuIdRTtlpDImY81cskLu UraiDhvLi3DjdUgno0qzmgis6uQgSjoQzSHRPIQEbnk0j/nvP8IX/OrP88Sf/DH8dcc4evuTEG+Q fECUlCx26p77GFA+pigtdDVDG0haGStxF7M7IhoUbD5wFtGCjaFSnpBPuH1hjc7mAD8cstBJaBlN GFesJIt0kjkmcYJd7NC98TBf8NQn0rGe73zBvyfkjrksIy/LJmM/mLV91oZlpC6VOcGEulnN6wgX KQpVEFQ9hCAyCXGrS2i1cFqjImilmlYaoZSgjaKsCsqyRGuNtR4log+kltOOGm2mVsieq0MwStdb rWdeaKpINJfMKjgoJz6IuAKecjICPEm7gwOmoyKGOxO2twYA/OIv/iJPfuITsWVFL03pBk83zzn9 Lx9gKXjMeEiohsRxRLvdIUu7dHQHqSJ6197IhRB49jd+PXTbWB3TTiN8BK5yxCYmStLG0gPeKCYC 6zh2qZC1Jba3Bvzz//cG7vit34HTZ+gWDrO5QTYeYS7uoCcllCVubJlbTrAUbK5fYHVpkWqwSxvD ZDgiz8fE3RSJFZPRmCg2GOURLUQixEozHg5ROiKkLco0ZmMyZOGaVQ4fWeHMfSd575vfSLW7TRbH 5FXxiAnpmYE5mYFzj1BhqbB140nweA/WKyofqILHeQveErzdw9z7olFNuF7B6ut4qWZGpJQ6+KHm 9YdbxJG9PpQZsJMASZoSUARRDKtAWdV1i3anxcLSHJU4nvXcZ3HvyftoJZoFbdCbOzByLOaOlrG4 UACOTMFcAfN5ILEGHTQ7kxy10kPdcgOjcgK2RFUelTuCLyhxeC/gHUEJKoFWAsuxoacjwpnzzA2G 3GhSepsD7vjt3+MDv/A6Rm97L9x9EsY5Mtql1Uspdi6wvnmOuGtYPjLHJN8mWVlBlQUr7Q7H1g5z +uwZtsox8fFDnHEjbAuU9vVPJJzdXsenmqiTIJEhmmtTaTh6600MQsF/+7EfJW6nBErmorqu+0ge bvr5WcfUnkTJ+xqqiEhDM4TZMBEa5YuzYY9Yv4RkNVND0VojQSP+8vbtz9rdXqE/btptsvcehUdR NZ5OR4IpAQv9fJu4a3j7e97O0tw8h65dpW0Dod8nmV/izf/1O7m1Hde4p+WI46SW4o8LEpMQkgxp JQzbCbd99QsJVYVptzEoggNHgVlokYcRicR4WyHWEUxMGE0QJlCNkM0tWoMhWV6SFQ4z3KbayOkP P8CZt7+HbZ9j51o842UvJT16hEw5hudP4eyQuXaHP/vZn8NubIKKKQrH/Pw8277g4u4mC0cPMe5v I8ERE3AqsL69zrH4UZhYYxJN6QSVJvRDiZlrkcUx5DmRSnA61DMBHjnXDkGhVTOFZ3atHZE0DiYI VgW01nhna5DOnlFdSqg2/RGupuCNwRgzA2D7NVh1inlQm+WcA7WnPwwHrWhfu9Kem9xfC/QIDsWw GtccFaBaEAz05lq0tOPeT3+cUA0p8x00FZ27XPlfAAAgAElEQVSq4j2//GscJaI9LrHFkJAEbMsy 0R5ig8o6hCxhI4o48vSn4B99G7vOY4kbYrdgmFhGWHJXNGMB6gwomICKQVoxVBUf/4s/oxc8c6lm LlhuSLscKy3RA6c5Mh5zfDJm8fQp3vVTP8Xvf9M3sf2P/0QnTemVIBe2aOUTbj5ybd1mVjjmugss Lqxgq0AxnhB7j6ksSVAYD+PJCInrzDI2EStLywxGY7LFRZ7xrGeiK8/Tb3s0cTkh9g7zOTLvlzkJ VbdQBkCLnzmVmpqSfY0tze9NB8+lEGp/ODS1F6stU4KiIuCbDzlft8urS7yX96FuYvV7XTlyxfAn V9ZXzUKiQqGpXD3dRmzzBi30T5/l8TdcT1ugk0QkzqNaMec/fQ+P0xo/6hMnHhNB4S3eedrZPENt 2K0qLhjN8lOeCmVJ0pvDoxiPJ3Vnbyr0wwipK/B1yh0ZlAo1d+AcnDuHbkYJuLJE4ZBJTpZGpC1h PN7B5DsciSOOLy5zOEm4+8//lotvfBNLx6/haV/9leysb5DomE67TdTKOHH6FJJEJFmPsppgiBDn SNHk1s8ih3aOlsQUeUmn3aWbatbPX6TMJ/RUBDpGKgeR26dT/uzphjrsNd1Bs1DYeC9lGidSEbwQ QoRzVX39Xd1JKpLUzKPsJWcHeKypO5t6o0vlwFPcNd0BTHmMz/4OsTMitP4/kY6IdF0+cgqq/hb+ zBne8Mu/zCFtuGGuR7mxzsWTJ3jvm/+aKNYMi5zFpSUUikylKKcJyuBaGRtGsdFr03vC4wiHVhl7 RaJSYgeZiWlnbYwkKIno6g5R0Ig34C3jwTbj3Ytw5gHu+Me3sby2QGhpfC9FFtsMR9vYwRYhE4ow Yr4TYUZ9xp/5DEvnN1m7sMGtVqNPr/P21/8O3/xrr+W5r/x21jspH97ZIl+YJ149BCGmm/TQEiFe 0VIx2gU6WZtYaYwVusRIAd24y6A/ZmlpjcfdeBvVxi5ffOR6VGEfca2wpnbkEgqiMW6tD5Dl+DBr P5s12Gi959326fMOgPf9oW8/J3EglO0zrM9G3bDfSPUlXT2JMljrZkrRqJOh5toM77+fP/yFX6Z6 4CxHsg43PObRfOIT/0poRYTlHqfzERM/vcNamLiNzzJGSUp8w3FueOELYFTQWlpDTQQZeVAx3gVG o349QISa7PPOgRjSdkprYZ7Q7WHHObu72ySdjJ0yZ+QLOoeWMZ0W/eEu80vz5H5C+/AibedYbCVc 310g7o8pt/rcfMtttedbW+IZP/R9fNWv/jzlNUf52MY2k1bGTunITUZpYnyUYtEkaYYSTeSEVAzL nQWqiUPHCZV1bG9sc/zY9SylnbqhODzyvHAGZqYzNprLqrWgpyLQBmsp1TSjKj0zqoNE+L7y0NRC a19S1+PqRtRAlmXk+QBfObRupsw0Rue8x++rH8nV3VVdC7zEVQpCsIHIGOIGq015lY/87h+xXHkS lfDGX/kNRnGLJzztGUiSsOMrfJmz1NIcijpUukeVj1FRxrgy2CxmO1huW12CdB4/LAkSYZK47qUU ONTqYb0nLwXVUkxKS9qyEBn8hQ305jaZGFo6ZVJMkLRDKCZQVhBFGGUY+BKdxgQ8Y6mYbG7SO77E cHOddOUQ1zzr6bC8RD/TtFoZxe6QL/9v3091dpN/euNfcO4znyFTDtU2TApNHgmduS5zC4voc+fR HrIkJYoinKToKnDsxpv44LvewZGbjoGvW92DqifqRVFUzzBL6vkRg8GAbrf7sDJDLWavn1wpkiSh cPsY9UYOHSlNlCi09djK1q8FtccahL1uKjN1Y9ZaJJh6FGSjt6p7931dbFRqNrzDufBwY2DdDC8H hfozZ+cUVCVx2qoLFCrA5iYf/Kd3smAFNZwgaUaadRFRfNt3/GdMr40vd3nTL/0Ka91V7jl1kSOL K/QHY4JXlHGLL/m/v5uqnODKEXHWJeDqsQEu1C1MLmDEkypNCJB250AmSF5iOnPc/3dvZSVto3e3 Ma7pDrYKnIFgUQ4sbja7YmFtjVDA+dMP0Fle4v5JDquH8aLYTduMk5TxqMRrzdwNCzzz676OthYI lv/1y6/FGGFsCw7fdANnzp1moTePsYG7T52mlWUURaA/GXPzbbfwiY/fyX1nTvF3f/gHvODlryCE 0DiDmvDVWmOMeVhGteeo6v5PP/M8dTugVmCMYmKbWWbe4RoMjvMoDsrT9ysc1H7ZjLV2lkLuF/9N Xd7UMvdzWAc6lq/GYYWD73X7fZerK+FVaVHBgjacuOsuOqVlrgqY8YTRYMwzn/McXLvLdlWhrrmG F//q/+S2H/h++rfdxJ2TMcnNN7JeTrCJxtucgS+go5iYilI0YxyDOFCqukbJ0GF0rSEiYSZs4+w5 Lnz8bhZDRNsKWaVolYG0FJgAhaeVO9JJQOWB8e6YfDhhbCsGweLn2qzdfAO0IqoowaQ9iLpUtNia OLaLimEWUy4uspWkfOnL/xNf+wPfw+En3k620GPt0DLdNGb9zEluPHaYUI6IDHTm2tx98TQD5aiM 8Euv/RVwFYPBYHZx0zQ9oDx5aPloU+/ddz3VfrgzLdHsA+gKqYvTWl9mVAcM60ozlw62el1F9KX1 55Tayr6+Q/EBknqWgy3H9YCKrMVi1sUPR8zFKUYMeVUi8wvs+sD8ddezMZpgtcEvzfHMn/wJnveq n+LwU5+MLPX4oqc+BTXcZXG5SzXeoSp2cW6MiWo37wgE6yCJ6xFRAkWYzkL23Pu+97KaxLDbJ3VC XAXiSiFVQ6Q6QZwnsYo0KLqtDtZ6cu9ZvO4YF8sxT/qqr4a4w6TyeKfAapK4Q9ZZhCShj+JkPuRC CIRDa5x2BY9/9hfzmp9/NedP3Eu1tcmj1paZXDzHchxhd3cRV5G1Y+ZXF9GRIlKKELWI47iWk9s6 NEVRPRu0qqqHDeAvvUaz6+19rVatNQ8zYB9FEXHcuuLnpnZjZvorY8AbvKtDnvf+gATZe49rXK3I QVz2kMB9NgSksf6mpCOREJSmqhxJFCPeUd1/P9cdOoQ/c4F+0SdaXebrXv4y+q5C5npcHBaYuMdW pZFeBzcasXbzEXQ34YtuuZ47/vj3yT91B1/6rS+mu3YIlMbu7jDsO8zyEipESBTX01GoZ1Hkfsh8 GuE+eTfb99zDo9MUszNCO18rMCwEG5Cgm+K5BueQcYDFLklcMgmeobNsljlcey3el2jdIXYRfuzQ EzCREEUJ2fwcVuppxOOqpHfkCNsn7uYJNz+Kd/zxHxNEMFnGl3/Ni9jOc7J2m42dbba8ZWvrPGlT ypDJiLTdxVpLWZZ1p1XTNX5pVPlcZcr7nYsPHiceCRGCxzXYeT+An/6oS6mE+oD2KIeZ3ibwWbjZ PQ5rysROXeqe7kfVmq4mTmZxhK8sb/vbv0W5gBZFZ6FHvyrpHTvCqd1ddNZhWAV00qbdXSJp9YiX DmODhs4cup0RDUcs9ke8/7ffwFt+5lUU//IvGBTzcYdOXhKVE3w+IJQ5BE81GhC0I1Dy8Tvez2Jq 8MMBhorpjBtCraqsR3J6vAGMRqKY0B8ytpZCw+mdLR7z1Cfjq3GNv5QmjluI0rgQGI1ztgd9Rr6g UAGnIraGOeub6xw9vMbGiRPcNDfPozpd0s0N/uF338CbX/ebqPMXWAaOzHdZ7rS5YXWVYnOTP/y9 3z8g454aw/6LffVIso+bFH9ZiBQ8upkVEULAuhJXVdiqoqoKqqqahchLS34isgfevfeNFmc6H6l+ 09QFigKxzT+xDrHhYalC90/43S+oYdbUKkRmj0N5z3vew6MG22RaceL0A8S33kLRinBxm/XhkPnu EjGGfCtn9+KIo9ctgRhQgXv/5E9ZKjyHKmFjY5uVJOLiX72V0fjvCHNLXP/sLya5/XaklUISE4qC WBxVrJBg2Th3iiMmrY1ORwTt6hsqqknEXPnaiJ0l8ookyehv98ljjVmaw476HPsPzye0NK7bYndS okwbG2vopGhR2DIgPq5vtEoxl7SRvKDY3uWWhSXsqbMYX3G8nbFbWtqtjJPvei/3rJ9j5bE3sxpH 5OcvcOPqGn/wu7/Li176spnadgpRLq31PTSAV3sjN/ddVhs8rinFzbySqwvnWul6et8VKKgZj2WD 32uoaAbQKjHNZL8a22mtET0dmBYIrrrsoN2++U5cpfct7LtjqtLNRH3D3S28DuxsrjN0lrEOdI4c RaUZu6MxUaTJsozd3V1EhDRNWZ5fwJWAOEI5ZvfMSXrWM/rMCdYmFct5xcK44ogzLI9Lzv/zHdzx 66/nM3/8R3D/SejvgjZk1hM2ayXCcDgmSjsUztHcd8xuaBXAeIL2eO25ON5iLAWSaIhjxgpCEuNC YBjAdDoQKcbFiEkxIth6fStX0h8OKKoJIoFe2iIMJ4T+mAUdcd3SEmE4oI1HFWPyjXWOLS2yc/48 X/jEL6S7sMi5rW3OXVin1WphbT3uoCiKWrKs1ENyjdM+zek4cLtfBz9VloapELCpGaJITIKJEnSs cYoDIoXp9fYhYJQRnPeYOCYfOOIkpqgcWtf69ihpAZ7S1u3ieMGWDlFCacsZbrrCIMQ6HDZdzFPv tJfc1oA4aIWoik4iyGATbSyhnbA5qiiHQ77p2/4TRe6R4QSvh2SdhJ3JJlGaYSXQNjFic6LJLn7U Z7y5w9GVVap8jBNNlRcYo4krR6e/S6YD8T33cuG++xguL3Djlz4bmZvj3ne/EzMxqKTDxmRIVEak HrrSQmyJH48wISeKAy5UDMoRc4cWOXvqPIt0OXX/aTo3XovEGTK/gosi7MSjVMWciRBbYoocI44S j4mEQTFiLo7ISkMap3gbSNpdzm2cRcURY2PxcSDuZty/eR69tEqVpBx56tM5cdfHuC5N6ff7zM3N HQhDU+//cOggpTXWB0rqL2dQQaEcGBVh4pRQFgQJKBQtU5OmHihtibj6uk7GOXEco5SiqEpUZOou nRmWMoKovbTRGIPDIQ31MPVmQXzzPncVgcwV7o7LCoqCaSU1MJYK0RofKUJRsINnKekgUQuVZrVi IRgqPB5HRaB2xA436BNXfT7+lrfSmkzoKU3YGaAFWi0ovSepAj5UpD4QKU+Mo4oids6c4xN//w+0 Vxe58TnPYeOuj/GJj3yUVGtWl9dIy4qNCxdIq5JO1kVVDltNiLQw32qzefY8S2mHzKckqeFZ//Hr CQsLnNnexrZ7xCYjKuuOHVxNuzgFlSgKCWTzHSbnNxjtlJz8wIcxoWa5s3aXSTXBlVWzxoGs1aZw ioAhXuhw4+Mez+YlJOj+Uoz3/mFn7r7R/dZK32YybFBYF+po5huDdXXH9F4Tq6nnpBJmXkvrmZq2 Qf5KENUUZfeljWEfBru0liiiH9YMrCnW2guZ4KQeVh3iWn7BpERZhanA5/Vs05AoXBSRR5rcOCqp TzR4QbtAd+LojT3R2PHAu+9g3is6ShPGw1rvVTmy0qGLCp1PoCzwVUkVPCWe5bl5hrt98sTAUszS c57Es378v/CFr3gxJ3TO+SRQLCwQVpcZCKwPJlQYVEjpP7DNyqSDOpPDSDh7cRtuuJ5i0OfQ4WMk UUK70qQWjDOAptSGsTKMdczERIg2+KJCj0s+9eGPknqNzYtmhJQikYgkxJixpSMxUoIuBV0p1hZW yFrthrB2lwnuHg62UuEhJvvso5dmZb69OHmgzLdfpycimCANb+H2mh4OHNi+HUtTSX8wbVa4CpCf TpmdfotFCIGhrWgnMXHUgvGA4AMREbEoXNBUCLnAhEDetBVFwaNFEzlouRJEIxsV6daINIooJwXG V4gt0EWE2EaFbwy4gI08lQiFdQx2hwSjufWFXwldxShU+FAxd/01fMlLvhFGFR/587/iU6fu57qF RVrpYdR4gnaebneNfHNAZ+UaLg5zFq6/Dubn2C2GVKNtvIuIvUHZQC0SUYQQUXlPJRrnDaN8xHwr ZSHR6EFJy0TY0YiSWngoaFKlGBcBE0cYrUmSlN2ioqgsxpiZE/hs6YXZbNlL+hbq8d01sFSqLuME rTBG45rZpDrUMzQIcsXrLSJ1M0XNsgecC3WGpmps5L2ve9e0Qoue9U94f/lsLNmbFP2gRWjVeKwg ipDEWCBSATEtZFLgKnASYRFKrcg1TCRQqnrEtwSFDbUr9sGh8xF86IOsEVPlOcPxgPluRjnJiTB1 /VHXFXnTTGvJnaXUQtSN6fUWYTymRJEuLtEvR5QTS3xkjVB6nvDKlxB6GWpnm4+88c84/d4Pcb1t cShpY5YTLgxH7BrN43/iRxluXCC95TradBkMRmhXIVWou56k/poVsZrIRwQcZd6n107xJzaYj2Ni V2LjmN1QEVqGclASicaEgLcBWgqVpehCYySQhGRffffgFwA8HGMTHvy7+Q5QUFLTD6IUKtShz7qD Q1wu47H2hzgvezsMTWEvNN+gtcdXqOa5fXeAPPjdMR3Itj+DNMCoKpkUFUQJAYN3glOGsXN4bfCq pj5q6YbMSk8Tb/GxQJXz0fe9lxiobE5lBMkSSmxT3/Kzr+cQ64msQ9l6WuGp8+vc+vwvB2OI53sU ADomSjv1VyK0UtzcHGM8gyzh8S97CS98/W9w+3d/O/fGsL62xHovYytLkCSis7pCvr3DZLxNB49y Fc4XVCGnqquL9VAPK8SVYLTgK8vdd94J+ahWxEaKMgqMKCl9SdAKncRMbEUhmlFVUCqQJKFqhvhz hdFSDwdf7UnF3SUmVt/EwVtssFhXElzjUJzf19J3Zb17I/TzzdcQNtYZ9ixvOv9TqDuhLW6mgZ5+ I8FnU9bRM4a2NsSyUaYqZaCqxwwuHruepTTj5MmTaF8bkTiPthaxtSzWKcNEPNt6wmrLsbG1TsdW 6CQG4xiECt1pEZyrv/PHQygcIhrlA0aBRFE9SXlhCV+OUUojGAbFmFbsaekWTCq0ScjiNt5YBuWI qJyQ3n4rT/3F/07YvMj6v34Kd3GXMBkjKmW5hP/D3JtH25Xd9Z2fPZzhDu++UVJJqioP5SpsqjwW NmAw2HhgckwSDwGzGJYDq7PohmTRxNDdBFaHJCRpGlghYGgwNFOMMRjjMDg4xjaeKmCwQ3mqco1S lfSkpzfd6Ux76D/2Pufe96Qqy3Y13VpLVlm67717z9ln79/v+/sOapSx/cDDZIMNam8phMfKSPu2 jtR4tBN4BX4+4YFPfYJ8NkVqx8zUmL5gWjb0Myhdg5UKkwnyU2tMU5gaj5cWw0JY3O5a11tfPdZA urPqjvr78EBHe9DoSStVy3w42qy1zIZAZ+4WUbSvkRKcwXrXvVnrwzjHYxcEMPn58bGOD601AmEt wzQjBVxVIdOUm++4na28z72PPIIsKupqTlJkpAzQKjzBUiq8sOzNDjiRJqSZRhQVWmuMFRyMp5xc W8M2DuUarLB4L0l8m7eX4HKJW1/BZwK5cYKdvX2SjU1W+isk5IgKfJIF1bi1NEhkNoB8gPMgTAGD k5zaGPG2H/7fGd31N2w9/Unc+apvhisH3JCm+HqOcgalBBaF8BrlmhDDQsNQSnJjsJMxuZQkWrJb jVFZjjeQyZzJ3jT4RAwGjJ5ylv7WKuPxlBLDyuoo5hrpq0Yrn2txCRF9vJcHyWKRsdj+u3ALfah3 wedfCI7U3e1iWi7ktZSSXq9HXZWgJEVdhS+Oogq8w/lgVahkoGQsg3BfuOmXY6DUQsKUpsF+aNBH rK7xza99DZkQuKJm3QhmBxO8c6TeMzg1YlqNEb5GrK2RofCVJU2CR7pAMZ/MyU1A9YXOkUJgy5C+ 4Y2k9DVP/poXMLElI73BYOMEpTP0ZT/o6xqLRNDMCvT6gJ5UOOsROgQXCGWx5SGJdKzNDDdJS/Hx e/iLv7kbsbnCV7/+dYgTJ1nRUJiS1fUTXDnc53B/zOaNZ5ns7pHMJ3z8Pe9lTSr6EqqmIFMwnc8R jaFuHINen5mT6DzhxOmTTJsSoTypU3z0k/+92ylaK4R+vx/V4iV5nj/+8FmK4HEqW3ZvhCk8lKZB 6qCFMLEDTLMM62qstSRJgkeH0Y5SVFXItNRaU5UlsqXKtC1rO5BO0zTUXv7ooLGl01z/9JwjMMMR liEe4YOkX2QZCPj4/ffx4O4OU99Qm5p3vf3tXPz0PTx1tMopL2Bvj3LnIiMHN6Q9ik/egywbMiTl YYlqFGZu0F6TJjl1XTObTTicTLDSIdIe+eo6h43h7LPvID21GUhsaNJaIaom7FZSQCZIBr1QSpQO M63wpUE0Dl9ZdGPZvesv2Wgs6eUdtg5mnCkams/cz3/7xV/hP//4j7H9Fx/k5LREP3yerXLGHVub 6PkEUcwZVBXnP3UP5XhML8+CzqAx+KJms7/CQGbYqiZJFEVRsLG+hsdRHE4wTQPOc/HiRYwJHWKv i7czn2NRLc8FDcI7NK37exgFKRHi4rz3SBt8G4RcjPnCl9ur4AilghuNdt5jvcNYiyJ0gX5pS1VS IFQroA8LLRDq7ed9fh/ZnYVDeYEXEuMtUih8qnF5xhTL2FRsrQzR3vDX7/1z3vv23+M5X/7lvPhb vpmiabD7e6wgkJdm2MMJuR4gGoP2cGbtFOfPn4PNEd5Cf7RKYy1kOftNyXi34LxwfNnJk0ihoaoD O9IleOdAeVQuqYyHngxJG5kgcXmoKy3QeJiXfPjt7+DmKwcM64TVjZRxWbJRl7jtyzyp3+fhd/4p //0df8SBged99VfxlDufS2UKbjy1hTwomV64wpmsh5FwcecKJ59ymjS13Hvf/dw4OsUwG3Booaxn HOzsMdrcZKxTpE75mZ/+aU6fPk1d193G0Ov1KIriyEK7XnM/IqXJi4W/PiKkyoroA9mKmKUEc4zw efQo1KpDbLFBJGFcHQ1lWq9R3yk6Ot2YCnXO56W4XWKREhPHZAx3bBqLTCQv/8av5/wD9zKfFxzO phwe7JI7WFeanU99gl/9xN2cuO2pvPoN3w6zhu1P3ks+GHFY1ORas9rPOLd9gTM334QpShrboDwU pmFGSdlLKPOEf/Cavw+lRVZVeFLTNOQeS9slnaGD/72JzFkN1OMxVA1JdYh4+GH8hR02k5w1IXBV ST0/YKQkWZJgxnMSa+gnGWlZcu497+fuj3wEdfMpvvEfvYa6NuT9EY9c2kVvbaFPbHJubw+dJ9x2 y9PZObfNcH1EWVe84KteDCpHpTnahojgPMkpigIpJWmaUhRFR/hrh9JfmGlI8MeSapGEFMxBYuaW D91tS69aLosWVliIbmFJHVxHrA1epD6GAB1nmFrnrr/z8P4qOKILXhIOI2zYEZRAeXj5S19BXTUY bxAJJBlIX5OaCnb3OC09K/uH/ML3v5E3v/FHkY1nkivuczMe1Y57pwf4zTUe2tujkA7voZwVeCc5 bCr2cNxfTnBf8eVwWKFrjZc5PlGQQpFDoS1FY0glJN5RT8f4uqSoZ1RUpKs5YtDnPW99GzdIyShN aJzlUnVImUE66FFPp4ycZ8sI1sqGJ6U5Z9GsTmYcfOpTvPnf/RTTecmrv/d7WHv27Xx8dsj8zBZu 6wTTBh6+sMvgxGkOrWPfWp76rGfSW11jd2+KFAnlvGF1dbXjqLc7hnOOyWTCwcHB591chWQK1S0m pRRKyCO0GI/tQNmWur6MX3ULa9lsbRmSD9Nvd02h6rWQd/e4qmiuCU0YHIVt4oeRmJlhOBxw8cKF QM/xhnyY4VyDtjUj4VGX99GXrrBROU72VzjxFS/gq7/nW5k+eZNzQ8Hk1CoP25L07EkmXtBoRVMZ siSHLOEAy7ynkNNpwJoThcgVlTAcigZHKxiVNGWFmc9xpgnGuAr6WRbccO5/mINPfZZNI6j2DjA0 kGqsUpCEoHLTOEzTUM5mFPM509ke1DPWtGIlS3BJijt5gjv+/iv55h/8PoZf+nQerOaY9TXccIXt ecEV41BbJ3lo74BCwLhuSAYjdvb2SftZVziXZdndu/X1dUaj0XWq1xfYl0YsTqfWfE/FtSDsUXe/ JW7ecaV8J7E/YggS8QnvPXZBMUVohTKuo0UckeBz/Y7JbZijdY5KWIRqjdYUonEIA9W8oDEDzm9f omhmDFPw05L1YY+mKLHbV/iSm25i21kY9Zj1NN/wv/yPNNtXeNubfolEVvjykDNZyshpzPgQV1SU Q4kf9vnmb/8WOL2Jq6FMDDMJlXBIr+gLS88JRGNwZYlIJT5zzF1JMxuzUnr8xT3+/Jd/kzvXz3By OsW5Oog+teJgPqbxOakXCK0YlxWzYcJMG7KVIdbV6CzhRa94KdWwz2d2L1GqhrX1VVaedzuvecGd DMc1b/uVX8dJy+jUGTbvuI1ZL0dkQ/SapCgtNz/tNmazin4/7469oig4ODhgZWXliObvc29Z7hjc GWstf9QG9FqzQXdsZtjOEXXIHQzGQt66ENaC6Mh+SkkSJdBSYFrMwob0L2i6Iy3x8jE1YMFWUB4b IxATOUPUmrACqSU4WF0ZUZU1J0cn+KtHt1kbbVED27u73DhcRxg43L/CthDUkwN285Sysdx0y9P4 hz/0P7O5sgql5a0/+MPcsXqa1RWFzlImVFwpKlae/xXsXLrAyunbmAnF2BmkFuTOYouSqrAkjQnu 0ToHL2iqCm8sen0TNzbU21eoruxS2oaVYZ+LhwdUacpwNGCQ9xhf3sdXQfY/Go7YuXQRm+TMU8H5 g0Oec/okj9Ql2dYmZTPnkYNDsiTncm2Z2IZvfMN3oZ1jv5jisx5TLBeuXA4OxUrxz3/kjUEj4D3z +Zw8z+n1egua+fUbRMbU1SXFuwh+QMa7RV0dfSIECil9DDdokFJcxR4VSqKdcTG7N4SzCCeCO64K IZPeeIx1eO+CFWBgT2AaMIk7Sot5DJXhMovURf6Wl5IeGu0DH8grj0mDdfm/+emf5fu/4/WsybOc PvslHO7uszIcUYmCQxq2BjnjYoo/ffcVEmQAACAASURBVDP7FrTrIxvJuStT+munaJKEXiZ47c/9 IkIPef8P/jj2cEZ66iQFE9CK3o1nqSuNtAnGW0aqj57sMULiixKtdAz99KjaYutofz2bMvn4J1jR GaPBENFUXJEWs9nDSIOpDZN5iRSOyjSsDtY5eOAST107yZUJ7IuCb/rnP8CllQGFB9PUuL0ZG+kK edJj2hwyHWbU3pDWU6pZxbt/520M+yvMTcOXveglTL0A1wR6itQdLRno6q3rbae8VIEa0yrc8dSN xanQvFlfd+Np5zxKJWg0VVOTJzmNi0HjWiM8mDoY3ukYsttZ0yxTKnxMJHciLix/1AJSiUVQ+HUZ zMXoOt9JtQPzQCsdqDTWMSmnUDacOHWG+aziabd+KZ+88D72rWF1tMqj5x8iP3WS3mjI3BsKB6py eKcolcAahUkUqUqYryjsuUt87b/9N4h5zcd+482M5pdhb8ZgY4RoLIUvWRWW+uAS9e4h6+vrJBur uHlB5R3F+BCVaIZ5wnR6wHx3hw/+8X/mlDUU3uClpRCWmiaUCrYJO7/3yGFK7R2rG5tUXmO1IBn2 SDY2masQcJm4BOEl08M5hWyCT1gvw1mBFjmfvvcvsftBQOsby4fe9Uds3fb0aLOZfREQtewwK7zs 4rslccTnPSb60mqtEQisNVjrkUp/zlmkZEnq1f2lohsT2GPV/lV8nc9nLCWOdyKSqqpw3qGANE0Y DoYM19Z5w/f8Y8bjMcY5BqMVZJpxOJuRDVfYnxVM6xJhHaKq8Y3BGYuoHa6sYWZpKsPF+YT8lhtx aYGfXOC53/oPuWl1k9/8oR9j710fhHKOO38v/Z2LnMJycjTg8sFltsc7PGJnTIYJh6ln3BRMdnfY EJ76gfspH7gHN9ulEiVjUdHUc1TVkM4q0rJBOYvDMnEVV/yci7rmEV3xUDNlcPYG6spRTuYcXjlg MpvgE0V/a51sY4jMBL6p8IeHrDnJ7mcfpG888/1DvHXMipof/+VfhrrBf8H5X+0NPGpG2+JX7b02 xnTkvZb31eovW0XQ8bXTDaFbYC3YOy+kYFJorKljIR8ADCVVbGmPihy/mF8q0Ughcd7RGIeVkAnF Dbfewng+I2sM43mBrw3YmvX1EbODfaQJiLCvA3JvjAGlAnBJsF7K10Z8ZudRbkDylDOrqP05l+6/ l5Pzkr/9zbdy+Nbf5dlf+1U8+Wu/ClFMYHUNnafUvZSxhbouUVLSEx49nePLir962+/x1DzjTC9n Z3IFjyVzDmkcwtWIOEe1UuKEIBn22d6d44c5Il/hKc97FnNrUUIz6Pc4rOdMm5pBHkZl3hWs64TV /oA/++3fIp3M6GUDautwWS+EZnpJbS3pMfzoC47u8z4onJEY5zoLSiEX0xaBxEVzG++u7Zm2vCh1 q26VUoYiLjqLIAMPC0+I6PUhlaIjzsMCob8Gyn49O5m1lkQFlycpJCqRKO843NtnlCa8+rWv4e4P fZjJ2ojpIxc4c2KdC/sHjHSGch5pDcJUzOuSuRbgFNJYEhsS1ff2KkSS0mSSqXOMBglmPuNWmVHt 7NEfwMX/+i4+/c4/JD15kpd+7/egn/wk6sMdrLFk6xuM9w5ZGfbIeitwz8OoB8/Tc5aDnQY9ygPI awzaBvm51dAIj1MiFO8GKuMoTcPZO57L8MazXHaOxoPJPFr1EJln5iq8M4wSRd5UFBfOk89LEpEw r6bQy7kwHvPTv/MW3HiM6+fBaFjweZu0XI0IyasIgD6O24xx0bYocLKEEDgfTgSBekxIQ2stO+1g QFIJ4KSw4H0o3qzpxIktNSJkuvglxxK5ABSu9SGdJ8bad91hYwxKJfGrQ3MghWRldRUhPF/zD76F X/kPP8fzb72V+/cPuDwvGOqwUArrqJuaupwzrVOKLPSYqtF4F+ZcqdZMZxMamXHxyg7Nw9sk0kDR kNUVzpf09YhV6ygv7/LBX/xl/vrceU4945l82/f/AEwtK06SVRYeeZQ//9VfZ6s/IDc1sqeZEtBn 6YNLmBWeEkslJcYJmtozP5ziEoXr9bjpmbdz4C0VSSAbjkt66yMGvaDkoW5YSzP8lTF3f+guphcu stkbkqYpk8YwVwJuOoPMUjKdPYF5Rlc7nAUunsTaBtOAkrqz3Pbeh/AsnQVL7yWoqltYy4a2OIcU C/9u6emMIkL4uA+//WMNax7nqVDyKjwrdDCOYl6EOJO6Js9zhHOkUsG8QWV9zm1f5rBuuHz5Es+7 9VYKHBaDNY6iqZnZmrlPMUKRkyKdJGsMcmbZyhIGpSU1nrv+4v1MDndZRXF6vcdsPEWUU+x+RZ7k JEnCV544xaX7zvHOH/mXyI0N7nzxV3L6WXfA6gYH0zGDfs60mSHihF94T88LDJ4mJp/WkeWaJgNq J+itjnj6C19EduIUjalRukeuLIOVjEY0lPMCU81IygKhKuTeHs32DicGQ5Ik4fyVK8jTJ/kPb3oT FCU7kzlrN9zwhBhFPpb6GbEAzZVSJDqJzVsIiOo2GPw17RR0SJ0wC7GjUDGdQIAzSKdxwsT01fa3 w38BHOvjT1hd1533wKA/QGodcu6kxzuPyBN+7Y//iFc977mMlEaNVnlkPKanBYlUZNrRYGkwGGy8 uZ4KSyo0NAZbVVzeu8hXPuVm3n/hIlki6a2s8uilRxkOhxgvGAw0edbjoUsX6Y82uEX2cMZx/uFz fOSd+1z4k3fyja/6JuRNZ7j/8jb9jTVsVdDzktw4hHUkTlFjqbFUHio83jtmImPi4MVfficfOzzA DIeYukEmgc1wsHeAUDVP3jpJr5jhLlxidvEC5ZUdBoMRFy7vcPK2Wxiv9MluvAm/scqWTKPz9BOf YLTc9bdeEFqlJDoNOBMhREA7Hbj8j0FD10oErMZb19VQmdZ4JyhNTaolyAwbee6B92MQtkEtnc2L w/AaWypXsxqFhzTVeCzrq6PQPsfggDYEG5XC+JB3/s1HecXTn8Hzb7+DU6sjzt3/WWoTBAePXN4m 2RowPjzEZRYxTDFSsFeMGWQZPWc41V+h2N6lORyznqZcnuzQW+mx13iGacZ4NkXWFXqQ0pg5g9pg 7IyhlqSDDe7Dkn7Jzbzo6f+YREgmkwnv+J23UO5e4qmrm0zP7ZLNKvp5Rm0NE1sjBz0OhUVtrvLc b/oG7qkm1OsDJoVlVfTQRlI4w+pwgGmgvrjD0BjUlQM++ucf4kmnz7J/OCa94QSf3Nnm5//Tn+A3 hzR4psWcUa//hC0mKWPQjAvdXp7nzCrRdYS1ceHokwrvQ3qJUoosTSnqCqVUR71KkoSmqpBSHYPj vQwUDG+65AiED1FmLedGLvRjS3Pma8vsH6MOWE6lP76NehnZBc7D6ghKy/Nf9NXsFAVFmvCcF7+Y y8WcqfC8/yMfppmX2PGcFSTl3j5FOcUIQyUbxsUYieeeu+9mozfEl21tIEnTEbVLsFkP+gOcVFhT o1xFrjzrowEXLj3K9/+vP0Ry4w086A0PJpKd/oive8P38vof/TG+7LWv457GMD2xwXR1jb0kwa+u 8cDBmH1rMWsjimHKI/ND9qs5mzdskWYZxtQ4Y7Dzks2sh5rM8PsT3vvOP2ElzTmcTThwlkmi+YV3 /h5kGQezOTUw7OXs7u49sTvVsoL9Oh2yw2nnjnL16ibglYssFIIlIEuWkT6CZlKCbLoBpZRXz6H8 ddoYPRahPxDI2nCBWMdpDVUD0vOvf/XN3H3/A1wuSi4cTviG176WF7zkJYznM8y0gPGE+vxlVo1h 55FzoBp2pjvMZEUpaz7wwfczPzhgRebkVmHHDblJcVMLXuPTJIwwgMobSmXZHu/CMGd7OubTFy8w 7eXsWkmTrVAlAx6eluz1+vwPP/vvufO7v52nfMvLuV807KaK3umTiLUhX/aiF9JfG3HmxjMoITl/ /mFqag7nE5TwHOxewR9M2Er6fOx9HyDxgqKpGRvPOFFcxiFWNpGrI7LhgNp5KmPZ3Nx4wuurRXiT vOpYvBa80GJax5u6Bdyg6Gz/nF0kZQYVrjiWGBxufeBAf3FnuT/OiYiEP0Eg8puiQec9qCXOej7y mXu545Yn84oXv5hGKfqZ5tZnPZM//oM/5NWvfh1+ViL9AbedPsGFi9u4gUT0cyaTMZd2tunNDHp1 g9n+Pn3Vx00rmqIi0Sl1ZbDGoqRijqSwDXZ9ne/4gf+JB5OUrJdiVY/JbIY0Jb6s2bjhBHuXLzA9 3CUZ5ehkjdf80+9DTaaMdMJ0PMYIwcGFbYq9A3qDATecPMXh5X1Oba4ynU655fQZdu79DEjJ/ffc y0grRKqodcKBNfxf734PXsPBtCAbrtGUU0aD1ZAaES0Mnojd6lqQxcIpKD7u0e2PNlJOSqyz3YnX skdREhlLdZQQnaWQ8HQ+3i7abgcDiUVAtfcW8UW49opr7GhuiRcEoHsJh4djfJYihMI5x9/e+1nO Hewzl2ByDVnGo49e5M9+/x286z/9LuVnH2Tnb+5mraxZlwIxn+JNSZ5nrKyuMZmWTCclw2yAKUu0 sSjvqOcFtrR4Ui5juCwFu0nK5aLhYDxnfmXKwc4+W4MRYjrnhuGI7XsfZbCywYMHY2bDnB0NRT9l fWuTye4+b/mlX+auP/xj3vfrv036yDZPteAeeogNbzi4eA5RV+xd3Obk2ga//9bf5cyNN6LWhszz lB3h+aU//VOml3dB9VkfbqKdZHOwijENB3t7Txjc4B/nhFl21F4ODGgJfi0i36lz4sRGL5LMF6vW +QYhWuXHNZzexNWFlfgctOTjL2rzdZYH2DLkHQTgDSjLmtX1UfgQWQKpppwXvO2P/4iXv+TF3HBi xK03P4knPeXJNAcFvaLhE+/9IMkw45CK57zqZfRXUvLVTeqixGvJvDb0h6tcPjgkEwqXWqzyzIqK XGpKL9hDok/dwNd/53dxWYBQOanW1DiKckauBZcvBK/Q2bQi6fd56OIlbhxmjK/sc/c99/Hgh/+a G3pDzOUr3Dzo8Yk/eRdjZ5GDFSbOMLrxJm5/wQvZGK3zqz/7M5xdH3FQzphWBRfGY37nL/8SnGew eQpRC1CO1Et2xrucOLGO2tx8QuurzsUhilNBxZLIhFiYSEt2Mfok2FQtFl7bDXofHBPl8nxoQfrT R8jxSsguweuxSHuPK7G/tldI58l09O8UrXFj40IFZp0M4x4hSAZ9dg+n3Hjr05CDPn9776d56tNv Y39/HzOZkpcN7qGLbExqzr/ng1z6q7vZ/uQ99IXkcFpTSk/Ty9luphzoOZOkYKxLCm2pM9h3lt0s Ye2Zt3MxUTxcNOzNK5wXTIopDz16P9lIoweSS1cuM90fs5IPedrZm0mmhlM25cEPfJTN2rFmodfU 2CtXyGYzzhrP5v6EW2qY3/1p/vR33sZkd5fXvvo1vO713waDDLE+4i1/+UGMqfCrq0H5PatD3VM0 nFjfjLtHyecKGP1idqzjBM82dP6IuDkW7scTTWgjga+6uUoecWo7/t9Ax93pEsCOKWkfq5z3x4ag ArVkQBXqrFa6sdLPqK2jqiqElly5sou1sLa2yi/+0i+xuraF9ZKD6ZRs2MfpAAVsbGzgZiWHD13g nrs+zl3v+xA33XwLRarZFo7P1gXy5hvZ9Z69xjM2jpnQNGrAvhPMkpyNW5/BrvWUWlOiubS7R1U1 rK2tce7RB5mUM/LhAJ0GIuHeQw+xMi1592+/Bb97AOMJmTWML29zam1EX0hkZUgag5sUnBiu8vKX fz1yZcDajae5/8oOz3nx1/B//sZvUlcGvb6JaRxlZdCraShHdJiFmrIiU/oLjpO7bjzL+UW9bWND F0skb2MAhAyepC0HLIyEQKMWfpXORSmWICSpEuCG2gQ7nWV+fEvcWx4M+qsGBOKICIMlzo+I7UDA rlS3tbYhmDp+j1RJsn6GB05tbXZ4mZYpP/ezP8elh8/xMz/xr/mSZz+Hj/3ZnzPzYMop1jRIFaJ0 d3YmvPyVdzK86Wn0RkMevXyFuz74QZ4xOkmvNBSNAKX47OVd9MY6z33hyxCqT2UUpXEcmhloiWwk FujJHuPpDJlbVgY9/O4uZ7OUd775TZz2sDIQiKpC4lkdZsyLKVYqDpsgjZ87+LpX/j32T25ysarY c4aHD8a88cf/BWhFYkwQpGmB1nHLj3866Un8AIHprtUXru30Hc/KS0ESiZyuMaQqwzofgjdRJNHK U8hQk5u6RmYK5w24ENqbJUHwrLRAXkWZWTJGtTZaDnZOflwdjUIQQRzpLq6j7nLiaBdyFYC6LMYQ C+cthevyePZ29zl50838259/E+d3tjn7pbeht9bZLmcUWmKF4mBW8LRnPouLkznp6RvYzzLyW27m a1//bTznVa/kvqoIMIJwpGfPUPZy1k5usb9/wGTvAGeiONN76sk8CFh1yvrqiLVMU126yO0nTvB7 //E/csv6KmI2QXnDeDpmWs4hz5k6T5FoZnnC/bMpr/jO72Q2GPLI+JCDuuKzF7f5J2/8YVySUZRB +zifzZZKCY/zBt9Gu+HxXv2/tlu1wHe/36ff65HnOXmSkufBpTlPUpI0RaurT7IOfjjuKhJ+6yOR JyKS8toFd1W+of98T3txjRmju2bNcHXnI+P/CtY3tphOp3gJv/B7f0glYOYM29MDTJ4zVbBy+hT3 XThPLT2XDvewSnBYFIyVZXskeMkPfhe3v+4V6C85wwX2ed7LvgLVl0jVkFBjZvuY2SHa1qSJx9mK 6XzM/HCPLeu5Gcn//RM/yWmZsvfZc2z1VvFGkwxXYDhiqlMuO9jPMsqtdV76hu/A3niaz+ztsHX6 RiaTCf/bv/hRRqNRl4PtjKWXD44pm9Rjxos84fNC/FU+EMuWCq22dFl8cxzr0i2JKywaGcwglqr9 wGmWR+sp6a8O9/kigTlxnSlWy0a5tbM0ziNUgi+nvOm3foP/+gd/yFve/Gbue+hhTmxsMp2OufX2 Z7A9PsCkGdo5jBT4vuZ8eUhuJaoo+NKvfDb3P/BpPvSB97Jz6Qrf9p3fzdkTN5DMS6qyRGuJESL4 NnhH5hyTBx/gA3/wB5xQkrxuOH3jWQ62L5MnKTPjmZsKN1qhEpI7X/oympVV3MoqH3nwfsTqkDvu fA6v+JZX4urg5yqSaF+gFTuXLnPi1Mkj1UZLrJRCPqGL63gcTTfLtSZK/oIWAesCZ8+LhZ7Q2aNG fcs2Rse7ANsYmqZZrEApjhyFwh1113Xi8zMFuZ5/t481Alp67bSqGK2ts7d/BTFcgfVNXva61/Lm P/h9nv01L8St9Nip59z1ibtJ19ZZPXGCuWnora6wPwl0lr3xAWduOM3Dn/0sfjJB7O7xtN6Qj779 HfzWv/pJzr3v/Yz2J/T2xjSPXkIdTBl5yarKuOvd/4WkLBh4UNZz/z3347xkjkSM1klOnOHcpOb5 r3wV1XCVHQef3rvCvvC84Qd+gJue+hRUopkVBcY5mqpmfXODy9uXOHHq5GInEO38NDj8tDvKE7W0 /JIB25HRmrE4exSKapGC1vTtuDSwCxBY/gucw1owJgwU2wAB5WQwD4sdgXEO4b6wWLnrPuevY/Gt 9AfsHk7Y3DxBXdc08wmDXh+GPf6P3/5N/uo97+btb38H73/fB3jw0jYqScmHfc4/epHTZ06SSphP Ki7d9xCfvuuv2VIZ6aygn0vGBzPODPsUD5znw49cpEg0Nz796Tz9zmdz+cI2f/TeP8NfOM/zb7mF Bz99H2srI0ZnzzIpK1TaQ+Q58yTn67/19ew6S43ksGl44Uu+jue94PlMy4rVNGO8v8/65kZ3jS5v X2J1dfUqRsgydij8cv0pnpAd6wiOuVxP+xBvHIiggX/WjuEeS6zqvV/YGLWrdhkU9X4ho/be45e+ keD/+1/z+ZzRaIXGWpI0YZCuAw5TlKhexgu+9qXc/oIX8pPrq3zFc+9k69RJvukbX8nO7h7FwRRR NWzMEx7867tRewXreY+VNKE+mHF2tMZ+UVKbKaWWzLTi0qMXOHHTjZx9ys286rX/iGyyw7nPfAp/ uMv5vTm5kGycPMml/THf8HVfz1wr5lKxO9nj+974I6AEjW3Y291jbSO819X1NYqi6HwWTp2+AYAr V66wtbX1d3Idlzv21iPNiqsxrXZhuWjfrpS8yhSk/VMvF+1KaCyLyBPhr23kda2gpsd/42JZFP2E /Rr2+zQGEi3Z2ztga32duqnIe33KYkaWZwyylGI2566P/hUkipe/+GWMD+f8vZd+HTvbV9i97wFm ly9wKkk5nBYY6RkO+zw6vsLaibNcmc7pbW7xjOc8i5WzZym15KHLl0mlY5gq9E1neOEz7iCTKYf7 E/7Lu97DYGuTd3/sb1g/e4Z/9u9+CrwBa/BSIazh1OYa3lmcD9aLeR5ccdpjZjqd/p0tqsc7XQI+ FcTESrRxL6HGOxI2v7So2ppdt+e4MYbGlghSpEzp9/s0VQ3Yq9Iz4fqjT659DH7x1YEgGqHIYGy4 tb4OQJrmOBx5b7DQ2vVWwijda9793vdRT+dM9w74tZ/9eYqDKf1+n51HHmRfGk6srvDQwR756pDL vuI5L38RK2dvZOIEe5mk9J6pqRj0M3arilOnT/OnH/xv3P/p+8lUilYZP/FT/561W26Nza8FrXA0 SDxaS7AlzguUzroOOU3TxRF/nZFwT8Qva4NColVCex9CxRvjuuCndo0kWoN3CC9CcEHrm6ZUV8wv 5PqROaq1xnqJdyxkPs6jtVhEXojWDjBEvgoh/s6fpiP1QPsBWhxN0KFd3reDUZBKdLumF5DmGatr G/zQv/wJ0IrxA/ey8pSb+PBbf5vbb7+VX3vzrzBaW8frHJv3ufdgn7nzrGanOCxmfOwTf8u5cw/x z77/n3Dbs+/gm177nfQGI3AJ8yu79Le2sEWJ6ueBDSvNguwkwsBKecXRuIXrY90+wfB6d/H80u5z FH7yXVC8cy4a8cWvk+KqaLmOmtyCokoFK8Ompivm26zmIAOSXb6OlCCUwvv673RhPdZF7nB/v6DU IhTWmoj/RKqHswHh1wl6RVNX0FQFo2fcBvWcr3r9a/Gp5J/e8VOIXh8zq0gGq8GG1wX3ZQtBpSw0 MipZBIpiXqJMQX9jC+c8ciWLBgQejwohCW32HxIpYokgHoMg2aZ6XNfw+IufER6/xovFJZbXX5CK 2QBSC/nYIK2+5qzwiAPuElh2rJD7/8Ov47zv4x3O8mfwzsXXxnqnJzBW0wjYqwvWRoPAXuj3SUhR gwwvEqoiwC9KB4qIEB41HBKIQwqNJ+9nuMpDAk3pkFZhtMd5sHFaoETIrNF0zsLR1O74ghHXVQo8 EQ/qY9mniy5IIlgbefzjljnHC329zLXxTgELk9uQKLFY28tTbewToMIVX9xR6JdGHoKFUWv74Vo+ PyKaksjQ0ThvoyZPMRgmGGA02sT4gn6+inUNQqahLKgMqnFkWQ+RuMiutGAayrIhSXsczMas5H2K omAlHaEziVTQeBsn/XFAi0GiMbiwuNTnb47mvkgw+rrA0uhNGvyvBNYGSlNreCvlgqR5HGbodqwO 4LKAc/HoiAWbdUcWlQ/u552jX+s2I3icRAqORp10z6dwse4R11XMH+fGB4ffANxKQouMCFkw7ULz xBg0GX5ye5Tb+LAIQh6mxzArZ+R5SulrekmQjysEMtP4NKLfs4baFqHuyBOSXo5Sgj4DVBKkZ6au UEmCsw6twjTD+jBc92jU8sLw4aF4vAdJIo6MdiSiC8a6nlNj2VrIi8fe2Zf3/tajI7CJ5UIORvDq FyJ0s27p+yw3c649CsNKdNGeeWl3aJMo4jBaiWA+qbVC+QSYL46ja2iRujrBXxv0bOvHx7s+3Tij 9YRnUYSbqIEMaYIu+mfG14g28zgUm1KAixfGEXOoy5o8TynKhs3hCItFofDWIONCdHMfPQw8IvGk oz5gMAiKpiBTfZxoSBEkeRIXvgs2mw6cbO2BwuKXMS7eR2cU/3mOWgJJfEG0617nH/uoWlamh506 2JOLY3ugZ+HfsBAwL/17a8rmQinUmod0Y7alWaZuPUBDtydwtNQZEUWqxGCe6PutNEqBpod1JaZd HJHZEbK1FqvWtU/m0snnYj/nRfz3mLGjCUb10qnuxGlXY1D8yG4u6UJv1Y2uhZDdGCgstegBLCSu 8zyFxji8VKRSoPNQ8zidM3cCZ3XQCOYJyoOZQ5IJkoHGCkHZtDciZW4r8mSFifNkusfcQSLCbJUK XBIWj3WLZzbw2AAbFr8V4vMzVXm8QutajY2Iq1jIxbkgFo+4wmHQrXdyvFcZ0qdHGMTKBx1p6yxk pUf6q3cSsTQn1EpKlJAoAV4p8BITXCJRiYqQvkdIjYu+7wKJUxlWr/Ga7/5XjIYrSBUiMZRKSFR8 DrzoYj5sfGK9FB3QJnxYgt6LGMAocUuvU7RneaDIemfw3qF0eKIaE0IOJKLDXHRH+Qm+EK1EzUHg DsXpvCDkBwUatI1FeWBDOi9wpvUpEJ1pBjiE0sE2ERluAsGULlzD+JpYfyRJEpkA4Tq0UzARwcba VOGzxPcQ7IRsfApDPScVwdlZhOByTwNe4qQND8yCchCU7JEzp7tAiFDHGWNwsX5GCpxtAhSjFcJL Gu8oG0fVGIzvUxZ1SFlDoJLgYWbjvfIEpN5EUFcuJcZpqcJvnI9iUdHNAonnumu5UCoKFf0i29lJ xawWMLMUpgiX0jm8qNHt+es9Xnqkl9gozbbRICLgTEGz6F1IeRVRhb0M3gkZnJU9DnwTMxOjDM2n 8UJphK1xXqF08HuyrkGrNHy9CMJY70R344RsaAsebxdRtyrRYSFEL3sX7QYcvntvgW+kEDFIQcm4 kASgHMLFUCNBiORuCXQiUK+9AOsFpi6jtbW85rB9GXD0S377UkqsBBVZm6KtJV04HnWkktvoauPF wjrbR7aKc5YkjUg5wdTYe4Fx7aXAYAAAIABJREFUnqo2VLUNOFWohXDCdw/ZcpZSOxC3R4xtl2us ZaaCX8wJRUfIC7uHcz4kgnlIkix469chIqUFJJt48ZyxCCWjeRsI5zHO4ozFOUOvn3VEPohPNyJu Mg7nZawPZNzZwHfqQ0Umh3ihwckgsPdRkuZlIMZZHY9FBSL8e+gSFcIbTD1DyvCZrHV4pdE+fL1x DiGy8DmsP4bvqO5YsSwU5I0PybFKBTtr631M/dI4YeO1jTdLBIOz4Movl0KxFrWVTJIlTyoRHHmU CoFZ0cK8+zoXZrnCeRoEOmKTLn5vF63TZYs9ScG8aNDShNzEVtMgVIcFGufirijjvZGdBOw4vCCO 1XgRx7JLbWMoDVs9mYpntRAyXPxoBOGRqCQBb0KPIiGROrjsehH8HtD4eGyocIdRUiBFEnKcpYgK kHh8xW7NeRVqohizEhi4Hu8SHDYwVr3EiwwbU+YdSfDkRMb3l2BciJwNEvIkHOm+zT1WCJUukoni +xEqjlYaMD663ckuFDp2RiIY57ThU05gpAuLUsgAb8TjKzysIRPexzg86xdERxcX1nKd1I5RXAxX aHPdtQgX0ZkQmiWT4LQnpMA7i4hJacKDl0GL6VQ8il1bXoRr5LxE6gSvZKi27AKURSowAZoJuUmL zaZtBJYp5yEbwC12MREFqwFiiHMh73FWHEkuP7oVL1ikVWPBWZRwCB1niD4cOc4bpA9HnPQSJ8LT hJIoVLjYjQtPVEvQ99EQKR7HMYAq2gS1s6xAhfZC4GQddz/X3ZAQUuU6z3PpdejG4nbdfqOA1ziE aGugkIXsbIymtSLUYMJ16qG2XhNCYETUWxKyZ3DBUtMS8TNpF2WDsFHlAta5oD7yHiUs0mmkPIoB hTxugasMLvrqSymxwqK8jLSm6A8m2mCtRXpbSGYLcJFGYH28Rrb7JDgbFkDiwgIyrQCW0AXXjQmU bKnwLtx3IWMZEXestlw6Tm8PD8Exi+VWGe2iqZcjmEAsj3NwoRiUCrx3OBTai2Am1pjg+Ne6Xjkb IQUbZGU2+Eg5B1In4YwWPsor4nkdUSsft+CwO9EVwVa2BrkeIw0uemm2sbJe+g7gRTiQ8kgN0LZU dR2aEuk8TeyOLSIWs+EGWSkCmCnDKCY42sm4w1mEVzjlUQKESJBKBm+8GBjZ/lwnRaCbeIuLWdpO aLwQbTpgFJO04zNJY+uws0gVGisZePxCK5Ty1FUTMDUPWiggYHQ++rXLeBR6qUC6OGCWndK8LgxW xTIn1k9CR2GL8KA0KnbsgSqlWjVhWOjxBHMixOawBGDr4x7dXQ6dD2+u3Q6XqTLOhVUdzDUi+Cck 1gusD/RdFeVJQiVhx9E6dhQuHFcCamNjmLnA2eUbv1ANhWPBxRvU3mCFVAZHQ13NIzdIdYarx0MR OhDP0vl2ChRK5iA0LnZztDWGAO88RVEG9QoSr2XXzYXi1S5AVBV2KSNAx11QCBf4a7ELtAQ8zTiB cxrnTKB4Ly2o9vUhaiYcZT5CFM4YmkZGg5Z4BOskgpU61G7ChdS2WBPP66obIltbhdd6iUJgPRgh wMcdT8Sfq8KcVQgZa6qwudBhVu5qQDTuWHbp7/TxabaIaLggLDBnF4W8VEvFm5CUTYPzFi0dVmhw BuOCTEzIBGdsjKOLdVqAcPDWYJ1H9zKEi2wJFYmGLsq3o8e8b6knPoQleSFQUqG0BG9BKJz3gS8k dFcftkwHzwLdD77oEVCNPhUC07XKYccKtOvGmu5zWxzSLkoh7018r/Gs9kEOt2BXhK8L3WcoNVQE nxOlI+Csw+7nbUc3FkJ2nHYhJYlKwyK3DuMs1lisr9EyPESNtVH44sLj4vxRKnPr34+LDRBoL0IZ 4jx15bDKBCoPMhyjHmzkuqdp2tlDLor1IAlsa6nlFN524wlh40vHgzEG61TAonTCbDYJkvdYW7WZ eMLFXUAJtNQkUgUjCE9wPrWO2liw4exOlUbKsK0aaxE2hFWbxsW0VoV3DeBp3ZGqqiLVSXesKpkg pcZLj3cWU1usV+AyEtEL39MplAre5wKPMWEXctFrwrl4IyPjQWnRsSBra7qOl4jrEZkdrRzKR+FA uxCyNF+ogJ1F+JbO7UPmc11HREuSZClpmuMR1NbQNHUs8kVHARcRY7PG4ZrwvYx1oeHR0TZdSCQB e3Te4V2NtXLhLSYk3vlYl2m8dUgVdjWPXTz4QkWbbRmD0IP9dns6pTqjNjVSBo0pPn5+EZXOImB9 eZ5TzouwmBJ9dcJqMHZQ8cl1McVcXtNjcnkY7JzDCIF0EYR0IThzAV1IGmdRBmx0XG7bc2t9rA2C jzyuxjsQ1qKFizBT+wS6uHOpUN/g4yzLhx1EBqjeBU5t9IRwHVoc9pLWyymMXPBNYHd6j3dVNzM1 8XMM8h5euoCj+VAWuJYhEbYyEGkwAHY+BJpL0VFiRBpvNhKlg77bOAOmQVgbu8aIjMsglJCx21Qy dJ5KByRbyrCrNtbgnce4sIN3lKGuCQsBEEiH9Q5FOFLD7hheb7ERlJdYbxelhF7YbldNjetGH/aq IbMTgNSxk5YLs5Alfe0RpYWP0h4hfUShlzlhcbvzS1kqsWpqsQ0f/7/3niQNOIz1vvMgFQTAUimF lypgYi4g+tY1WFsjvQNnkUJHclko4IVSCJl20740SRfBQdijqetAY5tu2CvbEVVHYIPGVAHM9B7t TDBDW/Iq8MogteoCtn33XmKq6bzAdztWEJg0SqGV6r6H0hqtUyx1ACJdjIyhwTQ13ThcxvJDhd3I +8UoSAkZronweN+EnxWhhzZKV8oAMLs4HJTOxyYg4oLR9UB4343gRDS3894jtSBL8qBt9CWVbTqr KXcNBpf0Yc0tH5NiaUSlr6VGFktnphR6CRRzsUCOE3al4tPpj1BTj5iMeBngiCWOTzsYFc7GUU2D dA1aBZxLOIt3DZl0GFuFp98TDNJcGbZ9KZhP945qDZfOeQiOc8GfPrmKXh12zICciwiPtO4qUmqU d1TTIhxXsU5RLORPoOjnPZSKIydTh27PhdLPtd9bKPAJwgaWQwitCDY/zpWR6BEk7oH6EzpCoSSu MR2WBxqFIBEWpT3oJOxaSoTfsUEQLUgsJVroYFocx2qeMGuTKjRcoUS0eCdJ4hgIFRjFaZrGMZeK daM7JvcL1esRwapYKIj0csG1TIa/igcUj4Dlibu1tgsKCluoOSIFqusq5q8s2KfWmpDd4gN+ZU2D sDW9VDBIg/+pdB7fmODgrEIxKXxgCggZWK1OwEovuYoee5zHuHx828gh63Y20Q8XyKvOG0xp0ElO qkJcrsJH3pQLo5KWbasV/SyHWKOZqg6B7N7GAtgzm01iGLfDmJqybuIMUoGCnnZYZ5CCrmnwXiC9 CGBnPKZxIsAOIjBPU50glEeKBKUShApQi7DBqcdF2pBWC9wREacmitgpKqy3SBWM0oR3WFOHCBoJ /V5GWVddCdCOpOggIN8dz9ciiuq2bQwLSuNtS0NZzOq8E1gXzuLAfYpmEHGmKKUMw+YlAeOiDot/ KtmpflTkTKeJDhcWSaYhlR7lHcJWeFuSJB4wqFgwhp0qDGGtF9SljYtcxqAMGV0I5aJIj/BG8Hmi 6yQlgtqbrujVWoci3YSEepOm2GIW/e0XkwEvwqBVCMFhY8MQ2bsg8HURaoid7XA4jBBLACm1NEjl QarQiYkIJjsXrmccPoeELfCJwLoGZyMA4yQSi/MpWli0GiCERUUeSR3GzEiR4IVeGOPF5kX6kJgr 49jM49tBAdZbmsYhrUSmCanSNKKJu6APRXskLLZ5hcZaRLz3qj2R4gmmjwdbtsPoDr/qSHmhG1Ja ha6wTbkXfjFuUOFrW6xLR7BNigCtKSVxEfVWUqJ96CRSoUgTi/AlpiwQdoL2TejQnI0sKhBedWCe 85pcD3BeRT8vHyMIXNcSh58VrXhEGIi3C07KELGCMCRCBVcXWvFujfcVwpQLjK812/UeE4sM603g rxPSO4T3aBEwPCcc1Wy3mwMK0Y68VMC4hEB4270vWraF8PGB8AilsDThtRFUds4gXI03FmQCTsdr koTaF4FQIJTAND4O8Vtta1sfhlmjknJhNBKReiHbWnRJ5ezDz/Ytf0yEYb5pXABUIwC8XEZpb5tF jRQTym2Ud2mtYmdoI4IuUUqDkmgb5lUinsnLtoFt4SqFwFiBw4ahqbWhAI7F37yYkkrIM41WHmyD 8CVaWvJM400Z6Tgi1goqbunBWqesHc4nKCWWsn2SuFtqTGORSlzFHJAisg/SBIEh0ZAmGu9qjGtw tsbh0FoupTG0ngW2qzOE9bF+bOlEHiWJu0i4QV640KxEupD1Czm6lOLY+6LrXsMdtKG5iZmAXoIx YRcHi2lmSCcJc3iH8BkuAqjtBGVB2xKxlAEhZcz0XgySpQsL37feohxL1Y1zUikWLA1rLdrYLmyi 7WxDjYVAOovyHofFCRlIbtYxtzWZTsJKFTJ0LkpijQ80jJZXLgTGBJrJsuonPIiuM0NNdILFBhMv E7Kgrauo6jkrvZRiuk+uGxQNSiqsikwEJ6ljVJtSKUqGJ7SoBUl/SJJlGBsMQrxbLDKRKFwHZ3i8 CxbjiVT4RFPXNUo4jCsY9PokomRiLtFLE0TL0VKhyzXGUMfcxkQptJTYxoBVgQfuQaoEHRF65xzK axzBG99UDrquVJMlAX1vMcJlRzxjAkCZJElgn/oWsoZERe6Tr9A+IuPeItIhTgbKeGM9tqnDjhS9 NhCmG8lZJ5HCQKQGeSlIkgRiDI3zkizNSJOc6cE+eZ6DVNR13e2sSZaRpzlNXZPqNMyOq4o8zXDO oFVLrGsLMgEmdlfKhd2rzYZWcUpPPAYDSfCYKiZSKIQP26aKBPyOQ+8Wxb5OFMJKhKiRwiFFg/B1 wJRMGjA0EWgz0W8XXLjRjbU4keG8oPYyzOIcOAWIEAZinEe3Ca5SRMpNRKSdCrM65aOnWQq+CvCF swjX4DB4G7vRTrzoFlTrpTFS6yVmzIItImOFF2o4GWnBreDXHBmLLE9Alhuo5anAUWdFFfhtMm4I McrO+BCqZJ1DpWncTW1X0oTZIV1t7KPhi1uSzxnvUM7GjUSDjAHksanwzgQeopALVq+M/63i7FJK uQTNt8yAsP231jUuTvhtN85QS7iFOMK9tiFo+iozt5Yr3TI1w66maQN8j3iKOzC2jjOwpWPMR3GC bbBWHP0alhIwluAOIy0J8sj5773HWUuis1AbCXWEWxSwNxvATCkiOyMEV7Zc+BbauHrcsfQ9jsnP l0HlVnG8HNh9vDtf5pMvK6SUUgvxsIy0GymxLWQRj6SW2iJb5kCUNEh/dcfvnMM7OgyTmPUsEZ2Z bQv2dgREscQqIR6x8bPqqz4wVzMYl5+Yjk15DROwzug0/rD26zpzeXd0oC2lj0XssjnFkhkJgT1K pNuG09ceea3rjFTjdB7d7ZARwukmAfj/p7Jv6bUlS876ItbKzH3OfdajH7IA05LtdtsY0VhCiAHi IcSMCQPEAGSJEQNGWGKIGPMjEAM8Y4DEpIWEbGSBsYwaEGUjcDe2BKa6qK6uvrfuOXvnWhHBIGKt XJl7nzKUVDpV957HPrkzY0V88T00xn+/UEUqckyzO5vp5Ps55mBVwBfhTEE8bN9PrQsMOpt/MEiT GxK5nSPLMiPr3iHxiqYUFCEa6L9toT7l2SezFFMf/EZjyj2KF/HaN1vEsRJug5vnVW4Fg3qIeEBJ prsbX2OqVEQofRQoAKhkmylIs8XeOckkR5QhCO701nhznlHLIyj18N/NGOKQaI5+ow0rATgh34yu 2AgaU5RJhaWtQrReRMm8aR0uuLSvJ1+yjhXB2o5wQI+ZE0qt8TuVTeYUNF/2TOF4l9NOC9lglZST A5uGARy2zs4YDV+vXBC92XFMCHt6csulOZpuuFxOdyA4xy5UFc77gsYqi2LhrtfKn3ggtAZLganj VRvJcGASEyDRpBuH7hB7D/hGrWkU6WzspRPJe6oS/BrDsVRLL8mZnJzWnyjs+dg8MCEVenVRaVel ZFcVmbmP5N00NypYv9+D3MZB7XBplYWoa9DkxXGiKP2YbPtPtCoVXLDmTzCKNicOLriaV6sIfrR4 09s0PFYSi4qmqpjn+cpDanyQm7ndcRXVrt26rgcLT/RjG+YuNQUzBDMqT6hBX1LBwJenveCYHHUX 8/0J88BgHWnqLaGE0BmiYt7mtJRd4i1EXlpfTYNgtb1wp/tsyHpXSZujtpn9RpNkfb1hpjck7Riq lPanL/V1SOsVtido53d5Y+mtaj0y1teW7DPtMDKDHcTTEK5RrE8ozWDKIPP9lyPk8XT6Z/Yb6yo/ Jvae1JXhQbm5gTjvjNJuMCtvkSr3N+WeW98q3q2f0W82cJAyh+YeyZVG2vCoTbsgwflSBvKQi+QV K157FBijwAzFOqkP3Hjxvsh/ys5qT/Tz3ULvX/oFCuXteAEEFgva6wvaMoVb/MXYEx2XlmrWK1w/ EoKp0COCu1p7M32rQqCZOh8Ljf7Bo+2l7JbOmXxnqORysZQnMAE5zHxJtxvM+soqjsBY3tIw5boE fU98a5UipdTDup+6qdo+rlWuMUYEAJZluWnD6L0f4Xw+o7gOCJIyhCdoctKfGg0BDbQNOEMPOwZd ioh/XVvCw5zhqxpgsN7cKR8HmG68JuK8oVIKCBF7b4wqhvP5DEqMheddH5Sb2KE4yMeDli8WkEgp eUL94Sho004L32R2Dnw7dtd1hdWCZb429mLyzzNV583H3sqnkeSSKtONfZHmkH1ZvDGD+WpABXW9 gLnCzHGtdV1xN2ObzAh9fK8SOrqBJXGM/BiT37sBbLtJh9Nh14gPN0yt9WbSVu99hirorE0BT4w0 zxCe8VC8x+I09WFJQ53dIlJzzn3ZX2tFLdrbFh/gGHnKQARhVjXc3d1BqmGt/j2LVJTQMipRaBoN d7yAp4xMySsEJQYZQzQYbolA2i6C7IxMjVx0QSEcmKZpf+w1ykjayuxYvlv7rlo7eNohCPJNfs5+ czeFEAUMMi7BVRVCga+RwSh5qkWjUFsNaZTvDzO1IcWunrBWKf01y07a3kh4qVN/6ElJ/Biv1ocR 3RtojDfjmPfX+ranYtx29JTDDbdrzm08en3ZP06Fm7TvsJWgFu4QN22tqKouAxOnnJsO9Ji4aTn0 hzRI7vO4OBzxjbHMaTAbrZVJYmRYwPubCnnEiDoLINY8R0/wTbiRkDjt41WSk+LaUWQx9dDgcNK4 Y03ds0kkoqFnVwHZkL3XVhEcflka3XZvnA/9gj9E6FHGLoETqOlVnzT+/7ay2U+ut24WGibYkfaz 80Q49F7t5naGBncfrWNv2r4XNxunIHg1LEtDQdXUS2rkm4sQdKhI9FYBPscE2YaYNhkq7dPcumty I7K1c7T1SSO25WO7dgBNyDDPExAriBHrmm5OS3vOVs8cThPSwDtXUkgtfdRtr3hMCWsPQ38jY2MP Iwi73mUzcTlYWpIG4Y0HXdB1g9wHBorERqbdoNKA3lvq5dY3eZj60w4w7XOPXLKnrIH2FTSqXfYH UXY34CiQ2fj/CLlWH0hcNbK9P+N7RNt1tlBYiynInA6hQUDoDwBzp1ar6pBi38qrHS7wOCFRBDiZ f5znGVJKfzrHNUcbp8eyP5ZKVQGzIbG6yDWedA11S63q3Ct2QSUZgeBNtgaVFnkG2DWKCYRK7eL4 HhLsgk5oa+4Rau4GcvK+khyspU07V9jFrtEEjz5cY/Pb+qiuWhG5eeN1fC2+fsSDjtXqD7OKbCeB 3DBCG00gN6Hx3rmHBvNhkdr7sXw4JkUEUg2UyCX3CrczGI9k236PnGKh6qU4wSyosXD7OdrRaRTg jJQyJvIUegzTULsQOyqObU/6yJ9XVZRSkSenY/SmlDYfqFKrz2c2tUinGH8FtRpo2aqkxpHX8UNz mq//dwsEDtbA8GRe202PD9qWKnq07B9XL8epbTxKG7wyRvKNg9BTJsFHNuwV5GCuwu0tBujK/mhj /o72NLZbQYUngVPMJUjf3PzMYv85CEhIFZYJAsHCC8B1a2FsCzLNGNxyO0gYH1PyUZ41w6j4/2Mz lzCTPnnsdHztnM05mnQHTZm2yaYhzzSnK+xI48WJSOwRQ5/XnWd8w55xDOfcjol+04juehRmtzVq olZ5yiIzzMUs/BZo+P6JN3KgswLQb672PcbBZWwL2psjIpjn+UrTeTQAedKecfDldyX01jp4pO7Q Kw8hBA4OU6/IpgpKUzg0BvibnxpMXNVEIbpIsRXZANwgLQDIRUsXP5i5wsbEj73MCUZ+LLmDi3iJ JAVRxt3pHuVy6bBCuxDTNO1uoBwVqFc1C5lSdi7VxAKi4qoZACaCKoacZ1BKYHbArwV0Gi2YLGGt gEzuneCUS4R+er9O6hWAUrQUFixNBhrKfwAffQBoQhEa9IrUeVRE1JPBxgZ9hBSO2NW49L21fD4+ ZJ0WTk9PokdQ+ngzUHMwiZusTXaqPnXvYA+iIaSpwUsOKyUi5BwO25QAVBepELktuhiyEWB1c01m BtbzCmJC5hl6KaDESIldZEkMSSkcc32EfXy4QLRgnpc9IGiEy2WFqSBNGaxxflOApmFlNE8zZH0A TgWnE+PkHEJM86n7WBkIomtXBDPfuQyeJkzTAvACUmCttWvlUkoQGGoJZ71YPbghByLf2unEOaba nDPO71ykaXbuFcml4ylMSfbL5Vqrh3TS5tU+po623uRyuWxb/3h90zS5NlAFMmBfKYfCR7YWI4fi eayMOuBfR5yLoKGtjOsuwQVLzcYobT2gGCjHXpMJl4JYPLuc7ZQmFFGwGqbsr5mrDzOFGJhmTGkC WYXoClAGCRrn3TpduHnhTZTcE0GDysqACUUzHfiMGUS4X+jWxBttRqiNvuEYlbUcu07J8DfewKgQ qu7YEilk3ZCsiwEKEk8gOkVd96lHmXcpGhY37nHKA6LBBFyqMmzsnzLX9zZEg68UVeiw6X9qehtR +ONu8SjuaH+3yfD2U+KtqRBjNRzWUhz8tX0V3KqujdU27JUoMbSWPvlpdcFsYgulEGFJydc4ElTk eGCnFMIVnZBzwpQTsgavphmWhsbbE0W7K7H7UjHrYHWEnaR63Ala+AXg+EuHQaq5bqiLY7u5qlFQ iX14GPtaN2nLOyRfRJwvTtdvsicupL3b82E6643IEzfXCLvcwp5u9UZXQObhv8cq0yrV1err8Jr6 A3vMtqFr4HTbd9LhuN2Az6Zn4MHkzj24Nmk+c+7bEdcI5O2Ib4om9nuCh2W0911NCa20MzRtzXmj w8gOC6IbwTy4QtZVQ20cJmm9N4lzPgepyFpJV9o32LEm6BiM8a7v6D1NUEcaI+F44fcXdwAOw3J6 Wyxfo9wpBLlueubgIUd1HN/wW77n4xpnZG4cd4vHHmk82kbqzBG6CDcrfw2d6Dhel4Fn1aZDdfuA ttpS9cT5VrG2HhFIiVCrXk26EoCoL6QDiG5ezgTUqk72bFwajS13+yK3CWKolt20ZoHpwAycWjAP 754o7JafDsy5uNV2y1pKhGSpuzbbkC7lws0w9TAetI0aal7a+buOFJ6u7h0qi6r3Bf3vjG5Wqitw kvZHm9sv3l6nHMWztxgLY5OfmXds1xECeeqG3b73ka0q2w3VuFXtYe/kLduVCL9pKtQADlGve6zF AxGuNAoHxKunADgaECz8ZszWpu/2fXO3eDT3grKisNRS6FP/BZzLQ7uouaRPUEIG7tOtzOnNeCKD LAcssW5xGoZQ87gyl9hgsuFM9EQyQm9wYbtK0acqtd0WIH8J+NieaMfxuRPfnuqnbrI/h2swrrh2 7NDD8Xh0bTmq0zeUnFF13N9eH48UPPTxxmr05GoKZkNVV1E3D/eqClTrfg7N8K0/dByWnYSgH8VN 1VggQUrIbmjq+z8xt2V2k1QXe1bdngQChX7MK8mIUremk4iQU941qWMAUMN6+oUaboBdnxCMSWLq RmVHNuaIQ41/9lQTzUS71wmm2/2T2hN9FW7iTH+oz/qOrDeAomq7I3GsgOMxe/w5IzJ/i8aiMr6m 9rnbXk/DxS8BYf7rR58igcMayXeFwYMXQ2EFUxhxBpO0lIoqK6bksjzSre3Jt6T0zNaZn6RDvAUR MjGMUjjJ6eBU4x9bI9qsfW41wO2C1+oq5/b1FDgJIwPGWNd6g+u1Z2LqcLGPzfLx5tpcodtCNd2u NjiAi7YBphiSJUbw86mpcn9d+QqZHx+INj16DrNcMU5peDCqKNK0XD+Qje4jberUIFK6mllgEPW9 H9TVRZS3xrvBITlnlOr4ZHMLUk7IrUWpTqsSLbA8OXKgAtW0Ef0yM1aN6tSkVqrInHHWC6qUINrH qoYmzNOEd+/e4e7uDkx79U2tHmqUU+gLG4ov+71irRXTwvE1l/5mValIPCHnjIqyvSlRx50qW33J S7kzKMdRvTXfO6rKYe3hAgLtSHjT82XaJqgGIEpoFl0Gt70R482TBpeZWms/+sYHY+Rb5dirjhW/ PQTLsux0hkeDvImTH1vRF6WUUDUEw4JO9HPv+1BSh0zMIiF1mRYsy9L3nJyn3Qqq0aPn0wJwhohh heKyrt0mNAVna84Jbz7/EVImvHzvdaTYpwTOANeNSC9ww45atTMPndvsItTLuiLNU/iEbwyHduQ4 sJe7lbSIIMef3Rqpr5v+bYrb6CEMUwblDLVwkOHohW4oXa5xpn3zTIedX6saiRzjolF/B+vccI4K PtKBxkmvP/HBDN0ZkQy9Vo30+nEJfeRmPWXUYvb0wNH64G0gSFGxtgdiYtr1oH04Mvcda6+pmoLE /epFfCm/1gJUYJmzG7qF9XieFxASShHkEmi085obQ9AtgBryzI0ISAkMgRSfJE/LdFXWHWZIO9ym 8aUp7xfVfsHsCfwoVkzly7abAAATYElEQVSk4XkUUxhnQBKSJayh/9NBz/cUB73RbsYxvt2Y6aD7 uzUgXBPonL0x9kU27Ei3h+qaMnQL+3pqAjx+TW89cM3z2nO+RmB0ZDcEfBJi49G3tYlPKJi6OYcr TejsjAiihkso2TMn3D+fgSCCzvMMJuB8PiO3SqNqqIqQaMU0BzjSzYcKkzIgtbvzNd+s47K3b/8H P/CnbJK2niV1VTGaZ7tp5EdZ0yRt6w2TUOrc4NMPHLHuijAclQ616EbJbX9ubnLFB6Zkgz067eQG f2r83Vp1HqtRuw6N+TDSZW4BsLcGA4/WtV1Q0zhdtpvI95jSIRY13yBoRMy4e4jGdmMgJbb9C6Ut STexT+bNe5RCP5gzrLqx7jxNEClYLxVZgjNgHLuq5DBDnhYQa6Q8ICYN2Xwu2T1E2RSJcXOCaWsD nuagLNfdkraFyxxdma+Pso3LhQGneWrE7zfWoXH+MpT9y252xBs14mJm1hfQI3iZcw5KUNnd2GkI vNw4avzkTXmsVldeZY0tcvi97LB43/2LoIHH9fSi0sLlqxvDicAo+esP9ELNLUGMwvKAk0vpu2Y0 g1i21oKDQepPUPiDHtU0ZlCr3Ssr8RTeB+3PaZdq3hiH7qgXJvRhD2RSO36jrMgBWKIZ6FPzorLu Sd60g9a83InAwj1zLsWu8DoucqO3PE1FCRN/4yscDnBmh4OA+wdGI7ruiI4f94C3NIOjoFVFbwKr VxK0w4232XTSjnbdrjsFtbg2QW57CGmreGBApYKYIGW/BWh10Cu6gLCgiKBUQVi8gjmjKrCK4i4l 95QPU5hpPo0Jq0CRFWI5YIR4zzmALzTuDoXloWBO2Y8pNciANTXeVRdkxlHYznQDo9SCNLkbS3+C h3KMYTXRhgcEqwLhWMfkpvo7oWlYGMU7vT8iIF0C7z8ju9e6XD/dBO0GJJ7KNaio4zWIYFeNbgUs 7WwzI/6Ew25LDnDIEZ0/moLsaDht2UxbeOXYCzpu1XCsTSqPvqRHd3yeEIqiQ4+11rBBB6FAw1k6 isSUwr26gO4zcg4HxES4v79HnpP7TwoRhDOMps0tWWokHLiFLTdTDBAUnsIAA4ph4Kh7EkTiMLhP hGTuzpvzFLQUg63WU7E23rRXG47QxVrduVe5hBOO05O1hQelSG3oxwVFRWgIvCuGDA5hEJK/nm4U 1bC6iCRRt6tOYSRKbeFOng/SbgQ/fjwkgJn779Twp4bltT5vnJhJDdpubra+urqlPTxiXrubL0Dq Fqy02zcSOlHTD6AWZ+Li0wqLfKDI/5F4gHTvDm0c/XTeomRqvFczJbCJm7fQfadNMWfMS0aezOD+ rAkJGau4WVqeM9byAOIWrCTQmjwoku4xLRmP5QukJXt8Gxm0+g8q5qQvjxUpSJgwTY5DnS9rf8rL +YKKC37ia88h66eolzNWFix86tUbOWT/olBWTJlBNKGGn0J4NIeCNyZIG1xQOEiGicMYfwVzQsoZ Wgt4ChzmtIByigQMf4h85eRhmowYQpqLsALz7FmJ7ShheJCAyT7RI1HuEreR6FeJIiplOKKbL/2A X43cLqkBceQFZVVMeRPPVgtrpuZc2LYNPc3NGcHS6JAzUMyArO5zugoIFXlZkKYZUt5BVPHw+IA0 L8hp8vTZvKCeL7jLiueZADnDiuLFs3vMS8bnP/wUeZ4Yc8q4EENtcrOiEHgiuSc4TLoUyGm6paPq qoZKimTb+qc53jEoYAoCTzkWnbVPnJYmJGNnQTRUu5PVvOo5tdtTPTslxhRSIzqWOESTvmgS85An gWHG1vsJublJQ9M7k9VXrBtFJEXgUfh2wsJVmZoFtsv6KW46OzjvHM09noISOj/LbqmDdAdRHF17 GrhM4QPWF+3i2BsC20shcBjEWXGE+u/TPfLNc3/QYo5N+/Vo1a/3ZgAgDLEVc86Y2F3+pK4olxWi GZfLBTlPjJTDqF48eWpVCSsi33SLVlQp7gFKiqrVSyJJGMa6BAumoMC9UmjNLIz1E7X1cFy0SF4A OcjmO6bg2IeldEoJynFhhLs8HIEUk2Wo8KacC0kcReybRTyuj9stY8Y86Su8o9nIlc1NcGHbdONi A/dMV97ScYnigTngZ8ejrFWcW5ACALDYbfwqHPwkeiTidpC58VkTBXPyPR/IQOrsW4X6QBV0cApf LIlKzpHkVUzdSEXd9SejpbcZSCpkXTFHDJ2aIHF2QrcxVCrECu6WF0g8wapTqy7nglTU4YYUkbS+ O5vAyZDDSa/xp6Tp6zgmBrbWSgU3ye0fo7/uKw+LdUM1AVcPuVatG3MyzVH5Uvgsxc3QfN2DP9QM vnqSQ6R6XdaKkvKevBdZfV2zJxRUn6hu1no7T7tg8huLUyRmdZR/M31tVKIW78a+z+ivZUfNGfZ+ dKDE6EHRJHLb22FE8o/UnP53oUD2hFdCNSBJTM2IpLIWkEmR4dwyvw3I8CNyMo+gS+2phPhmQasb D2eG1oqZPeewskBYMZFrG8AbsWB0OMwOkLlAlLhizrmbQFhnQrRw6ow5LTCdIKVCrYbeb7+J5+gn KBNqhDauMqwPzGnKl7KCoCji4km3h+Wt0VQ4TaPRamPa4fBSV1tRZe7sVA1nYI08H+PkZZ22px3m eYQTIkuHBAwBWfHIkri+mTwr2cjcXDeW6QJ/ookNSHPPWjymYXUMK4I3R/nXdvPwk+yIhgE2XKwz PJsLDTm9ut143dQkEzg4Plo9AKod6zaYzikbZnY7o2ThBNT5Vz4ciBSYhK+YeUSxe8kmpGWJ/a9C q4uX5zvPg56mKcQUBoAqshksBR9QfDxvsh7lBNLcE9A5J2jxZAPYvGXYYQtUzHlyEzA0jd4WW0s5 oz5cPDnMNDJzPMokIwUaDiT1TGoMOTg+zXmYuDINcRx1j75L7RqbsUfJRCBUsHqzyp78DIJGOmjg aYatp2rB6RZRvUpdCXzskXaWQkHx7lXa0A1JmmC2j/AHsl9bDaE17gPlKCX3unfmbGrxtQHHcCzM tesGG/bYzvMULUw7zin0c5sSilw3WkvoE8R7sUyY84QlMUg9jJ6IPIgrubLrlCfkZ/kOd3nGA/kY ymH20fnklpAnhhSPnC1WwJgBbVABe3/VTnVOTl8VgTFDwhJIQ6jR2KfoFogDVIAJYPOgyVb2SfsN 0+T9phWwCi1fwLhcLZx5tGoM03xiNz1pLsRsAtYLmASGApPVn06Trjv0xcBmqMFMu/iPW+a0YwM/ rrBo0PZtlT1dqZ+PCDsApImRqlf//TrK+0VVQg1DF4mIYF8XBiu4HbktIbeJXRCOjYYIYneacXOB VktQjvzrELcaAMoTpjl1e0oKhrBpRdUVDEU+ZU8hmOgCU/WM5VpRywUpZ6QpRzOZfDosClGJqT5B IqVemwm9MzlQA3IQicnOPOlLrLodtyoW8vKbuPHWxwsboYwhV0LsC6Ge/QK54M2PPoa4lBopE3Ka PdIjMmS0Wk96oEwAT66vsAwTj3WrDCQJTaP6zZV4MHszQ0ohdqAN1W8W37ea9l2Wz6B4Hkl9t26o m81/YiTOYCowWzf5l3naqpmLF9yQ2p31LORdTdFOadw1cFc3mXr7wcrwQJIcE3TY0XEwX8i1d2sJ 0JgASw70ZqL4HMNaLv7+1BX5T//8nwKVCf/uN/8Tfvf3P8a8PMf84hlAE3hJ+OLtg6supgX1UqCV cFomLPMMqxlFS6hpoikmQoWhGJDzhBLUkHlekCijrIpEjPslY33zYxitgPgLW+YZJyboxddBTOwZ 06gwimOZAMqMZ5xgiyefMmXkyd+AlKkvztdLBac0ON15b+dOyAvmsJa2ovjRpz9AlQuIBSqKUis+ eP11XC4XrGuBlApLwbQkAFow8byTrB8R86aSHsl8Y0Wbpwlv376FquL+/h5EhMdHz/57/vw5VBUP b7+IMIeMZZ59hyeC+XQP1ROquhWCIIGmE6Z0gimjVsW8LND1EiljjR7NPWYlpYSZT8gTBzi6bX5W VVCeAPZw0YoILBeDZEU2xwXv7k+YCCjlES+f3cGk4PLsDvkv/+zX6N/81x/Zmx8/4Ief/hifv3uA loLy8IiFXoLEHU0SEu7zCZXhsWmlbktmzlAISlXUiHJLKWF9XLEsi/cJKrg8PqKsZwgSUB7x6n6G rQ9QqTC7oK4XXMyQsODu7s6rH3lYt4XhGVsGUYYycPJFAxguimULMSwSKAH6eIFGMoRE5aoD2v2u UAQnXMCkABV3tk4JjAmPj49QNTfDYAJTBuBBTCaAUd2Z8x4b+NuxyNuU9/j4iNPpBFXF+byJZFUV n332GV68eLELdKMBHzs/PIKfv0BOGUoJVj1k1G20samJEmMxD27IefaBrNkZ1YpVxNU4MHf+mRLm 0wmnecJn7954IgUblrSgnvz0ul9OWBLjix//EOXiU7/VCpkSFlK8evnMm/c//7Pv0b/67sem1fDv v/sf8YNP3+B+zlBZwSqwQqh69mY6VK9rWWGiOJ1mTEuGMGFdK6RcPDYjhw8TGFQrynqGVcOL04Ip zUhWkPWClBRLVkxKWDMBq8C0Yrp7jlokOm/vtTjCvhEszue5RZxJXHrZTDCqYUnam/r+1oQJmWdC Lx59EuN4Ywq0Kai9pcuy+BGbEoidGiJJkHnq+Y7X9G6+8sjaEeqI8PjwgPv7+872yDlfVa4lJ8iQ YtapNlhQJMiAEQknws4vC28FjtgZzhxAZgCswS6d7hdIieOfGFoNIgWXs9ugi1SIXgAQqibUUsAg XMwzul8/f4a72QmLmgRJLiAm3M2D/cNf+fbX6V//509smgm/9d3/gt/7X58g5wU2K0Q9gR0qTjdu KVhzwt2ScfdsgUAws+FcXaSQEuPt27ewtaKKgqG4SzNmcms0sgo9P+DlM8LL0wQ9Gy5M0OQ+qFoq ao3E9yRACk6WKVIEX3qoUA0v9Oa7HqZiMOT4cxo+asAWhoyccgwL7hTdtgLeuBJyDtjD3L/dG3rZ 21DrXiM40mKa6cfYzI9f++rVq75HbJ/78PCw42r5hLe52XS2Kxl0PQM0hRPFHSZqPXbpi2aYeIsv BFD16yAGtgo5O8LeJlVjAkWPOeUZz9IMkQIlYJ4zjDNMK2YwoAVvPv8h0qtnSDCcJgZJBaTi1fPT Xkzxl/7kV+lXP/oDYwa+ePgNPBQ352javksVMAkYhpkEWFcUu4DqGu+mAlJQQ4f2cplQSkFiwt10 8giVWnA/Zbx8/Rpf/8ofw1c+mHG/POJ//Pe3OGdgyifUlJDAoMXLPDGDsgZ6z0hlhhGjlIvLv4M2 kjg+wj9qqeGKY50BoMmQ1AEGkRVm/vWcLKyuUyDu4cuFFDoAz7dOFiFIjB7IfotLdrTHPC6UAXim T/izZHJQtZrjU41P36bKxvESEZAaOBtePZ8hEch+luIVKSXAMqpUZ5+ogkM/CEuYmDGztxj+sxVW DVbW2O8aeDaP/y0rtDw4cE2KFCa/k81Qq0gT4TQnJFMkrij1AjbB+y9eXat0/sLP/wT9i9/4bQMD v/pvfwvlsqJUBecZCwwXeYRV/yVfLHeOY8kFMTjg1B12FVmBbAaGIpUKrsDz04Kf+cZP4ls/91P4 +7/0ZwkA/tm//I7979/7CHJekZJCq0cGS9ggGVcQqtOUbUItri5pQuuGjGtLyQrPUFOK+NstDJJr grSE0LA+BPuKBC02DS49S5yHqc3jUYVi/cP7RI3R7nGzHNArPjoN3K43b950Vcy6rpimyY9d5k45 Ws9uKDIvd0gn/zwl73OTeFiooCBJrNlUkZAxmcHWc/jS155XqOxqI2KDYsXLF/d4cf/CtZPVIOwc q3e14tnL18isOK8RGCUuDWQzaGFYyiBUrOdHTJlg5Yy8TPjaB+/jScXmr33v/9h3vvNr+G/f+5/4 +JPPXXdYFZda4igD7tLktjXsNtht4YzsGMeL58/BDdkVwUwTPnj/Nb71zZ/D3/1bv7j72b/8D/+B /cHvfw8TZqyPjHl6htWASgJLjzByEzYVgtUMWRXTNO28vY47t7FSjJymxs2aYxfJHEEGEMfgFFBh pDQ7zMItQUwAclAVTLDKVx6o47G3LAsocbdVGlVEDcBtipx2U42T5TRN+OSTT/DmzRucTid3MA6V zzLf4fHdBa9efwXP3/sqMN9DZEFBBjj7QLVefOBR+OvWFhLuLIqvfPUV/shP/lH8vb/5F2/eB3/7 H/0T+8Enn+Ltw6Nz0ooPB7mS52mz4u5uwuXhHT58/xXuMuHr77+HP/dnfhFf6kP467/zsf36b/4H /Pbv/C7Ol9K56CkRckr4hZ/5FiZicJpcsZycgpLmCdOUkJDwd/7at7/c6zD++ZV//iv2xeefIVHG +gic7l7ioVR/s+kMCxmYFUNZCSaG8w2Vy8jvanSTo+21WVs2i+8H4wk2al6sBLPkcAUnZ82mlmgm MQwA66rdd8Ig3R1n/H9i74BEC8oq/e/JBHOecD6f8eGHH+Kb3/wmPvjgA9TqsrYPP/wQn332GT76 6CN8//vf75BDS6tYlgVWDd/44z+Fb/z0t/A3/vpf/X+6zv+///zjf/od+/yLd94mCMX+0e2R7p/N yAR88fYN3n/vBU454fXze3z7F/4E/i9PYoDFM5lnfwAAAABJRU5ErkJggg== "
     id="image10"
     x="0"
     y="0" />
  <path
     style="fill:#00ff00;stroke-width:0.01118313"
     d="m 10.336736,7.1508584 -0.6529142,-1.132611 1.2792572,-0.0028 c 0.703597,-0.0016 1.281222,-9.07e-4 1.283603,0.0015 0.0076,0.0076 -1.239912,2.266583 -1.249323,2.266583 -0.0038,0 -0.301606,-0.50967 -0.660623,-1.132611 z"
     id="path65"
     inkscape:connector-curvature="0"
     inkscape:transform-center-x="-0.19937695"
     inkscape:transform-center-y="0.59813084" />
  <rect
     style="fill:#00ff00;stroke-width:1.6368556"
     id="rect59"
     width="0.77453339"
     height="3.1006858"
     x="10.527849"
     y="3.1726878" />
</svg>
