<?xml version="1.0" encoding="UTF-8" standalone="no"?>
<svg
   xmlns:dc="http://purl.org/dc/elements/1.1/"
   xmlns:cc="http://creativecommons.org/ns#"
   xmlns:rdf="http://www.w3.org/1999/02/22-rdf-syntax-ns#"
   xmlns:svg="http://www.w3.org/2000/svg"
   xmlns="http://www.w3.org/2000/svg"
   xmlns:sodipodi="http://sodipodi.sourceforge.net/DTD/sodipodi-0.dtd"
   xmlns:inkscape="http://www.inkscape.org/namespaces/inkscape"
   viewBox="0 0 22 22"
   version="1.1"
   id="svg6"
   sodipodi:docname="flower-shape.svg"
   inkscape:version="0.92.2 (5c3e80d, 2017-08-06)">
  <metadata
     id="metadata10">
    <rdf:RDF>
      <cc:Work
         rdf:about="">
        <dc:format>image/svg+xml</dc:format>
        <dc:type
           rdf:resource="http://purl.org/dc/dcmitype/StillImage" />
      </cc:Work>
    </rdf:RDF>
  </metadata>
  <sodipodi:namedview
     pagecolor="#ffffff"
     bordercolor="#666666"
     borderopacity="1"
     objecttolerance="10"
     gridtolerance="10"
     guidetolerance="10"
     inkscape:pageopacity="0"
     inkscape:pageshadow="2"
     inkscape:window-width="640"
     inkscape:window-height="480"
     id="namedview8"
     showgrid="false"
     inkscape:current-layer="svg6" />
  <defs
     id="defs3051">
    <style
       type="text/css"
       id="current-color-scheme">
      .ColorScheme-Text {
        color:#f2f2f2;
      }
      </style>
  </defs>
  <path
     style="fill:#3daee9;fill-opacity:1;stroke:none"
     d="M 11 3 C 9.895146 3 8.65625 5.34375 8.65625 5.34375 C 8.65625 5.34375 6.1245137 4.5629863 5.34375 5.34375 C 4.5629863 6.1245137 5.34375 8.65625 5.34375 8.65625 C 5.34375 8.65625 3 9.895146 3 11 C 3 12.104854 5.34375 13.34375 5.34375 13.34375 C 5.34375 13.34375 4.5629863 15.875486 5.34375 16.65625 C 6.1245137 17.437014 8.65625 16.65625 8.65625 16.65625 C 8.65625 16.65625 9.895146 19 11 19 C 12.104854 19 13.34375 16.65625 13.34375 16.65625 C 13.34375 16.65625 15.875486 17.437014 16.65625 16.65625 C 17.437014 15.875486 16.65625 13.34375 16.65625 13.34375 C 16.65625 13.34375 19 12.104854 19 11 C 19 9.895146 16.65625 8.65625 16.65625 8.65625 C 16.65625 8.65625 17.437014 6.1245137 16.65625 5.34375 C 15.875486 4.5629863 13.34375 5.34375 13.34375 5.34375 C 13.34375 5.34375 12.104854 3 11 3 z M 11 7 C 13.209139 7 15 8.790861 15 11 C 15 13.209139 13.209139 15 11 15 C 8.790861 15 7 13.209139 7 11 C 7 8.790861 8.790861 7 11 7 z "
     class="ColorScheme-Text"
     id="path4" />
</svg>
