<?xml version="1.0" encoding="UTF-8" standalone="no"?>
<svg
   xmlns:dc="http://purl.org/dc/elements/1.1/"
   xmlns:cc="http://creativecommons.org/ns#"
   xmlns:rdf="http://www.w3.org/1999/02/22-rdf-syntax-ns#"
   xmlns:svg="http://www.w3.org/2000/svg"
   xmlns="http://www.w3.org/2000/svg"
   xmlns:sodipodi="http://sodipodi.sourceforge.net/DTD/sodipodi-0.dtd"
   xmlns:inkscape="http://www.inkscape.org/namespaces/inkscape"
   viewBox="0 0 22 22"
   version="1.1"
   id="svg6"
   sodipodi:docname="format-align-vertical-top.svg"
   inkscape:version="0.92.2 (5c3e80d, 2017-08-06)">
  <metadata
     id="metadata10">
    <rdf:RDF>
      <cc:Work
         rdf:about="">
        <dc:format>image/svg+xml</dc:format>
        <dc:type
           rdf:resource="http://purl.org/dc/dcmitype/StillImage" />
      </cc:Work>
    </rdf:RDF>
  </metadata>
  <sodipodi:namedview
     pagecolor="#ffffff"
     bordercolor="#666666"
     borderopacity="1"
     objecttolerance="10"
     gridtolerance="10"
     guidetolerance="10"
     inkscape:pageopacity="0"
     inkscape:pageshadow="2"
     inkscape:window-width="640"
     inkscape:window-height="480"
     id="namedview8"
     showgrid="false"
     inkscape:current-layer="svg6" />
  <defs
     id="defs3051">
    <style
       type="text/css"
       id="current-color-scheme">
      .ColorScheme-Text {
        color:#f2f2f2;
      }
      </style>
  </defs>
  <path
     style="fill:currentColor;fill-opacity:1;stroke:none"
     d="M 3 3 L 3 4 L 4 4 L 18 4 L 19 4 L 19 3 L 18 3 L 4 3 L 3 3 z M 11 6 L 8 10 L 10 10 L 10 16 L 10 18 L 10 19 L 12 19 L 12 18 L 12 15 L 12 10 L 14 10 L 11 6 z "
     class="ColorScheme-Text"
     id="path4" />
  <path
     style="opacity:1;fill:#3daee9;fill-opacity:1;fill-rule:nonzero;stroke:#ffffff;stroke-width:0.06853583;stroke-opacity:0.94117647"
     d="m 9.9970924,18.993562 c -0.02513,-0.02513 -0.04569,-2.059797 -0.04569,-4.521483 V 9.9962869 L 8.9872421,9.9772712 8.0230823,9.9582555 9.5074707,7.9803531 C 10.330434,6.8837799 11.01791,6.0286956 11.050324,6.06135 c 0.03216,0.032395 0.705955,0.9224506 1.49733,1.9779023 l 1.438865,1.9190032 -0.989521,0.018966 -0.989521,0.018966 V 14.51772 19.039252 H 11.02513 c -0.540291,0 -1.002908,-0.02056 -1.0280376,-0.04569 z"
     id="path817"
     inkscape:connector-curvature="0" />
  <path
     style="opacity:1;fill:#ff6600;fill-opacity:1;fill-rule:nonzero;stroke:#ffffff;stroke-width:0.06853583;stroke-opacity:0.94117647"
     d="m 3.0064382,3.984216 c -0.02513,-0.02513 -0.04569,-0.2564382 -0.04569,-0.5140187 V 3.0018692 H 10.97944 18.998131 V 3.5158879 4.0299065 H 11.02513 c -4.3851508,0 -7.993562,-0.020561 -8.0186918,-0.045691 z"
     id="path819"
     inkscape:connector-curvature="0" />
</svg>
