<?xml version="1.0" encoding="UTF-8" standalone="no"?>
<svg
   xmlns:dc="http://purl.org/dc/elements/1.1/"
   xmlns:cc="http://creativecommons.org/ns#"
   xmlns:rdf="http://www.w3.org/1999/02/22-rdf-syntax-ns#"
   xmlns:svg="http://www.w3.org/2000/svg"
   xmlns="http://www.w3.org/2000/svg"
   xmlns:sodipodi="http://sodipodi.sourceforge.net/DTD/sodipodi-0.dtd"
   xmlns:inkscape="http://www.inkscape.org/namespaces/inkscape"
   viewBox="0 0 16 16"
   version="1.1"
   id="svg11"
   sodipodi:docname="format-border-set-diagonal-tl-br.svg"
   inkscape:version="0.92.1 r15371">
  <metadata
     id="metadata15">
    <rdf:RDF>
      <cc:Work
         rdf:about="">
        <dc:format>image/svg+xml</dc:format>
        <dc:type
           rdf:resource="http://purl.org/dc/dcmitype/StillImage" />
      </cc:Work>
    </rdf:RDF>
  </metadata>
  <sodipodi:namedview
     pagecolor="#ffffff"
     bordercolor="#666666"
     borderopacity="1"
     objecttolerance="10"
     gridtolerance="10"
     guidetolerance="10"
     inkscape:pageopacity="0"
     inkscape:pageshadow="2"
     inkscape:window-width="640"
     inkscape:window-height="480"
     id="namedview13"
     showgrid="false"
     inkscape:current-layer="svg11" />
  <defs
     id="defs3051">
    <style
       type="text/css"
       id="current-color-scheme">
      .ColorScheme-Text {
        color:#f2f2f2;
      }
      .ColorScheme-ViewBackground {
        color:#4f575f;
      }
      </style>
  </defs>
  <path
     inkscape:connector-curvature="0"
     id="path4"
     class="ColorScheme-ViewBackground"
     d="m 2,1 v 1 5 1 5 1 h 1 5 1 5 1 V 13 8 7 2 1 H 14 9 8 3 Z M 3,2 H 8 V 7 H 3 Z m 6,0 h 5 V 7 H 9 Z M 3,8 h 5 v 5 H 3 Z m 6,0 h 5 v 5 H 9 Z"
     style="color:#4f575f;fill:#3daee9;fill-opacity:1;stroke:none" />
  <path
     inkscape:connector-curvature="0"
     id="path6"
     class="ColorScheme-Text"
     d="M 2.70703,1 15,13.29297 V 14 H 14.29297 L 2,1.70703 V 1 Z"
     style="color:#f2f2f2;fill:#ff0000;fill-opacity:1;stroke:none" />
  <path
     inkscape:connector-curvature="0"
     id="path8"
     class="ColorScheme-Text"
     d="M 3,2.0000004 V 7 H 8 V 2.0000004 Z m 6,0 V 7 h 5 V 2.0000004 Z M 3,8 v 5 H 8 V 8 Z m 6,0 v 5 h 5 V 8 Z"
     style="color:#f2f2f2;fill:currentColor;fill-opacity:0.5;stroke:none" />
</svg>
