<?xml version="1.0" encoding="UTF-8" standalone="no"?>
<svg
   xmlns:dc="http://purl.org/dc/elements/1.1/"
   xmlns:cc="http://creativecommons.org/ns#"
   xmlns:rdf="http://www.w3.org/1999/02/22-rdf-syntax-ns#"
   xmlns:svg="http://www.w3.org/2000/svg"
   xmlns="http://www.w3.org/2000/svg"
   xmlns:sodipodi="http://sodipodi.sourceforge.net/DTD/sodipodi-0.dtd"
   xmlns:inkscape="http://www.inkscape.org/namespaces/inkscape"
   viewBox="0 0 22 22"
   version="1.1"
   id="svg6"
   sodipodi:docname="format-number-percent.svg"
   inkscape:version="0.92.2 (5c3e80d, 2017-08-06)">
  <metadata
     id="metadata10">
    <rdf:RDF>
      <cc:Work
         rdf:about="">
        <dc:format>image/svg+xml</dc:format>
        <dc:type
           rdf:resource="http://purl.org/dc/dcmitype/StillImage" />
      </cc:Work>
    </rdf:RDF>
  </metadata>
  <sodipodi:namedview
     pagecolor="#ffffff"
     bordercolor="#666666"
     borderopacity="1"
     objecttolerance="10"
     gridtolerance="10"
     guidetolerance="10"
     inkscape:pageopacity="0"
     inkscape:pageshadow="2"
     inkscape:window-width="640"
     inkscape:window-height="480"
     id="namedview8"
     showgrid="false"
     inkscape:current-layer="svg6" />
  <defs
     id="defs3051">
    <style
       type="text/css"
       id="current-color-scheme">
      .ColorScheme-Text {
        color:#f2f2f2;
      }
      </style>
  </defs>
  <path
     style="fill:#3daee9;fill-opacity:1;stroke:none"
     d="M 16.480469 2.6113281 L 4.4804688 18.609375 L 5.0507812 19.037109 L 5.40625 19.310547 L 5.4101562 19.306641 L 5.5195312 19.388672 L 17.519531 3.3886719 L 17.050781 3.0371094 L 16.59375 2.6855469 L 16.589844 2.6933594 L 16.480469 2.6113281 z M 6.5 3.9980469 C 4.567 3.9980469 3 5.5650469 3 7.4980469 C 3 9.4310469 4.567 10.998047 6.5 10.998047 C 8.433 10.998047 10 9.4310469 10 7.4980469 C 10 5.5650469 8.433 3.9980469 6.5 3.9980469 z M 6.5 4.9980469 C 7.88071 4.9980469 9 6.1173369 9 7.4980469 C 9 8.8787569 7.88071 9.9980469 6.5 9.9980469 C 5.11929 9.9980469 4 8.8787569 4 7.4980469 C 4 6.1173369 5.11929 4.9980469 6.5 4.9980469 z M 15.5 11.998047 C 13.567 11.998047 12 13.565047 12 15.498047 C 12 17.431047 13.567 18.998047 15.5 18.998047 C 17.433 18.998047 19 17.431047 19 15.498047 C 19 13.565047 17.433 11.998047 15.5 11.998047 z M 15.5 12.998047 C 16.88071 12.998047 18 14.117337 18 15.498047 C 18 16.878757 16.88071 17.998047 15.5 17.998047 C 14.11929 17.998047 13 16.878757 13 15.498047 C 13 14.117337 14.11929 12.998047 15.5 12.998047 z "
     class="ColorScheme-Text"
     id="path4" />
</svg>
