<?xml version="1.0" encoding="UTF-8" standalone="no"?>
<svg
   xmlns:dc="http://purl.org/dc/elements/1.1/"
   xmlns:cc="http://creativecommons.org/ns#"
   xmlns:rdf="http://www.w3.org/1999/02/22-rdf-syntax-ns#"
   xmlns:svg="http://www.w3.org/2000/svg"
   xmlns="http://www.w3.org/2000/svg"
   xmlns:sodipodi="http://sodipodi.sourceforge.net/DTD/sodipodi-0.dtd"
   xmlns:inkscape="http://www.inkscape.org/namespaces/inkscape"
   viewBox="0 0 22 22"
   version="1.1"
   id="svg6"
   sodipodi:docname="games-highscores.svg"
   inkscape:version="0.92.2 (5c3e80d, 2017-08-06)">
  <metadata
     id="metadata10">
    <rdf:RDF>
      <cc:Work
         rdf:about="">
        <dc:format>image/svg+xml</dc:format>
        <dc:type
           rdf:resource="http://purl.org/dc/dcmitype/StillImage" />
      </cc:Work>
    </rdf:RDF>
  </metadata>
  <sodipodi:namedview
     pagecolor="#ffffff"
     bordercolor="#666666"
     borderopacity="1"
     objecttolerance="10"
     gridtolerance="10"
     guidetolerance="10"
     inkscape:pageopacity="0"
     inkscape:pageshadow="2"
     inkscape:window-width="640"
     inkscape:window-height="480"
     id="namedview8"
     showgrid="false"
     inkscape:current-layer="svg6" />
  <defs
     id="defs3051">
    <style
       type="text/css"
       id="current-color-scheme">
      .ColorScheme-Text {
        color:#f2f2f2;
      }
      </style>
  </defs>
  <path
     style="fill:currentColor;fill-opacity:1;stroke:none"
     d="M 15.978516 3 C 14.465022 3.4377241 12.748442 3.6693848 11 3.671875 C 9.251603 3.6707433 7.5343535 3.4404299 6.0195312 3.0039062 C 6.0416342 3.6933546 6.0966507 4.3493587 6.15625 5 L 6 5 C 6 4 5 4 5 4 L 4 4 L 3 4 L 3 6 L 3.0078125 6 C 3.0072569 6.0337531 3 6.0657146 3 6.0996094 C 3 9.812041 5.506106 12.909543 8.9238281 13.820312 C 9.264788 14.22506 9.624017 14.538585 10 14.736328 L 10 17 L 9 17 L 9 18 L 8 18 L 8 19 L 14 19 L 14 18 L 13 18 L 13 17 L 12 17 L 12 14.736328 C 12.375468 14.53846 12.733706 14.224629 13.074219 13.820312 C 16.492875 12.91016 19 9.812702 19 6.0996094 C 19 6.0657146 18.992743 6.0337531 18.992188 6 L 19 6 L 19 4 L 18 4 L 17 4 L 16.984375 4 C 16.984375 4 16.278145 4.0051 16 4.9570312 L 16 5 L 15.984375 5 L 15.841797 5 C 15.901507 4.3481803 15.956448 3.6907471 15.978516 3 z M 4.09375 5 L 5 5 C 5.26795 6 6 6 6 6 L 6.2636719 6 C 6.5888438 8.6160501 7.2011571 10.849622 8.0136719 12.427734 C 5.6395546 11.310166 4 8.906602 4 6.0996094 C 4 5.7241857 4.0373785 5.3591067 4.09375 5 z M 11 5 L 11.619141 6.3164062 L 13 6.5273438 L 12 7.5527344 L 12.236328 9 L 11 8.3164062 L 9.7636719 9 L 10 7.5527344 L 9 6.5273438 L 10.380859 6.3164062 L 11 5 z M 17 5 L 17.90625 5 C 17.962621 5.3591067 18 5.7241857 18 6.0996094 C 18 8.908793 16.357592 11.313268 13.980469 12.429688 C 14.793939 10.851297 15.408955 8.6180147 15.734375 6 L 16 6 C 16 6 17 6 17 5 z "
     class="ColorScheme-Text"
     id="path4" />
  <path
     style="opacity:1;fill:#ffff00;fill-opacity:1;fill-rule:nonzero;stroke:#ffffff;stroke-width:0.06853583;stroke-opacity:0.94117647"
     d="m 8.0095535,18.993562 c -0.02513,-0.02513 -0.045691,-0.256438 -0.045691,-0.514019 V 18.011215 H 8.4778816 8.9919003 V 17.497196 16.983178 H 9.4716511 9.9514019 V 15.855629 14.72808 L 9.6601246,14.525723 C 9.4999221,14.414427 9.2632807,14.213218 9.1342549,14.078592 8.9739428,13.911322 8.7569339,13.787135 8.4488967,13.686384 7.81182,13.478014 6.7553114,12.925778 6.2047422,12.513368 5.1746414,11.741759 4.3073524,10.67577 3.7466486,9.4921122 3.1597782,8.2532166 2.9351447,6.9537497 2.9742086,5.023676 l 0.020807,-1.0280374 0.9252336,-0.021663 c 1.1744719,-0.027499 1.5663135,0.05118 1.8470022,0.3708671 0.11499,0.1309663 0.2090726,0.3123301 0.2090726,0.4030305 0,0.0907 0.032879,0.1852305 0.073065,0.2100665 0.0704,0.043509 0.03465,-1.4174024 -0.044093,-1.8018644 -0.017371,-0.084813 -0.01831,-0.1542056 -0.00209,-0.1542056 0.016223,0 0.348353,0.075011 0.7380659,0.1666919 2.8521717,0.670978 6.4169551,0.61548 9.0975071,-0.1416337 l 0.164637,-0.046502 -0.04717,0.7817497 c -0.02595,0.4299623 -0.06491,0.8819834 -0.0866,1.0044912 -0.05425,0.3065012 0.06611,0.2803463 0.213443,-0.046384 0.143046,-0.3172178 0.405869,-0.5843507 0.67495,-0.6860162 0.106114,-0.040093 0.653544,-0.072896 1.216511,-0.072896 h 1.023576 L 18.997852,5.383489 C 18.997445,7.4308058 18.81285,8.3757295 18.157643,9.6841121 17.229817,11.53689 15.59308,12.97273 13.61807,13.666491 c -0.429775,0.150967 -0.622076,0.26497 -0.889664,0.527424 -0.187758,0.184155 -0.426777,0.378989 -0.531153,0.432964 l -0.189775,0.09814 v 1.129081 1.129082 h 0.514019 0.514018 v 0.514018 0.514019 h 0.479751 0.479751 v 0.514019 0.514018 h -2.969886 c -1.633437,0 -2.9904464,-0.02056 -3.0155761,-0.04569 z M 7.8546647,12.134268 C 7.2859921,10.818011 7.0006617,9.9462 6.7050907,8.6218069 6.5607835,7.9751959 6.2505319,6.2390701 6.2504807,6.0778714 6.2504733,6.0545636 6.1259482,6.0187921 5.9737583,5.9983791 5.6008898,5.948367 5.2651273,5.6770082 5.1103023,5.3005454 L 4.9825545,4.9899219 4.5555114,4.9896683 C 4.1674819,4.9894353 4.1256199,5.0034993 4.097291,5.1436171 4.01213,5.5648299 3.999906,6.0981271 4.060704,6.7397903 c 0.2158301,2.2778744 1.4412096,4.1961717 3.4536439,5.4065837 0.2239507,0.134698 0.4171216,0.244907 0.4292687,0.244907 0.012147,0 -0.027882,-0.115655 -0.088952,-0.25701 z m 6.7269373,-0.05652 C 16.178545,11.116902 17.280901,9.6464991 17.76339,7.8336449 17.926259,7.2216964 18.015698,5.9818986 17.940432,5.379489 L 17.891692,4.9894081 H 17.45114 c -0.416845,0 -0.440551,0.00867 -0.440551,0.1612043 0,0.4011176 -0.543957,0.8665045 -1.013054,0.8667266 -0.123692,5.86e-5 -0.235941,0.038658 -0.249443,0.085776 -0.0135,0.047118 -0.09302,0.5174348 -0.176714,1.0451477 -0.250064,1.5768074 -0.883359,3.8824673 -1.273756,4.6374123 -0.159967,0.309342 -0.234994,0.537066 -0.176944,0.537066 0.02956,0 0.23697,-0.110246 0.460921,-0.244993 z M 10.796285,8.4101259 c 0.191453,-0.1140205 0.20095,-0.1114169 0.786346,0.2155784 0.325903,0.1820461 0.600622,0.3229221 0.610487,0.3130579 0.0099,-0.00986 -0.02783,-0.2779717 -0.08376,-0.5957941 -0.05593,-0.3178225 -0.101737,-0.6348297 -0.101788,-0.7044606 -5.2e-5,-0.069631 0.200373,-0.3342495 0.445389,-0.5880415 0.245015,-0.2537921 0.445482,-0.4782064 0.445482,-0.4986984 0,-0.020492 -0.290802,-0.077184 -0.646227,-0.1259824 L 11.605988,6.3370611 11.304583,5.68165 11.003178,5.026239 10.691933,5.6832848 10.380687,6.3403306 9.7205616,6.4309629 c -0.363069,0.049848 -0.6601255,0.1075482 -0.6601255,0.1282231 0,0.020675 0.2157068,0.2547467 0.4793484,0.5201597 L 10.019133,7.5619147 9.9168255,8.1432626 C 9.7613973,9.0264605 9.7494905,9.0018649 10.208411,8.7455991 10.425156,8.6245668 10.689699,8.4736039 10.796285,8.4101259 Z"
     id="path817"
     inkscape:connector-curvature="0" />
</svg>
