<?xml version="1.0" encoding="UTF-8" standalone="no"?>
<svg
   xmlns:dc="http://purl.org/dc/elements/1.1/"
   xmlns:cc="http://creativecommons.org/ns#"
   xmlns:rdf="http://www.w3.org/1999/02/22-rdf-syntax-ns#"
   xmlns:svg="http://www.w3.org/2000/svg"
   xmlns="http://www.w3.org/2000/svg"
   xmlns:xlink="http://www.w3.org/1999/xlink"
   xmlns:sodipodi="http://sodipodi.sourceforge.net/DTD/sodipodi-0.dtd"
   xmlns:inkscape="http://www.inkscape.org/namespaces/inkscape"
   viewBox="0 0 16 16"
   height="16"
   width="16"
   id="svg2"
   version="1.1"
   sodipodi:docname="im-user-offline.svg"
   inkscape:version="0.92.1 r15371">
  <sodipodi:namedview
     pagecolor="#ffffff"
     bordercolor="#666666"
     borderopacity="1"
     objecttolerance="10"
     gridtolerance="10"
     guidetolerance="10"
     inkscape:pageopacity="0"
     inkscape:pageshadow="2"
     inkscape:window-width="640"
     inkscape:window-height="480"
     id="namedview6"
     showgrid="false"
     inkscape:current-layer="svg2" />
  <metadata
     id="metadata8">
    <rdf:RDF>
      <cc:Work
         rdf:about="">
        <dc:format>image/svg+xml</dc:format>
        <dc:type
           rdf:resource="http://purl.org/dc/dcmitype/StillImage" />
        <dc:title></dc:title>
      </cc:Work>
    </rdf:RDF>
  </metadata>
  <defs
     id="defs6" />
  <image
     y="0"
     x="0"
     id="image10"
     xlink:href="data:image/png;base64,iVBORw0KGgoAAAANSUhEUgAAADAAAAAwCAYAAABXAvmHAAAAAXNSR0IArs4c6QAAAAZiS0dEAP8A /wD/oL2nkwAAAAlwSFlzAAALEwAACxMBAJqcGAAAAAd0SU1FB9oFCw06BT2LJD0AAAt7SURBVGje 7ZlLjB1XWsd/p86pW3Wf7dvX7b632/2I7XicAcU2MxiJEEXCY5KZGCQQQhBFAjKzABagARFYBDIS IMGC3bAAsmEDihIQZCSCAkiRQjADyTivibFjO7Y7dj/v+1HvOixu1Z1y48TttqPMYo5UqlbrVp3/ /3zn+3//7xT8YPxg3NUQn/J7ReZKh85cZO7fNwQEYGQumdzTueLkijL3XRMRnwJ4Ccjf/I2nfjWv rF+7ev3G0YLS7J+fY7E+R7fb/f0LH155+y//9u/PAAEQZsjcMQn5Kay8+vqvf/Wb04X8HzZbrXqr tUV93xz9fpdev4edM79k5syfa/aGL2xuNb3dAk+HcY8jIH/2K48ttVutr202N1GxS+j0aW6tMlXM YylBu9ulOxgWTvzIsXeAEpAHzN1iuZcEDED2/dC8sdXBjANOHD7Mw4cPMOh1ePV/3uTKRzcgDhmN +mitAcqADajdYlH3eguNRiNzsT7Njx87Rui7VMtFfqg+jYhjiAMEPjmpiMd4S4CbXH5CIvpMCXj9 trTrU1gG+IMBhrTYWyry4Bx81BnQ2WrRdCLW++FzQC6z+p95BAAMS8fGgblZel7A5RurFCxJMV+g kc+ztDSPE5u88OrrzlvvX/52BrTYbSLf6yTm0upGuzbTOI+hWOv0ubSySm844tvnLuNEJtV9DWxf n+/2B51ERqO7kdF7HQHWm22/Vik28wi+eORzmPkCBbuItAvMNhpM1xd5+ey7f5HseT9D4jMnoFMQ /cEImdPklEnRtrHyRT534POYeXDCAMADnEzyhsmzn1kOiEwhI1fZS+w2Gbp92pvrFCsVypU9mPkK nsqTgPYyEQg/ywhkwctqtbpPFMvHWivn2NjYxB861IKIWPsU6vv4539/9W8SwOHd2oi7TWKR8T7m 0tJS9cSJE2cajcYb1dl6wRE5pGVhCAPTVNiFAiPfoDo9/cvLy8sHb+FWxW68mbFbvU+A5wALKDzw wAPf2draOtzv9wH4wmM/jyxNAxAaGlmsUzt0hOeff55arfZsuVyuJRYil9xVxrXumIjcJXDVaDT2 HThw4InFxcX/KJVKv3f9+vVyEAT4vk+1WuVHf+wEM8sHuba2TqiKfOkXnqDd7/Piiy8SRZE5Ozv7 S41G47H5+flwdXX13LaI7NgtG3cIXgHWgw8++HelUunN4XD4zdXVVXrdLlEYEgQBWmteeeUVHMdB IvBvbKJdn3ylguu6hGGI67oMBgNardbB4XD4p8ePH//ver1+PGPurIzB+8SIyDsBf/jw4S8vLS29 0+t2HhgOR6V0xYVhEMVjFYzjmH6/z+LiItrxiC5cJr90CLu2j82NVV5++eXJi8MgwPM8XNet2Lb9 K8vLy79Yr9f9tbW1928h0bsiMAF/6NChU1EUvdBut5Xn+cRxTBRFxHFMHMcYhkEcf0/Kr169yg8v LkKrycyRo1TqM7z7zlnOnDmDEAIhBLHWk/f4vo/rOFNhGD66vLz8+bW1tX/ZSetp7DDRlRDiW6Ph 0ArDcAI0vWutiaJo8reUkpWVFb779lnQGst1EULQbDa/R1SPiYdhCFoTBAFBGOI4Dv1+//TRo0d/ eluvIHZDIJVJy/d9gjBEaz0BnIIxDGMCPiWmtebt97/LcNhjeP0qgeuxsbFBGIbj34vxM1LKydKm CxKGIaPRqAAUknyQH0dA7ZCASoGnINMJt4MXYjyPUoq13pAgChm11mm3xombjZiRbKP0uZSA53kM h0M7aXjSYqcTPNmip40d5oB5U0bp2xfNKIroeS4fuQGeO2LUWqPb7d70mxR8dnGiKCKKIpaXl/MJ gWISiXymf5B3EgEDkEqpyWRCCAzDIAzDm1YumwNaa6I45j+vXuFwtUZr9QppkdNaYwhBkGzDyWRC kM/n2b9/P6dOnXr2mWeeeVZrTT6fp1gs8vDDD+9NPFSQRCHaqRcypByTNgyDgwcPcvLkSd544w3e e+89XNedAEjzIo7j8TbqdGg5I/rnL0wiYCSymwUPMDU1xdNPP025XMZ1Xa5du4bWmvvvvx/P80ii ITLOd0cEJsmTgms0GiilOHnyJKdOfZn19Y84d+5/Wb2xSqvdYjgc3hSR81trdNdWcV1nkjumaaLj mCAMqVQqPPLIIzz55JMIIVhdW5usulIKKSVvvfXWHwOVBHhqBD9xC2VdpuF5HkIIpJRMTU3hOA6b m5sYhoHWMcePH+fRn3qUnJVjbW2838+e/Q7vvvseFzY2mSqUiePxPk+1Px1PPfUUp0+fptls0u/3 GQ6HKCkxDIOpqSmklHS73VySB6OsKqkd1ABjYWHh34IgQErJ448/zv6FBVzHoVKZIpcziaIIz/M4 f+E8hUKB+fl5FhYWeOihh7h48SKXLl0iDEOOFgrU63VmZmYAeO2111haWuL06dM4bohpmoxGI5Q0 kFJSKBSoVCp4nuevr6062wzfbZPYAOTi4uKjYRjOe56HUoqDBw9iWTaVchlhSKzcWKBs20YphSEA YSCEwHEcDt9/iCNHjuD7PkEQTKT3vvvu48SJExPFMhU4jsbzPHKmSRSPxSKXy9Futzf+6q+fe+dW vkjdTn36/f5XpJS5MTjB+vo6hw4dQhgm6HFhy+VyKDnOD2FIBJpSuUyxWARhomMf27YxTRMhBEEQ UCqViOMY3/dJq3scBQRBwMaVa+hBi7laDWvqIcrFYvZU+6YG6HYRUHnbfkLrGIRBbe8MCwvL5PP5 pIpaSClRSqG1ZjgcEhBgGAaW7+P7Pu12m2q1ilKKwWCAlJJGozHxPwB+EKGkoNtp8/6Z19HtFZRh YHn76V25SLhnhiRp/W1d3McSSA+alOO62LZNrVbjG3/yR8zX51j58DJBGBKGIZ7nYZomnU6HbreL ZVlUq1WkYdDr91lZWcEwDGZmZgiTZ1LbrbWmUCjgui5xLGg3m2gDyvkSttRMFYus9zq4mDcy+n9H EZBCCMIwRIcB62/+Fxf7Q+TsHHumayilaDabDAYDlFITGxFFIb7vUygUWFxcpFQq3aQ6WmtM0ySO 4wR84oE0FGfnqdgH8HotmF/k0trmK9/43T94LnOCEeyEwEQ+pZTNKIpqnu8TS8meaomVC2/z4cAl ypcoVms05uYnEjveThBFMZZtMz09jRACpRS+74+LWBShlKLT6WCaJpZlATA7O8v+/ftpt9tsbZX5 6m/9zteBNjDMHMNkvdHH9gMi7b6UUq6U8iddz+XCpcvYRkxva5NBr0tv1CcybKxEgYQQWJaFYRjk rByp/chWaCkltm0jpZwUtNSWlMtlgiCg0+mQz+d56aWX/gnoAp3kPkiIBLfLgTTrw16v9w+1Wu0x rfmJ65tNnv/X1ynaOQypOPaFLzI3P480xuBd1yX1LrlcDsuyEEKMq27ioaIoIgxDbNtGa41Saqxe iadqtVoIISgUCiRgh8k1yuRBfLt+IJWrEHCbzeZva63/UUpJrDV9x2PguPR6Per1OpWpMkqpm1bc T1QoiiKCIJj0DxMzZxjkcrnJ71MDWCgUmJmZSYudn2yb7CneTUl8OwJB8uCg3W7/+ebm5s/s3bt3 1bIsL45jtra2MAwD0zQplUoopTBNc1zQDAPf9/FcbywCWqMTgzfpZ6Ukl8thmuakh9izZw/lcjn9 Xwre2/Y9bUcdWZw85AD9JJnaH3zwwdd83/+zcrmM53kUC0VGo9HYvyiV5MC4mAVBgOu5OI5DFEX/ r6lN+4pJl5aQSnMms/JZCc32yZ947jI5dUtMVCFpMMqJK0wbjdytPMpdjDABPkiSdytZvEFGhXbc Ukbb/o4y+7KY6ZLMu/nKcgsCXibyzrbV33FPnPag0bYP1EEywTDzgU5x7z6WxBnbkKqQvxsC2bOY KNMFpS83t51p3ksC6TxB5kPIXX1P/r4d/weo1de/wUtnLgAAAABJRU5ErkJggg== "
     preserveAspectRatio="none"
     height="16"
     width="16" />
  <image
     width="6"
     height="6"
     preserveAspectRatio="none"
     xlink:href="data:image/png;base64,iVBORw0KGgoAAAANSUhEUgAAAIAAAACACAYAAADDPmHLAAAABmJLR0QA/wD/AP+gvaeTAAAACXBI WXMAADddAAA3XQEZgEZdAAAAB3RJTUUH4QUDAwQnCLmMLwAAAB1pVFh0Q29tbWVudAAAAAAAQ3Jl YXRlZCB3aXRoIEdJTVBkLmUHAAAgAElEQVR4AQBAgL9/AAAAAAAAAAAAAAAAAAAAAAAAAAAAAAAA AAAAAAAAAAAAAAAAAAAAAAAAAAAAAAAAAAAAAAAAAAAAAAAAAAAAAAAAAAAAAAAAAAAAAAAAAAAA AAAAAAAAAAAAAAAAAAAAAAAAAAAAAAAAAAAAAAAAAAAAAAAAAAAAAAAAAAAAAAAAAAAAAAAAAAAA AAAAAAAAAAAAAAAAAAAAAAAAAAAAAAAAAAAAAAAAAAAAAAAAAAAAAAAAAAAAAAAAAAAAAAAAAAAA AAAAAAAAAAAAAAAAAAAAAAAAAAAAAAAAAAAAAAAAAAAAAAAAAAAAAAAAAAAAAAAAAAAAAAAAAAAA AAAAAAAAAAAAAAAAAAAAAAAAAAAAAAAAAAAAAAAAAAAAAAAAAAAAAAAAAAAAAAAAAAAAAAAAAAAA AAAAAAAAAAAAAAAAAAAAAAAAAAAAAAAAAAAAAAAAAAAAAAAAAAAAAAAAAAAAAAAAAAAAAAAAAAAA AAAAAAAAAAAAAAAAAAAAAAAAAAAAAAAAAAAAAAAAAAAAAAAAAAAAAAAAAAAAAAAAAAAAAAAAAAAA AAAAAAAAAAAAAAAAAAAAAAAAAAAAAAAAAAAAAAAAAAAAAAAAAAAAAAAAAAAAAAAAAAAAAAAAAAAA AAAAAAAAAAAAAAAAAAAAAAAAAAAAAAAAAAAAAAAAAAAAAAAAAAAAAAAAAAAAAAAAAAAAAAAAAAAA AAAAAAAAAAAAAAAAAAAAAAAAAAAAAAAAAAAAAAAAAAAAAAAAAAAAAAAAAAAAAAAAAAAAAAAAAAAA AAAAAAAAAAAAAAAAAAAAAAAAAAAAAAAAAAAAAAAAAAAAAAAAAAAAAAAAAAAAAAAAAAAAAAAAAAAA AAAAAAAAAAAAAAAAAAAAAAAAAAAAAAAAAAAAAAAAAAAAAAAAAAAAAAAAAAAAAAAAAAAAAAAAAAAA AAAAAAAAAAAAAAAAAAAAAAAAAAAAAAAAAAAAAAAAAAAAAAAAAAAAAAAAAAAAAAAAAAAAAAAAAAAA AAAAAAAAAAAAAAAAAAAAAAAAAAAAAAAAAAAAAAAAAAAAAAAAAAAAAAAAAAAAAAAAAAAAAAAAAAAA AAAAAAAAAAAAAAAAAAAAAAAAAAAAAAAAAAAAAAAAAAAAAAAAAAAAAAAAAAAAAAAAAAAAAAAAAAAA AAAAAAAAAAAAAAAAAAAAAAAAAAAAAAAAAAAAAAAAAAAAAAAAAAAAAAAAAAAAAAAAAAAAAAAAAAAA AAAAAAAAAAAAAAAAAAAAAAAAAAAAAAAAAAAAAAAAAAAAAAAAAAAAAAAAAAAAAAAAAAAAAAAAAAAA AAAAAAAAAAAAAAAAAAAAAAAAAAAAAAAAAAAAAAAAAAAAAQAAAAAAAAAAAAAAAAAAAAAAAAAAAAAA AAAAAAAAAAAAAAAAAAAAAAAAAAAAAAAAAAAAAAAAAAAAAAAAAAAAAAAAAAAAAAAAAAAAAAAAAAAA AAAAAAAAAAAAAAAAAAAAAAAAAAAAAAAAAAAAAAAAAAAAAAAAAAAAAAAAAAAAAAAAAAAAAAAAAAAA AAAAAAAAAAAAAAAAAAAAAAAAAAAAAAAAAAAAAAAAAAAAAAAAAAAAAAAAAAAAAAAAAAAAAAAAAAAA AAAAAAAAAAAAAAAAAAAAAAAAAAAAAAAAAAAAAAAAAAAAAAAAAAAAAAAAAAAAAQAAAAAAAAAAAAAA AAAAAAAAAAAAAAAAAAAAAAAAAAAAAAAAAAAAAAAAAAAAAAAA/wAAAAAAAAAAAAAAAAAAAAAAAAAA AAAAAAAAAAAAAAAAAAAAAAAAAAAAAAAAAAAAAAAAAAAAAAAAAAAAAAAAAAAAAAAAAAAAAAAAAAAA AAAAAAAAAAAAAAAAAAAAAAAAAAAAAAAAAAAAAAAAAAAAAAAAAAAAAAAAAAAAAAAAAAAAAAAAAAAA AAAAAAAAAAAAAAAAAAAAAAAAAAAAAAAAAAAAAAAAAAAAAAAAAAAAAAAAAAAAAAAAAAAAAAAAAAAA AAAAAAAAAAAAAAAAAAAAAAAAAAAAAAAAAAAAAAAAAAAABAAAAAAAAAAAAAAAAAAAAAAAAAAAAAAA AAAAAAAAAAAAAAAAAAAAAAAAAAAAAAAAAAAAAAAAAAAAAAAAAAAAAAAAAAAAAAAAAAAAAAAAAAAA AAAAAAAAAAAAAAAAAAAAAAAAAAAAAAAAAAAAAAAAAAAAAAAAAAAAAAAAAAAAAAAAAAAAAAAAAAAA AAAAAAAAAAAAAAAAAAAAAAAAAAAAAAAAAAAAAAAAAAAAAAAAAAAAAAAAAAAAAAAAAAAAAAAAAAAA AAAAAAABAAAAAAAAAAAAAAAAAAAA/wAAAAEAAAAAAAAAAAAAAAAAAAAAAAAAAQAAAAAAAAAAAAAA AAAAAAAAAAAAAAAAAAAAAAAAAAAAAAAAAAAAAAAAAAAAAAAAAAAAAAAAAAAAAAAAAAAAAAAAAAD/ AAAAAQAAAAAAAAAAAAAAAAAAAP8AAAAAAAAAAAAAAAAAAAAAAAAAAAAAAAAAAAAAAAAAAAAAAAAA AAAAAAAAAAAAAAAAAAAAAAAAAAAAAAAAAAAAAAAAAAAAAAAAAAAAAAAAAAAAAAAAAAAAAAAAAAAA AAAAAAAAAAAAAAAAAAAAAAAAAAAAAAAAAAAAAAAAAAAAAAAAAAAAAAAAAAAAAAAAAAAAAAAAAAAA AAAAAAAAAAAAAAAAAAAAAAAAAAAAAAAAAAAAAAAAAAAAAQAAAAAAAAAAAAAAAAAAAAAAAAAAAAAA AAAAAAAAAAAAAAAAAAAAAAAAAAAAAAAAAAAAAAAAAAAAAAAAAAAAAAAAAAAAAAAAAAAAAAAAAAAA AAAAAAAAAAAAAAAAAAAAAAAAAAAAAAAAAAAAAAAAAAAAAAAAAAAAAAAAAAAAAAAAAAAAAAAAAAAA AAAAAAAAAAAAAAAAAAAAAAAAAAAAAAAAAAAAAAAAAAAAAAAAAAAAAAAAAAAAAAAAAAAAAAAAAQAA AAAAAAAAAAAAAAAAAAAoYB0FCA8DCf8DAAYFCAQSBAUCLPv7+ij7/fsjCgoKHv/+/xf/AQAS//3+ Dv3//gj+/v4EBgYG/AEBAfgAAQHyAP7/7gAAAOn////iAP7/3f///9gA/AHUAwEE7vz8//rz6fT4 2aLm+gAAAAAAAAAAAAAAAAAAAAAAAAAAAAAA/wAAAAAAAAAAAAAAAAAAAAAAAAAAAAAAAAAAAAAA AAAAAAAAAAAAAAAAAAAAAAAAAAAAAAAAAAAAAAAAAAAAAAAAAAAAAAAAAAAAAAAAAAAAAAAAAAAA AAAAAAAAAAAAAAAAAAAAAAAAAAAAAAAAAAAAAAAAAAAAAAAAAAAAAAAAAAAAAAAAAAAAAAAAAAAA AAAAAAAAAAAAAAAAAAAAAAAAAAAAAAAAAAAAAAAAAAAAAQAAAAAAAAAAAAAAAAAAAAAAAAAAAAAA AAAAAAAAAAAAAAAAAAAAAAAAAAAAAAAAAAAAAAAAAAAAAAAAAAAAAAAAAAAAAAAAAAAAAAAAAAAA AAAAAAAAAAAAAAAAAAAAAAAAAAAAAAAAAAAAAAAAAAAAAAAAAAAAAAAAAAAAAAAAAAAAAAAAAAAA AAAAAAAAAAAAAAAAAAAAAAAAAAAAAAAAAAAAAAAAAAAAAAAAAAAAAAAAAQAAAAAAAAAAAAAAAAAA AAA6dS0Z9PnyJwgJCSoJCggx9/j2Lf8B/ykAAAENAv8AAAMDAwADAQIABAMFAAIBAwAEAwUABQUG AAUCBAADAwP//Pz8Af39/QD9/v0A+/79AP39+gD+/v4A/P37AP3//QABAgAA/wAC8/7//tcB/gDU AQP+z/sD89Xu5OrZ3p396AAAAP8AAAAAAAAAAAAAAAAAAAAAAAAA/wAAAAAAAAAAAAAAAAAAAAAA AAAAAAAAAAAAAAAAAAAAAAAAAAAAAAAAAAAAAAAAAAAAAAAAAAAAAAAAAAAAAAAAAAAAAAAAAAAA AAAAAAAAAAAAAAAAAAAAAAAAAAAAAAAAAAAAAAAAAAAAAAAAAAAAAAAAAAAAAAAAAAAAAAAAAAAA AAAAAAAAAAAAAAAAAAAAAAAAAAAAAAAAAAAAAAAAAAAAAQAAAAAAAAAAAAAAAAAAAAAAAAAAAAAA AAAAAAAAAAAAAAAAAAAAAAAAAAAAAAAAAAAAAAAAAAAAAAAAAAAAAAAAAAAAAAAAAAAAAAAAAAAA AAAAAAAAAAAAAAAAAAAAAAAAAAAAAAAAAAAAAAAAAAAAAAAAAAAAAAAAAAAAAAAAAAAAAAAAAAAA AAAAAAAAAAAAAAAAAAAAAAAAAAAAAAAAAAAAAAAAAAAAAAEAAAAAAAAAAAAAAAE4RDsC/zfsWvr6 +VMEBAUoBwQHFv38/RD9+/8ACwMKAAoKDQAKCgsADwwPABMQEgAKCAkAFxUZAAMBBAAIBQcACAUI AAcGBwAGBAYAAwMDAPr8/AD19vQA8fPxAPL18wD2+PQA+Pr3APX39QDv8e8A6+7sAPX39AAAAP8A /wj6APgE8fAFBgTqAf8A2PDq8a7UkO6lAAAA/gAAAAAAAAD/AAAAAAAAAAAAAAD/AAAAAAAAAAAA AAAAAAAAAAAAAAAAAAAAAAAAAAAAAAAAAAAAAAAAAAAAAAAAAAAAAAAAAAAAAAAAAAAAAAAAAAAA AAAAAAAAAAAAAAAAAAAAAAAAAAAAAAAAAAAAAAAAAAAAAAAAAAAAAAAAAAAAAAAAAAAAAAAAAAAA AAAAAAAAAAAAAAAAAAAAAAAAAAAAAAAAAAAAAAAAAAAAAQAAAAAAAAAAAAAAAAAAAAAAAAAAAAAA AAAAAAAAAAAAAAAAAAAAAAAAAAAAAAAAAAAAAAAAAAAAAAAAAAAAAAAAAAAAAAAAAAAAAAAAAAAA AAAAAAAAAAAAAAAAAAAAAAAAAAAAAAAAAAAAAAAAAAAAAAAAAAAAAAAAAAAAAAAAAAAAAAAAAAAA AAAAAAAAAAAAAAAAAAAAAAAAAQAAAAAAAAAAAAAAAAAAAAAAAAABJ20XLwoNB3EFBgNZ/v0CBAUD BAAC+wH/BQEFARAOEgATCxUAEwkYAB8cIQAdHB0AHRkcABsQHAAHAAgA/AD+AAIAAgAA//8AAP4B AP39/wAA/gAAAAAAAAAA/gABAgEAAQIAAAECAQD9Av8A/wD9APP58QDj5+MA4OPfAOHk4wDm6OUA 7PjrAO8D7ADp7en/BAICAQ0NCgAB/v78/fv8pwgCB4+9gNPRAAAAAAAAAP8AAAAAAAAAAAAAAAAA AAAAAAAA/wAAAAAAAAAAAAAAAAAAAAAAAAAAAAAAAAAAAAAAAAAAAAAAAAAAAAAAAAAAAAAAAAAA AAAAAAAAAAAAAAAAAAAAAAAAAAAAAAAAAAAAAAAAAAAAAAAAAAAAAAAAAAAAAAAAAAAAAAAAAAAA AAAAAAAAAAAAAAAAAAAAAAAAAAAAAAAAAAAAAAAAAAAAAQAAAAAAAAAAAAAAAAAAAAAAAAAAAAAA AAAAAAAAAAAAAAAAAAAAAAAAAAAAAAAAAAAAAAAAAAAAAAAAAAAAAAAAAAAAAAAAAAAAAAAAAAAA AAAAAAAAAAAAAAAAAAAAAAAAAAAAAAAAAAAAAAAAAAAAAAAAAAAAAAAAAAAAAAAAAAAAAAAAAAAA AAAAAAAAAAAAAAAAAAABAAAAAAAAAAAAAAAALG8bHQUGBTQGBwRzBAYFOgD8/wD9+f0ADgkQ/xoV GwEdFh0AHhkeAB8dIQAZEhsAGAwdAAkACwD8AP0A+vz6APr6+gD59/oACQYJAAH+AQAC/wQAAQAA AAMAAgAAAAAAAQEDAAEB/wD/AAAA/gD/AAAC/gD+Af4A/wH+AP4B/gADBgMACAMIAP8A/gDw9/EA 6PHnAMvezwDo7ecA6erkAOfo5P/s7+kB/P73AAUHAwD7/frG/P39jgACAMzQjOTjAAAA/wAAAAAA AAAAAAAAAAAAAP8AAAAAAAAAAAAAAAAAAAAAAAAAAAAAAAAAAAAAAAAAAAAAAAAAAAAAAAAAAAAA AAAAAAAAAAAAAAAAAAAAAAAAAAAAAAAAAAAAAAAAAAAAAAAAAAAAAAAAAAAAAAAAAAAAAAAAAAAA AAAAAAAAAAAAAAAAAAAAAAAAAAAAAAAAAAAAAAAAAAAAAQAAAAAAAAAAAAAAAAAAAAAAAAAAAAAA AAAAAAAAAAAAAAAAAAAAAAAAAAAAAAAAAAAAAAAAAAAAAAAAAAAAAAAAAAAAAAAAAAAAAAAAAAAA AAAAAAAAAAAAAAAAAAAAAAAAAAAAAAAAAAAAAAAAAAAAAAAAAAAAAAAAAAAAAAAAAAAAAAAAAAAA AAAAAAAAAQAAAAAAAAAAAAAAATB1EBkODhhw/PoCSP36/CwD/wQACAQIABoTHAAhGSIAJB0mACYf JgAYERkAAwAFAAYCBgAIBQoA+Pj7AAD/AQAAAAEAAAAAAAEAAAAAAAEAAAAAAAEAAAAAAAEAAAAA AAD//wAAAAAAAAABAAAA/wAAAAAA/wAAAAAAAQAAAf8AAAAAAAAA/wD/AAAAAAAAAAAA/wABAQEA /wMCAAAH/wDx9vIA7/PtAObq4gDZ39YA3+bcAN3l2wD4APYA/QP6APr/+dT3+fO4+ff5kd6V9ecA AAD/AAAA/wAAAAAAAAAAAAAA/wAAAAAAAAAAAAAAAAAAAAAAAAAAAAAAAAAAAAAAAAAAAAAAAAAA AAAAAAAAAAAAAAAAAAAAAAAAAAAAAAAAAAAAAAAAAAAAAAAAAAAAAAAAAAAAAAAAAAAAAAAAAAAA AAAAAAAAAAAAAAAAAAAAAAAAAAAAAAAAAAAAAAAAAAAAAQAAAAAAAAAAAAAAAAAAAAAAAAAAAAAA AAAAAAAAAAAAAAAAAAAAAAAAAAAAAAAAAAAAAAAAAAAAAAAAAAAAAAAAAAAAAAAAAAAAAAAAAAAA AAAAAAAAAAAAAAAAAAAAAAAAAAAAAAAAAAAAAAAAAAAAAAAAAAAAAAAAAAAAAAAAAAAAAQAAAP8A AAABAAAAAAAAAAEAAAABMHcafQQHA3QG/Q0KAfkFAQ4ICgAeGyH/KSQqASwmLgAgFyAADgYQAAL+ AgD89/wA+/f8AAUCBgAHBgcA+v3+AAABAQAAAAAAAAAAAAAAAAAAAAAAAAAAAAAAAAAAAAAAAAAA AAAAAAAAAAAAAAAAAAAAAAAAAAAAAAAAAAAAAAAAAAAAAAAAAAAAAAAAAAAAAAAAAAAAAAAAAAAA /gEAAAABAQD8//wABgoFAAUEAgDu+ewA6PDlANLZzwDN1Mr/4ujgAfr+9wD4/vj/AwP/9vj7943O ieWDAAAA/wAAAP8AAAD/AAAAAAAAAP8AAAABAAAA/wAAAAAAAAAAAAAAAAAAAAAAAAAAAAAAAAAA AAAAAAAAAAAAAAAAAAAAAAAAAAAAAAAAAAAAAAAAAAAAAAAAAAAAAAAAAAAAAAAAAAAAAAAAAAAA AAAAAAAAAAAAAAAAAAAAAAAAAAAAAAAAAAAAAAAAAAAAAQAAAAAAAAAAAAAAAAAAAAAAAAAAAAAA AAAAAAAAAAAAAAAAAAAAAAAAAAAAAAAAAAAAAAAAAAAAAAAAAAAAAAAAAAAAAAAAAAAAAAAAAAAA AAAAAAAAAAAAAAAAAAAAAAAAAAAAAAAAAAAAAAAAAAAAAAAAAAAAAAAAAAEAAAAAAAAAAAAAAAAA AAABKE0UBgskCkIBBgSdCAsLGPv6/f8L+w0AIRUiATEuMwAvLS8AHBUcAAoDCwAA/AIA+ff5AAP9 AwAA/QEAAwAEAAUCBQACAwIA+P36AAABAAAAAAAAAAAAAAAAAAAAAAAAAAAAAAAAAAAAAAAAAAAA AAAAAAAAAAAAAAAAAAAAAAAAAAAAAAAAAAAAAAAAAAAAAAAAAAAAAAAAAAAAAAAAAAAAAAAAAAAA AP8BAP/9AQADBgMA/P/8APr99gAECgMACggHAPQA8gDl6uIA1tvUAM/TzADe4d///AL7APgH9QH3 /fXpAPcDY+vN8r7hvuz6AAAA/wAAAP8AAAAAAAAAAAAAAAAAAAD/AAAAAAAAAAAAAAAAAAAAAAAA AAAAAAAAAAAAAAAAAAAAAAAAAAAAAAAAAAAAAAAAAAAAAAAAAAAAAAAAAAAAAAAAAAAAAAAAAAAA AAAAAAAAAAAAAAAAAAAAAAAAAAAAAAAAAAAAAAAAAAAAAQAAAAAAAAAAAAAAAAAAAAAAAAAAAAAA AAAAAAAAAAAAAAAAAAAAAAAAAAAAAAAAAAAAAAAAAAAAAAAAAAAAAAAAAAAAAAAAAAAAAAAAAAAA AAAAAAAAAAAAAAAAAAAAAAAAAAAAAAAAAAAAAAAAAAAAAAAAAAAAAAAAAAEAAAAAAAAAAQAAAAAr Zw8xDhENeQQHClP+/AQAAwMM/yAaJAE3JTcALyAvACEgIwADAAIA9/P2AAD+AgAGAwYAAv8EAAP/ AwAD/wEAAP8BAP7+AAD9/vsA/gYAAP8A/wAAAAAAAAAAAAAAAAAAAAAAAAAAAAAAAAAAAAAAAAAA AAAAAAAAAAAAAAAAAAAAAAAAAAAAAAAAAAAAAAAAAAAAAAAAAAAAAAAAAAAAAAAAAAAAAAAAAAAA A/8CAAP+BgD+//8A/wH8AP8B/gAAA/0A/gT+AP8A/AADCAMA+fv1AO3w7gDb3tgAxczGANbu0v/y //ABAP3+AAP/Aa358vmIz5Tk0AAAAP4AAAAAAAAA/wAAAAAAAAD/AAAAAAAAAAAAAAAAAAAAAAAA AAAAAAAAAAAAAAAAAAAAAAAAAAAAAAAAAAAAAAAAAAAAAAAAAAAAAAAAAAAAAAAAAAAAAAAAAAAA AAAAAAAAAAAAAAAAAAAAAAAAAAAAAAAAAAAAAAAAAAAAAwAAAAAAAAAAAAAAAAAAAAAAAAAAAAAA AAAAAAAAAAAAAAAAAAAAAAAAAAAAAAAAAAAAAAAAAAAAAAAAAAAAAAAAAAAAAAAAAAAAAAAAAAAA AAAAAAAAAAAAAAAAAAAAAAAAAAAAAAAAAAAAAAAAAAEAAAAAAAAAAQAAAAAAAAABAAAAAjZ1G3QO EQuR/wACNvv2/wAYDx3/RDxLAUg7TAA3KTkAGg4bAPn0+wD28fcABgIJAAcECQAA/P8A//0AAP/+ /wD9/v4A//8AAAICAgACBQIA/f78AP8AAAAAAAAAAAAAAAAAAAAAAAAAAAAAAAAAAAAAAAAAAAAA AAAAAAAAAAAAAAAAAAAAAAAAAAAAAAAAAAAAAAAAAAAAAAAAAAAAAAAAAAAAAAAAAAAAAAAAAAAA AP4AAAD9AQAEAgMA/v79APr7+QACAAMACgcKAPj3+gADAAMAAvwCAAsHDAAdFiAAKSYqAAsPDQHu 8O//8fDyAQcIBSr/AvxNFzgKBOfH9McAAAABAAAAAAAAAAAAAAABAAAAAAAAAAEAAAAAAAAAAAAA AAAAAAAAAAAAAAAAAAAAAAAAAAAAAAAAAAAAAAAAAAAAAAAAAAAAAAAAAAAAAAAAAAAAAAAAAAAA AAAAAAAAAAAAAAAAAAAAAAAAAAAAAAAAAAAAAAAAAAAAAQAAAAAAAAAAAAAAAAAAAAAAAAAAAAAA AAAAAAAAAAAAAAAAAAAAAAAAAAAAAAAAAAAAAAAAAAAAAAAAAAAAAAAAAAAAAAAAAAAAAAAAAAAA AAAAAAAAAAAAAAAAAAAAAAAAAAAAAAAAAAAAAAAAAAEAAAAAAAAAAQAAAAAqVB0LESYKqf4B/EkB /wEACQQOACkeKgBBOEcALSUyAAgACwD68/0ABgAHAP7+/gD8/PwABgYGAAEBAQD8/P0AAQEBAAYD AwD///8A/fz/AAEBAQAABQAAAP8AAAAA/wAAAAAAAAAAAAAAAAAAAAAAAAAAAAAAAAAAAAAAAAAA AAAAAAAAAAAAAAAAAAAAAAAAAAAAAAAAAAAAAAAAAAAAAAAAAAAAAAAAAAAAAAAAAAAAAAAAAAAA AQACAAH9AgACAgEAAAD/AP3//AD9/f0A/f38AAoKCgD8/foA+/v5AAAAAAACAgEA/wUCAPcH8wDY 5dYAvsW6ANXczgD+BfoA/gH5APj297jq0/ZX4Lby9gAAAP4AAAAAAAAA/wAAAAAAAAD/AAAAAAAA AAAAAAAAAAAAAAAAAAAAAAAAAAAAAAAAAAAAAAAAAAAAAAAAAAAAAAAAAAAAAAAAAAAAAAAAAAAA AAAAAAAAAAAAAAAAAAAAAAAAAAAAAAAAAAAAAAAAAAAAAQAAAAAAAAAAAAAAAAAAAAAAAAAAAAAA AAAAAAAAAAAAAAAAAAAAAAAAAAAAAAAAAAAAAAAAAAAAAAAAAAAAAAAAAAAAAAAAAAAAAAAAAAAA AAAAAAAAAAAAAAAAAAAAAAAAAAAAAAAAAAAAAQAAAAAAAAABAAAAASxwGTYPEBGgAwIHJvv3/v8T DBcBPTI9ADwwOwAYDRgACP8IAAD5/gD9/wUA/gECAAEAAQAAAAAA/wD/AAAAAAAAAf8AAAAAAAAA AAD/AP8AAAABAAAA/wAAAAEAAf8AAAAAAAAAAAAAAAAAAAAAAAAAAAAAAAAAAAAAAAAAAAAAAAAA AAAAAAAAAAAAAAAAAAAAAAAAAAAAAAAAAAAAAAAAAAAAAAAAAAAAAAAAAAAAAAAAAAAAAAAAAAAA AQEBAAIBAAAAAAAAAAAAAAAAAQAAAAAAAQD/AP39/QAAAQEAAQAAAAEAAAABAP8A/gD/AP0D/wD/ BvwA7/jrAMXOvAC9x7YA7vnr/wAE/AH3+Pja/fUEYs+U5soAAAD+AAAA/wAAAP8AAAAAAAAA/wAA AAAAAAAAAAAAAAAAAAAAAAAAAAAAAAAAAAAAAAAAAAAAAAAAAAAAAAAAAAAAAAAAAAAAAAAAAAAA AAAAAAAAAAAAAH2thDAAACAASURBVAAAAAAAAAAAAAAAAAAAAAAAAAAAAAAAAwAAAAAAAAAAAAAA AAAAAAAAAAAAAAAAAAAAAAAAAAAAAAAAAAAAAAAAAAAAAAAAAAAAAAAAAAAAAAAAAAAAAAAAAAAA AAAAAAAAAAAAAAAAAAAAAAAAAAAAAAAAAAAAAAAAAAEAAAABAAAAAAAAAAEAAAACKXcMdQ4PDpr9 +wEaAPoI/yAWJwFWSlwANik5ABwQHgD+9P4A+/H4AAT/AgAAAgMA/gIAAP8AAAD/Af4A/wH/AP8B /wD/Af4A/gH/AAAB/wD/Av0A/wH/AP8B/gD/AAEAAgABAAEBAQABAQEAAQEBAAEBAQABAQEAAQEB AAEBAQABAQEAAQEBAAEBAQABAQEAAQEBAAEBAQABAQEAAQEBAAEBAQABAQEAAQEBAAEBAQABAQEA AQEBAAEBAQABAQEA/wD+AP4C/QD+AfwA/gH+AP4A/gD///4A/gH/AP8B/wAAAP8A////AP8B/wD/ /wAAAf8CAAX+BgAD+wMADQkLACEgIQAZGRkA8fDwAevt7f8HCggU+wL8Vhc5Dv3oxvPHAAAAAQAA AAAAAAAAAAAAAQAAAAEAAAAAAAAAAAAAAAAAAAAAAAAAAAAAAAAAAAAAAAAAAAAAAAAAAAAAAAAA AAAAAAAAAAAAAAAAAAAAAAAAAAAAAAAAAAAAAAAAAAAAAAAAAAAAAAAAAAAAAwAAAAAAAAAAAAAA AAAAAAAAAAAAAAAAAAAAAAAAAAAAAAAAAAAAAAAAAAAAAAAAAAAAAAAAAAAAAAAAAAAAAAAAAAAA AAAAAAAAAAAAAAAAAAAAAAAAAAAAAAAAAAAAAQAAAAAAAAABAAAAAgAAAAI2gheJBAYDfQH9BgcK AQ//LSQzAU9BVAApHCwAAvcEAPfv9wAF/wQACQcIAPz7/AD9AAAA/wMBAAAA/wAAAP4A/gH+AAD/ /gD/AP4AAQH/AAAA/wD/AAAAAQD/AP8BAAABAP4AAf8CAAAAAAAAAAAAAAAAAAAAAAAAAAAAAAAA AAAAAAAAAAAAAAAAAAAAAAAAAAAAAAAAAAAAAAAAAAAAAAAAAAAAAAAAAAAAAAAAAAAAAAAAAAAA AAAAAAAAAAAAAAAA/gH+AP4A/AD/AAAAAAD/AP8A/wD/Af8A/wD+AAD/AAD/AP8A/wH/AAD//wD/ AP8A/wABAAH5AQAKBwoA9fPzAPv5/AAbHB4AFRQYAPj2+QHq6+7/AAMBB/8EAUMVOw4M6cTxvQAA AAAAAAABAAAAAAAAAAAAAAABAAAAAAAAAAAAAAAAAAAAAAAAAAAAAAAAAAAAAAAAAAAAAAAAAAAA AAAAAAAAAAAAAAAAAAAAAAAAAAAAAAAAAAAAAAAAAAAAAAAAAAAAAAAAAAAAAwAAAAAAAAAAAAAA AAAAAAAAAAAAAAAAAAAAAAAAAAAAAAAAAAAAAAAAAAAAAAAAAAAAAAAAAAAAAAAAAAAAAAAAAAAA AAAAAAAAAAAAAAAAAAAAAAAAAAAAAAABAAAAAAAAAAEAAAABAAAAAjZ4IJkCAwNqCQAM/wH0BQE0 KDYBWEdaACEUIAD/9P8ABP4DAAgFBgABAQEA+//8AP4FAgD/A/8AAP7+AAD//gAA//8AAP//AAH+ /wAB/wEAAf8BAAH/AQAB/wEAAf8BAAH+AQAB/wEA/wAAAP//AAD///8A////AP///wD///8A//// AP///wD///8A////AP///wD///8A////AP///wD///8A////AP///wD///8A////AP///wD///8A ////AP///wD///8AAAD/AAEAAAAB/gEAAf8AAAH/AQAB/wEAAP8BAP//AAD//wAA//8AAP8AAAD/ AAAAAP8AAAUFAwDz8/IAAgQEAAkICwD49/sAFBAYACYkKgDy8vYB6+rsAP8C/v/7//g5F0EMHOnB 87YAAAAAAAAAAAAAAAAAAAAAAAAAAQAAAAAAAAAAAAAAAAAAAAAAAAAAAAAAAAAAAAAAAAAAAAAA AAAAAAAAAAAAAAAAAAAAAAAAAAAAAAAAAAAAAAAAAAAAAAAAAAAAAAAAAAAAAwAAAAAAAAAAAAAA AAAAAAAAAAAAAAAAAAAAAAAAAAAAAAAAAAAAAAAAAAAAAAAAAAAAAAAAAAAAAAAAAAAAAAAAAAAA AAAAAAAAAAAAAAAAAAAAAQAAAAEAAAAAAAAAAQAAAAEsWRwMG04LnQcMCV0E+gv/BPgLAUE2RABL PUwAEwURAAL3AQAE/AAAAP7+AAIEBAABBwQA+gH9APoB/gAAAAAAAv4AAAD/AAAA/wAAAP8AAAL/ AAAB/wEAAgABAAD+AgAB/wEAAf8AAAL/AQD/AAIAAP8BAP8AAAAAAAAAAAAAAAAAAAAAAAAAAAAA AAAAAAAAAAAAAAAAAAAAAAAAAAAAAAAAAAAAAAAAAAAAAAAAAAAAAAAAAAAAAAAAAAAAAAAAAAAA AAAAAAAAAAAAAAAAAf8BAAH+/wABAAEAAP//AP//AgAA/wAAAAABAP/+/wAA/wAAAP8AAAD/AAAA /wAA/wD/APr79QACBgEA/wEBAPv4/QAA/gUAA/8GAAUECgAkIyQA9PX1AOfo5QEABP3/9vnzMR5A FiX+9gS89ef3+wAAAAAAAAAAAAAAAAAAAAEAAAABAAAAAAAAAAAAAAAAAAAAAAAAAAAAAAAAAAAA AAAAAAAAAAAAAAAAAAAAAAAAAAAAAAAAAAAAAAAAAAAAAAAAAAAAAAAAAAAAAwAAAAAAAAAAAAAA AAAAAAAAAAAAAAAAAAAAAAAAAAAAAAAAAAAAAAAAAAAAAAAAAAAAAAAAAAAAAAAAAAAAAAAAAAAA AAAAAAAAAAAAAAABAAAAAAAAAAAAAAABAAAAAgAAAAIhTxOfAQkAV/75AQAO/BgBQjRGAEY7RwAY DRcA/PT7AAcBBQAGAwUA/P36AP4C/wD+AgAA9wD7APsA/gAEAAIAAv8AAAH/AgAAAAAAAAABAP8A AQABAAEAAQEBAAEA/wAB/wAAAQABAAAAAQD/AAAA/wH+AAAB/wAAAf8AAAH/AAAB/wAAAf8AAAH/ AAAB/wAAAf8AAAH/AAAB/wAAAf8AAAH/AAAB/wAAAf8AAAH/AAAA/gAAAf8AAAH/AAAB/wAAAf8A AAH/AAAB/wAAAf8AAf//AAD//wAA//8AAP8AAAD//wAA/wAA/wD/AAD//wAAAAAAAAAAAAAAAAAA AAAA/wD/AP4C+wD+APwAAQEDAP7+AQD7+f0AAwIHAPv6/QAEBAUAIiMgAPj69gDp5+UBCQgIAP39 /iwKGgsi6MjusQAAAAAAAAABAAAAAAAAAAAAAAAAAAAAAQAAAAAAAAAAAAAAAAAAAAAAAAAAAAAA AAAAAAAAAAAAAAAAAAAAAAAAAAAAAAAAAAAAAAAAAAAAAAAAAAAAAAAAAAAAAQAAAAAAAAAAAAAA AAAAAAAAAAAAAAAAAAAAAAAAAAAAAAAAAAAAAAAAAAAAAAAAAAAAAAAAAAAAAAAAAAAAAAAAAAAA AAAAAAAAAAEAAAAAAAAAAAAAAAEAAAACAAAAAjJ+G5sAAQJeBv8H/wf5DAFIL1AARTtGAAwJCgD4 9PgACwsLAP37/wD//v8AAAECAAABAAD/AgMA/wABAAABAAAB/v8AAQD+AAEAAgABAQAAAAABAAEA AQABAQEA////AAAAAAAAAAAAAAEAAAAAAAAAAAAAAAICAAD//wAAAAAAAAAAAAAAAAAAAAAAAAAA AAAAAAAB+fkAAfP1AAL19QAA/v4AA+7wAAP09AAA9/gAAfz8AP8EBAD/BQQA/gsLAP4WFAD/AAAA /w0MAP4JCQD/DAsAAAAAAAD+/wAAAQAAAP8AAAABAAAAAAAAAAAAAP8AAAAAAAAAAAAAAAAAAAAA AAEAAQH+AP/+/QAAAAAAAP8BAP//AgD+AAMA///+AP8EAgAAA/0A/gb8APX68QC5vbMAxsnCAAER /v/v/+oB+vn7pNCH5GUAAAD+AAAA/gAAAP4AAAD/AAAAAAAAAAAAAAD/AAAAAAAAAAAAAAAAAAAA AAAAAAAAAAAAAAAAAAAAAAAAAAAAAAAAAAAAAAAAAAAAAAAAAAAAAAAAAAAABAAAAAAAAAAAAAAA AAAAAAAAAAAAAAAAAAAAAAAAAAAAAAAAAAAAAAAAAAAAAAAAAAAAAAAAAAAAAAAAAAAAAAAAAAAA AAAAAAAAAAAAAAAAAAAAAQAAAAIAAAACLX8ZjvsD/V4I/Qb/B/8LASsfLQBDOUIADQYOAP77/QD+ /wAA9/j6AAMEBQAAAQEAAAD/AAEAAQAA/v8AAgAAAAEBAAD/AP4A////AAAB/gD//wAAAQEBAP8A AAAA/wAAAAAAAAAAAAAAAAAAAP8AAAAAAAAAAAAAAf7+AAAAAAAAAAAAAAAAAAD8/AAC9fcAB9XY AALw8QAF4eMABtXZAAbp6wD//v4ABOvtAQACAgAA/f0AAfr6AP8IBwAA/v8A/wMDAP4SEP8A/f4A /BkWAP0YFgD4MCwA/Q0NAPkqJgD8GBYAAAAAAAD/AAAAAAAAAAAAAAAAAAAAAAAAAAAAAAAAAAAA AAAA//8AAAD//wAB/wAA/gAAAAAAAAD9//wA/gIAAP79/AD//vwA/vz9AAcGCAA8NUAA/ff/AMna wgEECwL/9AH2XDeBIPPJf+BzAAAAAAAAAAAAAAD+AAAA/wAAAAAAAAAAAAAAAAAAAAAAAAAAAAAA AAAAAAAAAAAAAAAAAAAAAAAAAAAAAAAAAAAAAAAAAAAAAAAAAAAAAAAAAAAAAQAAAAAAAAAAAAAA AAAAAAAAAAAAAAAAAAAAAAAAAAAAAAAAAAAAAAAAAAAAAAAAAAAAAAAAAAAAAAAAAAAAAAAAAAAA AAAAAQAAAAAAAAABAAAAAgAAAAIyexx6/gb+fwIBA/8I+AsBJhoqAFdHWgAhESUA+PL5AP8A/wAE BAQAAAABAAQEBQD9/P4AAAAAAAEAAAAAAQMAAQAAAAABAQD///4AAAD/AAEAAAAAAQEAAQEBAAAA AAAAAAAAAAAAAAAAAAAAAAAAAAAAAAAAAAAAAAAAAQEBAAAAAAAB+PkAC7rAAAjS1QAI1NgAA+7v AQLz9AD+BQUAAvv7AAAAAAAAAAAAAAEBAAAAAAD/AQEAAAAAAAAAAAAAAAAAAAAAAAH//wAA//8A AP8AAAABAAAAAAAA/gkJAP8NC//3MS0A+iIgAPFSSwD/CwoAAAAAAAAAAAAAAAAAAAAAAAAAAAAA AAAAAAAAAAD//gAAAAAA//8AAP4AAgD+/wEA/gEAAPz++wD/Av0A/wH+AAAC/AANEQsA39/cALLA rADY7NIA8/rx/wIEAgH/+v+DzIbihwAAAP0AAAD+AAAA/gAAAP8AAAAAAAAA/wAAAAAAAAAAAAAA AAAAAAAAAAAAAAAAAAAAAAAAAAAAAAAAAAAAAAAAAAAAAAAAAAAAAAAAAAAAAQAAAAAAAAAAAAAA AAAAAAAAAAAAAAAAAAAAAAAAAAAAAAAAAAAAAAAAAAAAAAAAAAAAAAAAAAAAAAAAAAAAAAAAAAAB AAAAAAAAAAEAAAABAAAAAjJwHz79C/q0CAoICAwEDwAP/xEATT9TAC4hMAD+9gEA//4BAAEBAQAF BQUAAAABAPz7/QAFBAYAAAEAAAAA/wABAAMAAAEBAAEBAQD///0AAAAAAAAAAAABAQEAAAAAAAEB AQAAAAAAAAAAAAAAAAAAAAAAAAAAAAAAAAAE6esABeHjAArEyQAJ09cABeHkAQH7/AAAAAAAAP// AAD//wAA//8AAAAAAAAAAAAAAAAAAAAAAAAAAAAAAAAAAAAAAAAAAAAAAAAAAAAAAAAAAAAAAAAA AAAAAAAAAAAAAQEAAAAAAAAAAAAAAQAA/wcHAPseG//2ODQA9D03AP0YFwD9EhAAAAAAAAAAAAAA AAAAAAAAAAH+/wAAAP8A////AP0AAQAAAAEA/gAAAP8B/wD6/fkAAgQBAPz9+AABBP8AAgIBANbg 0QCvvagA/AX8AOvy6QD/AP35/fEATs+U4sMAAAD8AAAA/gAAAP8AAAD/AAAAAAAAAP8AAAAAAAAA AAAAAAAAAAAAAAAAAAAAAAAAAAAAAAAAAAAAAAAAAAAAAAAAAAAAAAAAAAAAAQAAAAAAAAAAAAAA AAAAAAAAAAAAAAAAAAAAAAAAAAAAAAAAAAAAAAAAAAAAAAAAAAAAAAAAAAAAAAAAAAAAAAEAAAAA AAAAAQAAAAIAAAABIkoVEA8wCc4ABv0cCQUK/wj7DAE1JDoAWkhcAPbs+AACAwcABAUEAP79/QAB AQEABQUGAP79/wD/AAAAAQEBAAD/AAABAQMAAAAAAAEBAQAAAP4A////AAAAAAABAQEAAAAAAAAB AAABAQEAAP8AAAAAAAAAAAAABOvtAArM0QAMvcIACN3g7wPu8BIB+/sA/wICAAACAQAAAAAAAAAB AAAA/wAA/wAAAAAAAAAAAAAAAAAAAAAAAAAAAAAAAAAAAAAAAAAAAAAAAAAAAAAAAAAAAAAAAAAA AAAAAAAAAAAAAAAAAAEAAAD/AAAAAAAAAP//AAD//wAAAwMA+hkX//krJwDxTEYA+CkkAP8JCQAA AAAAAAEAAAH+/wD//v8A/wEAAP8AAQD+/wAA/wD/AAIFAgD3+fUAAAD+AAUHBAD3+vYAAQIBAAIG /QC6w7YAxdDCAPkC9//3/vUB/v7+5enG8zXlwu/vAAAA/QAAAP8AAAD+AAAA/wAAAAAAAAD/AAAA AAAAAAAAAAAAAAAAAAAAAAAAAAAAAAAAAAAAAAAAAAAAAAAAAAAAAAAAAAAABAAAAAAAAAAAAAAA AAAAAAAAAAAAAAAAAAAAAAAAAAAAAAAAAAAAAAAAAAAAAAAAAAAAAAAAAAAAAAAAAQAAAAAAAAAB AAAAAQAAAAEVIg8IFTQQr/4E+RwDBAf/+fL8AR0UFwA6Lz0AAPUDAAcACwD9Af4A/f79AAABAQAA AAAA/P39AAEBAgD//wAA////AAEBAAD///8AAQEBAP///wD/AP8AAAD/AAEBAQD/AP8AAAEAAAEA AQD///8AAAAAAAH7+wALyc8AE6evAAnW2QEB+foAAAEBAP8DAwAABAQAAQAAAAAAAAAAAAAAAAAA AAAAAQAAAgAAAP8AAAAAAAAAAAAAAAAAAAAAAAAAAAAAAAAAAAAAAAAAAAAAAAAAAAAAAAAAAAAA AAAAAAAAAAAAAAAAAAAAAAABAAAAAAAAAAEBAAAAAAAAAAAAB+TmAQji5AAK0dX/9yYjAOtpXwD6 HhsAAP8AAAD//wD/AQAAAP//AP8A/wAAAf8A/wD/AP39/QAHBgYA+fr4AAAAAQAIBQgA9/f3AAYF BwA3LToA3t7eAOPw4AEKCgz/+gD4GxU7DKwB7AZN5Nbp9gAAAP0AAAABAAAAAAAAAP8AAAABAAAA /wAAAAAAAAAAAAAAAAAAAAAAAAAAAAAAAAAAAAAAAAAAAAAAAAAAAAAAAAAAAgAAAAAAAAAAAAAA AAAAAAAAAAAAAAAAAAAAAAAAAAAAAAAAAAAAAAAAAAAAAAAAAAAAAAAAAAABAAAAAAAAAAAAAAAB AAAAAgAAAAMaURF++gD3O/4B//8D/wQBCQAJADYtOQAUDRYA+fT8AAL/BQD//v8A/v3+AP/+/gD+ /v4A/f38APz8/AD9/f0A/f39AP39/gD9/f0A/f39AP39/QD///8AAAAAAP///wD///8A//7/AP7+ /gD+/v4ACsXKABmGkQAddYIBCNLWAQD9/QD+BAQA/gICAAAA/wAAAP8AAAD/AAAA/wAAAP8AAAD/ AAAA/wAA//8AAAD/AAAA/wAAAP8AAAD/AAAA/wAAAP8AAAD/AAAA/wAAAP8AAAD/AAAA/wAAAP8A AAD/AAAA/wAAAP8AAAD/AAAA/wAAAP8AAAD/AAAA/wAAAAAAAAMDAP4FBQAF5OYBD7rAAf7//wD+ /v4A/v7+AP3//gD+//4A/gD+AP7//QD+/v4A/f/+AP39/AD9/fwAAgICAPz6/AD+/P8ABAIFAPz3 /gAQChMAPDVAAAgACgD/+wEBBQUG//n99ToQSv97AAAABAAAAAMAAAACAAAAAQAAAAAAAAAAAAAA AQAAAAAAAAAAAAAAAAAAAAAAAAAAAAAAAAAAAAAAAAAAAAAAAAAAAAAAAAAAAwAAAAAAAAAAAAAA AAAAAAAAAAAAAAAAAAAAAAAAAAAAAAAAAAAAAAAAAAAAAAAAAAAAAAEAAAAAAAAAAAAAAAEAAAAC AAAAAzNsJToED/+F+f75CgsICgH99QAAJxkqAEE0QgALAg8ABf4GAPj6+gD/BAAAAAH/AP///wAA AQAA//8AAP//AAAAAAEAAAAAAP///wAAAAEA/wAAAAAAAQAAAf8A////AP///wD///8A//39AAH1 9gANv8QAGo6YIwrR1nD+BAQAAAEBAAAAAAAAAP8AAAAAAAAAAAAAAAAAAAAAAAAAAAAAAAAAAAAA AAAAAAAAAAAAAAAAAAAAAAAAAAAAAAAAAAAAAAAAAAAAAAAAAAAAAAAAAAAAAAAAAAAAAAAAAAAA AAAAAAAAAAAAAAAAAAAAAAAAAAAAAAAAAAAAAAAAAAAAAP8AAAD/AAH+/gD/BwcA3ZyN//ghHgD/ //8A////AAAAAAAAAAAA///+AAEBAQD+//wA/wD/AAEB/gD///8A/v//AAAAAAD+/gEAAAADAP/+ AQACAQQABwgHAOXq5QDv8e0A/gX8Af0D/AACBQImCiADyPDR+eUAAAD/AAAA/wAAAAAAAAAAAAAA AAAAAAEAAAAAAAAAAAAAAAAAAAAAAAAAAAAAAAAAAAAAAAAAAAAAAAAAAAAABAAAAAAAAAAAAAAA AAAAAAAAAAAAAAAAAAAAAAAAAAAAAAAAAAAAAAAAAAAAAAAAAAAAAP8AAAABAAAAAQAAAAIAAAAC ECQKCP4L+3oEBwMUCP0H/wH8AgENAQsANCo1ABUPGAD68v4AAgL/AAAE/wD+AP4A/v8AAAEAAAAA /v8AAQECAAAAAAAA/v4AAQEBAAAAAAABAf8AAP//AAAAAAAC/wAAAAAAAAAAAAAA+/wADcvPABC+ xAAPxMoBAPn6APwFBQAAAAAAAf7+AAAAAAAAAAAAAAEAAAAAAAAAAAAAAAAAAAAAAAAAAAAAAAAA AAAAAAAAAAAAAAAAAAAAAAAAAAAAAAAAAAAAAAAAAAAAAAAAAAAAAAAAAAAAAAAAAAAAAAAAAAAA AAAAAAAAAAAAAAAAAAAAAAAAAAAAAAAAAAAAAAAAAAAAAAEAAAD/APkcGv/mbWIA9CYiAAD//wAA AAAAAAAAAAAAAAD///8AAAH/AP/+/QAAAf0AAP//AP7+/gAAAAAAAAACAAD/AQAA/wEA////AAAA AQD+/wAAEhEWADErMgDi6N8A+Pz8AAwJC//2/PYTCxkHeQwdBlf04/r2AAAA/wAAAAAAAAD+AAAA /wAAAP8AAAAAAAAAAAAAAAAAAAAAAAAAAAAAAAAAAAAAAAAAAAAAAAAAAAAABAAAAAAAAAAAAAAA AAAAAAAAAAAAAAAAAAAAAAAAAAAAAAAAAAAAAAAAAAAAAAAAAAAAAAEAAAABAAAAAgAAAAEAAAAD KVMfUfoH+ET+Af0ACwkMAfzw/gAfFyMAKCApAPHt9AAEAAQA9/36AAkMCgD9+P0A/wEAAAEBAQAA AAAAAQEAAAAAAQAA/wEAAAAAAAEBAQABAQEAAAAAAAAAAAD//wAAAQEAAAD9/QAStr4AFLG4AAjh 4wEC/f0AAAABAP8AAAABAQEAAAEBAAAAAAAAAAAA////AAEBAQAAAAAAAAAAAAAAAAAAAAAAAAAA AAAAAAAAAAAAAAAAAAAAAAAAAAAAAAAAAAAAAAAAAAAAAAAAAAAAAAAAAAAAAAAAAAAAAAAAAAAA AAAAAAAAAAAAAAAAAAAAAAAAAAAAAAAAAAAAAP8BAQAD+/wAAP/+AOF7bwD2JyMAAP7+AAAAAAAA AAAAAAAAAP8A/wAAAAAAAAD+AP/+/wAAAf4AAAD9AP///wAAAAEAAAAAAAD+AgAA//8AAP8AAP4B AAD+/fwA/fgAACMeJQAVEBgA6vf8APX8+gEBAAAAAgf/Qh9OE1DVleeqAAAA/wAAAP8AAAACAAAA /gAAAAAAAAD/AAAAAAAAAAAAAAAAAAAAAAAAAAAAAAAAAAAAAAAAAAAAAAAAAgAAAAAAAAAAAAAA AAAAAAAAAAAAAAAAAAAAAAAAAAAAAAAAAAAAAAAAAAABAAAAAQAAAAEAAAAAAAAAAQAAAAMdKxkI +wP4nAMHAAAA////AfwBAA4FDwAiGCMADQYRAPXx9AD/AAAA9//3APX89QD8//0A////AP7+/gD/ //8A/v79AP7+/gD///8A////AP7+/gD+/v0A/v7+AP///wD+/v4A/v39ABOwtwAXo6urCN/iAQD+ /wD/AQIA/wEBAAABAQD/AAAA/wAAAP8AAAD+//8AAAEBAAABAQAAAQEAAAEBAAABAQAAAQEAAAEB AAABAQAAAQEAAAEBAAABAQAAAQEAAAEBAAABAQAAAQEAAAEBAAABAQAAAQEAAAEBAAABAQAAAQEA AAEBAAABAQAAAQEAAAEBAAABAQAAAQEA/wICAAL9/QABAAAA1p+Q//QlIQD+/v4A/v7+AP7+/gD+ /v4A/v7+AP7//wD9//4A/f7+AP8A/AD+/vwA/v7+AP///wD///4A/v7+AP7+/gD//f8A//4BAP3+ /wD6/PwA8vL0AAcECgAkHiYACAMLAAH6AgABAAL/+/36AAwXB5gNEQoJAAAAAwAAAAMAAAABAAAA AAAAAAEALcWyuQAAIABJREFUAAABAAAAAQAAAAAAAAAAAAAAAAAAAAAAAAAAAAAAAAAAAAAAAAAA AwAAAAAAAAAAAAAAAAAAAAAAAAAAAAAAAAAAAAAAAAAAAAAAAAAAAAAAAAABAAAAAAAAAAEAAAAC AAAAAwAAAAQtaR6O9PzyMwIGAf8FAQQBA/oDABUJFwA0KTcADQQOAAH/BAD7//0ABAwEAPf69wAF AAQA/wABAP8B/wD/AAAA/wEAAP//AAD/AQAA////AP8A/wD/AAEA/wH/AP8AAAAB/PwAFqyzABim rgEF7/GrAAEBAAEAAAAAAAAAAAAAAAAAAAAAAAAAAAAAAAAAAAABAQEAAAAAAAAAAAAAAAAAAAAA AAAAAAAAAAAAAAAAAAAAAAAAAAAAAAAAAAAAAAAAAAAAAAAAAAAAAAAAAAAAAAAAAAAAAAAAAAAA AAAAAAAAAAAAAAAAAAAAAAAAAAAAAAAAAAAAAAAAAAAAAQEAAP7+AP0PDQDZh3n/9CokAP7//wD/ AP8A/wD/AP8A/wD/AP8A/wD/AP///wAA/wAA////AP///gD+Af0AAP7/AP8AAAD+//4AAf4CAAD/ AQD//wEA//8BAPsA+wD6APoAAQECAP78/AAJCQYA3eDZAP0E/AD9BPsB/wH//wQDAwIPIQkU6Mry uwAAAP8AAAD/AAAAAAAAAP8AAAAAAAAAAAAAAAAAAAAAAAAAAAAAAAAAAAAAAAAAAAAAAAAAAAAA AgAAAAAAAAAAAAAAAAAAAAAAAAAAAAAAAAAAAAAAAAAAAAAAAAAAAAEAAAAAAAAAAQAAAAIAAAAB AAAAAiZaGiv5AflaCwsO/wP8BwEG/gwAAvsJABEPGAAPEBQA9Pn4AAEFAgD7/PwAA/8EAAL/AwD9 Af4A/v/9AP4A/wD+//4A/v/9AP4A/gD+//0A/QD+AP4A/wD+//wA/gD9AP/6+AAYp60AGKiwAQXy 8wAAAgIAAQAAAAAAAAAAAAAAAAAAAAAAAAAAAAAAAAAAAAAAAAD///8A////AP///wD///8A//// AP///wD///8A////AP///wD///8A////AP///wD///8A////AP///wD///8A////AP///wD///8A ////AP///wD///8A////AP///wD///8A////AP8AAAAA/PwA+BoX/9t2af/wLykA/P/+AP7//gD9 AP4A/QD+AP7//gD9AP4A/QD+AP7//gD9AP0A/gD+AP7//wD//wAA/QAAAP3//wD+AAEA/AD/APwA /wD8AP0A/AH7AP0A/gD8//0AAwUBAPr7+gAPDhAAEQwSAAf/CgAF/AsACAQPAf7+Af8GEQRXJ1MX LAAAAAMAAAACAAAAAQAAAAIAAAABAAAAAAAAAAEAAAAAAAAAAAAAAAAAAAAAAAAAAAAAAAAAAAAA AgAAAAAAAAAAAAAAAAAAAAAAAAAAAAAAAAAAAAAAAAAAAAAAAAAAAAAAAAAAAAAAAQAAAAAAAAAC AAAABAUf/2f/BAAJBAIHAQgDDQAG/QoABv8LABcUHAD/AwMA+gH9APf9+QAEBAUA+vT8AAT+BAD/ /f4A/AD8AP3/+wD8AP0A/QD+AP0A/AD8//0A/f/9AP0A/gD8AP4A/f38ABerswAYrbYBBPX3AP8C AwAAAP8AAAAAAAAAAAAAAAAAAAAAAAAAAAD///8A////AP///wAAAAAAAAAAAAAAAAAAAAAAAAAA AAAAAAAAAAAAAAAAAAAAAAAAAAAAAAAAAAAAAAAAAAAAAAAAAAAAAAAAAAAAAAAAAAAAAAAAAAAA AAAAAAAAAAAAAAAAAAAAAAAAAAAAAAAAAAEBAAD+/gD5GRb/32teAO42MAD9//4A/v/+AP0A/wD+ AP8A/gD/AP0A/wD+AP8A/gD+APwA/AD9//0A/f/+APz//wD8/gIA/f4CAPz+AQD8/gEA/AAAAPsA /QD8APwA+wD7AP0B/QD/AP8A+fr6AAECAAAB//0AHRgdAAH4AgAC+ggAAvsHAAEABgH9A/0JCSEB ZQAAAAQAAAAEAAAAAgAAAAAAAAABAAAAAAAAAAAAAAAAAAAAAAAAAAAAAAAAAAAAAAAAAAAAAAAA BAAAAAAAAAAAAAAAAAAAAAAAAAAAAAAAAAAAAAAAAAAAAAAAAAAAAAAAAAABAAAAAQAAAAMAAAAD I14UJAEEAUQAAAMA/vz9AAUBBgD+/f8ACwcJABISEgD8/P0AAv4CAAEAAgD9//0AAgABAP/9AAAC AwAA/v8AAAAAAAABAf4AAAABAAEBAgAA/wAAAAAAAAEB/gAA/gAAG7C5ABurtQEC9vgA/wD/AAEB AQAAAAAAAAD/AAAAAAAAAAAAAAAAAAAAAAABAQAAAQEBAAAAAAAAAAEAAAAAAAAAAAAAAAAAAAAA AAAAAAAAAAAAAAAAAAAAAAAAAAAAAAAAAAAAAAAAAAAAAAAAAAAA/wAAAAAAAAAAAAAAAAAAAAAA AAAAAAAAAAAAAAAAAAAAAAAAAAAAAAAAAf3+AP8FBADYeWkA8ygjAAD++wAAAAAAAAAAAAAAAAAA AAAAAAAAAAAAAAAAAAAAAAAAAAAAAAAAAv4AAP8AAP///wD///8AAAAAAAAAAAAAAQAA//7/AAAA AAD///8AAAAAAP7/AAABAgEA+/v6AAoGAgD9/f8AGBgZAAbaBgAB/fgAAQABAAD/AgAA/wIAAwYA QSFMDybftPHYAAAAAwAAAAAAAAD9AAAAAQAAAP8AAAAAAAAAAAAAAAAAAAAAAAAAAAAAAAAAAAAA BAAAAAAAAAAAAAAAAAAAAAAAAAAAAAAAAAAAAAAAAAAAAAAAAQAAAAAAAAABAAAAAQAAAAEAAAAD DxoMRgAGAB4CAQH//v8AAQICAwD+/v4ADg0QABEREAD8/PwAA/8DAAAAAQAAAP8A/wACAAABAQD+ AQAAAAAAAP8A/wACAQIAAAABAAEB/wAA//8AAAAAAAH9/QAbs78AHqm0AQT09QD+AwMAAgAAAAAA AAAAAAAAAAAAAAAAAAAAAAAAAAAAAAAAAAAAAAAA////AAAAAAAAAP8AAAAAAAAAAQAAAAAAAAAA AAAAAAAAAAAAAAAAAAAAAAAAAAAAAAAAAAAAAAAAAP8AAAAAAAAAAAAAAAAAAAAAAAAAAAAAAAAA AAAAAAAAAAAAAAAAAAAAAP8BAQAB/f4A+RQRiNpsXnfxJiEAAP7+AAAAAAAAAAAAAAAAAAAAAAAA AAAAAAAAAAAAAAAAAAAAAAAAAAAB/gAA/QAA////AAAAAAD///8AAAAAAAAAAAAC9/kA/QgGAAEA AAD///8AAAAAAP0A/wD+AP8A/fz8AAAHBgD8/fwAFhUVAAwNDwDu7/EAAQIDAAH/AgACAgL/AAQE HRAeCkQAAPHdAAAA/QAAAP4AAAABAAAAAQAAAP8AAAABAAAA/wAAAAAAAAAAAAAAAAAAAAAAAAAA BAAAAAAAAAAAAAAAAAAAAAAAAAAAAAAAAAAAAAAAAAAAAAAAAAAAAAEAAAABAAAAAgAAAAMAAAAE AwcCafz//gABAAEBAwIEAAECAQAAAAEAExMTAAUFBgD99/wAAf4BAAEA/gABAP8AAAEAAP8B/wAB AQEA/wD/AAAAAAD+Af8AAAAAAAEBAQAA/wIAAP3/ABy8xQAcsLmJA/T1AP4DAgAB//8A/wEAAAAA AAAAAAAAAAAAAAAAAAAAAAAAAAAAAP///wAAAAAAAAAAAAAAAAAAAAAAAQAAAAAA/wAAAAAAAAAA AAAAAAAAAAAAAAAAAAAAAAAAAAAAAAAAAAAAAAAAAAAAAAAAAP8AAAAAAAAAAAAAAAAAAAAAAAAA AQAAAAAAAAAAAAAA/wEBAAL8/QD3GRX/2mhaAO01LQAA/v0AAAAAAAAAAAAAAAAAAAAAAAAAAAAA AAAAAAAAAAAAAAAAAAAAAAD/AAAA/wAAAAAAAAAAAP///wD///8AAAAAAA7Z3wAct8EA31JGAPYd GQD//wAAAAD/AP0B/wD+//0A/wAAAPz8/AD8/PwADA4KABEQEADi7+MAAQACAAEBAgAAAQIBAAEC AAcNBWYAAACdAAAABAAAAP4AAAD/AAAA/wAAAAEAAAD/AAAAAAAAAAAAAAAAAAAAAAAAAAAAAAAA AgAAAAAAAAAAAAAAAAAAAAAAAAAAAAAAAAAAAAEAAAABAAAAAAAAAAEAAAABAAAAAgAAAAMtYB1H //7+HwL+AwD///8ABQQFAAMABAADAQMAERERAPz8/AD//v0A/v/+APz/+wD7//0A/P/7AP7//gD9 /vwA/v79AP///wD+/v0A///+AP7+/gD+/v4AEs/VABq2wQAI7vF4AQABAAEAAAAAAQAAAAAAAAAA AAAAAAAAAAAAAP///wD///8A////AAAAAAAAAAAAAAAAAAAAAAABAQEAAAEBAAABAQAAAQEAAAEB AAABAQAAAQEAAAEBAAABAQAAAQEAAAEBAAABAQAAAQEAAAEBAAEBAQABAQEAAQEBAAEBAQABAQEA AAEBAAABAQAAAQEAAv7/APcZFf/ZaVkA7DQsAP///QD///0A///9AP///QD///0A///9AP///QD/ //0A///9AP///QD///0A///+AP///wD+//wA/v/8AP7//AD/AP0AC97gACaZpwAXwcsBH665AAPx 8AD/APwA/v/8AP7+/QD7+/sAAwICAPr5+gD8+/wA+Pj5ABAQEAAAAAEAAQECAAEBAgAAAAIAAAEC AAIFAB0vWiBFAAAABAAAAAMAAAACAAAAAQAAAAEAAAAAAAAAAQAAAAEAAAAAAAAAAAAAAAAAAAAA BAAAAAAAAAAAAAAAAAAAAAAAAAAAAAAAAAAAAAAAAAAAAAAAAQAAAAEAAAACAAAAAgAAAAQKFQhr +fz2AAkICAD9+wEABAAEAAEBAQACBAIACwoKAP38/AABAAMAAP/9AAMAAwD+AP4AAgACAP4A/QAB /v8AAQECAP///gABAQEA////AAAAAQAH7/IAGMHKAA3j5wH//v8AAAAAAAAAAAAAAAAAAAAAAAAA AAAAAAAAAAAAAAEAAQAAAQAAAAAAAAAAAAAAAAAAAAAAAAAAAAABAAEAAAAAAAAAAAAAAAAAAAAA AAAAAAAAAAAAAAAAAAAAAAAAAAAAAAAAAAAAAAAAAAAAAAAAAAAAAAAAAAAAAAAAAAAAAAAAAAAA AAEAAAAAAAAB/f0A/gkIANdtXQDuLicAAP/+AP///wAAAAAAAAAAAAAAAAAAAAAAAAAAAAAAAAAA AAAAAAAAAAAAAAAAAAAAAAAAAAAB/gAAAAAA////AAAAAAAL3+QAJpmqAA/b4QEAAQIAEdbdAAzc 4gDtMCgAAAAAAP8AAAD9/v4ABgMCAP39/QD+/v0A+fn5AAsLDQABAAIAAAD/AAEBAgACAQIAAAAE AAEB/gAKGgVoAAAAuwAAAP0AAAD9AAAAAgAAAP8AAAABAAAA/wAAAAAAAAAAAAAAAAAAAAAAAAAA AgAAAAAAAAAAAAAAAAAAAAAAAAAAAAAAAAAAAAAAAAAAAAAAAQAAAAEAAAABAAAAAyJCGxwFCAM8 AP8A//79/wADAwQA+fj5AAH/AQALCwsABwUGAAD//wD9/f0A/v7+APv++wD+/v0A/f/8AP7+/AD8 /v0A+/78APv++wD7/v0A+/79APv+/AAbu8QAG8LLAQH9/QAAAgEAAQEBAAEAAQABAAEAAQABAAEA AQABAAEAAQABAAEBAQABAAEAAQABAAEAAQABAAEAAQABAAEAAQAAAAAAAAAAAAAAAAAAAAAAAAAA AAAAAAAAAAAAAAAAAAAAAAAAAAAAAAAAAAAAAAAAAAAAAAAAAAAAAAAAAAAAAAAAAAAAAAAAAAAA AAAAAAL6+wAAAwMAzHhl/+ksJAD7/v0A+/79APz//gD8//4A/P/+APz//gD8//4A/P/+APv+/QD7 /v0A+/79APv+/QD7/v0A+/78APv9/QD7/f0A+/39AAjZ4AAolqcAEtXcAf8BAQD///4ACOntARfA ywAB6+4A+/39APz9/AABAAAA+Pn5AP7+/gACAgMA+fn5ABEREQALDA0A////AAEAAwACAgUABgYI AP4AAP8DDAI5GTYQHgAAAAMAAAADAAAAAQAAAAEAAAABAAAAAAAAAAAAAAAAAAAAAAAAAAAAAAAA AgAAAAAAAAAAAAAAAAAAAAAAAAAAAAAAAAAAAAAAAAABAAAAAQAAAAIAAAADAAAABBIpCVT8//3/ DAsMAQUAAwAEAAIAAQECAAEAAQADAAMA/wAAAPz8/QD+/v0A/v7+AP///wD8APwA/P/8APz//AD+ //0A/v78AP///QD+/v0A//z8ABfI0gAcu8eJ////AAAAAAAB//8AAAD/AAAA/wAAAP8AAAD/AAAA /wAAAP8AAAD/AP///gD///4A///+AP///gD///4A///+AP///gD///4A////AP///wD///8A//// AP///wD///8A////AP///wD///8A////AP///wD///8A////AP///gD///4A///+AP///gD+AP8A //v8APQYFKrKd2L/6i4lAP7+/AD+/vwA/v78AP7+/AD+/vwA/v78AP7+/AD+/vwA/v78AP///QD/ //0A///9AP///QD///0A///+AP7+/gD+//0ADd3hACyYqAAS2eAB/wICAAAAAAAAAAAAAv7+ABPX 3QAM5OcA/v/9AP7//gD+/v4AAP//AP7//QD+/v4A//8AAP39/wADAgIAAQECAAAAAgABAQMA//4B AAEBAgH7Afz/DSoHUQAAAAQAAAAEAAAAAwAAAAIAAAABAAAAAQAAAAAAAAAAAAAAAAAAAAAAAAAA BAAAAAAAAAAAAAAAAAAAAAAAAAAAAAAAAAAAAAAAAAAAAAAAAQAAAAEAAAACAAAAAwYOBEv9AfwB AQADAAABAgADAQQA/wD/AAEAAQADAwMAAAAAAPz8/AAC/wMAAP/7AAD/AgACAgIAAQEBAAAAAAAB AQEAAQEBAAAAAAAAAf8ABPn8ABnJ0wAM6+94/gQDAAD//wAAAQEAAP7+AP///wABAQEA////AAEB AQAAAAAAAAAAAAAAAAAAAAAAAAAAAAAAAAAAAAAAAAAAAAAAAAAAAAAAAAD/AAAAAAAAAAAAAAAA AAAAAAAAAAAAAAAAAAAAAAAAAAAAAAAAAAAAAAAAAAAAAAAAAAAAAAAAAAAAAAAAAP8BAQAC/f4A 9BkU7tRjUhHqMioAAP39AAAAAAAAAAAAAAAAAAAAAAAAAAAAAAAAAAAAAAAAAAAAAAAAAAAAAAAA AAAAAAAAAAAAAAAAAAAAAAAAAAABAAAM3+UAKputABHd4wH/AQEAAQAAAAAAAAAAAQEA////AAnr 7wEWzdb/6yUeAP4FBAD+Af4A//7/AAH+/QAAAP0A/gD+AP4A/gAGBgYAAfgCAAMCAwD+/P4A//// AAEDAwD8APUBCRgDRwAAAJYAAAD8AAAAAgAAAAEAAAABAAAAAAAAAAAAAAAAAAAAAAAAAAAAAAAA AgAAAAAAAAAAAAAAAAAAAAAAAAAAAAAAAQAAAAAAAAABAAAAAQAAAAIAAAADHUYTJf4FABUAAQAA +vn5AAH/AgACAQIAAwICAAIAAQADAgIAAAABAPv7/AD8/f0A+/78AP0A/AD8/v0A/P79APz+/QD9 //4A/P79AP3//gD9/vwAENreABTW3Yn7CQcA/wAAAP///wD//v4A/wEBAP8AAAD+//8AAAEBAAAB AQAAAQEAAAEBAAABAQAAAQEAAAEBAAABAQAAAQEAAAEBAAABAQAAAQEAAAEBAAABAQAAAQEAAAEB AAABAQAAAQEAAAEBAAABAQAAAQEAAAEBAAABAQAAAQEAAAEBAAABAQAAAQEA/wICAAP9/gD+CAYA 0WJQEeYwJwD8/v0A/P79APz+/QD8/v0A/P79APz+/QD8/v0A/P79APz+/QD8/v0A/P79AP3//gD9 //4A/f/+AP3//gD9//4A/f/+AAve4gAsnKwAE9jfAf4BAQAAAAAA/wAAAP8AAAD/AAAAAAEBAAH+ /gAWz9gACuXnAP3//AD9/f0A/v38AP7+/QD+/f0A/f3+AP3+/QAFBQcAAQECAAEBAgABAgIA/v// AAICAwD5APkACQ4JFR0/EiQAAAAEAAAAAwAAAAIAAAABAAAAAQAAAAAAAAABAAAAAAAAAAAAAAAA BAAAAAAAAAAAAAAAAAAAAAAAAAAAAAAAAAAAAAEAAAABAAAAAQAAAAIAAAADChcHJf4A/BX/AP4A BAEDAAEBAAACAgIA/wEAAAAAAQADAgQAAAAAAPv8/AABAwEAAf8AAP8B/wABAf8AAQEBAP8AAAAE AQMAAP8AAAEBAgAD+vsAHMbTAAL9/pr6CwlmA/r7mgT5+gAC/P0A/wAAAAAAAAABAQEAAQEBAAAA AAAAAAAAAAAAAAAAAAAAAAAAAAAAAAAAAAAAAAAAAAAAAAAAAAAAAAAAAAAAAAAAAAAAAAAAAAAA AAAAAAAAAAAAAAAAAAAAAAAAAAAAAAAAAAAAAAAAAAAAAAAAAAD//wD/AQEAA/v8AAL8/AC+fmb/ 7CoiAAD9/QAAAAAAAAAAAAAAAAAAAAAAAAAAAAAAAAAAAAAAAAAAAAAAAAAAAAAAAAD/AAEBAgAA AAAAAAAAAAAAAAAAAAAAD97jAC+drwAT3OMB/gICAAAA/wAAAAEAAAAAAAAAAAAAAAAAAAD/AAEB AQAL6u4BFtLb/+0aFQD/AgEAAP79AAH//gD///4A/gD+AP4A/gAEBQQAAQECAAABAAABAf0AAP8B AAEDAgAAAQEA/P76FAgXBiUAAADaAAAAAwAAAAIAAAABAAAAAQAAAAEAAAD/AAAAAAAAAAAAAAAA BAAAAAAAAAAAAAAAAAAAAAAAAAABAAAAAAAAAAAAAAABAAAAAgAAAAIAAAAEDhQKLAAA/wj+/v4A BwgKAP7/AQADAQIA/QAAAAAAAQABAQMAAAEAAPz+/gADAv8AAv/+AAEAAgACAP4A/wABAAAAAAD+ /wEAAP8CAAEA/wAX1t8AFNffAP/8/N4AAwOa/AMCAP4HBQABAwIAA/r8AAICAgD//v4A/wD/AAD/ AAAAAAAAAAAAAAAAAAAAAAAAAAAAAAAAAAAAAAAAAAAAAAAAAAAAAAAAAAAAAAAAAAAAAAAAAAAA AAAAAAABAQEAAAAAAAAAAAAAAAAAAAAAAAAAAAAAAAAAAAAAAAAAAAAC/f0AAf39ALaLcf/wIBoA AP/+AAAAAQABAAAA/wAAAAAAAAABAAAA/wAAAAAAAAABAAAA/wEAAAD/AAAAAAAAAAEAAAL//gD/ AAAAAAAAAAEAAAAN4ucAMJ2wABLe5QH+AgEAAQAAAAAAAQAAAAAAAAAAAAAAAAAAAAAAAAABAP4B AAAD/P0AEtjgAAU9MAD5DAgA////AAD+/wD+AP8A/QD9AP3//gADAwMAAQD/AAEBAQD+AP8A///+ AAEBAwAHAgYA+PX5BwoRCioAAAC6AAAA+wAAAPsAAAACAAAA/gAAAAAAAAAAAAAAAQAAAP8AAAAA BAAAAAAAAAAAAAAAAAAAAAAAAAAAAAAAAQAAAAEAAAACAAAAAgAAAAMPHgsKAwUDKwAC/wACAwIA /wAAAAMBAgD7+vsABgQKAP3+/wD1+vcA9Pn4AAIBBAD//fwAAwADAAIA/gADAAEAAQEBAAAAAAD+ /gEA/wD/AP///wArr8EAEuHpAfoJBwD+BgQA/QQDAP4DAwD+AwIA/wQDAAP3+QAC/wEAAQEBAAAA /wAAAAAA////AAIBAQAAAAAAAAAAAAAAAAAAAAAAAAAAAAAAAAAAAAAAAAAAAAAAAAAAAAAAAAAA AAAAAAD///8AAAAAAAAAAAAAAAAAAAAAAAAAAAAAAAAAAAAAAAD//wDxGBPuzl1KEesgGAACAP4A //8AAP8AAAAC/wAA/wEAAAAAAAAB/wAA/gEAAAD//wAB/wAA/gEAAAEAAAAAAAAA/wAAAAL/AAD/ AQAA/wAAABHi6AAvobQAE9ziAf8BAQABAQEAAAAAAAAAAAAAAAAAAAAAAAAA/wAAAAAAAAAAAAAA AAD/AP8AEOLozQjl6TP0IBgAAAAAAAAC/AD+AP0A/v/8AP4B/QD89/gAA/7+AAH//wD/Av8A/QMA APz+/AAF/gYABgYIAPsJ/yoJFAYL9+z6+QAAAAMAAAD9AAAAAgAAAP4AAAAAAAAA/wAAAAAAAAAA AgAAAAAAAAAAAAAAAAAAAAEAAAAAAAAAAAAAAAEAAAABAAAAAgAAAAMGDQUKAQMBJwH+AAABAQEA /f7+AAEBAQABAQMAAAAAAAEBAQD+AAAA/fz8AP0A/wD+AP8A////AP4A/wD9AP8A////AP///wD8 /wAA/QD/ABfb4wAU3+YB/AcFAAH+/gAE+foABPb4AAP29wAE+vwA/gQDIvoKBwD7CAYA/gEAAP8A AAD///8AAAAAAP///wD///8A////AP///wD///8A////AP///wD///8A////AP///wD///8A//// AP///wAAAAAAAAAAAAAAAAAAAAAAAAAAAAAAAAD/AAAAAP//APUVEYjOWkgR5DEnAP8A/wD9AP8A /gD/AP8A/wD9Af8A/gD/AP4A/wD9Af8A/v//AP0A/wD8Af8A/wD/AP0A/wD+AP8A/wD/APwB/wD+ AP8AEODlADOfsgAY1+AB/wICAAEBAAAAAP8AAAD/AAAA/wAAAP8AAAD/AAAAAAAAAAAAAAAAAP// AAAAAAEABff5NA3n7QAA//8AAAH+AP4A/wD9AP8A/f//AP3//AD+//8AAv8AAAH/AAAB/v8AAQIA AP9xVsOaAAAgAElEQVQB/wAHAwgA//0AAAIHASUGDQQKAAAABAAAAAMAAAACAAAAAQAAAAEAAAAA AAAAAAAAAAEAAAAABAAAAAAAAAAAAAAAAAAAAAAAAAAAAAAAAAAAAAEAAAABAAAAAQAAAAMEBwIH AQMAIvwB/wAGAwQA//r+AAEDAQACAgAA///9AAIBBAD///8A+Pr6AAgHBgD+//4A/P8BAAMBAQD/ /wAAAAECAP8BAAAB/vwAA/r9AB/G0gD+/v8AAf//AAAAAAD//wAAAQEAAAP+/AAA/f4AAfz83v4H BgD8CAYi/wYF3gb2+AAB/P0AAQAAAAAA/wD/AAEAAQD/AAAAAAAAAAAAAAAAAAAAAAAAAAAAAAAA AAAAAAAAAAAAAAAAAAAAAAAAAAAAAAAAAAAAAAAAAAAAAAAAAP8AAQAE/f0ABPr8ALVuV3ftIBkA AP39AAAAAAAAAAAAAAAAAAAAAAAAAAAAAAAAAAAAAAAAAAAAAAAAAAAAAAAAAAAAAAAAAAAAAAAA AAAAAAAAAAAAAAAR4OcANp+yABXf5wH+AwEAAP//AAABAAAAAAAAAAAAAAAAAAAAAAAAAAAAAAAA AAD//wAAAAAAAAEAAAD/AAAABfj6ABDl6QAA+yUA/QYAAP3//gD9APwA/f77APwC/AD8+/sAAQMC AAAB/gAAAAIAAQEDAAAA/gAEBAMA9/f3AAQFBx8DBgMIAAAAAwAAAAMAAAABAAAAAQAAAAEAAAAA AAAAAAAAAAAAAAAABAAAAAAAAAAAAAAAAQAAAAAAAAAAAAAAAQAAAAEAAAABAAAAAwAAAAIOHAoh /wD/AAAAAP8CAgIB/QD+AP8B/wAAAwIA//3/AAECAQAA/wAA+Pn4AAUECAAB/wAA//8AAAEBAQAB AAEAAQH9AP4AAgABAgEAC+zuABLg5wAC/v0A/gECAAEAAAD///8AAP//AAABAQAA/f4AAv7+AAL8 /QABBAPe/gQEAPoGBQACAgEABPv8AAH/AQAA//8A/wAAAAAAAAAAAAAAAAAAAAAAAAAAAAAAAAAA AAAAAAAAAAAAAAAAAAAAAAAAAAAAAAAAAAAAAAAAAAAAAQEBAAP+/gD/AwMArYRk/+sdFgAA/f0A AAAAAAAAAAAAAAAAAAAAAAAAAAAAAAAAAAAAAAAAAAAAAAAAAAAAAAAAAAAAAAAAAAAAAAAAAAAA AAAAAAAAABDk6gA1o7UAFN7mAf8BAQAA/wAAAAAAAP//AAAAAAAAAAAAAAAAAAAAAAAAAAAAAAAA AAAAAAAAAAAAAAAAAAAAAAAAAP//AAzp7gAE9PYA+w8IAP0A/QD8//sA/QD8APsB+wD8/PwAAgIE AP8C/AAA/QEAAgICAP79AQACAgUA/wD///8CAAEQIA0f7tnz5wAAAAIAAAADAAAA/AAAAAEAAAAB AAAA/wAAAAAAAAABBAAAAAAAAAAAAAAAAAAAAAAAAAABAAAAAQAAAAEAAAACAAAAAgAAAAMIEAYo AQIBAAICAAEEAQQAAQP9AAD/AAADAgIA/f3/AAEDAQD/AP4A+fn4AAsJ/AD+AAAAAP/+APv/AwAD AAEAAAEAAP8A/gABAAIAFN/nABPm7AH/AQEAAQAAAP///wABAQEAAAAAAAABAAAA/wAAAAAAAAD+ /wAF+/wA//z+AP0FAwD+AgIA/QYFAAP6/AABAAAAAP//AAAAAAAAAAAAAAAAAAAAAAAAAAAAAAAA AAAAAAAAAAAAAAAAAAAAAAAAAAAAAAAAAAAAAAAAAQEAAP7+APUPDADDXUj/5yAXAAD9/AAAAAAA AAAAAAAAAAAAAAAAAAAAAAAAAAAAAAAAAAAAAAAAAAAAAAAAAQABAAEBAQD/AP8AAAAAAAAAAAAA AAAAEePpADemugAZ2eIB/gICAAEAAAAAAAAAAAAAAAAAAAAAAAAAAAAAAAAAAAAAAAAAAAAAAAAA AAAAAAAAAAAAAAAAAAAA//8AAv7/AArv8wAC+PYA+w4FAP3//QD7//0A/P/7AP0A/AD8/PwAAQEA AP8AAAD///8AAwECAP0AAgD8//4AAQICAf//AAAMFQkmAAAAywAAAAMAAAACAAAAAgAAAAEAAAAB AAAAAQAAAP8AAAAABAAAAAAAAAAAAAAAAAAAAAAAAAAAAAAAAAAAAAEAAAACAAAAAgAAAAQDCQEj /wL/AAEBAQABAQEABAQEAP///wABAQEA/f/9AAABAAD///4A+vz8AP8A/wD+//8AAP8AAAEA/QAC AAEA/QACAAABAAAD+PgAINPeAAX7/QD/AgIA////AAEAAQABAQEAAAAAAAAAAAAAAgAA//7/AP// /wD/AAAAAP/9AAH6/gADAAAA/gMCAPwCAQAC//8AAf4AAAH+/wAAAAAAAAAAAAAAAAAAAAAAAAAA AAAAAAAAAAAAAAAAAAAAAAAAAAAAAAAAAAABAAAB/f4A8xMOIsRaRt3hMSQAAAD+AAAAAAAAAAAA AAAAAAAAAAAAAAAAAAAAAAAAAAAAAAAAAAAAAAAAAAAAAAAAAAAAAAEAAQAAAAAAAAAAAAAAAAAT 4OgAPKS4ABje5wH+AgIAAAAAAAAAAAAAAAAAAAAAAAAAAAAAAAAAAAAAAAAAAAAAAAAAAAAAAAAA AAAAAAAAAAAAAAAAAAAAAgEA//7/AAf1+O8G9/kR/v/+AP3+/QD+AP0A/f7+AP8C/wD8/v0AAQQC AAEBAwAAAAAAAQEDAAEAAgD+/f0AAQEDAP/9/QAIDgYhAAAABQAAAAQAAAACAAAAAgAAAAEAAAAA AAAAAAAAAAAAAAAABAAAAAAAAAAAAAAAAAAAAAAAAAAAAAAAAQAAAAEAAAABAAAAAwAAAAIBBgEd /P/7AAMAAwD7+/sAAwEDAAUDBwD5+/oAAwMDAP8A/wD7/fsA9/j1APr6+gAFAgAAAv/9AAIAAgAA AAEAAQEBAAEBAgAE9fgABPL0AP0A/wAB/f4AAAAAAP8AAAD//wEAAAAAAAAAAAAAAAAAAQEAAAIC AQD//wAAAAAAAAH/AAD/AQAABPz+AAACAQD+AgIAAAL/AAAA/gAAAAAAAf8AAAAAAAAAAAAAAAAA AAAAAAAAAAAAAAAAAAAAAAAAAAAA/wEAAAP9/gAE/P0At2pP3eseFwAA/fsAAAAAAAAAAAAAAAAA AAAAAAAAAAAAAAAAAAAAAAAAAAAAAAAAAAAAAAAAAAAAAAAAAAAAAAAAAAAAAAAAAAAAABLk6wA7 o7oAF+DpAf0BAAACAAAAAAAAAAAAAAAAAAAAAAAAAAAAAAAAAAAAAAAAAAAA/wAAAAAAAAAAAAAA AAAAAAAAAAAAAAAAAAAB/wAA/wD/AAP6+zT69vXd/gAUAPr9+wD7/PkAAgYDAOfo5wAEBAQA/gL9 AP3//AAEBAUA/f79AAICAwD9/v0ABAcGAP0A/QD8A/wbAAAAAwAAAAIAAAADAAAAAQAAAAEAAAAB AAAAAAAAAAAAAAAABAAAAAAAAAAAAAAAAAAAAAAAAAABAAAAAAAAAAEAAAACAAAAAQAAAAMCBgAX /wH/AP8BAAAAAAAAAf8BAP8AAAABAQEAAwMDAAMDAwD9/v8A+/38APj7+QABBgMAA/8DAAAA/wAA AAAAAwAAAP///QAU4+kAEenvIwH//wAAAAAAAAAAAAAAAAAAAP8AAAAAAAAAAAAAAAAA//8AAAAA AAAAAAAAAAAAAAAAAAAB/wAA/wABAAH+/gAB/v8AAAEAAP8BAQAB/v8AAAD/AAAAAAD/AAEAAQD/ AAAAAAAAAAAAAAAAAAAAAAD/AAEAA/z+APEUDiLAWULd6RwVAAD+/gAAAAAAAAAAAAAAAAAAAAAA AAAAAAAAAAAAAAAAAAAAAAAAAAAAAAAAAAAAAAAAAAAAAAAAAAAAAAAAAAAAAAAAEeXsADyovgAY 3ucB/wEBAAIBAQAAAAAAAAAAAAAAAAAAAAAAAAAAAAAA/wAAAAAAAAAAAAAAAAAAAAAAAAAAAAAA AAAAAAAAAAAAAAAAAAAAAAAAAQAAAAP7+94I8/YA+//7AP4B/QAABAAA+/76APf6+gAAAwIAAf// AAD/AgAA/wIAAAD+AAD/AQAAAAAAAAAAAAEB/wACBAEWAAAAAwAAAAMAAAABAAAAAgAAAAEAAAAA AAAAAQAAAP8AAAAABAAAAAAAAAAAAAAA/wAAAAIAAAABAAAAAgAAAAEAAAACAAAAAwAAAAP/Bf4T AAEAAAAB/wAAAQAAAv8CAAAAAQAAAwEAAgQDAAIDAQD//AEA/Pz8APb29QAEAQQAAQMGAAICAQD9 /v8AAP/+AAEBBAAL8fUADPP33gABAQAAAAAAAAAAAAAAAAABAAAAAAAAAAAAAAAAAAAAAAAAAAAA AAAAAAAAAAAAAAAAAAAAAAAAAQD/AAAAAAABAP8AAP8AAAAAAAAAAAAA/wABAAAAAAABAP8AAAAA AAAAAAAAAAAAAAAAAP8AAQAC/f4A8xIMAMVRPN3fLSEAAAD/AAAAAAAAAAAAAAAAAAAAAAAAAAAA AAAAAAAAAAAAAAAAAAAAAAAAAAAAAAAAAAAAAAAAAAAAAAAAAAAAAAAAAAAU4+oAP6i/ABzc5gH+ AgEAAQAAAAAA/wAAAAAAAAAAAAAAAAAAAAAAAAAAAAAAAAAAAAAAAAAAAAAAAAAAAAAAAAAAAAAA AAAAAAAA/wAAAAAAAAAAAAAA/wAAAAP9/gAF9vcA+vv5AP8D/wAAAQMA+Pf2APr6+gABAQEA/gAA AAEBAgAAAQEAAf4BAAEBAgD//gEAAAABAP4BAAABBQASAAAAAwAAAAMAAAADAAAAAgAAAAEAAAAC AAAA/wAAAAEAAAD+BAAAAAAAAAAAAAAAAQAAAAAAAAAAAAAAAAAAAAIAAAABAAAAAgAAAAIBAgEL /gH+AAEAAAABAAEAAAAAAAEA/wABAQAAAQEAAP8B/wABAwEA/f38APf39wAIBQgABAYDAP4BAQD+ /f4A/gAAAAQEAwAP7fIACff6APoIBQAAAAAAAAAAAAAAAAAAAAAAAAAAAAAAAAAAAAAA////AP// /wAAAAAAAAAAAAAAAAAAAAAAAAAAAAAAAAAAAAAAAAAAAAD/AAAAAAAAAAAAAAABAAD//wAAAAEA AAD/AAAAAP8AAAABAAH//QDyEw0AvVg//98uIgAA//wAAAAAAAAAAAAAAAAAAAAAAAAAAAAAAAAA AAAAAAAAAAAAAAAAAAAAAAAAAAAAAAAAAAAAAAAAAAAAAAAAAAAAABTj6wBBpb8AGOHpAf4CAQAA AAAA/wAAAAAAAAAAAAAAAAAAAAAAAAAAAAAAAAAAAAEAAAAAAAAA/wAAAAAAAAAAAAAAAAAAAAAA AAAAAAAAAAAAAAAAAAAAAAAAAAEBAAL8/gAF9/gA/vz7AP0BAAAAAAAA9vf4APz9/QADBQEAAAAA AAEBAgAC/wIA/wABAAEAAgD///8AAAL/AAABAQACAv8KAAAAAwAAAAIAAAACAAAAAQAAAAIAAAAA AAAAAAAAAAAAAAABBAAAAAAAAAAAAAAAAAAAAAAAAAAAAAAAAQAAAAEAAAACAAAAAgAAAAP+Av8K AAIAAAACAQD+AQAAAv4CAAABAAAAAP4A////AP39/AACAgYAAwACAPz+/QD6+/oACAUIAP/+/gD+ /v0A/wABAAn19QAS5OwA+AYDAAD9/gAAAQAAAAAAAAAAAAAAAAAAAAAAAAAAAAAAAAAAAQEBAAIC AgD///8AAAAAAAAAAAAAAAAAAAAAAAAAAAAAAAAAAAAAAAAAAAAAAAAAAAAAAAAAAAAAAQAA/wEB AAEA/wAAAAEAAv8AAAEBAgCzYEX/5iMZAAD9/QAAAAAAAAAAAAAAAAAAAAAAAAAAAAAAAAAAAAAA AAAAAAAAAAAAAAAAAAAAAAAAAAAAAAAAAAAAAAAAAAAAAAAAEufuAECpwQAY4ekB/wABAAEAAAAA AAAAAAAAAAAAAAAAAAAAAAAAAAAAAAAAAAAAAAAAAP8AAAAAAAAAAAAAAAAAAAAAAAAAAAAAAAAA AAAAAAAAAAAAAAD/AAAAAAAAAQAAAP0CAQD9AQEA/AP/AP38/QD8/vwA9vj2AAMDAwD/AP4AAAAB AAAAAAAAAAAAAAACAAAA/gAAAAAAAAAAAAEBAAABAgAJAAAAAwAAAAMAAAACAAAAAgAAAAEAAAAB AAAAAAAAAAAAAAAABAAAAAAAAAAAAAAAAAAAAAAAAAABAAAAAAAAAAEAAAABAAAAAgAAAAIBAgED AAAAAAAAAQAA/wAAAAABAAAAAQAAAAEA+/39AAQAAQACBQAAAgICAAEBAAD8/PwA/v//AP4A/wD+ /v4AAgAAAAX1+AAL8fUAAf7/AP8BAQAA/wAAAAAAAAABAAAAAAAAAAAAAAAAAAAAAAAA////AAAA AAAAAAAAAAAAAAAAAAAAAAAAAAAAAAAAAAAAAAAAAAAAAAAAAAAAAAAAAAAAAAAAAAAAAAAAAf// AP8BAQAE/P0A8w8KALZbQf/jIRcAAgD/AAD/AAAAAAAAAAAAAAAAAAAAAAAAAAAAAAAAAAAAAAAA AAAAAAAAAAAAAAAAAAAAAAAAAAAAAAAAAAAAAAAAAAAT5u0AQ6vEAB3b5gH+AwIAAQAAAAAAAAAA AAAAAAAAAAAAAAAAAAAAAAAAAAAAAAAAAAAAAAAAAAAAAAAAAAAAAAAAAAAAAAAAAAAAAAAAAAAA AAAA/wAAAAAAAAAAAAAAAAAAAP//AAAAAAAA/wAAAf3+APz9/QD5+/kA+fn5AAUFBAD6/PkAAQEB AAAA/wABAQEAAQEAAAEAAQD///8AAP7/AAD/AAAAAQAEAAAAAwAAAAIAAAACAAAAAQAAAAEAAAAA AAAAAQAAAAAAAAAABAAAAAAAAAAAAAAAAAAAAAAAAAAAAAAAAgAAAAEAAAABAAAAAgAAAAMB/v8B //8BAAAAAQABAQIA/wADAAH/AwAB/wIAAgEDAAIBBAABAQIA/wD/AP3//AD4/PgA9fn0AAb/BgAC AAAAAgICAPMMBQAU7PMBAAIBAAABAQAB/wAAAAAAAAAAAAAAAAAAAAEAAAAAAAAAAAAAAAAAAAAA AAAAAAAAAAAAAAAAAAAAAAAAAAAAAAAAAAAAAAAAAAAAAAAAAAAAAAAAAAAAAAAAAAAAAAAA/wAA AAP8/QDxEgwAvFA3/9srHAAAAP0A/v8BAAAAAAAAAAAAAAAAAAAAAAAAAAAAAAAAAAAAAAAAAAAA AAAAAAAAAAAAAAAAAAAAAAAAAAAAAAAAAAAAABbj7ABFqsQAHN/pAf4DAgAB//8AAAEBAAAAAAAA AAAAAAAAAAAAAAAAAAAAAAAAAAAAAAAAAAAAAAAAAAAAAAAAAAAAAAAAAAAAAAAAAAAAAAAAAAAA AAAAAQAAAP8AAAAA/wAAAAAA/wD/AP8BAAD3BAAA+wD+APz+/QD5+fkAAQH/AP8AAAABAgEAAf// AAEC/wAB//8AAQD/AAL//wAFAQMAAAEAAPz//gD9/v4AAAAAAgAAAAMAAAACAAAAAQAAAAEAAAAC AAAA/QAAAAAAAAAABAAAAAAAAAAAAAAAAAAAAAAAAAAAAAAAAAAAAAAAAAABAAAAAQAAAAEB/wH8 AP8ABQAAAAD/AQAA/wAAAAEBAwACAAMAAwAEAAICBAABAAEA///+AAECAAD9APsA+f34AP/9/gAE AgUABAIBAAL4+gAM8/cA+gUDAAEAAAAAAP8AAAEBAAAAAAAA/wAAAP8AAAABAAAAAAAAAAAAAP// /wABAQEAAAAAAAAAAAAAAAAAAAAAAAAAAAAAAAAAAAAAAAAAAAAAAAAAAAAAAAAAAAAAAAAAAf7/ AO8TDES4VTq72ywfAAD//gAAAAAAAAD/AAAAAAAAAAAAAAAAAAAAAAAAAAAAAAAAAAAAAAAAAAAA AAAAAAAAAAAAAAAAAAAAAAAAAAAAAAAAFObuAEWqwwAc4ewB/wEBAAEAAAAAAQEAAAAAAAAAAAAA AAAAAAAAAAAAAAAAAAAAAAAAAAAAAAAAAAAAAAAAAAAAAAAAAAAAAAAAAAAAAAAAAAAAAAAAAAAA AAAAAAAAAAD/AAAAAAD/AAAAAAAAAP0DAgD1CgYA/f//APz9/AD7/fsAAQICAP8B+wABAf8AAAD/ AAEAAAAAAP4AAAD/AAAA/wAEAAEA/wECAP7/AAD8///8AAAAAgAAAAEAAAABAAAAAQAAAAAAAAAA AAAAAAAAAAAAAAAABAAAAAAAAAAAAAAAAQAAAAEAAAABAAAAAAAAAAIAAAACAAAAAQAAAAL//gD3 AAAABQAAAAAC/wAA/wAAAAAA/wAAAAAAAQEBAAAAAAABAQEAAQABAAEBAQACAgIA/P38AAP8AwAF BwYA//8AABXg6gDvDwkAC/X5AP7//wABAAAAAAAAAAAAAAAA//8AAAAAAAAAAQAAAAAAAAAAAAAA AAD///8AAAAAAAAAAAAAAAAAAAAAAAAAAAAAAAAAAAAAAAAAAAAAAAAAAAAAAP8AAAABAAAA8BMM iLpQNnfZKh0AAP7+AAAAAAAAAAAAAAAAAAAAAAAAAAAAAAAAAAAAAAAAAAAAAAAAAAAAAAAAAAAA AAAAAAAAAAAAAAAAAQEBAAAAAAAT6O8AR6zGAB3f6gH/AQEAAQEBAAD/AAAAAAAAAAAAAAAAAAAA AAAAAAAAAAAAAAAAAAAAAAAAAAAAAAAAAAAAAAEAAAD/AAAAAQAAAAAAAAD/AAAAAAAAAAAAAAAA AAAAAP8A/wEBAAD+/gD/AAAAAQAAAPsEAiL2CwcA+/v8APz7+wD///8AAQEBAAIDAwD+/v0AAAAA AAAAAAAAAAAAAAAAAAAAAAD///4AAQAAAAAAAAAA/gH4AAAAAQAAAAIAAAABAAAAAgAAAAIAAAAA AAAAAQAAAAEAAAAABAAAAAAAAAABAAAAAAAAAAAAAAAAAAAAAQAAAAAAAAAAAAAAAgAAAAEA/QL1 AQD+DgH/AAD/AQAAAAAAAAAAAAABAQEAAAAAAAEBAAAAAAAAAAAAAAEBAQABAgEA/v7+APz9/AD+ /v4AAAABAAP6/AAC/v8AAAAAAAAAAAD/AAAAAf//AAAAAAAAAAAAAAAAAAD//wAAAAAAAQEBAAAA AAAAAAEAAAAAAAAAAAAAAAAAAAAAAAAAAAAAAAAAAAAAAAAAAAAAAAAA/wEAAAb7/QD5CAUAtFY6 d94nGwAA//8AAAAAAAAAAAAAAAAAAAAAAAAAAAAAAAAAAAAAAAAAAAAAAAAAAAAAAAAAAAAAAAAA AAAAAAAAAAAAAAAA////ABfm7gBIrcgAIdzoAf4CAgABAAAAAP8AAAAAAAAAAAAAAAAAAAAAAAAA AAAAAAAAAAAAAAAAAAAAAAAAAAAAAAAAAAAAAP8AAAAAAAAA/wAAAAAAAAAAAAAAAP8AAAAAAAAA AAD/AAAAAP7+AAACAgAA//4A//8AAP0EA2b8AwIA/f38APz9/QD///8AAQEBAP///wAAAAAAAAAA AAAAAAAAAAAAAAAAAAAAAAD+AQAAAwAAAAABAQAA/AD2AAAAAgAAAAEAAAACAAAAAAAAAAAAAAAB AAAAAAAAAAAAAAAABAAAAAAAAAAAAAAAAAAAAAAAAAAAAAAAAAAAAAAAAAABAAAAAAAAAAEA+gDw AP8CGQAAAgAAAAAAAAD/AAABAAAAAAAAAQEBAAEBAQABAQEAAQABAAEBAQABAAEA//8AAP7+/gD7 +/sABAT/APwEAwAN9PgA/AQDAAEAAAAAAAAAAAAAAAAAAAAAAAAAAAAAAAAAAAAAAAAA/wAAAAAA AAABAP8AAAAAAAAAAAAAAAAAAAAAAAAAAAAAAAAAAAAAAAAAAAD/AQEAA/3+AO4TDCK3UDbd3SYa AAD//wAAAAAAAAAAAAAAAAAAAAAAAAAAAAAAAAAAAAAAAAAAAAAAAAAAAAAAAAAAAAAAAAAAAAAA AAAAAAAAAAAAAAAAFuXtAEurxwAd4ewB/gICAAAA/wAAAAEAAAAAAAAAAAAAAAAAAAAAAAAAAAAA AAAAAAAAAAAAAAAAAAAAAAAAAAAAAAAAAAAAAAAAAAAAAAAAAAAAAAAAAP8A/wAAAAAAAAAAAAAA AAAAAAAAAAIBAP7//wABAgIAAP7/APULBnf0BAEA/Pv8AP/+/gABAQIAAP/9AP7+/gAAAAAAAAAA AAAAAAAAAAAAAAAAAAAAAAABAAEAAAAAAAIBAAD//QDxAAAAAQAAAAEAAAAAAAAAAQAAAAAAAAAA AAAAAAAAAAAAAAAABAAAAAAAAAAAAAAAAAAAAAEAAAABAAAAAAAAAAEAAAAAAAAAAQAAAAH/+gDs A/8BAAAAAAAAAAAAAAEAAAAAAAAAAAAAAAAAAAAAAAAAAAAAAAAAAP//AAAAAAAAAgMCAAAAAAD7 +/sAAQEBAAECAgD9AwIAAAAAAAAAAAAAAAAAAAAAAAAAAAAAAAAAAAAAAAAAAAAAAAAAAAAAAP// /wAAAQEAAAAAAAAAAAAAAAAAAAAAAAAAAAAAAAAAAAAAAAAAAAAA//8A7RMMiLZPNXfZLB4AAP7+ AAAAAAAAAAAAAAAAAAAAAAAAAAAAAAAAAAAAAAAAAAAAAAAAAAAAAAAAAAAAAAAAAAAAAAAAAAAA AAAAAAAAAAAU6fAASa7JAB3h7AH+AQAAAgD/AAAAAAAAAP8AAAAAAAAAAAAAAAAAAAAAAAAAAAAA AAAAAAAAAAAAAAAAAAAAAAAAAAAAAAAAAAAAAAAAAAAAAQD/AAAAAAD/AAAAAAAAAAAAAAAAAAAA AAAAAAAAAAAAAAEBAQD8AQEA/gUBAPAOCQD2BAEA/v/+AAECAgADAP8A/P7/APz8/AADAwIAACXI PzIAACAASURBVP8AAAAAAAAAAAAAAAAAAAAAAAD+/vwAAgQDAAD/AAD/+QDvAAAAAAAAAAEAAAAB AAAAAAAAAAEAAAAAAAAAAQAAAAEAAAD/AECAv38EAAAAAAAAAAAAAAAAAAAAAAAAAAAAAAABAAAA AAAAAAEAAAABAAAAAP34/+gGAAMA//8AAAIDAwAA/v8AAQEBAAEBAAAAAAAAAAABAAAAAAAAAAAA AAAAAP///wACAQEAAQABAP///wD+/v4A//z8APQKBgAL9foA/wEAAAAAAAAAAAAAAAAAAAAAAAAA AAAAAAAAAAAAAAAAAAAAAAAAAP///wAAAAAAAAAAAAAAAAAAAAAAAAAAAAAAAAAAAQEAAP//APES DIi4TDN32CsdAAD//wAAAAAAAAAAAAAAAAAAAAAAAAAAAAAAAAAAAAAAAAAAAAAAAAAAAAAAAAAA AAAAAAABAQEAAAAAAAAAAAAAAAAAFefvAEqwygAh3ekB/wIBAAEAAAD/AAAAAAAAAAAAAAAAAAAA AQAAAAAAAAAAAAAAAAAAAAAAAAAAAAAAAAAAAAAAAAAAAAAAAAAAAAAAAAAAAAAAAAD/AAAAAAAA AAAAAAAAAAAAAAAAAAAAAAAAAAAAAAAA/wAAAAD+AAEBAwD5BgQA5RkPAPQJBQD///0AAQAAAP7/ AAABAAEAAQEBAAAAAAABAQEAAP8AAAAAAAAAAAAAAAD/AAECAQD//wAA//8BAPr1/eoAAAABAAAA AAAAAAEAAAABAAAAAAAAAAEAAAAAAAAAAAAAAAACAAAAAAAAAAAAAAAAAAAAAAAAAAAAAAD/AAAA AAAAAAAAAAAAAAAAAP30/+QEAgQA//3+AAEBAQD+AP4AAQEBAAAAAQAAAAAAAAAAAAAAAAAAAAAA AAD/AP///wD+/v4AAAEAAAICAgD//wAA9gIAAP0DAkQAAAAAAAAAAAAAAAAAAAAAAAAAAAAAAAAA AAAAAAAAAAAAAAABAQEAAQEBAAEBAQABAQEAAQEBAAEBAQABAQEAAQEBAAECAgAE/v8AB/z+AK1X OnfVLR4A////AAAAAAAAAAAAAAAAAAAAAAAAAAAAAAAAAAAAAAAAAAAAAAAAAAAAAAAAAAAAAAAA AAAAAAAAAAAAAQEBAAEBAQAX5u8ATqzIACPc6AH/AgEA/wAAAAAAAAAAAAAAAAAAAAAAAAAAAAAA AAAAAAAAAAAAAAAAAAAAAAAAAAAAAAAAAAAAAAAAAAAAAAAAAAAAAAAAAAAAAAAAAAAAAAAAAAAA AAAAAAAAAAAAAAAAAAAAAAAAAAAAAAAA//8AAAABAAD+/wD4BwT/6g8JAP0AAAABAQEA/v7+AP39 /QAAAAAABQUFAAAAAAAAAAAAAAAAAAAAAAD///8A////AAMEAwD9/fwA/v3/APrx/OcAAAAAAAAA AAAAAAAAAAAAAAAAAAAAAP8AAAAAAAAAAAAAAAACAAAAAAAAAAAAAAAAAAAAAAAAAAAAAAABAAAA AAAAAAAAAAAAAAAAAPLm9uEA/gEA/fz9//n5+QD9/v0A/gD+AAAAAAAAAAAAAAAAAAAAAAAAAAAA AAABAAABAQAAAAAAAAAAAAEBAQAAAAAA3CMVAA32+rwBAQAAAAEBAAEBAQABAQEAAQEBAAEBAQAB AQEAAQEBAAEBAQAAAAAAAQEBAAEBAQABAQEAAQEBAAEBAQABAQEAAAICAAP+/wAF/f4Ak3JM/+Ai FwAAAAAAAAAAAAAAAAACAgIAAQEBAAEBAQABAQEAAQEBAAEBAQABAQEAAQEBAAEBAQABAQEAAQEB AAEBAQAAAAAAAAAAABTo7wBMrcgAHuHrAf8BAQAAAAAAAQAAAAAAAAAAAAAAAAAAAAAAAAAAAAAA AAAAAAAAAAAAAAAAAAAAAAAAAAAAAAAAAAAAAAAAAAAAAAAAAAAAAAAAAAAAAAAAAAAAAAAAAAAA AAAAAAAAAAAAAAAAAAAAAAAAAAAAAAD/AAAAAAAAAAEAAAD2CgcA7RcOAAADAgAAAAAAAQEBAAEB AAAAAQAA////AAAAAAAAAAAAAAAAAAAAAAAAAAAAAP8AAAEDAgD///7/AQEBAPPo9+IAAAAAAAAA AAAAAAAAAAAAAAAAAAAAAAEAAAAAAAAAAAAAAAACAAAAAAAAAAAAAAAAAAAAAAAAAAAAAAD/AAAA AAAAAP8AAAD/AAAAAO/i8uYA/wEABAQFAf8A/gAAAAEAAAAAAAAAAAAAAAAAAAAAAAAAAAAAAAAA AAAAAAEAAAABAQEAAAAAAAAAAAABAQEACfn8APYKBgAAAAEAAQAAAAAAAAAAAAAAAAAAAAAAAAAA AAAAAAAAAAAAAAAAAAAA/v7+AP7+/gD+/v4A/v7+AP7+/gD+//8AAP39AO0SDIifZEP/5h8VAAIC AgACAgIAAgICAAEBAQAAAAAAAAAAAAAAAAAAAAAAAAAAAAAAAAAAAAAAAAAAAAAAAAAAAAAAAAAA AAAAAAAAAAAAE+nwAEqvygAf4OoBAP//AAAAAAAAAAAAAAAAAAAAAAAAAAAAAAAAAAAAAAAAAAAA AAAAAAAAAAAAAAAAAAAAAAAAAAAAAAAAAAAAAAAAAAAAAAAAAAAAAAAAAAAAAAAAAAAAAAAAAAAA AAAAAAAAAAAAAAAAAAAAAAAAAAAAAAAAAQEAAAD/AP0CAQDuEgsA8Q0IAAAAAAABAQEAAAAAAAEB AQAAAAAAAgIBAAAAAAAAAAAAAAAAAAAAAAAAAAAAAAEAAP7//wD9AP8BAgEBAPHj9eoAAAD/AAAA AAAAAP8AAAD/AAAAAAAAAP8AAAAAAAAAAAAAAAACAAAAAAAAAAAAAAAAAAAA/wAAAP8AAAAAAAAA /wAAAAAAAAD/AAAA//z4/f389vzmBgYGAAQEBAACBAEAAAAAAAAAAAAAAAAAAAAAAAAAAAAAAAAA AAAAAAAAAAABAQEAAQEBAAEBAQAAAAAABvv9AOYVDf////8A/wD/AP///wD///8A////AP///wD/ //8A////AP///wD///8AAAAAAAAAAAAAAAAAAAAAAAABAQAB//8A8RALZrpMMnfYLR4AAAAAAAAA AAAAAAAAAAAAAAAAAAAAAAAAAQEBAAEBAQABAQEAAQEBAAEBAQABAQEAAQEBAAEBAQABAQEAAQEB AAEBAQAX5+8ATazIACTa5wH/AQEAAAEBAAAAAAAAAAAAAAAAAAAAAAAAAAAAAAAAAAAAAAAAAAAA AAAAAAAAAAAAAAAAAAAAAAAAAAAAAAAAAAAAAAAAAAAAAAAAAAAAAAAAAAAAAAAAAAAAAAAAAAAA AAAAAAAAAAAAAAAAAAAAAAAAAAAAAAABAP8A/wEBAPkHBQDiGxAA9QsHAAEBAQAAAAAAAQEBAAAA AAABAQEAAAABAAAAAAAAAAAAAAAAAAAAAAAAAAAAAAAAAPv7+wAA//8A+/j96P36/fwAAAAAAAAA /wAAAP8AAAAAAAAA/wAAAAAAAAD/AAAA/wAAAAACAAAAAAAAAAAAAAAAAAAAAAAAAAAAAAAAAAAA AAAAAP8AAAAAAAAA//v2/Pr59PniAAAAAAEBAQAAAAAA////AAAAAAAAAAAAAAAAAAAAAAAAAAAA AAAAAAEBAQAAAAAAAAAAAAAAAAABAQEA+AcEAO4SDAD9AwEAAP8AAAAAAAAAAAAAAAAAAAAAAAAA AAAAAAAAAAAAAAABAQEAAQEBAAEBAQABAQEAAQICAAT+/wAJ+fwAqV4/mdUvIAABAQEAAAEBAAAB AQAAAQEAAAEBAAEBAQABAQEAAAEBAAEBAQAAAQEAAAEBAAEBAQAAAQEAAAEBAAABAQAAAQEAAQEB ABfn7wBNq8cAIN3oAf0CAQD/AAAAAAAAAAAAAAAAAAAAAAAAAAAAAAAAAAAAAAAAAAAAAAAAAAAA AAAAAAAAAAAAAAAAAAAAAAAAAAAAAAAAAAAAAAAAAAAAAAAAAAAAAAAAAAAAAAAAAAAAAAAAAAAA AAAAAAAAAAAAAAAAAAAAAAAAAP///wD//wAA/gICAPEOCP/hIBUAAAEBAAAAAAABAQEAAAAAAAEB AQABAAEAAAEAAAAAAAAAAAAAAAAAAAAAAAAAAAAAAAH/AAAAAAD8/PwA+fP75fv3/foAAAD/AAAA /wAAAAAAAAD/AAAAAAAAAAAAAAAAAAAAAAAAAAACAAAAAAAAAP8AAAAAAAAAAAAAAAAAAAD/AAAA AAAAAAAAAAD+AAAA//r0/Pj28Pnf/v39AP39/QACAP8AAAD+AAAAAAAAAAAAAAAAAAAAAAABAQEA AAAAAAAAAQAAAAAAAQEDAAAAAQAAAAAA/AkHAOQgFAAI+/4AAgICAAICAgACAgIAAgICAAICAgAC AgIAAgICAAICAgABAQEAAAAAAAAAAAAAAAAAAv7/AAEAAACUc03/5x4VAAEAAAAAAAAAA/8AAAEA AAACAAAAAgAAAAAAAAABAAAAAv//AAD//wAC//8AAv//AAD//wAD//8AAf//AAH//wAD//8AE+jv AEmuyQAe4esB/wEBAAIAAAACAAAAAAAAAAEAAAABAAAAAAAAAAEAAAAAAAAAAAAAAAEAAAABAAAA AAAAAAAAAAAAAAAAAAAAAAAAAAAAAAAAAAAAAAAAAAAAAAAAAAAAAAAAAAAAAAAAAAAAAAAAAAAA AAAAAAAAAAAAAAAAAAAAAAAAAAAAAAAAAQEA/QEAAOUbEQDpFg0AAAD/AAEBAQAAAAAAAAABAAAA AQAAAAAAAP4CAAAAAQAAAAEAAAAAAAAAAgAAAAEA/v8BAAED/gD8/fsA+vH74vz2/foAAAD+AAAA /wAAAP4AAAAAAAAAAAAAAP8AAAAAAAAAAAAAAAACAAAAAAAAAAAAAAD/AAAA/wAAAP8AAAAAAAAA /gAAAP4AAAD/AAAA/gAAAP/37vvg/f39+v/9/AAB//0AAQD/AP///AD///0AAAD9AAEBAAABAQEA AQEBAP///wAAAAIA//4AAAEABAABAAQAAQEDAPMJBQDyDAcA////AP8A/wD///8A////AP///wD/ //8A////AP///wAA/wAAAP8AAP8AAAAB/v8A7hIMiKdgQP/lIhcAAgEBAAMBAQAEAAEAAgEBAAMA AQADAAEAAwABAAMBAQAC/wAAAgABAAIAAQACAAEAAgABAAIAAQABAAEAAwABAAMAAQAU6PEASq7J ACLc6AH/AQEAAgAAAAAAAAAAAAAAAQAAAAAAAAAAAAAAAQAAAAAAAAABAAAAAQAAAAAAAAAAAAAA AAAAAAAAAAAAAAAAAAAAAAAAAAAAAAAAAAAAAAAAAAAAAAAAAAAAAAAAAAAAAAAAAAAAAAAAAAAA AAAAAAAAAAAAAAAAAAAAAAAAAAEBAQAB//8A/wEAAOUaDwD8BAEAAAEAAAEBAQABAQEAAAAAAAAA AAD/AAAA////AAD/AAD//wAAAP8BAAAAAAAAAAAAAQEAAPj/9wABAf779ef44wAAAP4AAAD/AAAA /gAAAP8AAAD+AAAA/gAAAAAAAAD/AAAA/wAAAP8CAAAAAAAAAAAAAAAAAAAAAAAAAAAAAAAAAAAA AAAAAP8AAAD/AAAA/wAAAP715Pjk+/b88gcGBgD+/f0AAQEAAP//AAAAAP8AAAABAP///wAA/wAA AAAAAAAAAQAA/wEAAAAAAAAA/wAAAAEA////AO4RCwDtEgr//wD/AP//AAD///8A////AP///wD/ //8A////AAD/AAD///8A/wEAAAH//wDzEAoAvEwzd9guIAAB/wAAAAAAAAEAAQABAAEAAAAAAAEA AAAAAAAAAAAAAAL/AAAAAAAAAAAAAAIAAAAAAAAAAAAAAAEAAAAAAAAAAAAAABXm7gBLq8YAI9vn Af4CAQAAAAAAAAAAAAAAAAAAAAAAAAAAAAAAAAAAAAAAAAAAAAAAAAAAAAAAAAAAAAAAAAAAAAAA AAAAAAAAAAAAAAAAAAAAAAAAAAAAAAAAAAABAAAAAQAAAAEAAAABAAAAAQAAAAEAAAAAAAAAAAAA AAAAAAAAAAAAAAAAAAAAAAAAAP///wD/AAAA7RQM/+MdEgAAAv8AAQH/AAD/AAAAAAAAAAAAAAAA AAAAAAEAAAAAAP//AAAAAAEA//8BAP///wAAAAAAAAAAAAQBAgAB/wTy8+T45wAAAP4AAAD+AAAA /wAAAP8AAAD/AAAAAAAAAAAAAAAAAAAAAAAAAAACAAAAAAAAAAAAAAAAAAAAAAAAAAAAAAD+AAAA /wAAAP8AAAD+AAAA/QAAAP7r1fHlAPsA8AD9AAAA/wIA////AAAAAAAAAf8A/wD9AAAA/wD+AP0A ////AAAA/wAAAf8AAAAAAAAAAAAAAP8AAAAAAPERCwDnGBAA/gEBAAD//wAAAAAAAAAAAAAAAAAA AAAAAQAAAAAAAAAAAgEABAAAAAj6/QCrYUL/2DAhAAEBAQABAQEAAQEBAAEBAQAAAQAAAQEBAAEB AQABAQEAAQEBAAABAQABAQEAAQEBAAABAQABAQEAAQEBAAEBAQABAQEAFOnwAEqtxwAe4OoB/wEC AAAAAAABAAEAAAABAAAAAQAAAAEAAAABAAAAAQAAAAEAAAABAAAAAQAAAAEAAAABAAAAAQAAAAEA AAABAAAAAQAAAAEAAAABAAAAAQAAAAEAAAD/AAAA/wAAAP8AAAD/AAAA/wAAAAAAAAAAAAAAAAAA AAAAAAAAAAAAAAAAAAAAAAAAAAECAQD8BgMA1SwcAOoZEAABAQEAAAAAAAAAAAAAAAAAAAAAAAAA AAAAAP8AAAAAAAAB/wAAAP4AAAH9AAAA/gD///8A////AAD+AQAE/gXz7Nry5gAAAP4AAAD+AAAA /QAAAP4AAAD/AAAA/wAAAP4AAAAAAAAAAAAAAAACAAAAAAAAAAAAAAAAAAAAAAAAAP8AAAAAAAAA /wAAAP8AAAD+AAAA/gAAAP0AAAD99+b9y/v2/P8EAgQA/v7/AP8A/QD///8AAP//AP8AAAAAAP8A AAD/AAAAAAAAAAAAAAAAAAAAAAAAAAAAAAABAPoJBgDpGxEAAwECAAIDAgACAwIAAgICAAICAgAC AgIAAQICAAEDAgAE/v8A/QQDAKBuSv/nIBcAAgICAAICAgACAgIAAgICAAEBAQACAgIAAgICAAIC AgACAgIAAgICAAICAgACAgIAAgICAAICAgACAgIAAgICAAICAgAU6/IASK/JAB7f6gEAAAAAAQAA AAEAAQAAAAAAAAAAAAAAAAAAAAAAAAAAAAAAAAAAAAAAAAAAAAAAAAAAAAAAAAAAAAAAAAAAAAAA AAAAAAAAAAAAAAAAAAAAAAAAAAAAAAAAAAABAAAAAQAAAAEAAAABAAAAAQAAAAAAAAAAAAEAAAAB AAAAAAAAAAAAAAAAAAAA/wAAAAD//wDsFA3/2yUXAP4DAgAAAAAAAQEBAP8C/QAAAAAAAAAAAAAA /wAAAP8AAAEAAP///gD///8A////AAAAAAAAAP8AAf//AAL9Bf/24f3PAAAA/gAAAP0AAAD9AAAA /gAAAP4AAAD/AAAA/wAAAAAAAAD/AAAAAAAAAAACAAAAAAAAAAAAAAAAAAAAAAAAAAAAAAD/AAAA /wAAAP4AAAD+AAAA/QAAAP0AAAD94sXqxQIABAH//QD/AP3/AAAAAAAAAP8A/wAAAAD//gD///8A /wD+AAAA/wAAAAAAAAH/AAAB/gAAAP8AAAD+AAAAAADcIxcA8A4IiP/+/gD//v8A/wAAAAD//wAA //8A/wAAAAH9/QDyDgkAsFc8/90pHQABAQEAAQEBAAEBAQABAQEAAQEBAAEBAQABAQEAAAAAAAAA AAAAAAAAAAAAAAAAAAAAAAAAAAAAAAAAAAAAAAAAAAAAABTn7gBIq8YAItnmAf8BAgABAAEAAAAA AAAAAAAAAAAAAAAAAAAAAAAAAAAAAAAAAAAAAAAAAAAAAAAAAAAAAAAAAAAAAAAAAAAAAAAAAAAA AAAAAAAAAAAAAAAAAAAAAAAAAAAAAQAAAAAAAAAAAAAAAAAAAAAAAAAAAAD+AP8AAAABAAAAAAAA AAAAAQAAAAAAAAD/AAAAAQAAAP0CAgDaJxgA7BcPAAAAAAABAQEAAAAAAAD/AQAAAP8AAAD/AAAA /gAAAAAAAAH+AAAAAAAAAAAAAAAAAP///wD///8A/v7/AAT/BgHhwerKAAAA/QAAAP0AAAD9AAAA /QAAAP4AAAD+AAAA/wAAAP8AAAAAAAAAAAAAAAACAAAAAAAAAAAAAAD/AAAAAAAAAAAAAAAAAAAA /gAAAP8AAAD+AAAA/gAAAP0AAAD98uP06wL2Bdj8+/4B////AAAAAAAAAP8AAAD+AAAA/wABAQAA AAAAAAAAAAAAAP4AAAAAAAAAAAAAAP8AAAD/AAEBAQDxEAoA2iYYdwD+/wD/AAAA////AP///wD+ AAAAAv3+APEQCyK0VDr/0jQkAAD/AAAAAP8A////AP///wD///8A////AAAAAAAAAAAAAQEBAAEB AQABAQEAAQEBAAEBAQABAQEAAQEBAAEBAQABAQEAFefvAEmpxQAg3OcB/gMCAAAA/wAAAQAAAAEA AAABAAAAAQAAAAEAAAABAAAAAQAAAAEAAAABAAAAAQAAAAEAAAABAAAAAQAAAAEAAAABAAAAAQAA AAEAAAABAAAAAQAAAAEAAAABAAAAAAAAAAAAAAAAAAD/AQAA/wEAAP4A/wAB/wAAAAD/AAAAAAAA AAAA/wAAAAAAAAABAAAAAP//AOQdE//QMh8A+ggFAAEBAQABAQEAAAAAAAEB/wAAAAAAAAD+AAAA AQAAAP8AAQABAAAA/wD/AP0AAAD/AAAA/wAAAP8AAgECAPzuANzx5fXtAAAA/QAAAP0AAAD9AAAA /gAAAP4AAAD/AAAA/gAAAAAAAAAAAAAAAAAAAP8CAAAAAAAAAAAAAAABAAAA/wAAAP8AAAD+AAAA /wAAAP4AAAD9AAAA/QAAAP0AAAD8AAAA/d7G5LgHAwYAAP8AAP39/AD+/v4A///+AP7//wD+//4A AAD/AP7+/QD+/v4A///9AP///gAAAf4AAAAAAAAAAAD5CAUA0TIgAPERC2YD//8AAQEBAAEBAQAD /wAA8BILRLhSOd3bMSMAAwMDAAEBAQAA/wAAAQEBAAICAgABAQEAAwMDAAICAgAAAAAAAQEBAAEB AQABAQEAAQEBAAAAAAD///8A////AP///wAR6O8ARazGAB3g6gH+AAAAAf8AAAEAAQAA/wAAAP8A AAD/AAAA/wAAAP8AAAD/AAAA/wAAAP8AAAD/AAAA/wAAAP8AAAD/AAAA/wAAAP8AAAD/AAAAAAAA AAAAAAAAAAAAAAAAAAAAAAAAAAAAAAAAAAEAAAABAAABAAAAAAEBAAABAAD/AQAA/wAAAP8AAAD/ AAAAAAAAAAD//wAA//8A9wkGANkrGwDxEw0AAAAAAP///wD+/v4A////AP///wD///8A////AP7+ /gD+/v0A/f39AP///wAFBQUA+/v6AP7+/gD/AP0A+/j7AObL7b4AAAD9AAAA/QAAAPwAAAD9AAAA /QAAAP0AAAD+AAAA/wAAAP4AAAD/AAAA/wAAAAECAAAAAAAAAAAAAAAAAAAAAAAAAP8AAAAAAAAA /wAAAP4AAAD/AAAA/QAAAP0AAAD8AAAA/OLI6s/69P7t/f39AAAA/wD///8A////AAAB/gAAAP4A ////AAAB/gAAAP0AAAAAAAD/AAD//wAA/wD9AP///wAAAAAA5hwSAOccE5n+AQEAAf//AAH/AAD2 CwcAvE01u9gvIQAAAAAAAAAAAAAAAAD/AAAAAAAAAP///wABAQEAAAAAAP///wAAAAAA////AP// /wD///8A////AAAAAAABAQEAAQEBABPp8ABGrccAINznAf8BAQACAQEAAAEAAAABAAAAAQAAAAEA AAABAAAAAQAAAAEAAAABAAAAAQAAAAEAAAABAAAAAQAAAAEAAAABAAAAAQAAAAEAAAABAAAAAAAA AAAAAAAAAAAAAAAAAAAAAAAAAAAAAAAAAAAAAAAAAAAAAAAA//7+AAEBAQABAQEAAQEBAAEBAQAB AAEAAQAAAAABAQAD/f4A0zIg/9A2IwD7BgQAAAAAAAAAAAABAQEAAAAAAAAA/wD///0AAAAAAP8A /QD/AP0A///+AP8A/QD6+vgAAwMCAP4A/AD9/f0A/fj97t/F5dQAAAD8AAAA/AAAAPwAAAD9AAAA /QAAAP8AAAD+AAAA/wAAAAAAAAD/AAAAAAAAAAACAAAAAAAAAAAAAAAAAAAAAAAAAAAAAAD/AAAA /wAAAP8AAAD9AAAA/gAAAP0AAAD9AAAA+wAAAP3s3PC8AgEDAP7+/QD///4A///+AP/+/QD/AP8A AAD+AP///wD//wAA///+AP8A/wAAAAAAAQEBAAAA/wAAAAAA+wYEAL5EKwDsFQ3/Af3+APAQCkSz VTn/1DIiAAAAAAAAAAAAAAAAAAAAAAABAQEAAQEBAAEBAQAAAAAA////AAEBAQABAQEAAQEBAAEB AQABAQEAAQEBAAEBAQAAAAAAFObuAEmpxAAi2eUB/wICAP///wAAAAAAAAAAAAAAAAAAAAAAAAAA AAAAAAAAAAAAAAAAAAAAAAAAAAAAAAAAAAAAAAAAAAAAAAAAAAAAAAAAAAAAAAAAAAAAAAAAAAAA AAAAAAAAAAAAAAAAAAAAAAAAAAAAAAAAAAAAAAAAAAD/AAAAAQAAAAD/AAAAAAAAAP8AAAAAAAAA AAAA/wEBAAABAQDkHxT/yzolAPQMCAD///8AAAAAAP///wD///8AAAD/AP7+/gD///8AIGcJdAAA IABJREFU/wD+AP///gAA/wAAAAH+AAMDAwD8/PsA/v7+AP/+/wAGBgYA8Nz1wgAAAPwAAAD9AAAA +wAAAP0AAAD9AAAA/gAAAP0AAAD/AAAA/wAAAP8AAAAAAAAAAAAAAAACAAAAAAAAAAAAAAAAAAAA AAAAAAAAAAAAAAAA/wAAAP4AAAD+AAAA/AAAAPsAAAD7AAAA/AAAAPvm0uzS/Pj97gAAAQD/AP0A ////AP8A/wAA//8A/v/+AAAA/wD///8AAAD/AAAA/gD///4A/v7+AP///gD///8A////APMOCADm GxIA7RUNqrZSNrvXMCEAAAAAAAAAAAAAAAAAAAAAAAEBAAABAAAAAAAAAAAAAAABAQEAAQEBAAEB AQABAQEAAQEBAAEBAQABAQEAAQEBAAAAAAAT6fAASKvFAB3e6QH/AQEAAP//AAEAAAD///8A//// AP///wD///8A////AP///wD///8A////AP///wD///8A////AP///wD///8A////AP///wD///8A ////AP///wD///8A////AP///wD///8A////AP///wD///8A////AP///wAA//8AAAAAAAD//wAA //8A/wD/AP///wD+AP8AA/7/APoIBgDUMiEA7BQNAAAAAAAAAAAA////AAAAAAD/AP8A////AAAA AAAAAf4A///+AP///gD+//4A////AP///wADAgMA/Pz9AAEBAQD79vrv5c/q1wAAAPwAAAD7AAAA /AAAAPsAAAD7AAAA/AAAAP4AAAD+AAAA/wAAAAAAAAAAAAAAAAAAAAAEAAAAAAAAAAAAAAAAAAAA AAAAAP8AAAD/AAAA/wAAAP4AAAD+AAAA/QAAAP0AAAD8AAAA+wAAAPvt3PHn9On21w4LCzv//wEA /wD+AP/+/wD+AP8AAgL/AP///wAAAAAA////AP///wAAAP8AAQAAAAAAAAAAAAAA////APQOCgDF QSoAB/j8VeIkGgACAAAAAAAAAAAAAAAAAAAAAAAAAAAAAQAAAQAAAQEBAAAAAAABAQEAAAAAAAAA AAAAAAAAAAAAAAAAAAAAAAAAAAAAAA7w9QBNpsMAINrlAfkHBQAAAAAAAAAAAAAAAAAAAAAAAAAA AAAAAAAAAAAAAAAAAAAAAAAAAAAAAAAAAAAAAAAAAAAAAAAAAAAAAAAAAAAAAAAAAAAAAAAAAAAA AAAAAAAAAAAAAAAAAAAAAAAAAAAAAAAAAAAAAAAAAAAAAAAAAAAAAAAAAAAAAAAAAAAAAAAAAAD/ //8AAQEBAAAAAAAA/wAA9gcCANExH//PNCEA/QQDAP///wD///8A//8AAAAAAAD//v8A////AP7+ /wD+//8A////AP///wAAAP8A/v7+APv7+AAAAgAA/wD8AAEBAQDv4fLb8d/16QAAAPwAAAD7AAAA +wAAAPwAAAD9AAAA/QAAAP4AAAD+AAAA/wAAAP8AAAD/AAAAAAAAAAACAAAAAAAAAAAAAAD/AAAA AAAAAAAAAAD/AAAA/wAAAP8AAAD9AAAA/gAAAPwAAAD8AAAA+wAAAPoAAAD648bpv/39+/v+//4A AP8AAAD//wAAAP8AAP//AAEAAAAAAf8AAAD/AAAA/wD/AQAA/wAAAAAAAAD///8AAAD/AAAA/wDn GxEA4SQYAAABAAD/AAAAAAAAAAAAAAD/AAAAAf8AAAEBAAAAAQEA/wAAAAAAAAD/AP8AAAEBAAAB AQAAAQAAAAEAAAABAAAAAQAAEOzxAFeWtwAZ4eoB+QcFAAAAAAAAAAAAAAAAAAAAAAAAAAAAAAAA AAAAAAAAAAAAAAAAAAAAAAAAAAAAAAAAAAAAAAAAAAAAAAAAAAAAAAAAAAAAAAAAAAAAAAAAAAAA AAAAAAAAAAAAAAAAAAAAAAAAAAAAAAAAAAAAAAAAAAAAAAAAAAAAAAAAAAAAAAAA/wAAAAAAAAAA AAAAAAAAAP///wD/AgAA2C4f/8JGLQD2DQkAAAABAAD//wAAAAAAAAH+AP///gABAAEA///+AAEA /QAB//4A/wD+AAAAAAD///8A/wAAAAACAAD8/fsA+vr6AAD8APvixOrEAAAA+wAAAPoAAAD6AAAA +wAAAPwAAAD8AAAA/gAAAP0AAAD/AAAA/wAAAP8AAAAAAAAAAAAAAP8EAAAAAAAAAAAAAAAAAAAA AAAAAAAAAAAAAAAA/wAAAP8AAAD/AAAA/QAAAP0AAAD7AAAA/AAAAPsAAAD769fw4h/qFsoBGgA7 CAQGAAD//wD//fsACQoJAPn5+wD/A/4A/wEFAP4C/wABAv0AAwADAAAA/wAB/wMAAP8DAAD//gAD AQUAAQABAAH//wACAAAAAQECAAEAAAAB/wAAAwEBAAAA/wAB//8AAAABAAEBAQAA//8AAQAAAAEA AAAAAQEAAAAAAAAAAAAP7fIAW5G1Iw/v9N78AwIAAAAAAAAAAAAAAAAAAAAAAAAAAAAAAAAAAAAA AAAAAAAAAAAAAAAAAAAAAAAAAAAAAAAAAAAAAAAAAAAAAAAAAAAAAAAAAAAAAAAAAAAAAAAAAAAA AAAAAAAAAAAAAAAAAAAAAAAAAAAAAAAAAAAAAAAAAAAAAAAAAAAAAAAAAAAAAAAAAQAAAP///wAA AAAA/wAAAP8BAQDYLB7/vkw0APYOBgAB//8AAQD9AAAC/gD//v4A/wD+AP4B/AD/AP4AAwD6AAP/ +QD8/gAA/P//AP0AAQD6AQAA/QH+APwA+gD///wAAgEBAPHa9c/v2/TlAAAA+wAAAPsAAAD7AAAA /AAAAPsAAAD9AAAA/QAAAP8AAAD/AAAA/wAAAAAAAAAAAAAAAAAAAAACAAAAAAAAAAAAAAAAAAAA /wAAAAAAAAAAAAAA/wAAAP8AAAD+AAAA/QAAAPwAAAD8AAAA+gAAAPsAAAD6AAAA+syX2qwFAwT+ +fb4AP/8+wACAQAA+fr2AAAA/QD+Af0A/gH+AP4A/QD9AP4A/AD/AP///QAAAf4A/wH+AAAAAAD/ AP4A///9AAD//wD///4A/wD/AAH/AAACAP8A/wAAAAH/AAAB/wAAAQAAAAEAAAAA/wAAAQAAAAAA AAABAAEAAQABABHp8QBIo8AACPH13voCAQD///8A////AP///wD///8A////AP///wD///8A//// AP///wD///8A////AP///wD///8A////AP///wD///8A////AP///wD///8A////AP///wD///8A ////AP///wD///8A////AP///wD///8A////AP///wD///8A////AP///wD///8A////AP8BAQAA AgIA/AIBAN4pHP+9UDYA9Q8IAP/+/wAAAP0AAAH/AP///wAAAf8AAAD9AAAA/wD+/vwA///8AAH+ /AABAP4A//7/AP4AAAD8Af8A+wL7APv++gD5+vYACwUK/86l2LMAAAD7AAAA+gAAAPoAAAD7AAAA +gAAAPwAAAD8AAAA/QAAAP4AAAD/AAAA/wAAAAAAAAAAAAAA/wAAAAACAAAAAAAAAAAAAAAAAAAA AAAAAAAAAAD/AAAA/wAAAP4AAAD+AAAA/QAAAP0AAAD8AAAA+wAAAPoAAAD6AAAA+gD9APjivuyn Av8DAP38/AD2+fYA+v77APwB+gD+//4A/v/+AAD+AAAC/AEAA/4CAP//AQD///4A///9AP8A/gAA //4AAAAAAAAAAAAAAP8AAP//AAAA/gD///4AAP8AAAAAAAAAAAAAAAAAAAAAAAAAAAAAAAAAAAAA AAAAAAAADe7zAEepwwAm1OIBAgAAAAEAAAAAAAAAAAAAAAAAAAAAAAAAAAAAAAAAAAAAAAAAAAAA AAAAAAAAAAAAAAAAAAAAAAAAAAAAAAAAAAAAAAAAAAAAAAAAAAAAAAAAAAAAAAAAAAAAAAAAAAAA AAAAAAAAAAAAAAAAAAAAAAAAAAAAAAAAAAAAAAAAAAAAAAAAAAAAAAAAAAAAAAAAAAAAAAH+/wD/ AP8A3Soc/7dTOADxEAsA//7/AAEBAAD//wAA///+AP7//gD///4A/v7/AP///QD///8A/v8CAP3/ AAD8//8A/AD8AP3/+wAA/voAAf78AAP/AAALBQoA27zirf79//kAAAD7AAAA+gAAAPoAAAD6AAAA +wAAAPwAAAD9AAAA/QAAAP4AAAD+AAAA/wAAAP8AAAAAAAAAAAAAAAACAAAAAAAAAAAAAAAAAAAA AAAAAP8AAAAAAAAAAAAAAP8AAAD+AAAA/gAAAPwAAAD7AAAA+wAAAPoAAAD6AAAA+gAAAPndvuXO 9+n72wEAAwD8//wA/AH6APsB/AD9APsA//39AAD9AAAB/QEAAfsAAAD//gD///4AAAD/AP///wD/ AP8A/v/+AP//AAAAAAAAAAAAAP8A/wAAAAAAAAD9AAAA/wAAAAEAAAAAAAAAAAAAAAAAAAAAAAAA AAAP7PIAWZGziR3b5gH3CQYAAAAAAAAAAAAAAAAAAAAAAAAAAAAAAAAAAAAAAAAAAAAAAAAAAAAA AAAAAAAAAAAAAAAAAAAAAAAAAAAAAAAAAAAAAAAAAAAAAAAAAAAAAAAAAAAAAAAAAAAAAAAAAAAA AAAAAAAAAAAAAAAAAAAAAAAAAAAAAAAAAAAAAAAAAAAAAAAAAAAAAAAAAAAAAAAAAv//AAABAADZ LR//ulM5APISDQAAAAAA/wAAAP//AAAAAP8A////AP///gD+/v0A/v79AP7+/gD/AP0A/f/+APr/ AAD6//0A/f/+AP/++gAA/vkA//37AAP+AAD05ffd38Po0wAAAPoAAAD5AAAA+gAAAPoAAAD6AAAA +wAAAPsAAAD8AAAA/gAAAP4AAAD/AAAAAAAAAAAAAAD/AAAAAAAAAAACAAAAAAAAAAAAAAAAAAAA AAAAAAAAAAAAAAAA/wAAAP8AAAD/AAAA/gAAAP0AAAD9AAAA+gAAAPoAAAD6AAAA+QAAAPr++/73 3cDluv/8AvYICAgA9/v3AP0A+wD8APwA/gD9AAD+/gAC/QEAAf0AAAD+/wD///8A/v7/AP///wD+ //4A///9AAAB/QD///8A////AP/+/wAAAAAA////AAAAAAAAAQAAAAAAAAAAAAAAAAAAAAAAAA3v 9ABYk7SJEO3zeP8BAQABAQEAAQEBAAEBAQABAQEAAQEBAAEBAQABAQEAAQEBAAEBAQABAQEAAQEB AAEBAQABAQEAAQEBAAEBAQABAQEAAQEBAAEBAQABAQEAAQEBAAEBAQABAQEAAQEBAAEBAQABAQEA AQEBAAEBAQABAQEAAQEBAAEBAQABAQEAAQEBAAEBAQABAQEAAQEBAAEBAQAB/wAA/gICAOIkGf+8 UTgA9A8LAP///gD///4AAAD/AP8A/QAAAP8A/v7+AP///QD+/v4A///+AP7+/gD///4A/P//APr/ /wD8AP8A/P/7AP7/+QAA//sAAv39APvy+vbcvOXA/fv++AAAAPoAAAD6AAAA+QAAAPoAAAD6AAAA +gAAAP0AAAD9AAAA/gAAAP8AAAD/AAAA/wAAAAAAAAAAAAAAAAAAAAADAAAAAAAAAAAAAAAAAAAA AAAAAAAAAAAAAAAAAQAAAAAAAAABAAAAAQAAAAEAAAACAAAAAwAAAAQAAAADAAAABAAAAAQAAAAE 9Or29RIeDg4EEQEgAgUCAAECAgABAAAAAgADAAX/BwAE/wYAAgABAP8DAAAAAv8AAQAAAAICAgAB AAEAAQECAAIAAgABAgAAAQABAAEAAQABAQAAAQEBAAIAAQABAQEAAAAAAAEBAQAAAAAAEevyAEml wAAU5u49/wEAAAAAAAAAAAAAAAAAAAAAAAAAAAAAAAAAAAAAAAAAAAAAAAAAAAAAAAAAAAAAAAAA AAAAAAAAAAAAAAAAAAAAAAAAAAAAAAAAAAAAAAAAAAAAAAAAAAAAAAAAAAAAAAAAAAAAAAAAAAAA AAAAAAAAAAAAAAAAAAAAAAAAAAAAAAAAAAAAAAAAAAAAAAAAAAAAAAH+/wD1DQgA1DIi/7tQOAD1 DwsA/gD/AAABAAAAAP4A/wAAAP8A/gD///4A/v/+AP3+/gD+//0A///9AP7//QD+/v8A////APz+ /QD9AP4A/v/6AP79+wD//foABPz/AOnT8Mrcv+jLAAAA+AAAAPYAAAD2AAAA9QAAAPYAAAD3AAAA +AAAAPoAAAD7AAAA/QAAAP4AAAD+AAAAAAAAAP8AAAAAAAAAAAAAAAACAAAAAAAAAAAAAAAAAAAA AAAAAAAAAAAAAAAAAAAAAAAAAAD/AAAA/wAAAP4AAAD9AAAA+wAAAPoAAAD6AAAA+QAAAPkAAAD6 AAAA+c2m2Ljy5fThBAIFAP38/QD+//8AAwIDAAD//wD8/PwA/v79AP///wD//v4A////AP7+/gD/ AP8A////AAAA/wD///4A/wD+AAAB/wAAAP8AAAD/AP8A/wD+/v4A////AP///wAP7PEARarDACbU 4gEBAAAAAAAAAAAAAAAAAAAAAAAAAAAAAAAAAAAAAAAAAAAAAAAAAAAAAAAAAAAAAAAAAAAAAAAA AAAAAAAAAAAAAAAAAAAAAAAAAAAAAAAAAAAAAAAAAAAAAAAAAAAAAAAAAAAAAAAAAAAAAAAAAAAA AAAAAAAAAAAAAAAAAAAAAAAAAAAAAAAAAAAAAAAAAAAA//8AAP//AOwZEf/PPSv/wUw1APUQCwD/ AP8A/wD/AP///QD///4A/v/8AP7+/AD+/v4A/v79AP///gAAAP4A/gD9AP///gD+/v0A+/78APwB /wD8/fwA+/v6AAP//gD89fkA+er749Ou4r4AAAD6AAAA+QAAAPoAAAD5AAAA+QAAAPoAAAD6AAAA +wAAAP0AAAD+AAAA/wAAAP8AAAAAAAAAAAAAAAAAAAAAAAAAAAAAAAADAAAAAAAAAAAAAAAAAAAA AAAAAAAAAAAAAAAAAQAAAAAAAAABAAAAAAAAAAAAAAABAAAAAgAAAAMAAAACAAAABAAAAAMAAAAE AAAABP/+/wLs1/HaHDEWMQIFAQf+/P8AAQADAAH/AwAAAAAAAAACAAED/wAAAAAAAAABAAICAwAB AAEAAQABAAIBAQAAAAAAAAABAAEAAQACAgEAAQACAP/+AAAAAAAAAAAAABDt8gBck7UjFubucPsF AwAAAAAAAAAAAAAAAAAAAAAAAAAAAAAAAAAAAAAAAAAAAAAAAAAAAAAAAAAAAAAAAAAAAAAAAAAA AAAAAAAAAAAAAAAAAAAAAAAAAAAAAAAAAAAAAAAAAAAAAAAAAAAAAAAAAAAAAAAAAAAAAAAAAAAA AAAAAAAAAAAAAAAAAAAAAAAAAAAAAAAAAAAAAAT8/QD/AQEA3i0f/7NcQADeKBsA+wgGAP///wAA AP8A/gD9AP7+/gD///0A/v/9AP///wD+/vwA/v//AP8B/QD9//0A/v79AP7+/QD///4A/gEAAPr9 /QAEBAEAAPz7APv4+AAI/gfzvZPSoPv4/fQAAAD4AAAA9gAAAPUAAAD1AAAA9wAAAPYAAAD4AAAA +QAAAPsAAAD8AAAA/gAAAP8AAAD/AAAAAAAAAAAAAAAAAAAAAAAAAAAEAAAAAAAAAAAAAAAAAAAA AAAAAAAAAAAAAAAAAAAAAAAAAAD/AAAA/wAAAP8AAAD9AAAA/QAAAPoAAAAFAAAA+AAAAAYAAAD4 AAAABgAAAAb58/vz17Hgqy1UJV8BBAEE/fr6APwFBQADBAMA/AD4AAEABQAB/wEAAQAAAP7+/AAB AP8AAAEAAP4AAgACAgIAAAD/AP8A/wD+/v4AAQEAAAIAAgD//wAABvf6ADy2zQAI8vbe/v//AAAA AAAAAAAAAAAAAAAAAAAAAAAAAAAAAAAAAAAAAAAAAAAAAAAAAAAAAAAAAAAAAAEAAAD/AAAAAAAA AAAAAAAAAAAAAAAAAAAAAAAAAAAAAAAAAAAAAAAAAAAAAAAAAAAAAAAAAAAAAQAAAP8AAAAAAAAA AAAAAAAAAAAAAAAAAAAAAAAAAAAAAAAA/QQCAOgcFv/eKh0AzTspAPYOCgD///8A//7+AP///wAA AP8A////AP///QD///8A///+AP39/QD/AP8A/v/9AP3+/gD+//0A/v7+AP7+/gD+/v0A/wH/APn6 +AD8APwABwABAPn3/vzOs+Cx+fT79AAAAPoAAAD5AAAA+AAAAPgAAAD5AAAA+AAAAPoAAAD6AAAA /QAAAP0AAAD/AAAA/wAAAP8AAAAAAAAAAAAAAAAAAAAAAAAAAAAAAAAEAAAAAAAAAAAAAAAAAAAA AAAAAAAAAAAAAAAAAAAAAAAAAAD/AAAA/wAAAP4AAAD+AAAA/AAAAAMAAAD6AAAA+gAAAPgAAAAG AAAABgAAAAYAAAAF5c/r3BckFMMdMxhB/QP/AAAD/gD7A/oAAf4BAAL9AQACAgIAAAAAAAEAAgAB AAIAAAH9AP4AAgD///8AAgIAAAEBAQAAAP8AAQH/AAAAAAAB/wEA+wUDAM44JgAI9vr/GOTsARDu 9AD8BAMA/wIBAAAAAAAAAAAAAAAAAAAAAAAAAAAAAAAAAAAAAAAAAAAAAAAAAAAAAAABAAAAAAAA AAAAAAAAAAAAAAAAAAAAAAAAAAAAAAAAAAAAAAAAAAAAAAAAAAAAAAAAAAAAAAAAAAEAAAAAAAAA AAAAAAAAAAAB//8AAf7/AAAAAADsGRH/3SodANY0JADvFhAA+AQCAAD//wD+/v4AAAAAAP///wD/ AP8A/f7+AAAA/gD+/v0A/v79AP///gD/APwA/v38AP7//gD9/v0A/v79AP39/QD///4A+/78AAQC AgD59PgA/v/+AO7Z9Mfj0eveAAAA+gAAAPkAAAD4AAAA+AAAAPgAAAD4AAAA+gAAAPoAAAD8AAAA /AAAAP4AAAD+AAAA/wAAAP8AAAAAAAAAAAAAAAAAAAAAAAAAAAAAAAAEAAAAAAAAAAAAAAAAAAAA AAAAAAAAAAAAAAAA/wAAAAAAAAABAAAA/wAAAP8AAAD+AAAA/QAAAPwAAAD7AAAA+QAAAAUAAAD4 AAAABgAAAAYAAAAFAAAABM6r174DBQMLFC0QNv8E/wAA//sAAwIFAAL/AwAD/QMAAAD/AP0BAgAA AAAA/wEEAAMAAwABAf8AAAAAAAEBAQAAAP8AAQEAAAEAAgABAQEA/QIBAOMiGAC7DQkAFujw/y3K 2wAd4OoBCfX4AP8BAQAAAQEAAAAAAAAAAAAAAAAAAAAAAAAAAAAAAAAAAAAAAAAAAAAAAAAAAAAA AAAAAAAAAAAAAAAAAAAAAAAAAAAAAAAAAAAAAAAAAAAAAAAAAAAAAAAAAAAAAAAAAAAAAAAAAAAA AP//AP8BAQD/AQAA8RYPqtsuIVXdKhwA6BwUAPoJBgAAAAAA//39AP///wD///8A////AP///wAA AQAA/v7+AAAA/gD+/f0A/v/+AP7//gD/AP8A/f7+AP3+/AD+//wA/f39AP7+/QD+/v4AAAAAAAH/ /QAKCAcA48zlzs+r28IAAAD7AAAA+QAAAPgAAAD4AAAA+AAAAPgAAAD5AAAA+QAAAPsAAAD8AAAA /QAAAP4AAAD/AAAA/wAAAAAAAAD/AAAAAAAAAAAAAAAAAAAAAAAAAAABAAAAAAAAAAAAAAAAAAAA AAAAAAAAAAAAAAAAAAAAAAAAAAABAAAAAAAAAAIAAAACAAAAAwAAAAUAAAAIAAAACAAAAAoAAAAN AAAADQAAAA4AAAANAAAADgAAAAsAAAAJMWAoUxYvEy78BPwABQUHAAv7DQADAAMAAwMDAAMDBQAD AgMAAgAEAAYDBwACAgIAAQECAAMBBAADAwMAAAEDAAQABAABAAIAAgIBAAAAAAABAQEAAgICAAn0 +AAV6/IAP7TLABni6wEH+fsA/QMDAP4CAQAA/wAAAAD/AAAAAAAAAAAAAAABAAAA/wAAAAAAAAAA AAAAAAAAAAAAAAAAAAAAAAAAAAAAAAAAAAAAAAAAAAAAAAEBAAAAAAAAAAAAAAAAAAH//wAD/v8A Af39AOgdFf/YMiIA1DQkAPMQDAD9AQAAAQEBAP///wAAAAAA/Pz8AAAAAAD///8A/v7/AAAA/wAA AP8A+v74AP7+/AD///8A/f/9AP39/QAAAf4A/P78AP3++wD8/vsA/f39AP39/AD+/v4A/AD7APn6 9wDv2u/Vyp3WswAAAPcAAAD3AAAA9QAAAPIAAADzAAAA8gAAAPMAAADzAAAA9gAAAPgAAAD4AAAA +wAAAP0AAAD+AAAA/gAAAAAAAAD/AAAAAAAAAAAAAAAAAAAAAAAAAAABAAAAAAAAAAAAAAAAAAAA AAAAAAAAAAAAAAAAAAAAAAAAAAAAAAAAAQAAAAEAAAACAAAAAwAAAAMAAAAGAAAACAAAAAkAAAAK AAAADQAAAA0AAAAOAAAADgAAAAwAAAALAAAACThsL1QNJAsq/gEAAAsEDgAC/wMABQIEAAUBBgAF AgYAAv4DAAYFBQACAAIAAQMBAAADAQACAwEAAgEBAAMBBwADAAUAAQEBAAEBAQACAQEAAP8CAAEC AQACAQIACPT3ABfm7gAf2+cAGeDqABPq8AEG9/oABfz+AAH+/gAAAAAAAAAAAAAAAAAAAAAAAAAA AAAAAAAAAAAAAAAAAAAAAAAAAAAAAAAAAAEAAAD/AAAAAP//AP8CAgD8BgQA9woHRPYMCLvnIRcA 3ykdAOoaEgD2DQkA/QQDAP///gAAAAAA//8AAP///wABAAAA/P38AAAA/wD///8A////AP7//gAA //4A//z4AP8A/gD9//4A/P7+APwA/QD8//4A+vz6AP4B/QD/AP0A+/v5AP3++wAEkBonAAAgAElE QVT+/fsA/vv+APHe9dnDmMywAAAA+QAAAPcAAAD1AAAA9AAAAPIAAADyAAAA8wAAAPMAAAD2AAAA 9wAAAPgAAAD6AAAA/QAAAP0AAAD+AAAA/wAAAP8AAAAAAAAAAAAAAAAAAAAAAAAAAAAAAAABAAAA AAAAAAAAAAAAAAAAAAAAAAAAAAAAAAAAAAAAAAAAAAAAAAAAAQAAAAAAAAACAAAAAQAAAAMAAAAG AAAABQAAAAkAAAAJAAAADAAAAAwAAAAOAAAADgAAAAwAAAAMAAAACgUJBA0zXy5ODiQMKv4IAQAB /gAABf8HAAwCDQAGAQcAAv0CAAgEBgABAwAAAAT/AP8E/wAABf0AAQMCAAb/CgAD/gcAAQEBAAEC AgACAQIAAQECAAEBAgABAAEAAAECAAEAAAAE/f0ADPT6ABPn7wAW6O4AEevzAA/s8QAQ7fOrBPr8 VgX6/AAD/P0AAf7/AAIA/wAAAAAA/wEBAP//AAD+BAIA/gMCAP0DAgD3DAn/9A4KAPAVDgDyEQwA 6B8WAPMOCQDwFQ8A/QMCAAAAAAD/AAAA/gABAAAA/gD///8A/v/+AAD//wD///8AAAH/AP///gD9 /f4A///9AP3+/QAB/v0ABf38AAD/+wD8//8A+P/9APoA/wD6//0A+P36APz/+wD/AP0A/f35APr7 9wAA/fsA89v32NCk2rf49vn0AAAA+AAAAPYAAAD0AAAA9AAAAPIAAADyAAAA9AAAAPQAAAD3AAAA 9wAAAPsAAAD6AAAA/QAAAP8AAAD+AAAAAAAAAP8AAAAAAAAAAAAAAAAAAAAAAAAAAAAAAAABAAAA AAAAAAAAAAAAAAAAAAAAAAAAAAAAAAAAAAAAAAAAAAAAAAAAAQAAAAAAAAABAAAAAgAAAAEAAAAE AAAABQAAAAcAAAAJAAAACgAAAAwAAAAMAAAADQAAAA4AAAAMAAAACwAAAAoAAAAINWMvTQ8rCy4A AP4ABgIIAAgCCQAHAAkABAEGAAQDBQABAgEAAAMAAAEDAAABBAIAAAMAAAf/BwAD/wQAAQEDAAIC AgACAgIAAQEDAAEAAQABAgEAAP8CAAEBAQABAQIAAQEBAAEBAQAD/P4AA/3+AAX7/QAD/f4ACff5 AP0DAgAR7PIAEOzyAAX7/QAC/f4A/wEBAPUNCQD4CwcA7xMOAP0FAwD+AwIA+QgGAP0EAwD9AQAA /gQDAP///wAAAAAA////AAAAAAD/AAAA/gD/AP///wD///8A///+AP///wAAAf4A////AP7+/gD+ /vwA////AP39/QAA//0AA/7/AAH+/gD7//4A+gD8APj++gD9APwA+v/7AP8A/QD5+fcA+Pj1AAYG AwDr1uzUzJzZtwAAAPoAAAD4AAAA9gAAAPUAAAD0AAAA8gAAAPMAAAD0AAAA9AAAAPYAAAD3AAAA +QAAAPsAAAD8AAAA/wAAAP4AAAD/AAAAAAAAAP8AAAAAAAAAAAAAAAAAAAAAAAAAAAAAAAABAAAA AAAAAAAAAAAAAAAAAAAAAAAAAAAAAAAAAAAAAAAAAAAAAAAAAAAAAAEAAAAAAAAAAQAAAAIAAAAD AAAABAAAAAUAAAAIAAAACQAAAAoAAAAMAAAADQAAAAwAAAANAAAADAAAAAsAAAAJAAAACDJcJkQa MBM2AwQHAAMAAwADAwgAAwEEAAIBAwABAgQAAgIDAAIEBQACAgMAAAIBAAcABAAD/wIAAQICAAIB AwABAQEAAQEBAAICBAABAQEAAQADAAEBAQABAQEAAQECAAAAAAADAAEAAAAAAAAAAAABAQEAAAAA AAAAAAAAAAAAAAAAAAAAAAAAAAAAAAAAAAAAAAAAAAAAAAAAAAAAAAAAAAAAAAAAAAAAAAAAAAAA ////AAAAAAAAAAAA////AP///wD+AQAA////AP8A/wD//v4AAAD/AP4A/QAA/wAA////AP///AD+ /v8A/v7+AP7+/AD+//4AAv4CAP7//wD7//0A+v/5APz++gD8APkA/v78APz8+gAC//0A/v39AOLN 583Qp9u+AAAA+wAAAPgAAAD3AAAA9QAAAPQAAADzAAAA9AAAAPMAAAD0AAAA9gAAAPcAAAD4AAAA +wAAAPwAAAD9AAAA/gAAAP8AAAAAAAAA/wAAAAAAAAAAAAAAAAAAAAAAAAAAAAAAAAAAAAADAAAA AAAAAAAAAAAAAAAAAAAAAAAAAAAAAAAAAAAAAAAAAAAAAAAAAAAAAAEAAAAAAAAAAQAAAP8AAAAB AAAAAAAAAAAAAAAAAAAAAAAAAAIAAAABAAAAAQAAAAIAAAABAAAAAQAAAAIAAAABAAAAAefS7eIJ Cwb+DhMGGgMFAwP/Av0A/QH8APwB/QD8Af0A/gD/AP8AAgD+AAEAAf0BAAAAAAD///4A////AP8A /gD/AP8A/wD+AP8A/wABAgAA////AP8A/gD/Af8A/wD/AAAB/wD///4A/gD/AP8BAAD+AP8A/gD/ AP8BAAD/AP8A/wD/AP8A/wD/AP8A/wD/AP8A/wD/AP8A/wD/AP8A/wD/AP8A/wD/AP8A/wD+//4A /wD/AP7//gD9//4A/gD/AP8A/wD/AP4A/v78AP7//gD+//wA/gD+AP7+/gD/AP0A/P37AP3+/QD+ //wA/P78AP7+/AD9//8A+f8BAPn/AAD6//oA/P36APv/+QD9/fkABAL/APz39wD59Pn66c7ux8+q 2sQAAAD7AAAA+QAAAPgAAAD3AAAA9QAAAPUAAAD2AAAA9QAAAPYAAAD4AAAA9wAAAPoAAAD7AAAA /QAAAP4AAAD+AAAAAAAAAAAAAAAAAAAAAAAAAAAAAAAAAAAAAAAAAAAAAAAAAAAAAAAAAAADAAAA AAAAAAAAAAAAAAAAAAAAAAAAAAAAAAAAAAAAAAAAAAAAAAAAAAAAAAAAAAAAAAAAAAAAAAEAAAAB AAAA/wAAAAEAAAABAAAAAQAAAAAAAAAAAAAAAQAAAAEAAAABAAAAAgAAAAEAAAAAAAAAAgAAAAHp 2O/m8+j35BMdDh0DCAIJ+f/5AP8E/wD+Af4A/wD/AAAAAAAD/gAAAP/+AAMAAQAAAP0A/wAAAAAA /gAAAf8AAP8AAAAA/wABAQEAAAH/AP8A/wAAAP8AAAD+AAAA/gAA/wAA/wD/AAAA/gD/AP4AAAH/ AP///gAAAf8AAP//AAAA/wAAAP8AAAD/AAAA/wAAAP8AAAD/AAAA/wAAAP8AAAD/AAAB/wD/AP4A //7+AAAB/wD///4A/wD/AP8A/gD/AP4A/f/8AP8A/gD///wA//7/AP8A/AD///4A/v79AP///QD+ //0A/v79AP79/AD9//8A+gD+APoA+wD9//gA/f73AP7++QAA+/oA+vb4AAL2Au/Pqtmz2sLj1wAA APoAAAD5AAAA+AAAAPYAAAD2AAAA9QAAAPQAAAD1AAAA9QAAAPYAAAD4AAAA+gAAAPsAAAD8AAAA /QAAAP8AAAD/AAAA/wAAAP8AAAAAAAAAAAAAAAAAAAAAAAAAAAAAAAAAAAAAAAAAAAAAAAADAAAA AAAAAAAAAAAAAAAAAAAAAAAAAAAAAAAAAAAAAAAAAAAAAAAAAAAAAAAAAAAAAAAAAAAAAAAAAAAA AAAAAQAAAAAAAAAAAAAAAAAAAAEAAAABAAAAAAAAAAEAAAABAAAAAQAAAAEAAAACAAAAAQAAAAEA AAAB9Oz39eDM6dUTIxEYAgkAEQIFAgD/APwAAQEAAAMA/wACAQAAAv/+AAIBAAABAP8AAAAAAAEB AAAAAP8AAQEBAAAA/wACAQEAAP8AAAEBAAABAf8AAAD/AAD//wAAAAAAAQEAAAD//gABAQEA//// AAAB/wABAQIAAAH+AAAB/wAAAQEAAAH+AAABAAAAAQAAAAH/AAABAAAAAQAAAAH/AAAAAAD///4A /v/+AAAAAQD/AP4AAAD+AP//AAD+AP0A///9AAAA/wD+/v4AAP/+AP8A/wAAAf4A/f78AP///QD/ //0A/v78AP8A/QD+AP0A+gH7AP0B+QD+APsA//75AAH8/AAB/QAA9eX34L2SzK3x6PXuAAAA+wAA APkAAAD4AAAA9wAAAPYAAAD1AAAA9QAAAPUAAAD1AAAA9gAAAPgAAAD5AAAA+gAAAPwAAAD9AAAA /wAAAP4AAAD/AAAA/wAAAAAAAAAAAAAAAAAAAAAAAAAAAAAAAAAAAAAAAAAAAAAAAAAAAAADAAAA AAAAAAAAAAAAAAAAAAAAAAAAAAAAAAAAAAAAAAAAAAAAAAAAAAAAAAAAAAAAAAAAAQAAAAAAAAAA AAAAAAAAAAAAAAAAAAAAAAAAAAAAAAD/AAAAAQAAAAAAAAAAAAAAAAAAAAAAAAAAAAAAAQAAAAEA AAABAAAAAf78/v7iyufZExcS/gUOAxQABP4GAf/9AAD9+wAB//wAAf/9AP7//wD9//8A/f/+AP7/ /gD/Af4A/v//AP8A/gD9/v4A/f/8AP3+/QD9//4A/v/+AP4A/wD//v4A/v/+AP8A/gD/AP8AAAH+ AP8A/gD+//0A/v/9AP7//QD+//0A/v/9AP7//QD/AP8A/f78AP7//gD9/vwA/f78AP3+/QD9//0A AAD+AP7//gD/AP0A/f/9AP3+/QD///wA/f/8APz+/gD9//wA/f/+APz++wD8/fsA+fz5AP3+/QD9 //0A/v/9APv8+gD5/PoA/AH6APv99gD+/fkAAfz8APnx+fXjyOfLx6PVvv78/vkAAAD6AAAA+gAA APgAAAD3AAAA9QAAAPQAAAD0AAAA9AAAAPUAAAD2AAAA+AAAAPgAAAD6AAAA/AAAAP0AAAD+AAAA /gAAAP8AAAAAAAAAAQAAAAAAAAAAAAAAAAAAAAAAAAAAAAAAAAAAAAAAAAAAAAAAAAAAAAADAAAA AAAAAAAAAAAAAAAAAAAAAAAAAAAAAAAAAAAAAAAAAAAAAAAAAAAAAAAAAAAAAAAAAAAAAAEAAAAA AAAAAAAAAAEAAAAAAAAAAAAAAAAAAAAAAAAAAAAAAAAAAAABAAAAAAAAAAAAAAABAAAAAAAAAAAA AAAAAAAAAQAAAAEAAAAB5tPq5vPl9uQMDwgKCg0GEwIA/wABAAAABQMDAP8BAgD+AQAAAAAAAAAB /wAAAP8A/wH/AAAA/gD/AP8A/wH/AAAB/gAAAAAAAAD/AAD//gAB/wEA/wD/AAAA/wAAAP8AAAD/ AP//AAD+/v4A////AP///wD///4A////AP///wD///8A////AAAA/wD///4AAAD/AP///gAA//8A ////AP///gD+/v4A//7+AAAA/gD///8A/QD7AP///gD+//wA/v7+AP8A/AD///wAAQH/AP8A/gD+ /vwA/P38AP3+/AD///0A/v/5AAD++wD/+fwA8N7z3Ney377cxuXZAAAA+wAAAPsAAAD5AAAA+AAA APYAAAD1AAAA9QAAAPUAAAD1AAAA9gAAAPcAAAD3AAAA+QAAAPoAAAD8AAAA/QAAAP4AAAD/AAAA /wAAAAAAAAAAAAAA/wAAAAAAAAAAAAAAAAAAAAAAAAAAAAAAAAAAAAAAAAAAAAAAAAAAAAABAAAA AAAAAAAAAAAAAAAAAAAAAAAAAAAAAAAAAAAAAAAAAAAAAAAAAAAAAAAAAAAAAAAAAAAAAAAAAAAB AAAAAAAAAAEAAAABAAAAAgAAAAMAAAAFAAAABQAAAAYAAAAJAAAACQAAAAsAAAAKAAAACwAAAAwA AAALAAAACQAAAAkAAAAIAAAABwAAAAUCBAEHHTEXITJPJUYJDQcK+vz6AP8BBQACBQcAAQECAAIC AQACAQQAAgICAAEBAgACAgIAAQEBAAEBBAADAwIAAQEBAAAAAAAD/gYAAQABAAEBAQABAQEAAQEB AAEBAQAAAAAAAAAAAAAAAAAAAAAAAAAAAAAAAAABAQEAAAAAAP///wD///8AAAAAAAAAAAAAAAAA ////AAAAAAD///8A/v7+AAAAAAD9AP0A/QD7AAAA/wD+/v4A///+AP7+/gAAAP4A+vr6AAIBAgAA Af4A////APz9/AD+/v0A/fr2APz3/PbVteC74s7p4v78//oAAAD7AAAA+wAAAPkAAAD4AAAA9wAA APcAAAD1AAAA9AAAAPUAAAD2AAAA9QAAAPcAAAD3AAAA+gAAAPsAAAD7AAAA/QAAAP4AAAD/AAAA /wAAAAAAAAD/AAAAAAAAAAAAAAAAAAAAAAAAAAAAAAAAAAAAAAAAAAAAAAAAAAAAAAAAAAABAAAA AAAAAAAAAAAAAAAAAAAAAAAAAAAAAAAAAAAAAAAAAAAAAAAAAAAAAAAAAAAAAAAAAAAAAAAAAAAA AAAAAQAAAAAAAAABAAAAAgAAAAEAAAADAAAABQAAAAUAAAAHAAAACAAAAAkAAAAKAAAACgAAAAwA AAALAAAACgAAAAoAAAAJAAAABwAAAAcAAAAGAAAABAAAAAQwUSY5IjYcM/8FAAX/AgEAAQEBAAIC AQADAwUAAQECAAICAwACAQMAAQEBAAEBAgACAgEAAQECAAEBAwAB/gUAAQEAAAEBAQABAQEAAQEB AAAAAAABAQEAAAAAAAAAAAAAAAAAAAAAAAAAAAABAQEAAAAAAP///wAAAAAA////AAAAAAD/AP8A AP8AAP///wAAAAAA/v/+AP/+/wAAAf0A/gD8AP7+/gD///8A///+AP7+/gD///8A/P38AAEC/wAC AQEA/v79APn6+QD79/v76s/szs2t2MkAAAD9AAAA/AAAAPwAAAD6AAAA+QAAAPkAAAD3AAAA9gAA APYAAAD1AAAA9AAAAPYAAAD2AAAA9wAAAPgAAAD5AAAA+wAAAPsAAAD9AAAA/wAAAP4AAAD/AAAA AAAAAP8AAAAAAAAAAAAAAAAAAAAAAAAAAAAAAAAAAAAAAAAAAAAAAAAAAAAAAAAAAAAAAAABAAAA AAAAAAAAAAAAAAAAAAAAAAAAAAAAAAAAAAAAAAAAAAAAAAAAAAAAAAAAAAAAAAAAAAAAAAAAAAAA AAAAAAAAAAEAAAAAAAAAAQAAAAEAAAACAAAABAAAAAQAAAAFAAAABwAAAAgAAAAIAAAACgAAAAoA AAALAAAACwAAAAoAAAAKAAAACAAAAAgAAAAHAAAABgAAAAQAAAAFDBULDShGIDMPHwofChEKEwIC AgACAgIAAgIEAAEBAgAEAwUAAQEBAAEBAQABAQMAAgEBAAABAwAC/wQAAAACAAIBAQAAAQAAAQEB AAAAAQACAgEAAP8AAAAAAAAAAAAAAAAAAAAAAAAAAQAAAQABAP8A/wAA/wAA/wD/AAD/AAD/AP8A AAAAAP7+/wAAAP8A////AP///wD/Af0A/v/7AP///wD//v4A/v/+AP7//gD/AP0AAgEBAP7+/QD9 /fwA9e737eze7uHYuODP9u349AAAAP0AAAD7AAAA/AAAAPoAAAD5AAAA+AAAAPgAAAD2AAAA9gAA APUAAAD1AAAA9gAAAPYAAAD4AAAA+AAAAPkAAAD7AAAA/AAAAPwAAAD+AAAA/wAAAP8AAAAAAAAA /wAAAAAAAAAAAAAAAAAAAAAAAAAAAAAAAAAAAAAAAAAAAAAAAAAAAAAAAAAAAAAAAAAAAAABAAAA AAAAAAAAAAAAAAAAAAAAAAAAAAAAAAAAAAAAAAAAAAAAAAAAAAAAAAAAAAAAAAAAAAAAAAAAAAAA AAAAAAAAAAAAAAABAAAAAAAAAAEAAAACAAAAAgAAAAMAAAAEAAAABQAAAAYAAAAIAAAACAAAAAoA AAAKAAAACQAAAAsAAAAKAAAACgAAAAgAAAAIAAAABwAAAAYAAAAFAAAABAAAAAMNGAoPFCQQGSI4 HjEOFwwZAAMAAAICAwACAgEAAQMCAAEBAAACAgQAAAIAAAL/AgAC/wYAAQACAAABAQABAQEAAQEB AAEBAAABAQEA/wACAAAAAAAAAAAAAAAAAAAA/wABAAIAAAEAAAH/AAD/AP8A////AAAAAAAA/wAA /v/9AAAAAQD+/v0A////AAAA/wD+AP0A/QD7AP8A/wAA/f0A/f7+AAD/AAAB/wEA+/z8APLn8eff yOTQ7dzw6fPp9vEAAAD9AAAA/QAAAPwAAAD7AAAA+gAAAPkAAAD4AAAA+AAAAPYAAAD2AAAA9QAA APcAAAD2AAAA9gAAAPgAAAD4AAAA+gAAAPsAAAD8AAAA/QAAAP4AAAD+AAAA/wAAAAAAAAD/AAAA AAAAAAAAAAAAAAAAAAAAAAAAAAAAAAAAAAAAAAAAAAAAAAAAAAAAAAAAAAAAAAAAAAAAAAABAAAA AAAAAAAAAAAAAAAAAAAAAAAAAAAAAAAAAAAAAAAAAAAAAAAAAAAAAAAAAAAAAAAAAAAAAAAAAAAA AAAAAAAAAAAAAAAAAAAAAQAAAAAAAAABAAAAAgAAAAIAAAADAAAABAAAAAUAAAAGAAAABwAAAAgA AAAJAAAACQAAAAoAAAAKAAAACgAAAAkAAAAIAAAACAAAAAgAAAAGAAAABQAAAAQAAAAEAAAAAwAA AAIWJBMXJ0AjMRMmDyX9AfoC/wT+AP4C/QAABAEAAAH+AAMAAwAMAgwAAf4CAAAB/wD+AAMAAQAB AP//AAAGBgYA/gACAAEAAAAA/wIAAAABAAD/AAAAAf4AAAD/AAD+/wD/AAAA////AAAA/gAA/wAA /wD+AAL9AQD/AP0A////AAD/AAD7A/oA9wL5AP7+/gAD/wQAAv0BAAH8BP7t3PDb17nb0Oze7+sA AAD9AAAA/gAAAP0AAAD8AAAA/AAAAPsAAAD6AAAA+AAAAPgAAAD4AAAA9wAAAPYAAAD2AAAA9gAA APcAAAD3AAAA+AAAAPkAAAD6AAAA+wAAAPwAAAD9AAAA/gAAAP4AAAD/AAAAAAAAAP8AAAAAAAAA AAAAAAAAAAAAAAAAAAAAAAAAAAAAAAAAAAAAAAAAAAAAAAAAAAAAAAAAAAAAAAAAAAAAAAABAAAA AAAAAAAAAAAAAAAAAAAAAAAAAAAAAAAAAAAAAAAAAAAAAAAAAAAAAAAAAAAAAAAAAAAAAAAAAAAA AAAAAAAAAAAAAAAAAAAAAQAAAAAAAAAAAAAAAQAAAAIAAAACAAAAAgAAAAQAAAAFAAAABQAAAAcA AAAIAAAACAAAAAkAAAAJAAAACwAAAAkAAAAJAAAACAAAAAgAAAAHAAAABgAAAAYAAAAFAAAABAAA AAQAAAACAAAAAgEBAAMmQyEoFyoRIwYTBREFCgEJAgkCBwL/AAAIAAgAAQABAAEBAwABAwIAAQAB AAEAAQD8AAAAAAABAP4AAwAAAAAAAAAAAAAAAAAGAgMAAAAAAP3+/gD+/f0A/v3+AP8A/QAA/v8A AQD/AAEAAAAAAAAAAQD+AAD/AgD8Av0A+Pv6+fv5/Pf68P3v6NHq3tq84dkA/wD9AAAA/gAAAP4A AAD+AAAA/AAAAPwAAAD7AAAA+gAAAPoAAAD5AAAA+AAAAPgAAAD3AAAA9wAAAPUAAAD3AAAA9wAA APgAAAD4AAAA+QAAAPsAAAD7AAAA/AAAAP4AAAD+AAAA/gAAAP8AAAAAAAAAAAAAAP8AAAAAAAAA AAAAAAAAAAAAAAAAAAAAAAAAAAAAAAAAAAAAAAAAAAAAAAAAAAAAAAAAAAAAAAAAAAAAAAABAAAA AAAAAAAAAAAAAAAAAAAAAAAAAAAAAAAAAAAAAAAAAAAAAAAAAAAAAAAAAAAAAAAAAAAAAAAAAAAA AAAAAAAAAAAAAAAAAAAAAAAAAAEAAAAAAAAAAAAAAAEAAAACAAAAAQAAAAMAAAADAAAABQAAAAUA AAAHAAAABgAAAAkAAAAIAAAACQAAAAkAAAAJAAAACAAAAAkAAAAIAAAACAAAAAYAAAAFAAAABQAA AAUAAAADAAAAAwAAAAMAAAACAAAAAgwUCwsRHgwSDhsMEw0YChQOFAsTCRAHEgMFBAUAAQAAAAAB AAABAAAAAQMA/wEAAAAAAQAAAAAAAAAAAP3//wADAQAAAf8AAAEBAQAAAAAAAQACAAEAAAAA/gAA //7+AP///wD8+fz79/H37vTs9+7z6fPr8Ob17+7h8e317fb1AAAA/wAAAP4AAAD+AAAA/QAAAP0A AAD9AAAA+wAAAPsAAAD7AAAA+gAAAPgAAAD4AAAA9wAAAPgAAAD3AAAA9wAAAPcAAAD4AAAA9wAA APoAAAD5AAAA+wAAAPsAAAD9AAAA/QAAAP8AAAD+AAAA/wAAAAAAAAAAAAAA/wAAAAAAAAAAAAAA AAAAAAAAAAAAAAAAAAAAAAAAAAAAAAAAAAAAAAAAAAAAAAAAAAAAAAAAAAAAAAAAAAAAAAABAAAA AAAAAAAAAAAAAAAAAAAAAAAAAAAAAAAAAAAAAAAAAAAAAAAAAAAAAAAAAAAAAAAAAAAAAAAAAAAA AAAAAAAAAAAAAAAAAAAAAAAAAAAAAAABAAAAAAAAAAAAAAABAAAAAQAAAAIAAAADAAAAAwAAAAQA AAAFAAAABQAAAAcAAAAHAAAACAAAAAkAAAAIAAAACAAAAAkAAAAIAAAACAAAAAcAAAAHAAAABgAA AAUAAAAFAAAAAwAAAAQAAAADAAAAAwAAAAEAAAACAAAAAgIEAgMFBwMFAwYDAwgOBwgSHw8TDRYM EQoRCQ8LEAkMAwsECQQHBAgCBAIGAgMCAwECAQL+/Pz+/v3+/f77//r6+Pz5+/X79vrz+vT17/fx 8+n07+/i8u338vj5/fv9/Pz5/fz+/P79AAAA/wAAAP4AAAD+AAAA/wAAAP0AAAD9AAAA/AAAAP0A AAD7AAAA+wAAAPoAAAD5AAAA+QAAAPgAAAD4AAAA9wAAAPgAAAD4AAAA94MRa+UAACAASURBVAAA APgAAAD5AAAA+QAAAPsAAAD7AAAA/AAAAP0AAAD9AAAA/gAAAP8AAAD/AAAAAAAAAAAAAAD/AAAA AAAAAAAAAAAAAAAAAAAAAAAAAAAAAAAAAAAAAAAAAAAAAAAAAAAAAAAAAAAAAAAAAAAAAAAAAAAA AAAAAAAAAAABAAAAAAAAAAAAAAAAAAAAAAAAAAAAAAAAAAAAAAAAAAAAAAAAAAAAAAAAAAAAAAAA AAAAAAAAAAAAAAAAAAAAAAAAAAAAAAAAAAAAAAAAAAAAAAAAAAAAAAAAAAEAAAAAAAAAAQAAAAEA AAACAAAAAgAAAAMAAAADAAAABQAAAAYAAAAFAAAABwAAAAcAAAAIAAAACAAAAAgAAAAIAAAACAAA AAgAAAAGAAAABwAAAAYAAAAGAAAABAAAAAUAAAAEAAAAAwAAAAMAAAACAAAAAgAAAAIAAAACAAAA AQAAAAAAAAACAAAAAAAAAAEAAAAAAAAAAAAAAAEAAAAAAAAAAAAAAAEAAAAAAAAA/wAAAAAAAAAA AAAA/wAAAAAAAAAAAAAA/wAAAAAAAAD+AAAAAAAAAP8AAAD+AAAA/gAAAP4AAAD+AAAA/QAAAP0A AAD8AAAA+wAAAPwAAAD6AAAA+gAAAPkAAAD6AAAA+AAAAPgAAAD4AAAA+AAAAPgAAAD4AAAA+QAA APkAAAD7AAAA+gAAAPsAAAD9AAAA/QAAAP4AAAD+AAAA/wAAAP8AAAAAAAAA/wAAAAAAAAAAAAAA AAAAAAAAAAAAAAAAAAAAAAAAAAAAAAAAAAAAAAAAAAAAAAAAAAAAAAAAAAAAAAAAAAAAAAAAAAAA AAAAAAAAAAAEAAAAAAAAAAAAAAAAAAAAAAAAAAAAAAAAAAAAAAAAAAAAAAAAAAAAAAAAAAAAAAAA AAAAAAAAAAAAAAAAAAAAAAAAAAAAAAAAAAAAAAAAAAAAAAAAAAAAAAAAAP8AAAABAAAA/wAAAAAA AAD+AAAA/wAAAP8AAAD/AAAA/wAAAP4AAAD9AAAA/QAAAPwAAAD8AAAA+wAAAPsAAAD5AAAA+gAA APgAAAAIAAAACAAAAAYAAAAGAAAABgAAAAUAAAAEAAAABAAAAAQAAAADAAAAAwAAAAIAAAACAAAA AQAAAAIAAAABAAAAAQAAAAEAAAABAAAAAAAAAAEAAAAAAAAAAAAAAAAAAAAAAAAAAAAAAAAAAAAA AAAA/wAAAAAAAAD/AAAA/wAAAP8AAAD/AAAA/gAAAP8AAAD+AAAA/gAAAP0AAAD9AAAA/AAAAPwA AAD8AAAA+wAAAPoAAAD6AAAA+gAAAPgAAAD4AAAA+gAAAPcAAAD6AAAA+AAAAPkAAAD5AAAA+gAA APsAAAD7AAAA/AAAAP0AAAD9AAAA/gAAAP8AAAD/AAAA/wAAAAAAAAD/AAAAAAAAAAAAAAAAAAAA AAAAAAAAAAAAAAAAAAAAAAAAAAAAAAAAAAAAAAAAAAAAAAAAAAAAAAAAAAAAAAAAAAAAAAAAAAAA AAAAAAAAAAAEAAAAAAAAAAAAAAAAAAAAAAAAAAAAAAAAAAAAAAAAAAAAAAAAAAAAAAAAAAAAAAAA AAAAAAAAAAAAAAAAAAAAAAAAAAAAAAAAAAAAAAAAAAAAAAAAAAAAAAAAAAAAAAD/AAAAAQAAAP8A AAD/AAAAAQAAAAAAAAD/AAAA/wAAAP4AAAD+AAAA/QAAAP0AAAD8AAAA+wAAAPoAAAAHAAAA+gAA AAgAAAD6AAAA+AAAAAcAAAAGAAAABgAAAAYAAAAFAAAABAAAAAUAAAAEAAAAAwAAAAMAAAADAAAA AgAAAAIAAAABAAAAAQAAAAIAAAABAAAAAAAAAAEAAAABAAAAAAAAAAAAAAAAAAAAAAAAAAAAAAD/ AAAA/wAAAAAAAAD/AAAA/gAAAP8AAAD/AAAA/gAAAP4AAAD9AAAA/QAAAP0AAAD8AAAA+wAAAPwA AAD7AAAA+gAAAPoAAAD6AAAA+QAAAPoAAAD5AAAA+AAAAPkAAAD5AAAA+gAAAPoAAAD7AAAA+wAA APwAAAD8AAAA/gAAAP0AAAD/AAAA/gAAAP8AAAAAAAAAAAAAAP8AAAAAAAAAAAAAAAAAAAAAAAAA AAAAAAAAAAAAAAAAAAAAAAAAAAAAAAAAAAAAAAAAAAAAAAAAAAAAAAAAAAAAAAAAAAAAAAAAAAAA AAAAAAAAAAAEAAAAAAAAAAAAAAAAAAAAAAAAAAAAAAAAAAAAAAAAAAAAAAAAAAAAAAAAAAAAAAAA AAAAAAAAAAAAAAAAAAAAAAAAAAAAAAAAAAAAAAAAAAAAAAAAAAAAAAAAAAAAAAAAAAAA/wAAAAAA AAABAAAA/wAAAP4AAAABAAAAAAAAAP8AAAD/AAAA/gAAAP4AAAD8AAAA/AAAAPwAAAD7AAAA+gAA APkAAAAHAAAABgAAAAYAAAAHAAAABgAAAAYAAAAFAAAABQAAAAUAAAAEAAAABAAAAAMAAAAEAAAA AwAAAAIAAAACAAAAAgAAAAEAAAABAAAAAQAAAAEAAAABAAAAAAAAAAEAAAAAAAAA/wAAAAAAAAD/ AAAA/wAAAP8AAAD/AAAA/wAAAP4AAAD+AAAA/gAAAP0AAAD8AAAA/QAAAPwAAAD8AAAA+wAAAPsA AAD7AAAA+gAAAPoAAAD5AAAA+gAAAPoAAAD5AAAA+gAAAPoAAAD7AAAA+gAAAPsAAAD9AAAA/AAA AP0AAAD+AAAA/gAAAP4AAAD/AAAA/wAAAAAAAAD/AAAAAAAAAAAAAAAAAAAAAAAAAAAAAAAAAAAA AAAAAAAAAAAAAAAAAAAAAAAAAAAAAAAAAAAAAAAAAAAAAAAAAAAAAAAAAAAAAAAAAAAAAAAAAAAA AAAAAAAAAAABAAAAAAAAAAAAAAAAAAAAAAAAAAAAAAAAAAAAAAAAAAAAAAAAAAAAAAAAAAAAAAAA AAAAAAAAAAAAAAAAAAAAAAAAAAAAAAAAAAAAAAAAAAAAAAAAAAAAAAAAAAAAAAAAAAAAAAAAAAAA AAAAAAAAAQAAAAAAAAABAAAAAAAAAAIAAAABAAAAAgAAAAMAAAADAAAAAwAAAAUAAAAEAAAABQAA AAUAAAAFAAAABwAAAAUAAAAGAAAABQAAAAYAAAAFAAAABgAAAAUAAAAEAAAABAAAAAQAAAADAAAA AwAAAAMAAAADAAAAAgAAAAIAAAACAAAAAQAAAAEAAAABAAAAAAAAAAAAAAAAAAAAAAAAAAAAAAD/ AAAA/wAAAP8AAAD+AAAA/gAAAP4AAAD9AAAA/QAAAP0AAAD9AAAA/AAAAPwAAAD8AAAA+wAAAPoA AAD7AAAA+gAAAPsAAAD6AAAA+wAAAPkAAAD7AAAA+wAAAPsAAAD8AAAA+wAAAP0AAAD9AAAA/QAA AP4AAAD/AAAA/gAAAAAAAAD/AAAAAAAAAP8AAAAAAAAAAAAAAAAAAAAAAAAAAAAAAAAAAAAAAAAA AAAAAAAAAAAAAAAAAAAAAAAAAAAAAAAAAAAAAAAAAAAAAAAAAAAAAAAAAAAAAAAAAAAAAAAAAAAA AAAAAAAAAAABAAAAAAAAAAAAAAAAAAAAAAAAAAAAAAAAAAAAAAAAAAAAAAAAAAAAAAAAAAAAAAAA AAAAAAAAAAAAAAAAAAAAAAAAAAAAAAAAAAAAAAAAAAAAAAAAAAAAAAAAAAAAAAAAAAAAAAAAAAAA AAAAAAAAAQAAAP8AAAABAAAAAAAAAAEAAAACAAAAAAAAAAMAAAABAAAAAwAAAAIAAAAEAAAABAAA AAQAAAAFAAAABAAAAAUAAAAFAAAABQAAAAUAAAAFAAAABQAAAAUAAAAEAAAABAAAAAUAAAADAAAA BAAAAAMAAAACAAAAAgAAAAIAAAACAAAAAQAAAAIAAAABAAAAAAAAAAAAAAAAAAAAAAAAAAAAAAD/ AAAA/gAAAP8AAAD+AAAA/gAAAP4AAAD+AAAA/QAAAPwAAAD9AAAA+wAAAPwAAAD8AAAA+wAAAPsA AAD7AAAA+wAAAPsAAAD7AAAA+wAAAPwAAAD7AAAA/AAAAPwAAAD8AAAA/gAAAP0AAAD/AAAA/QAA AAAAAAD+AAAA/wAAAAAAAAD/AAAAAQAAAP8AAAAAAAAAAAAAAAAAAAAAAAAAAAAAAAAAAAAAAAAA AAAAAAAAAAAAAAAAAAAAAAAAAAAAAAAAAAAAAAAAAAAAAAAAAAAAAAAAAAAAAAAAAAAAAAAAAAAA AAAAAAAAAAABAAAAAAAAAAAAAAAAAAAAAAAAAAAAAAAAAAAAAAAAAAAAAAAAAAAAAAAAAAAAAAAA AAAAAAAAAAAAAAAAAAAAAAAAAAAAAAAAAAAAAAAAAAAAAAAAAAAAAAAAAAAAAAAAAAAAAAAAAAAA AAAAAAAAAAAAAAAAAAAAAAAAAQAAAAAAAAABAAAAAAAAAAIAAAABAAAAAgAAAAEAAAADAAAAAgAA AAQAAAADAAAABAAAAAMAAAAFAAAABAAAAAQAAAAFAAAABAAAAAUAAAADAAAABQAAAAMAAAAEAAAA AwAAAAMAAAADAAAAAgAAAAMAAAACAAAAAQAAAAIAAAAAAAAAAQAAAAAAAAAAAAAAAAAAAP8AAAAA AAAA/gAAAP8AAAD+AAAA/QAAAP4AAAD9AAAA/QAAAP0AAAD8AAAA/QAAAPsAAAD9AAAA+wAAAPwA AAD7AAAA/AAAAPwAAAD7AAAA/QAAAPwAAAD9AAAA/AAAAP4AAAD9AAAA/wAAAP4AAAD/AAAA/gAA AAAAAAD/AAAAAAAAAP8AAAAAAAAAAAAAAAAAAAAAAAAAAAAAAAAAAAAAAAAAAAAAAAAAAAAAAAAA AAAAAAAAAAAAAAAAAAAAAAAAAAAAAAAAAAAAAAAAAAAAAAAAAAAAAAAAAAAAAAAAAAAAAAAAAAAA AAAAAAAAAAABAAAAAAAAAAAAAAAAAAAAAAAAAAAAAAAAAAAAAAAAAAAAAAAAAAAAAAAAAAAAAAAA AAAAAAAAAAAAAAAAAAAAAAAAAAAAAAAAAAAAAAAAAAAAAAAAAAAAAAAAAAAAAAAAAAAAAAAAAAAA AAAAAAAAAAAAAAAAAAAAAAAAAQAAAAAAAAAAAAAAAAAAAAEAAAABAAAAAQAAAAEAAAACAAAAAQAA AAIAAAADAAAAAwAAAAMAAAADAAAAAwAAAAQAAAADAAAABAAAAAQAAAADAAAABAAAAAMAAAAEAAAA AwAAAAIAAAADAAAAAgAAAAIAAAACAAAAAQAAAAIAAAABAAAAAAAAAAAAAAAAAAAAAAAAAAAAAAD/ AAAA/gAAAP8AAAD+AAAA/gAAAP4AAAD9AAAA/gAAAP0AAAD8AAAA/QAAAPwAAAD9AAAA/AAAAPwA AAD9AAAA/AAAAP0AAAD9AAAA/QAAAP0AAAD9AAAA/gAAAP8AAAD+AAAA/wAAAP8AAAD/AAAA/wAA AAAAAAAAAAAAAAAAAP8AAAAAAAAAAAAAAAAAAAAAAAAAAAAAAAAAAAAAAAAAAAAAAAAAAAAAAAAA AAAAAAAAAAAAAAAAAAAAAAAAAAAAAAAAAAAAAAAAAAAAAAAAAAAAAAAAAAAAAAAAAAAAAAAAAAAA AAAAAAAAAAABAAAAAAAAAAAAAAAAAAAAAAAAAAAAAAAAAAAAAAAAAAAAAAAAAAAAAAAAAAAAAAAA AAAAAAAAAAAAAAAAAAAAAAAAAAAAAAAAAAAAAAAAAAAAAAAAAAAAAAAAAAAAAAAAAAAAAAAAAAAA AAAAAAAAAAAAAAAAAAAAAAAAAAAAAAAAAAABAAAA/wAAAAEAAAAAAAAAAQAAAAEAAAABAAAAAQAA AAIAAAABAAAAAgAAAAEAAAADAAAAAgAAAAMAAAADAAAAAwAAAAMAAAADAAAAAwAAAAIAAAADAAAA AwAAAAIAAAADAAAAAgAAAAIAAAABAAAAAgAAAAAAAAACAAAAAAAAAAAAAAAAAAAAAAAAAAAAAAD+ AAAAAAAAAP4AAAD/AAAA/gAAAP4AAAD9AAAA/gAAAP0AAAD9AAAA/gAAAP0AAAD9AAAA/QAAAP0A AAD9AAAA/QAAAP4AAAD9AAAA/wAAAP4AAAD/AAAA/gAAAP8AAAD/AAAA/wAAAP8AAAAAAAAA/wAA AAEAAAD/AAAAAAAAAAAAAAAAAAAAAAAAAAAAAAAAAAAAAAAAAAAAAAAAAAAAAAAAAAAAAAAAAAAA AAAAAAAAAAAAAAAAAAAAAAAAAAAAAAAAAAAAAAAAAAAAAAAAAAAAAAAAAAAAAAAAAAAAAAAAAAAA AAAAAAAAAAABAAAAAAAAAAAAAAAAAAAAAAAAAAAAAAAAAAAAAAAAAAAAAAAAAAAAAAAAAAAAAAAA AAAAAAAAAAAAAAAAAAAAAAAAAAAAAAAAAAAAAAAAAAAAAAAAAAAAAAAAAAAAAAAAAAAAAAAAAAAA AAAAAAAAAAAAAAAAAAAAAAAAAAAAAAAAAAAAAAAAAAAAAAAAAAABAAAAAAAAAAAAAAABAAAAAQAA AAEAAAAAAAAAAgAAAAEAAAABAAAAAgAAAAIAAAACAAAAAgAAAAMAAAACAAAAAgAAAAIAAAACAAAA AwAAAAEAAAACAAAAAgAAAAIAAAABAAAAAQAAAAEAAAAAAAAAAgAAAAAAAAAAAAAAAAAAAP4AAAAA AAAA/wAAAP8AAAD/AAAA/gAAAP4AAAD+AAAA/wAAAP0AAAD+AAAA/gAAAP4AAAD+AAAA/QAAAP4A AAD+AAAA/gAAAP4AAAD/AAAA/wAAAP4AAAAAAAAA/wAAAP8AAAD/AAAAAAAAAAAAAAD/AAAAAAAA AAAAAAAAAAAAAAAAAAAAAAAAAAAAAAAAAAAAAAAAAAAAAAAAAAAAAAAAAAAAAAAAAAAAAAAAAAAA AAAAAAAAAAAAAAAAAAAAAAAAAAAAAAAAAAAAAAAAAAAAAAAAAAAAAAAAAAAAAAAAAAAAAAAAAAAA AAAAAAAAAAABAAAAAAAAAAAAAAAAAAAAAAAAAAAAAAAAAAAAAAAAAAAAAAAAAAAAAAAAAAAAAAAA AAAAAAAAAAAAAAAAAAAAAAAAAAAAAAAAAAAAAAAAAAAAAAAAAAAAAAAAAAAAAAAAAAAAAAAAAAAA AAAAAAAAAAAAAAAAAAAAAAAAAAAAAAAAAAAAAAAAAAAAAAAAAAAAAAAAAAAAAAEAAAAAAAAAAAAA AAAAAAABAAAAAQAAAAEAAAABAAAAAQAAAAEAAAABAAAAAgAAAAEAAAACAAAAAgAAAAEAAAACAAAA AQAAAAIAAAACAAAAAQAAAAEAAAABAAAAAQAAAAEAAAAAAAAAAQAAAAAAAAAAAAAAAAAAAP8AAAAA AAAA/wAAAP8AAAD/AAAA/wAAAP8AAAD+AAAA/gAAAP8AAAD+AAAA/wAAAP4AAAD+AAAA/wAAAP4A AAD/AAAA/wAAAP8AAAD/AAAA/wAAAP8AAAD/AAAAAAAAAAAAAAAAAAAA/wAAAAAAAAAAAAAAAAAA AAAAAAAAAAAAAAAAAAAAAAAAAAAAAAAAAAAAAAAAAAAAAAAAAAAAAAAAAAAAAAAAAAAAAAAAAAAA AAAAAAAAAAAAAAAAAAAAAAAAAAAAAAAAAAAAAAAAAAAAAAAAAAAAAAAAAAAAAAAAAAAAAAAAAAAA AAAAAAAAAAABAAAAAAAAAAAAAAAAAAAAAAAAAAAAAAAAAAAAAAAAAAAAAAAAAAAAAAAAAAAAAAAA AAAAAAAAAAAAAAAAAAAAAAAAAAAAAAAAAAAAAAAAAAAAAAAAAAAAAAAAAAAAAAAAAAAAAAAAAAAA AAAAAAAAAAAAAAAAAAAAAAAAAAAAAAAAAAAAAAAAAAAAAAAAAAAAAAAAAAAAAAAAAAABAAAAAAAA AAAAAAAAAAAAAAAAAAEAAAAAAAAAAQAAAAEAAAABAAAAAQAAAAEAAAABAAAAAQAAAAEAAAABAAAA AgAAAAAAAAABAAAAAgAAAAAAAAACAAAAAAAAAAAAAAABAAAAAAAAAAAAAAAAAAAAAAAAAAAAAAD/ AAAAAAAAAAAAAAD+AAAAAAAAAP4AAAD/AAAAAAAAAP4AAAD/AAAA/wAAAP8AAAD/AAAA/wAAAP8A AAD/AAAA/wAAAP8AAAAAAAAA/wAAAAAAAAAAAAAAAAAAAAAAAAD/AAAAAAAAAAAAAAAAAAAAAAAA AAAAAAAAAAAAAAAAAAAAAAAAAAAAAAAAAAAAAAAAAAAAAAAAAAAAAAAAAAAAAAAAAAAAAAAAAAAA AAAAAAAAAAAAAAAAAAAAAAAAAAAAAAAAAAAAAAAAAAAAAAAAAAAAAAAAAAAAAAAAAAAAAAAAAAAA AAAAAAAAAAABAAAAAAAAAAAAAAAAAAAAAAAAAAAAAAAAAAAAAAAAAAAAAAAAAAAAAAAAAAAAAAAA AAAAAAAAAAAAAAAAAAAAAAAAAAAAAAAAAAAAAAAAAAAAAAAAAAAAAAAAAAAAAAAAAAAAAAAAAAAA AAAAAAAAAAAAAAAAAAAAAAAAAAAAAAAAAAAAAAAAAAAAAAAAAAAAAAAAAAAAAAAAAAAAAAAAAAAA AAAAAAAAAAAAAQAAAAAAAAAAAAAAAQAAAAAAAAAAAAAAAQAAAAEAAAAAAAAAAQAAAAAAAAACAAAA AAAAAAEAAAAAAAAAAQAAAAEAAAAAAAAAAQAAAAAAAAAAAAAAAAAAAAEAAAAAAAAA/wAAAAAAAAAA AAAAAAAAAP8AAAAAAAAA/wAAAP8AAAAAAAAA/wAAAAAAAAD+AAAAAAAAAP8AAAAAAAAA/wAAAP8A AAAAAAAAAAAAAP8AAAAAAAAAAAAAAP8AAAAAAAAAAAAAAAAAAAAAAAAAAAAAAAAAAAAAAAAAAAAA AAAAAAAAAAAAAAAAAAAAAAAAAAAAAAAAAAAAAAAAAAAAAAAAAAAAAAAAAAAAAAAAAAAAAAAAAAAA AAAAAAAAAAAAAAAAAAAAAAAAAAAAAAAAAAAAAAAAAAAAAAAAAAAAAAAAAAAAAAAAAAAAAAAAAAAA AAAAAAAAAAABAAAAAAAAAAAAAAAAAAAAAAAAAAAAAAAAAAAAAAAAAAAAAAAAAAAAAAAAAAAAAAAA AAAAAAAAAAAAAAAAAAAAAAAAAAAAAAAAAAAAAAAAAAAAAAAAAAAAAAAAAAAAAAAAAAAAAAAAAAAA AAAAAAAAAAAAAAAAAAAAAAAAAAAAAAAAAAAAAAAAAAAAAAAAAAAAAAAAAAAAAAAAAAAAAAAAAAAA AAAAAAAAAAAAAAAAAAAAAAABAAAAAAAAAAAAAAAAAAAAAAAAAAEAAAAAAAAAAAAAAAEAAAABAAAA AAAAAAAAAAABAAAAAAAAAAAAAAAAAAAAAQAAAAAAAAABAAAAAAAAAAAAAAAAAAAAAAAAAAAAAAD/ AAAAAAAAAP8AAAAAAAAAAAAAAAAAAAD/AAAAAAAAAAAAAAD/AAAA/wAAAAAAAAAAAAAA/wAAAAAA AAAAAAAAAAAAAAAAAAD/AAAAAAAAAAAAAAAAAAAAAAAAAAAAAAAAAAAAAAAAAAAAAAAAAAAAAAAA AAAAAAAAAAAAAAAAAAAAAAAAAAAAAAAAAAAAAAAAAAAAAAAAAAAAAAAAAAAAAAAAAAAAAAAAAAAA AAAAAAAAAAAAAAAAAAAAAAAAAAAAAAAAAAAAAAAAAAAAAAAAAAAAAAAAAAAAAAAAAAAAAAAAAAAA AAAAAAAAAAABAAAAAAAAAAAAAAAAAAAAAAAAAAAAAAAAAAAAAAAAAAAAAAAAAAAAAAAAAAAAAAAA AAAAAAAAAAAAAAAAAAAAAAAAAAAAAAAAAAAAAAAAAAAAAAAAAAAAAAAAAAAAAAAAAAAAAAAAAAAA AAAAAAAAAAAAAAAAAAAAAAAAAAAAAAAAAAAAAAAAAAAAAAAAAAAAAAAAAAAAAAAAAAAAAAAAAAAA AAAAAAAAAAAAAAAAAAAAAAAAAAAAAAAAAAAAAAABAAAAAAAAAAAAAAAAAAAAAAAAAAAAAAABAAAA AAAAAAAAAAAAAAAAAAAAAAAAAAABAAAAAAAAAAAAAAAAAAAAAAAAAAEAAAAAAAAA/wAAAAAAAAAA AAAAAAAAAAAAAAD/AAAAAAAAAAAAAAAAAAAAAAAAAAAAAAD/AAAAAAAAAAAAAAAAAAAAAAAAAAAA AAD/AAAAAAAAAAAAAAAAAAAAAAAAAAAAAAAAAAAAAAAAAAAAAAAAAAAAAAAAAAAAAAAAAAAAAAAA AAAAAAAAAAAAAAAAAAAAAAAAAAAAAAAAAAAAAAAAAAAAAAAAAAAAAAAAAAAAAAAAAAAAAAAAAAAA AAAAAAAAAAAAAAAAAAAAAAAAAAAAAAAAAAAAAAAAAAAAAAAAAAAAAAAAAAAAAAAAAAAAAAAAAAAA AAAAAAAAAAABAAAAAAAAAAAAAAAAAAAAAAAAAAAAAAAAAAAAAAAAAAAAAAAAAAAAAAAAAAAAAAAA AAAAAAAAAAAAAAAAAAAAAAAAAAAAAAAAAAAAAAAAAAAAAAAAAAAAAAAAAAAAAAAAAAAAAAAAAAAA AAAAAAAAAAAAAAAAAAAAAAAAAAAAAAAAAAAAAAAAAAAAAAAAAAAAAAAAAAAAAAAAAAAAAAAAAAAA AAAAAAAAAAAAAAAAAAAAAAAAAAAAAAAAAAAAAAAAAAAAAAAAAAEAAAAAAAAAAAAAAAAAAAD/AAAA AQAAAAAAAAAAAAAAAAAAAAAAAAABAAAAAAAAAAAAAAAAAAAAAAAAAAAAAAAAAAAAAAAAAAAAAAAA AAAAAAAAAAAAAAD/AAAAAAAAAAAAAAAAAAAAAAAAAP8AAAABAAAAAAAAAAAAAAAAAAAA/wAAAAAA AAAAAAAAAAAAAAAAAAAAAAAAAAAAAAAAAAAAAAAAAAAAAAAAAAAAnZu8ZAAAAJVJREFUAAAAAAAA AAAAAAAAAAAAAAAAAAAAAAAAAAAAAAAAAAAAAAAAAAAAAAAAAAAAAAAAAAAAAAAAAAAAAAAAAAAA AAAAAAAAAAAAAAAAAAAAAAAAAAAAAAAAAAAAAAAAAAAAAAAAAAAAAAAAAAAAAAAAAAAAAAAAAAAA AAAAAAAAAAAAAAAAAAAAAAAAAAABAAD//2O3qe6VrZVWAAAAAElFTkSuQmCC "
     id="image10-3"
     x="10"
     y="0"
     inkscape:transform-center-x="0.26058632"
     inkscape:transform-center-y="0.052117264" />
</svg>
