<?xml version="1.0" encoding="UTF-8" standalone="no"?>
<svg
   xmlns:dc="http://purl.org/dc/elements/1.1/"
   xmlns:cc="http://creativecommons.org/ns#"
   xmlns:rdf="http://www.w3.org/1999/02/22-rdf-syntax-ns#"
   xmlns:svg="http://www.w3.org/2000/svg"
   xmlns="http://www.w3.org/2000/svg"
   xmlns:xlink="http://www.w3.org/1999/xlink"
   version="1.1"
   id="svg2"
   width="22"
   height="22"
   viewBox="0 0 22 22">
  <metadata
     id="metadata8">
    <rdf:RDF>
      <cc:Work
         rdf:about="">
        <dc:format>image/svg+xml</dc:format>
        <dc:type
           rdf:resource="http://purl.org/dc/dcmitype/StillImage" />
        <dc:title></dc:title>
      </cc:Work>
    </rdf:RDF>
  </metadata>
  <defs
     id="defs6" />
  <image
     width="22"
     height="22"
     preserveAspectRatio="none"
     xlink:href="data:image/png;base64,iVBORw0KGgoAAAANSUhEUgAAAIAAAACACAYAAADDPmHLAAAACXBIWXMAAAsSAAALEgHS3X78AAAP V0lEQVR4nO2dT2wbV37Hv783w+GfoWjZscwoivxH6zjxNk20hoOkcIoFukB7YJPjHtrDLrBFDkWP e9kCzEFCgUWvPbZoD3so2kO76yxRoECLFl2jRVdIWQON7cLrSqIkS7JlmX+GQ86f9+uBpEJLsjQS h6Ox+D7AgENyOO/Hed/33u/9p2KxKHBxDjcv3Kbr168LpC4lqs9WjZbdMGoNV2tZW9Ju+224W60H Dx44c3NzTB8DuEOMF6FCoSAWFhY00zT1ra0tv1qttjEA77773j+8OX3p29OXZsTFixdx6dIVTF+c waUrV3ljYwNrlYdYXFzESmURy0uLqeWlR/+6vr72/UqlsjhIuIcxMzPzRzPfuPZnb05faU9fvITL l69g+tI3MDk5BZYe/9+j/8Xi4hIqlSWsLP9KX6ksViqVyneXlpYWhmnXcdDn5uYYAG7fBgFAu+3x mYzHrpPwDb0tRdL3njd0Z/Hp297c3O93In1v5AMAl0olH4CcnZ2VuVwO5XL52Ibl8/ksIH+TCGki QAgCQCACwMxghmSAGSAiAGAA3wZwBcDisQM+hDfeeONNIvExABAhCXTtAgAQuGMdAEBAgoiImV8n ou8BiJ0ARO/k008/3YlU28/JhJH0PR+eg/Ne00n42LotiYiJ9o38frhcLvvlclkOYhgRTRMJcfiV e343CXTjYwhIKccAvH6U3xCRDmByOBYNxgsPuFqt8uvjTSm8J17LIVdPnnHqNryPft305+bmmJmD PlgGMJAAfN9PMcsjR6TneZnZ2VltkLAPQgihA2wc5TfMLACkh2TSQOwI4Pbt2wQA29vbMplMes8e 3201n91rvz0Nb21tjQEgQOpXvGLoRMTFP2dx8wKw1rrJay3wpx+Dr127JgFgd6pnZlJCOD3ovZN+ H4CIZN85A52IV5F/+tC7KZzRdZz6I7+ffiEoEZweBBHx538R3GtWkX+66M8BAESawnuiU4I6QQQR oXtwwHr+bo5b56ZhVtcUwRDopMA4pUL98EsUYXHklrYwmZqa2nE+FSfDSaa2gyJ/kpnJdX1u2U3Y zSaalgXLstBo1NFoNNBsNmD1PrMs2LaFtuNEYrjv+x17mk3Yto1642u7PM9DvdHs2NW0UW90rjng v54ogwpgoD9VKpX2K3p8AEnf9/UHD+7RxuYTrG8+w9raBiYr65haWsGlymPa2nqK1ZUlrK8to1JZ RmV5GU82VzA+Pj7UXG1jYyPLzBcerz/B5pNnePx4E6urq1hZWUP+9TcgJdPy0iOsry1jZbWCyvIS NjfWNJbua8O067gMKoBBsvCe77Hf71vb29vTAAgczD0RgsDM2N7ezm9vb6cANI5p14H4vp8FkBcU 8G8TgaWE7/uZYdgzKIOmlv5GpCBPZL/rdscwA7AD3m8/0gCGWbsQADQEFQB2/uCJ+lsvIyyjgtYi AglFCOECcAeySBGIQQXQi/igqT9QlTOZTEp0fAHFkAkzBzh0oEjQm9m2zVACiIQoy6WjNP1KdIqA ODVQnUpi6ZigE/HeSRsxCkQtgKC1BUVExDUH6FS1FEMnlgJIp9MCnUYqlVsMmVgKoN1uqxwgIoYl gP1SbuBuZymlDiARqkWKfRmWAA6K6CAi0KHGBUTCSRQBQcp1lQNERBQC6K/6BakGEjrlv/IBIiAK Aez0F8zOzgoEazKWGHBqmSIYURUBXCgUgobV6zRSfQEREJmjVSqVeil6z7oCuz4TAJKIaRX1tBGl p32Ujp02VF9AJMQhle0Whi+EaACo7fOdImTiIIA9SCl9KCcwEk5iPMDLviMAWj6fNwAYUKk/EiLv Dp6dndW74fYObWZmRs/n84kzZ87orVaLMOCI3h/+6MchmLo/P/iDPzzyb1jGt0ITpRNI+Xxer9Vq +ltvvaX7vk+tVksAwNbWli+EGHMcxzIMQwJwstnsZqPR4ISRRiKRgNA0CAKYJXzfBdiHpgkkEgmk 0hmYpolkMo1EQsuOZTMXfvrzfzEIvgYth2x3QHZuLNs50caQTQPQxzCWBuo2AK8OAGg06qhZXYtl A40mAL+GehPQE0b9n//x784BENlsFqlMBoZhQNc7j1FKH8wSRBIggqYJJBMJJFNpeJ6X+J3f/o4B 4FytCcCroWEDvBNuR/P1eh0bGxvrw46MHlF2t4qrb11/v2lV/yOVShmGYUhNM8gwDDIMAwnDgNE9 EoaBpGFA17ufJzqvesJAKvnitYZhQNM6r6lUArqe6lyr990v0Xd9MvnCd0Jo7HkePK8N13HguC5s 24HvO533TguO48BxHHiu0zsnx3Hgfv0enufA9xy4jgu73YbjOPBdB22nc59224EvXXa737Wd7vWu u3OP3v1WVlYiy5kjC6hQKBBL30SnfO+Frfr7T5jIBFAqlViyGusfN6J0AlnTNFW1ixmRVgN9349l u8MoE2mEaJpmHX6VIkqiFIBkVu37cSPKWoAmJatRPjEjMgGsrq5SIqGdFh+A9z+YAbAgYtG36BYR sRDxXF4vslHB5XLZ73byKGJEpCmyu2y6IkZEOSycpeTWkMJTHJNhCOBlzbtCCEoNITzFAETtlOnM rJqDY0SvQya0Tplisbjv/WZmZjQACSJSVcEYEXYO8LJVQMiyLGJm1RAUM3oCGHYdlQFACBG72T7M EswMKXnn/Ov3say6h0qvWrZ7bH7YkGma+hE2nYoMIkFEEkIQiERv5fTu+53t6E4toTuBX3755X6R TLlczlBFQPwIVQBdB3APhUKBHMfJsPTHwwxPMTiRNAWvrq4Si1SCKJ57540yoTqB8/PzfOPGjT33 qtVq5HveaekIOlX0IiU052x+fp53FwW5XK6z4xh05QPEjNBTZbFYpN2OYK1WI4ZwAVkNOzzFYITe O/fFF18I0zQ17Jrfb2iucFmYYYenGIyhlMvj4+N7/ABXJoT0PdUZFDPCEgAVi8Wde91fO/+CAHK5 HEuJFkg0QwpPERKhCKBX7vecvzH+7xcEMDU1xdk0WsywwwhPER6hFgHz8/NcLpf9Tz755IUJIKW7 NxiApwlKhhmeYnBCEUBf/Z8B8Pz8/Is+QGWeTdN0QaTGAsSMaIaETRfJsiwCyAUQzeZ+ikBE1jpX q9V8ZtTj2CM4yoQmgD3Zfj+VeZ6cnBSAfE2NCIoXkeUADx8+5G4RoIgRvZbAQTuDAv6eY7l75igT ZO3eo7DvYBAAmJyclNL3fWZWs4NiRJhFAHXXA94ZFVwsFsXMzIwOdDqENE0LW3CKAQlNAIVCQdy4 cWPP7qAffPCBBgC5ievJc+fOXRFCrRISJ0LrDfzss8/w9OnTPUVAA9ckAH77cla37NSb6+urUspX RwO7Rwm/7ABz0I3OD0RK+XTwuwRnqJM15+fnezuAwqWzkuhZa2Jiwt3c3HxlegWpA4QgyO6I4f2O zm7ig40illJKIcRfhWZ8AEIrAhYWFmhxcVH73R/8bPfYfwaAdr3S0jTtzsSFyb8899qFr6SULWbp cWdV8J2DmSUzS4yer1AD8OP333//j6MMNMwcQAKQ33pjgX6+z5elUskBcKdQKPy7eWbaTJu5c26r dtaXwvB9h+264/mu7TNzDqTTN7/5a1UizgE4J6VMErEAAE3X7S8XfvlDz21/lEqn9Uwmg2TKRCad QiqdQTpjIpXKIJVKIZPpvU/DzKSRTKWRTptIZzLw/QyE0JAwNPi+h1arhZZto9lswrabcNo2bNuG ZVls2000m3bnc8eG3bTRanWubbcsNKwWtewGxrLpO9ff/eBPZNs5Q9QpGrpzCzpFyM5Kop3PmCWk hEeE5XQ69dWDB/cbi4uLIUbJ4cS1WfbAiSrXrr3zE993vzs2NmZkMllkzCwymQwymSxMM4u0mYVp mshmO6+9z1NpE6aZhdn93DTHYBgGHKeFRqMBy7LQtBqwm53zztHgZrMBy2rAspqwrc5507bQbDRg 2w1YlkXPnz/H+Nnzf13+r4Xfi/A5DUxcR+oemP3Xas93UlFc0HUd649XTtqMIxNXARyIEPE0u7do 9KtEPJ+kIjLiJoB45esjQNwEAIS8YIXiYOImgMAbTCvCIVQBMDPhVigjfpQIIiJUARB1V8MMKIJC oWB8+OGH5q1bt9RGkSfEST903/f9rGVZV955553xGNgzcoRfcb0TfE3cUqnkA9icnZ3dun//vg+V 9UfOcFLci0XAYV49l8tlDyryT4ThCGBXLtA3UigoqhoYEVGUuVwqleTL1g/qg3YdigiIyunqTRd7 acTOzs5qV69ePdfNLRQREauHLaU0FxYW0jjcH3iA+E0xaxDRw5M24qhE2X11YKSWy2U/n88/O3v2 rL+xsXHgeADf9/9USvlcMhcAPgv+elXP/vGG3VPpum56Y2PtaiKRzGbHxjE2NoYzY2Nwcm1kMmm0 Wm3Ua1XU6zXU6nU0rSpqjRoI+nLCMJYAJKQkSAnI3r4gXTyPyfV4G8DPmPknx388J0OcyloCOg5j qVQKdUjYb3z8nenFX331t9PT0x9duJDHxPkJvHZ+Aucn8jg3PsGe28bjzTVsPX2Kra1NPHmySY8e PcLstz780U///m+GtxN1DIhTEcDoOIyhtwf8z91fIp0+2hKFpmniF//2T2GaEUviJIAeoedKmczx ZqQd93evEnEUgGoQipA4CkARIUoAI44SwIijBDDiKAGMOEoAI44SwIijBDDiKAGMOEoAI44SwIij BDDiKAGMOEoAI04UAojTqCPFLoYtAOp7VUKIIUPPAYrFIvXNCVAiiBlDHxXct4lkb6TPsLeqVxyB YDnAre68/yPO/S8UCuLevXvi3r17YteED5UTxITDc4BbTMXf+lxbrl6mi2cW/fk7R0u9lrhO7eZz Wl1d7c0MUqk/RgTKAZarlymtN0X3+qCplwDgav757utV6o8RhwqAfwGk9aZICFcsVy9TgEmeL/Bw Y+82slHDzO4rtUR5hBwqgM8//5wAQAgpurlAYEp3b/DNt+FfvmD5U1NTPSFELgjDMFpCiONsXX/q t7s/NEJv3rxJCeGKXLJKE+Zmb2v4wPX60t0bXC6XZalU6l8BLFIRvPfee3Up5ZEmkzKzJVjUhmVT XDhUAAsLC73IEgDE+fPnRbcYOCwSGZX5zvH18m8nsgxcd7rZUTdiWGPG0jDsiROBcgAhpAAgnjyH fvHiRQ3BncH+FH/SvsBdZn4iJRoAqlKiCqBKhCoJVDWiKjOq3PkcBPrPREpfOFmTh8//A0WZmRb8 u8hNAAAAAElFTkSuQmCC "
     id="image10"
     x="0"
     y="0" />
</svg>
