<?xml version="1.0" encoding="UTF-8" standalone="no"?>
<svg
   xmlns:dc="http://purl.org/dc/elements/1.1/"
   xmlns:cc="http://creativecommons.org/ns#"
   xmlns:rdf="http://www.w3.org/1999/02/22-rdf-syntax-ns#"
   xmlns:svg="http://www.w3.org/2000/svg"
   xmlns="http://www.w3.org/2000/svg"
   xmlns:sodipodi="http://sodipodi.sourceforge.net/DTD/sodipodi-0.dtd"
   xmlns:inkscape="http://www.inkscape.org/namespaces/inkscape"
   viewBox="0 0 22 22"
   version="1.1"
   id="svg6"
   sodipodi:docname="tag.svg"
   inkscape:version="0.92.1 r15371">
  <metadata
     id="metadata10">
    <rdf:RDF>
      <cc:Work
         rdf:about="">
        <dc:format>image/svg+xml</dc:format>
        <dc:type
           rdf:resource="http://purl.org/dc/dcmitype/StillImage" />
      </cc:Work>
    </rdf:RDF>
  </metadata>
  <sodipodi:namedview
     pagecolor="#ffffff"
     bordercolor="#666666"
     borderopacity="1"
     objecttolerance="10"
     gridtolerance="10"
     guidetolerance="10"
     inkscape:pageopacity="0"
     inkscape:pageshadow="2"
     inkscape:window-width="640"
     inkscape:window-height="480"
     id="namedview8"
     showgrid="false"
     inkscape:current-layer="svg6" />
  <defs
     id="defs3051">
    <style
       type="text/css"
       id="current-color-scheme">
      .ColorScheme-Text {
        color:#f2f2f2;
      }
      .ColorScheme-Highlight {
        color:#3daee9;
      }
      </style>
  </defs>
  <path
     style="fill:currentColor;fill-opacity:1;stroke:none"
     d="M 9 3 L 3 5 L 5 11 L 15 16 L 19 8 L 9 3 z M 3 5 L 3 11 L 11 19 L 13.705078 16.294922 L 4 11 L 3 5 z M 6.5 5 C 7.331 5 8 5.669 8 6.5 C 8 7.331 7.331 8 6.5 8 C 5.669 8 5 7.331 5 6.5 C 5 5.669 5.669 5 6.5 5 z "
     class="ColorScheme-Text"
     id="path4" />
  <path
     style="opacity:1;fill:#3daee9;fill-opacity:1;fill-rule:nonzero;stroke:#ffffff;stroke-width:0.06811146;stroke-opacity:0.94117647"
     d="M 7.0109345,15.014032 3.0090862,11.011753 3.0268341,7.9871042 3.044582,4.9624557 6.024896,3.969898 9.0052099,2.9773402 14.011079,5.4799978 19.016949,7.9826554 17.007479,12.00114 14.99801,16.019626 9.9916106,13.516703 4.9852109,11.01378 4.0508317,8.2079003 C 3.5369231,6.6646663 3.1092463,5.4092264 3.1004388,5.4180338 3.0765217,5.441951 4.0056207,10.976367 4.0382161,11.004143 4.0536368,11.017284 6.1964396,12.186487 8.8,13.602371 c 2.60356,1.415885 4.771655,2.608689 4.817988,2.650676 0.06482,0.05874 -0.225794,0.386084 -1.260482,1.419802 l -1.344724,1.343463 z M 7.0959888,7.8411987 C 7.5080642,7.654283 7.6332687,7.531746 7.8213723,7.1312693 8.1127626,6.510893 8.0050781,5.9361412 7.506903,5.4528323 7.2609623,5.2142308 7.0996457,5.1193888 6.8496175,5.0663978 5.8923402,4.8635124 5.0402477,5.5290777 5.0402477,6.4796875 c 0,0.4642111 0.1297364,0.7777431 0.4504468,1.0885879 0.4256811,0.4125863 1.059738,0.5203852 1.6052943,0.2729233 z"
     id="path4487"
     inkscape:connector-curvature="0" />
</svg>
