<?xml version="1.0" encoding="UTF-8" standalone="no"?>
<svg
   xmlns:dc="http://purl.org/dc/elements/1.1/"
   xmlns:cc="http://creativecommons.org/ns#"
   xmlns:rdf="http://www.w3.org/1999/02/22-rdf-syntax-ns#"
   xmlns:svg="http://www.w3.org/2000/svg"
   xmlns="http://www.w3.org/2000/svg"
   xmlns:sodipodi="http://sodipodi.sourceforge.net/DTD/sodipodi-0.dtd"
   xmlns:inkscape="http://www.inkscape.org/namespaces/inkscape"
   viewBox="0 0 22 22"
   version="1.1"
   id="svg6"
   sodipodi:docname="fileview-preview.svg"
   inkscape:version="0.92.2 (5c3e80d, 2017-08-06)">
  <metadata
     id="metadata10">
    <rdf:RDF>
      <cc:Work
         rdf:about="">
        <dc:format>image/svg+xml</dc:format>
        <dc:type
           rdf:resource="http://purl.org/dc/dcmitype/StillImage" />
      </cc:Work>
    </rdf:RDF>
  </metadata>
  <sodipodi:namedview
     pagecolor="#ffffff"
     bordercolor="#666666"
     borderopacity="1"
     objecttolerance="10"
     gridtolerance="10"
     guidetolerance="10"
     inkscape:pageopacity="0"
     inkscape:pageshadow="2"
     inkscape:window-width="640"
     inkscape:window-height="480"
     id="namedview8"
     showgrid="false"
     inkscape:current-layer="svg6" />
  <defs
     id="defs3051">
    <style
       type="text/css"
       id="current-color-scheme">
      .ColorScheme-Text {
        color:#f2f2f2;
      }
      </style>
  </defs>
  <path
     style="fill:currentColor;fill-opacity:1;stroke:none"
     d="M 3 3 L 3 19 L 19 19 L 19 3 L 3 3 z M 4 4 L 18 4 L 18 18 L 4 18 L 4 4 z M 7.5 5 C 6.115 5 5 6.115 5 7.5 C 5 8.885 6.115 10 7.5 10 C 8.885 10 10 8.885 10 7.5 C 10 6.115 8.885 5 7.5 5 z M 7.5 6 C 8.331 6 9 6.669 9 7.5 C 9 8.331 8.331 9 7.5 9 C 6.669 9 6 8.331 6 7.5 C 6 6.669 6.669 6 7.5 6 z M 13.994141 10 L 10.648438 13.34375 L 9.3066406 12 L 9.3007812 12.007812 L 9.2929688 12 L 5 16.292969 L 5.7070312 17 L 9.2988281 13.408203 L 9.9414062 14.050781 L 10.648438 14.757812 L 11.355469 14.050781 L 14 11.40625 L 16.292969 13.699219 L 17 12.992188 L 14.007812 10 L 14 10.007812 L 13.994141 10 z "
     class="ColorScheme-Text"
     id="path4" />
  <path
     style="opacity:1;fill:#3daee9;fill-opacity:1;fill-rule:nonzero;stroke:#ffffff;stroke-width:0.06853583;stroke-opacity:0.94117647"
     d="m 3.0064382,18.993562 c -0.02513,-0.02513 -0.04569,-3.633541 -0.04569,-8.018692 V 3.0018692 h 8.0186918 8.018691 v 8.0186918 8.018691 H 11.02513 c -4.3851508,0 -7.993562,-0.02056 -8.0186918,-0.04569 z M 17.970093,11.020561 V 4.0299065 H 10.979439 3.988785 V 10.97487 c 0,3.81973 0.020561,6.965525 0.045691,6.990654 0.02513,0.02513 3.1709242,0.04569 6.990654,0.04569 h 6.944963 z"
     id="path817"
     inkscape:connector-curvature="0" />
  <path
     style="opacity:1;fill:#ffff00;fill-opacity:1;fill-rule:nonzero;stroke:#ffffff;stroke-width:0.06853583;stroke-opacity:0.94117647"
     d="M 6.5876963,9.8359474 C 5.8813834,9.5380082 5.4647706,9.1202164 5.1773892,8.4216495 4.9711747,7.9203833 4.9585386,7.1318079 5.1487013,6.6313404 5.8180029,4.8698817 8.1398764,4.4299009 9.3674182,5.8319195 9.8108401,6.3383672 9.9793829,6.8026343 9.982744,7.5268928 9.9851784,8.0515133 9.9625314,8.1576711 9.7607256,8.5675969 9.5066203,9.0837581 9.043969,9.5438848 8.5313422,9.7902719 8.0302169,10.031131 7.1021147,10.052941 6.5876963,9.8359474 Z M 8.1400508,8.8347605 C 8.8899505,8.4941636 9.1874009,7.5573496 8.7917701,6.7821843 8.6299689,6.4651648 8.4844827,6.3343255 8.0997021,6.1597908 7.3696769,5.8286546 6.5446569,6.1288748 6.170792,6.8617106 6.0599365,7.0790052 6.0360745,7.2322873 6.0565878,7.5953221 6.0888339,8.1659982 6.2798373,8.4812092 6.764486,8.7635593 7.1792466,9.0051935 7.7048991,9.032402 8.1400508,8.8347605 Z"
     id="path819"
     inkscape:connector-curvature="0" />
  <path
     style="opacity:1;fill:#008000;fill-opacity:1;fill-rule:nonzero;stroke:#ffffff;stroke-width:0.06853583;stroke-opacity:0.94117647"
     d="m 5.3241574,16.639406 -0.3386025,-0.343772 2.1565621,-2.157377 2.1565621,-2.157378 0.669422,0.66691 0.6694219,0.66691 1.678716,-1.677667 1.678717,-1.6776678 1.507037,1.5058698 1.507037,1.505869 -0.357488,0.361985 -0.357489,0.361985 -1.149635,-1.148142 -1.149634,-1.148142 -1.67863,1.677581 -1.678631,1.677582 -0.6694651,-0.666954 -0.6694653,-0.666953 -1.7805777,1.781566 c -0.9793177,0.979862 -1.7973801,1.781567 -1.8179163,1.781567 -0.020536,0 -0.1897097,-0.154697 -0.3759412,-0.343772 z"
     id="path821"
     inkscape:connector-curvature="0" />
</svg>
