/* XPM */
static char * title_4_active_35p_xpm[] = {
"4 35 6 1",
" 	c None",
".	c #00001a",
"+	c #5df8ff",
"@	c #2fb8cc",
"#	c #08a3c4",
"$	c #007899",
"....",
"+++@",
"###$",
"###$",
"###$",
"###$",
"###$",
"###$",
"###$",
"###$",
"###$",
"###$",
"###$",
"###$",
"###$",
"###$",
"###$",
"###$",
"###$",
"###$",
"###$",
"###$",
"###$",
"###$",
"###$",
"###$",
"###$",
"###$",
"###$",
"###$",
"###$",
"###$",
"###$",
"$$$$",
"...."};
