/* XPM */
static char * bottom_left_active_xpm[] = {
"4 4 5 1",
" 	c None",
".	c #000000",
"+	c #4C7BA6 s inactive_shadow_1",
"@	c #3678E5 s inactive_mid_1",
"#	c #4B58A2 s inactive_color_1",
".+@#",
".+@@",
".+++",
"...."};
