/* XPM */
static char * hide_active_xpm[] = {
"12 21 5 1",
" 	c None",
".	c #4B58A2 s inactive_mid_1",
"+	c #CFCFCF s inactive_shadow_1",
"@	c #3678E5 s inactive_color_1",
"#	c #8E96A4 s inactive_shadow_1",
"            ",
"            ",
"            ",
"........    ",
".++++++.    ",
".+@@@@#.....",
".+@@@@#.+++.",
".+@@@@#.@@#.",
".+@@@@#.@@#.",
".######.@@#.",
"........@@#.",
"  .+@@@@@@#.",
"  .+@@@@@@#.",
"  .+#######.",
"  ..........",
"            ",
"            ",
"            ",
"            ",
"            ",
"            "};
