/* XPM */
static char * title_5_active_xpm[] = {
"2 26 5 1",
" 	c None",
".	c #000000 s active_border_color",
"+	c #BFBFBF s inactive_hilight_2",
"@	c #808080 s inactive_color_2",
"#	c #404040 s inactive_shadow_2",
"..",
"++",
"++",
"@@",
"@@",
"@@",
"@@",
"@@",
"@@",
"@@",
"@@",
"@@",
"@@",
"@@",
"@@",
"@@",
"@@",
"@@",
"@@",
"@@",
"@@",
"@@",
"@@",
"##",
"##",
".."};
