/* XPM */
static char * menu_active_traditional_35p_xpm[] = {
"27 27 7 1",
" 	c None",
".	c #ffffff",
"+	c #292929",
"@	c #d3d3d3",
"#	c #7e7e7e",
"$	c #000000",
"%	c #6a6a6a",
"..........................+",
".@@@@@@@@@@@@@@@@@@@@@@@@#+",
".@@@@@@@@@@@@@@@@@@@@@@@@#+",
".@@@@@@@@@@@@@@@@@@@@@@@@#+",
".@@@$$$$$$$$$$$$$$$$$$@@@#+",
".@@@$$$$$$$$$$$$$$$$$$@@@#+",
".@@@$$$$$$$$$$$$$$$$$$@@@#+",
".@@@@@@@@@@@@@@@@@@@@@@@@#+",
".@@@@@@@@@@@@@@@@@@@@@@@@#+",
".@@@@@@@@@@@@@@@@@@@@@@@@#+",
".@@@@@@@@@@@@@@@@@@@@@@@@#+",
".@@@%%%%%%%%%%%%%%%%%%@@@#+",
".@@@$$$$$$$$$$$$$$$$$$@@@#+",
".@@@$$$$$$$$$$$$$$$$$$@@@#+",
".@@@%%%%%%%%%%%%%%%%%%@@@#+",
".@@@@@@@@@@@@@@@@@@@@@@@@#+",
".@@@@@@@@@@@@@@@@@@@@@@@@#+",
".@@@@@@@@@@@@@@@@@@@@@@@@#+",
".@@@@@@@@@@@@@@@@@@@@@@@@#+",
".@@@$$$$$$$$$$$$$$$$$$@@@#+",
".@@@$$$$$$$$$$$$$$$$$$@@@#+",
".@@@$$$$$$$$$$$$$$$$$$@@@#+",
".@@@@@@@@@@@@@@@@@@@@@@@@#+",
".@@@@@@@@@@@@@@@@@@@@@@@@#+",
".@@@@@@@@@@@@@@@@@@@@@@@@#+",
".#########################+",
"+++++++++++++++++++++++++++"};
