<?xml version="1.0" encoding="UTF-8" standalone="no"?>
<svg
   xmlns:dc="http://purl.org/dc/elements/1.1/"
   xmlns:cc="http://creativecommons.org/ns#"
   xmlns:rdf="http://www.w3.org/1999/02/22-rdf-syntax-ns#"
   xmlns:svg="http://www.w3.org/2000/svg"
   xmlns="http://www.w3.org/2000/svg"
   xmlns:sodipodi="http://sodipodi.sourceforge.net/DTD/sodipodi-0.dtd"
   xmlns:inkscape="http://www.inkscape.org/namespaces/inkscape"
   height="8"
   width="8"
   id="svg6"
   version="1.1"
   viewBox="0 0 8 8"
   sodipodi:docname="emblem-pause.svg"
   inkscape:version="0.92.1 r15371">
  <sodipodi:namedview
     pagecolor="#ffffff"
     bordercolor="#666666"
     borderopacity="1"
     objecttolerance="10"
     gridtolerance="10"
     guidetolerance="10"
     inkscape:pageopacity="0"
     inkscape:pageshadow="2"
     inkscape:window-width="640"
     inkscape:window-height="480"
     id="namedview7"
     showgrid="false"
     inkscape:current-layer="svg6" />
  <metadata
     id="metadata10">
    <rdf:RDF>
      <cc:Work
         rdf:about="">
        <dc:format>image/svg+xml</dc:format>
        <dc:type
           rdf:resource="http://purl.org/dc/dcmitype/StillImage" />
        <dc:title />
      </cc:Work>
    </rdf:RDF>
  </metadata>
  <defs
     id="defs3051">
    <style
       id="current-color-scheme"
       type="text/css">
      .ColorScheme-Text {
        color:#f2f2f2;
      }
      </style>
  </defs>
  <path
     id="path4"
     class="ColorScheme-Text"
     d="M 0,0 V 8 H 8 V 0 Z M 0.6666667,0.6666667 H 7.333333 V 7.333333 H 0.6666667 Z M 2,2 V 6 H 3.3333333 V 2 Z M 4.6666667,2 V 6 H 6 V 2 Z"
     style="color:#f2f2f2;fill:#3daee9;fill-opacity:1;stroke:none;stroke-width:0.66666669" />
  <path
     style="opacity:1;fill:#ff6600;fill-opacity:1;fill-rule:nonzero;stroke:#ffffff;stroke-width:0.0247678;stroke-opacity:0.94117647"
     d="M 2.0111455,4.0049536 V 2.0111455 H 2.6674923 3.323839 v 1.9938081 1.993808 H 2.6674923 2.0111455 Z"
     id="path4484"
     inkscape:connector-curvature="0" />
  <path
     style="opacity:1;fill:#ff6600;fill-opacity:1;fill-rule:nonzero;stroke:#ffffff;stroke-width:0.0247678;stroke-opacity:0.94117647"
     d="M 4.6860681,4.0049536 V 2.0111455 h 0.6563468 0.6563467 v 1.9938081 1.993808 H 5.3424149 4.6860681 Z"
     id="path4486"
     inkscape:connector-curvature="0" />
</svg>
