<?xml version="1.0" encoding="UTF-8" standalone="no"?>
<svg
   xmlns:dc="http://purl.org/dc/elements/1.1/"
   xmlns:cc="http://creativecommons.org/ns#"
   xmlns:rdf="http://www.w3.org/1999/02/22-rdf-syntax-ns#"
   xmlns:svg="http://www.w3.org/2000/svg"
   xmlns="http://www.w3.org/2000/svg"
   xmlns:xlink="http://www.w3.org/1999/xlink"
   viewBox="0 0 8 8"
   height="8"
   width="8"
   id="svg2"
   version="1.1">
  <metadata
     id="metadata8">
    <rdf:RDF>
      <cc:Work
         rdf:about="">
        <dc:format>image/svg+xml</dc:format>
        <dc:type
           rdf:resource="http://purl.org/dc/dcmitype/StillImage" />
        <dc:title></dc:title>
      </cc:Work>
    </rdf:RDF>
  </metadata>
  <defs
     id="defs6" />
  <image
     y="0"
     x="0"
     id="image10"
     xlink:href="data:image/png;base64,iVBORw0KGgoAAAANSUhEUgAAAIAAAACACAYAAADDPmHLAAAgAElEQVR4nOy9eZxkR3Xn+42IezNr 7V3qRS21kFBrBQFCoBUEksBgBGKzQchsZtjseQMYg8cGo4/teWMb4/HzGPvD8mZsjCTAYAMCY2PA yKAF1N3at9aCWr0vVd1VWVmZee+NOO+PE3Ezq9XQre5Wt5+H+HyyKisrl5s3TpzzO7/zO3Hh5+Pn 4+fj5+Pn4//QYY72Aew1xoARoBF//7TRAwqgBXQA/9Qf2n/McbQNoAEsiLfxT37yL885/fTTVy9c sHD5wkWLTkVkny+a3L37wW63O7Nu3bq1v/7r710LzAITwB7UMH4+DnAcLQMYA5ZeeOFFKz/84d+6 5LTTTrtkyZIllzAw38YYXGb7DwiICD4EMucAKMsKgKmpqbWP/uTR73/sYx+94aabbtoKbAemjti3 +fk44DEGrH7723/1Fffcfe/XJ3btloldu2VyYo/MtNrS7fakLCt5MmN6qiWt6RmZabVlcmK33HXn 3V//8z//i3cCZ8XP+/n4dzAcsOrtb/vVV9x11z1f37VzUiZ27ZbW9Iz0er0nNeF7j61btssdt98r 996zXnbumJCyLGV6qiUPrX9kzUc/8rtvBFajoebn4yiN+cDZP/jBTZ/aunX79K6dk9KemRXv/SFN /OAoy0o2bdoqa358p6xbc7ds37ZTvPfSarXl1lt/fO3FF118EbD4aJ+I/xPH8re99e2v+MmjGx7Y vn2XzLTah3Xin2gIpTy+YbP84MYfy49uvV127piQqqpk48bND/zOb3/kjcCqo31C/r2NpxIErvrI 73z0gve8572fag41x+fNGyfPsyc8ad26ddx//wMMDw9z8cUXccwxxwAwO9th+46dTO7ew8TEJD4E vA+E4Dnl6ScxPDzEiSccv88P7nZ7PHj/I+zePcWixQs4/YxT6HQ6rW9/+18+8frXv/ZLwHp+njoC T50BrPrKl//hredfcME1w8NDLFgw7wlPuP322/nC9V/kggvO5/KXXE673WHr1h08+pMNPL5xE5N7 9lCUJWVZUpQVZX2/rO/njZzTVp/C85/7bC4471zGx0bnfMbGx7fw4AOP0mw2OPvZZ9BsNvjmN//x mte+9tWHywga8dZk3zijFX/PHOLnPGXjqTCAVV/+u79/6/nnX3DNyMgQCxbOn/PPiYkJ/uavP0d7 ts1b3/IWur2KRx5+jF0Tk+yc2MVstztnon/a5BdlRVn1H2s2Grz0skt4w+uu5Ljly+rPa03PcNuP 7iRI4HnPfxZDw0N844ZvXvPa1x2UESTeYhwYu+jCixZcddVVpy5YuHDspKeddKowl7dYt3bdWoBf 63MVsyhXMfMkP/cpG4fbAFb+6Z/+2ct/6fW//KmRkWEWLpqPDJA5d911N3/7t5/nmc94Bpdedjl3 3nEf7Xab3VNT7GlN15O7ZPEiTjhhJfPnj7Ni2VKCCCLCYxs20pqZ4c6772PdnXc/0SDKkvnzxvmV N7yOd7zlqvpzW9Mz/OiW2wkivPiyC/A+8LWvfv2aN7zxlz4PPLKf7+TQST/2V3/1HSdf+aorzznt tNMuGR8fX91oNlfMeeYTeKv+A+12+8EdO3esvf/++9deffWbbgR2oeTVUfUOh9MAFv/X3/rtl7zz ne/+1MjoyPixxy5GRAhBT8Jtt93Gdddez2tf91qGm2Ns2LAJQdgxMcFst0NZlpx5xqm88OLzWbhg Pps2b2V2draefBFh1fErGR3tM8R33HUvN/7wFr76zX9icvcerLXkWUae5Zy2+un8jz+8htFRDQvT 0y1uvXkd8+aNceHF57Jn9xSf+cxn3/WhD3/wG8CWfXwfBxwLHPv1r91w5VnPeMYV8+fPPweUpMqc I8szrLVYa/fx8rlDJFBVnqqs6HS7rR3bd3z/7778pet///d/725gK2oMR3wcLgNoXHjBRc/77Gf/ 12eHh4dPXb5iKY1GTlVViMCaNWv54he/xKtffSXdWc/U1DQiws7dk8x2O6xYvpTLXnwxm7ds4+57 7uf2u+5l0YL5OOdYedwKfPC027M8vmkzM+02S49dwllnnMZF5z+P5cuWMt2a4bov/T1f+odv0Ov2 yLKMPMs4bsUyPvKh/8KJq04AYHJiN7fctJaznnkqJ528ik0bt7Re89pXv3rt2jW3Au2B73MssPxr X/36lc8999x3NhvNFdZZGo2cRqOxTzC7v+G958EHHmVoqMGChfMZGRmm6BXs2LFz7be+9Y+f/r/+ y3/+PrARrW0csXG4DGD1jTf+8GMrVx5/1Y6dOznzjFMZHh7C+8C6dbfz5b/7Ci95yeWE4JiaamEw 7GlNMTXT4qQTT2Dx4oX84OYfcdzy5Zx4wkpWHb+y1W6312/fsX0tApOTE1sWLVq8AmDRokWrjXWr H33s8RU/WruOoip58xtfx3OffTYPPfwof/inn2TD45vIcjWCFcuW8oe/9zuMjAwDsP7BR3ng/od5 6cteiLWWH9162w8uu/xFvwXcjMb4E//8z//ikte8+jUfazabK/I8Y2h4iGbz0LmkqvLs2L6Lbdt2 Yq1hxXHLWLx4AZ1Oj0cfefSG97znXZ+4+Zab16Me4YiMw2EA8z/8of/68ne96z3Xbdm6jW7Z40Uv uIBer2Dbtm381V9+ijPOOINjj1mhk28M3aLHzsldFGWJtZbly5by7GeexexM64Z77rnn++989ztu RBF0QtEFfZQ9Aox96Dd/64xXvvLKN46Pz7viW9/5HhO7d/O7v/V+AD780f/G45s2k2c5WZZx0okn 8LH/+gEEDSU3/ustWGt53nlns2njFj796U//0Sf/8n9+6+KLX+A/8Sd/+p5VJ554VSPPGRkdptHI D8MpmjuqyrNt6w62bN6OtYbjT1jBkmMWMTXVat3w9a9f89a3veVbKDZ5ygtbh8MAzrp93V1/LWLO +cnGxzn55BNZffJJzM52+MynP0uz2eSss57Fzh0TGAwBYevObfSKAmPgBRdeQCNz3//z//lnn7j2 2r9dj8bCA4mH84Elb7rq6tPf/e73vnN83vwrPv+lr/Dud7wZg+GDv/17dSjIs4xXvOxyXnLZCwnB Mzmxm+995yae9ZzTcZnle9/7/uS1137uC1/58j9cOjo2dur8eWM0h5pP+MB2e5Z169bSbre5+OKL a3xxsKPb7fHoI4+za8cE4/PHefopJ9Jo5Nxxx53XnXfe8/4YzVKe0pBwqAaw+I/+8OOvfc1rXvep 2++6m8ZQg8tf9AJ85fnhD2/iBz+4ifPOO5/WVBdj9NOmZ1pMTO1mbHSUC887t/XgA/d/4upfeeNX gMc4OEQ8Bhz/h//9jy9+5RVX/sk/fud746951ctYs+4uvnrDP5FnGVmWkbmMD33gPYyOjtDpdPjx j9axa+cu5i0YYnJyN6985ZWMjY6yaPGCJ4C6Xbt28bWvfZ12u83ll1/O6aefxq5dk2zfvpOfbHic HTt3sWXrdrZu3063V9Dt9ej1enR7ikeOP24FzzjzNF5w4XmctvrpT/gCe3ZPcdedDyASOGX1SSxb fgyPPvLY2re+7S3vu+mmH67lKTQCd4ivP/kP//vHf39y954V23ft4rIXXYxzjuADX/3qDTz96Scj PsOHAMDChQtoDOdMt1pc+sKLW9df//l3ffA3P3AD8Cgq8jiYUQC7vvPdf9k+NDx01yt/8RVn/cv3 frDk0hddxH33r6csKzKXkTnLbKfDyhXLmG616HU73HjjDxgeGeLKV72aBQsWsGjxAoyZuyZuuOEb fPGLX+LCC8/n5S9/OVu37uTHP17Hj267nTW338lPNmxk67bt7JmafsLk93o9WjNtHtu4iR+tWcdX v/HPfPu7N9LpdFm+7FjGogcZGh5ixXHL2LF9gscf30JVVZyy+qQVL37RZReuWbtmzcaNj+8EqoOd pJ81DsUAxq666upnveTyl/7G2jvv4tIXX8SxxxxDZ7bDww8/wv333c+Jq57O7GwXg2HhovmsPu1p 3PjDW7nw+c9rfenvvvCuT3zij28GNrCPDPogxvQtt9y8tTU9ff+br776im9/98bmiy+5iHvufYDM Oay17Ni+k+OPX85se4bHNjzGzEybq656E4sWLmThormE1aZNm/iL//lJtm/bzjve8avMtLrccce9 bNy0mQ2bNzPdatWTbKxl5XHLmTdvjPnz5rFwwXwWLlzAho2b6fZ6lGVJ5hzNRoOyKLn/wYf5x3/+ Lr1uwSmnPI1GnuOcZemyY+h1e2zYsJk8z1h14vFLXnTJpReuWbNmzcaNG58SIziUELDq2//8vf97 8ZJjrlr/yCO84fWvotVq0+v1+O53/pVt27Yzb2wxzjmMMVx6+UX883e/z7FLlrDhJw//xq/9+ru/ gk7+4R7Hvv/9H7z09a97w3WPbdrIutvvpuiqc/G+YtUJKzhm8Xy2bt3K61//y4yPj7F02TFz3uCh hx7mM5/5LM94xlmc9/wLuO++h6iqiok9u9k9NUWv12N4eJjznvcczjx9NYsWLfypB/PgQw+z/uFH uemW2/jxmttpNJo0GjnNvEGz0WDF8mW8421XsfqUk+rX3Hn7fTy+YTPnX3gOixYtYM2a2294/nnP /W3gfg4zg3goBnD2Hbff84+Tu/esWLVqJSedtIqdOyeRIPzv//03NPJhxkbHcS7juJXLOOuZp/GV r36TU08+8bpfeNllf4B+madqnPz3X/n6h/ZMz77zjrvuARG8ryiLHhI8CxeO8vrX/xLLli5j2fJj yLKMEMPUmtvWcN11X+DsZ53NmWc8kw0bNmOAXXsmmWq1MAYue/ELWHXCStY/9Aj3PbCerdt2cMfd 99YeYeVxK1i8aCEnn3QizzvnWZzzrGcCMNNuc8M3/4V//s73qcqKZqNBo6GG8NpX/yIXXnAuAFVZ cfNNayl6BZdcegHee/7txh9++hdedvkfs3/m8kmNgw0Bw+9//wcvPvecc9863ZrhjDNWA9CemWVi YoJ77r6XkeFxfaaB885/DusffpQTVh7X+vCHf+ODW7ZsvpenKKbFMf3FL12/8QPv+8AVP3ns8fGq LKnKkl6vy7atW7j8sss45ZTV7JmaYsWKZXgfEBHuvec+rr32es5+1tmsWL6K7dt2YYDJ6T1MtVos X3YsL3zB+axddydf+do36cx2WHX88Zy2+ulc8dLLtrzw/Oevf8mLXrj1vHOes/WkE1eNN1zevG3d nXzq//08d997P8uWLuXSF13E5Ze+gJ07J5jcvUeNIG+w4bFNzLTanHLKSRhrWb7iWB5a/xOm9kzz tJNOYHx83jkGe+vNN9+0lcMICp88paVj/PnPe/45QYTxsTGGh4doTc8QQmDXrgmsdVSVzm+j0eDY pUvYtWuSjRsfv/62NT9+7HB+gZ8yPLDj9jvX/a+Tn7bqI3fdfQ9VWTDTmmbVCcdz/vnns237DgKB EALBe7Zu3caXv/z3PPe557BwwVL27J4GA51ulz3T0xrrjeHv/v4bnPOsZ/Kf3vzcLdu3b/v+bbf9 +MYPffiDa+krldMYftObfuX4l7/sF8954TvecgnGXnLTzbfx7e98n9e/5gr+83vfznXX/wN33Hkv zegFHnzwEZrNJpe++EIy5zj7WWfwo1tuZ8f2XSxZsog3v/ktH/v4n/zRfWhB6bCEgoM2gMWLl6yW EOpSb7fbI4TAzMwMwUs0AGHpsiXMzLTJs4wvfOG6GzhyLNe2973v1//lK1++4X2+qsZ6vS7TU1P8 2nvfzZ6paXZNTnLmmacpN9/pct31X2DhooUsPXYlO3ZMgAEJwo6JXTWqz7OcX7ryii133HH7p884 8yVfRSfip1b3rr32b++/9tq/vQW4/k1XXb363e967zvnL1h4xT/987/yrLPP5Ko3vhqARx/ZUIeC nzz6OPctO5bTTjuZpUuXsHTZMfzoltu54srLWbZ86alf/rt/+JXXvf7VfwZsOhwnaf9VjH0PNzQ0 vCKIMDqqFGu328P7wOTEJJX3VFVJVVWsWLEUX3na7dkHv/il648IuxWHB6Y3PPboj0eGm7Ra0zz3 3HNYvnw5jz2+kaIqOWHlCrwP3Hrrj5iemuY5zz6H7dt3aQVTYKo1TafbRUR45cteyrGLFlz3jv/0 tl9+09Vv+DRwDwpip/jpq7FASa311173+W9f/MILPvi5z/3vq859ztkP7tg+wQ3f+Bde8+qXMz4+ 3scDeYM7b7+P7dt3EYJw5lmrmZlp8+jDG1i4cD5nnHHmO88993knc5h0jgdrAONjo2PnSBBcluG9 VrpCCLRn1btXVUVVVSw5ZjGtVpvNWzbfiK6WIzkm77zrzoecM7RnWrziF39RC0qzbV540fkUvZLZ Toc1t63llFNWs2Pb7roVIc8zXO4IIrzkxZfw0PoHrrn08kv+4JZbbv4x6sWerAsugPV/8ok//sf3 /tq73jE2OnTDksWLePCBh7n88hfUk59lGcYa1tx2FyEEhoaarDx+Offf9zDOORYuXDD+kd/52FVo weqQx8EaAEGEIMLixQspikJjaQhUZVVPfllVnLBqJSLCPffcnUQRR3K07rzr9omZdosTTzyRRYsW 8ehjG7j4guezYN48vPfcc/c9FEXJ/HmLKcoSRBgZGeHs55zBli3beMklL+ArX/7iVW9+y5v+Gs1c DtWDTd166y1rX/Tiiz/a7cze0On0GB5qsnjRwnryjTF0Zjts2LCJEAKrTz2Jyck9zMy0WbR4AStX Hv8KVOR6qETewRuAhICEQKOR472vDWDPnj3q/n3J+JjW7quyIi6tI62C2X3HHbfvmZ6a4oILzmfn rgmWLj2GE1cdTy8a7b333s+y5cuZbXdBVNNz3vnP5u+/9i3OPP1UHnrowWs+8acfT4TV4RodYP2L L33BR8ui9/1NG7dy6mkn15NvUM3B+gcerb3AvPnjbHx8C41Gzvj42Ir/588+eSkqVDmkccgeAPoA MIHAqqqoyoqxce3LaLdnueGbX3+QI1zrjmM0hMDznvd8du6a5LnPOZsQhKJX0ul2mZiYYHR4HiCI wEknncCGxzdhjWFsZOi6t77tV77EYQJce40OsP4DH/wv14yPj7Z2T07NmXyModPtMjXVIgTh+OOX s/Fx1a0sWDiP008//RKOpgFIECSqfVT5owYgohlA5au6lBqCsG7dmqOlg5u/atUqJASGmg1WHrec Mq7+zZs2k+cNREx0UMJJJ5/AmnV38fznPqf10d/9nU+jRaqn6rg7a9bctv7Gf7vxmtGxkTmTr78M 27ftJITAwkUL2L5tF4AWrRYuvoSjaQBFUSCi7JkEIfhA8IHR0dGIAUqWLlOcMqgLPApjbNWqEwki LFyo56soSoIEdu2aJM+adQgbGR2h0+ly8tNWsWvnjuvXrPnxIzz1XmvH+97/69/udDprFyycP2fy MbB79xRBAmPjI2RZxuTkHoZHhsjyfPyaj/3BORxi+9tBG8DWLTvYs0f1Gr3eAAiMk19VVU2vpt9H aQyfeOKJSAisWL60f7xe2LZtGwZLVVV4X7Fy5TKKXsmC+fN6v/07H/4nYMcROD4P7HjwgftvGBsf mTP5BoMAwQvBC+PzRimKEoChoSYnPe2k1ahC+aDHQRuA957ZmPL1eoU2boSA9/0sIE38UfYAw8uW LSeIMDw8RAiBsqoIEpjaM02eN6jiMR9/wgrKquKeu+966IEH7t/CkeMsJt757rd/wznXcs7Wk28M TE9NEyQQJDA+Psr2bTsBGBsbYdHixYfc93jQBlBWJTMzqt8IQeqbkkCq2Q/B1/8/SmP4nHPOXSAR 9I2MDlOW1QBgnaXyFb6qqCrPosULqcqKH970g/uBySN4nB5ozbbba13m6slPeCAdr3P9rM85y1Bz aAXalHLQ4+ANoCwpozuSEGoMsHcImJlpH00P4ObPn98MIgwNN8nznKIoawAbQtDJ9xULF86j2WxQ lhWPPfaTFkder9+anJxc75ydM/nz54/Vxzs61pfEt1ptGo3mamD4UD70EAygoKwKqrLSlDBaqa/m hoCqrJCjiAFExChf0aDRyAkR8PV6vYhZ1GOlkysS2LNnquLI7zQyu3HT4w82m405mQAMeACrHqDo Fdz8wzUURTnOwddz4FBeXJa6+mdm2kztma4fT/FUUPAnUPMFR2OIiAlBai/UjYB19+49VJXH2hIQ Fi9RUUevV+Aypw8e2eGnpqZmRMA6i4hgjGFsbLQPpiWwZ/cUW7ZspyzLwwKuD9oAqrJEgLvuvJ8s 67+Nr7QQJAhBgm7tcvQwQNxaJtQG4GPNQgRC8Pgq4ZTA9FSL3Xt2k2V5hyNvAIhIraACwFADV9Dz WBQlO3dOUJQF3h86PXHQBlBEDxCC4H3fEud4AB8gGcJRGoKC02QAqV1tbGwU7wPGVAjCvHnjSPy/ MUYP/EgfazxGY/TDDYaRkeEaRI/PG8M6S6czS1H05pz3gx0H7wGqMq6iMEdJmzDAYAg4yh7AbNm8 nfF5ypcMImrvoyhJhHnzx7UWIII5CpOvhyE462g2m5RFyejYKCZmAYPDV56i1yMcVQ9QKEaSIAQz 6AE8ZR0CPMjRxQCgOGW2rZxFu90vSKbexTTxaqxH5xgh1csgy3KWLFlM5tw+47z3nqIo8OEoGkBV pRAQ5khLUwZQ/w85qlkAIN5X9cQPchLpOGEwROixGtOfkCM1JicnWu12ey1A2esxOjZCs9k4x+zV qOJ9RVH0Yog9tHHIWcAT3JOfawBHOwswSCR/+mAvjRQCUvt58gTplUc4EvjPfPav1n7ms3911cBj 42vX3L1myZKFdDraX9BoNKi8p1ccZRBYG4ACgfrxlFeDcgOLFy88qhjAoKxlOllhzrFWdRUwaQFC EIwoQXKES5cdtBcwjcXAeJY5jlu5jHvv0X/Nnz8eQ0DvqQ8BH7/69JXohotzWmTv2dh6+hwP8AQQ qGl0P38V3vLClS846/jxuTtqHIYhijFMt/BuYqYc2TVdzJ9oFYv3tKslrW51zEgui6qyZGqqRWe2 +wQDiO9S6wBFhGXj4enveckJr1y6oDndcDZYawQogXt+8/P3PxXagDTSphSLf+P9v3XBS3/hpW88 ZfXTtN0uHneeZzUGOBIh4KxfeefbP9kcbp7UWHw82cLlZKOLsPkwurb2vsHLXvFJdP2kx3Zzxaue yxWvuudP9/0at8/3qe/HPB7xeiMg3itak1Jp6KqgLHu0pqbYsWsn27ZuY8vmrWzctIXZwlBWJb1e j61bd8zxRv0QoBPfas0w2oR3vuP1rz3j5ONeS9Wj224x2+5QFr1Hv/+1z/8aT404BJTSXf1H//1/ XLl69alvXHXiCaeeepruhtbrFQPaiz4GOBIgMB+at+AkMFQzewhFQWk2YRpDuNFF2OYItjGKG5qP Tljgic1GgxNreWJcDTzRIPYe8sTXWQM+AxMgMxgx4Ho418S5Bs66SKoIVVni4+YMg7t7VJUnLnxE JNY3uuze+BO2Z12csxCEfGgEJJzEXp7wMA/3gfd96PnPeMbZ1xy3chnPPPv0+h9bN2+vPcD0dIvt 27YfOR5Ayh5YC2LwvRJrHJQtQncCsiGMdRhrsc0xTD6MbQxhG+MYN4zNR9DTa+NtXwaShv0Z/0vG g76fjRDdGhCjPUZBtHpuLMY4PS5jMYQaAyQOII3EWEICgprW2rxJPrqAPM8h8hzGPZVzH7+ZwLHH Lp4z+b1ewc6d/e0Spva0uOuue44cCDT5MBiDy4cJoAbgLIKnv2Itoapw0iZUBdKd1mKGyzA21/dw TYwbVtLIjoJR129wYA6ypB0UvIWyRSg6hGIK6U7g25sJs9uR9lakGqKqjsX7as6mVaCcBVDH/sQF GGPwZQ+HhhcjRo3tKR4iwtDQUP/4qor1Dz4655jXrLmNzVs269c/IlmAjZYfAuAJzkDVw2RNnUQD 1rrowS0SSmXTXI4JHjFAFTBSIaEDrgEyg7EOYnVLfImIh6pCgodQIaEilF3923cRX4H3qt8LASm7 SKgQkyFVReUtxWyPcnIXvr0bKVoQCpAmZVni4+qfkwZWVY3+BY0FIXiqbotyZhJvIVQl7gisfqD4 sz//+M279+y+6k1XXfXGhQsXXaE0u07yv/3bjWzfvp316/uJwhEhgkJnAj09AlmG+BLjHDYfUowm AXEW8iGsy3XiXQORLiFrgASMG8JIR8FjKPVjrYsfnwEJ4MWbVIDFZmNqAHYEyYIaQIgr2VUgFTZA cBW2rMAKrjlO1ijJXA/ncqyHog4B8sQ0cE4IUAY+HxpjaN4xES+oVPsIaBoK4J6/+dxnN/7N5z67 9mW/cMWnX/Pq111xwgknvGJ0dHTF2Pg4N930Q4qiv4/GEcEAoVIK1UiJdfNx+SgmH8I4BzaLE+7A 2ogHGti8CTbXVW4cJmtgrNVJN8mdauiow4gJYCvUADIIPq5gT/AF4mf1XxIQX4APEDw+VEiAUArS 3U0oZpFiBnwP43tAQz1AlZRAfVat8lW98tX9CxJQ7GBc/P6lhjLz1IeAOKaAqW/90w0bv/VPN9wN /OXvfvQPLj3j9DMvufrqt1xy5113jKcK5tjooV8OYb8GkI2qkBIpdDUCEvSkqHQlA+OwNouPOfqp HfQRfAKCMDdNTLe4woKP9z0YBY7WOLwdwRqJ281kQAmmwphcjafqYRsjGNPBIBg8hoAJnkr2DQJT CIC+BwihouzOUHZbmEaDqtfBl52B73PERgdtRtn0e7//kU3A14AFv/7e95/z9JNXnzMyMrK8Pdtu cYht9vs1AB9DgLExvlsLLgMqjM8wjQDi8F6wLgeXYyQHI7hsWJ/rS1S6ZuN5FLCN+PFxQiREnKFu WI0oxNfE3ThFQagYD7ZCxCPBI1WJDQ7rBJeN4YZKbF7g8mFsaFB2qp8ZAlIaKALBV1SdabrT2yit Q7xXj5AdtWtOeAZ2TvuLv/wfDwI3DPz/kKME9MoAACAASURBVPot92sAbvRY8EVE75paYS0m0xCA deAaSgZKGV8lYDKCBKzJ1EuAegfrYghIt2gExoAVCIMcfPQEoquXCBYlGCg7SCgIVQFkhKKH70zi Z3fjZ6eQ7h4o20hwVBEDSAiE0F/Je4cARNPIfGgMlw/r986aZM2h6Jn+XYwZDqNecb8GULW2aZ6f 5QjgmmNQRTYOwWRDWJdh8lHI8hgCLNY1MdYooBMBGiAFSFr5CQMAVGo8IYHAlGJGT2DBEgi+ovYM rgkimMYwUhUYZ7FDC3DDhmzIkDUDWV5hg1MeIKgRmUEMUPW9Z40BRDDW4fIhsuF5IAHX6Kdm/9HG /jHA+HJdCQn0xfTNOAvG4bJGfMzG3/E5JtMY7vK46umDwDkYIXoBY1C6HTWiSPtS8w1gXTOmfoAR xOZIVSBZEyuCdQGbFRg7g41Y02CUCfSeIILdGwPQj/9ZluFL5TF8MYaUHcRAA4PN/2Nedmj/TGB3 SplAdFKMOBCn3jkbInjRmE+OMyZy9PGtbVytwevrjYkeIrn4QWBo5nyOQoOIN2QgPbQWQsoWAOOQ IHjfI/gu4rsYqdRrGU3hyrKotYDe7B0CSMUAFiyYp6u/MUrWGMVljlBVBDyh7BxxfcCRGPtnArOm snrWqYu3TbAGmzUiJnDqHYyBrKnUbDrJISJ5GzMBiaCuzgzSKt/rJgkIDtQJ0tmXCiLZ5INmJqHs IeUsUvUQXyC+wkQjMaIKpSqCQC3s6dinIASDzZrYvInLm7imfhdjHSHIQcvo/72OA2AC7cDJD5Gk iS7c2DjZitQJoaZ4iWFBDSDet2n1DwJAg2YyA4/Xi9SA78VJr7QeEbQCKL5CvCdUPXxZ4Evt8PFF T4FhqLBG56uqqrofIOzlAWCABo61ABEoel3ESypI6lH6p7QYdFTG/g0gSE3zYlxM6QLBWIiu1ojT YkyM/8Y0laihAWnFWUENZxD8pTFYJUxoW6hTxOAJCDZ4NbJQEqqSUBVURUFVCa2pNhPbtzHb7jDT ajPbmqKcnUX8vBoDyF4GoDxA4jnVK5VFj/bEdvYMidqhNZhokSJy9sevPn3zkzzHR2N0UO3CfjmC /RtA1kTTOsBk2Mawun7rCJRKAKVU0EYjScZCRGJ2kPVLt3zgMagnOxnHHBux2BAQPIYMkRyRNpUX ut1ZZttddmzawsrjFmPzZbj5S7Fjx+DFUknGKzuBsdFx5s0b3AvY8Def+7NYMbSsXr2CoSHHy668 FN95Ds1GBLGizxURnv2K//S2kXkLX7VP3UIMU33tQgAJSp5Fz6n3q/h4iKJZX2MQTFwv4qOELYZN E6uUhMhWBq2dBB8/T5ht7WZ6cpJOp8vundu+e/et//o3wB2HbADV1AYld0IBjVHEZtihcYxTDBCw mPgFXawc1hNr0BVrJQK5NLMpFKTafwlENx+qSAN75QSi6ycUuuq97j7S63Xptjt0Zkumd7cxxrFg 8SKdUFdhq93YkXlkI6OsHJ6PbY5is+Ycy1pyzLOZa4SW5SuXAcv3PcGY4+KNPoAdNIA4MXFSdZIi rkmTRTQM7+Nz9fsqGA2YaDQhGhDi+0blS5AKX3m67TZFt0Ov02G2PYOvtNllaGSMhUuWAnxpf3N7 QAbgRo6JpyFA1sDavJ/emZSe5ZqXmzi5scqXiJUaL8wJAYNegfi6HKWAgy4FE8DEFWQaWFMi0omM HRRFxWy7R3t6Gt9tQwiIJRpLQGZ6hPYEuAzjGpgsxzZHccMLMFkTkzVxzXnMdTeD93+WPuGnjWQc EcCmffIjHqnxr4khJnnJQT26RUvQYihnp/FlD1926c3soddpEYJ6hCAGsY58aAwbBPEqwnV5yYGO A8AAJSIBkzcwGERKDM2YqvlI6ULwHUywGOeQwtdhAhMwkuGcUSOxmX5D26QPAmO+X6/2ED1BTPmE 6BECgkUEqkooeyW92Tad2a7m904LUMblKuKoWUfFExIqQm8GKbsYp0KWylhsPoTJhtUoXBNsE2NT 9pMuCrF37WJ/tYG9/t+XHpGsIFSzSNmGUFLNTiAIvtvC+4AvuipZMxYfpO7A1qxLU2YrCtFC0DAQ fBmjyYFXCfdfCyhmsPkIUpWIE03/XA62gU2TLAHr+hW/PjGkK8C4Jri9MoK9FUA1+9uFUESUH2No 3HtIqpLQm8V3S6pilrKnbrCcbZE5wUTvZLB1mddIUKMz+vnGRDo7Cv8Fj1Qp05hFrIpYJBqSuL7C SMRSaxSjLlGrk9WApqE3cMyoe/dF7I2w+O4kBqcuvupGrZ+N/YtWV3VMg/UzY/jzlba4hYD3AsbF 7uYSX8Z2/KoEHGXRPXwGkA0vRqTC2MjZiyBlGyMFIRvCkGHIQFq4bFRdtwTEiz4e5WQEG0mcAYA4 hxGE2m3aIa3omTg51uKrEjECNtffQkwHvaZupiIUumWNGBM9udK6Wo6ONuYyBaxZVmctgkOMw2BB cgwF1g5FL+di8St5q0hZhwoRFakQoI5LMnCLW+mFoK8xYlQbgcGEgMkzNQwRJHjtVYRovDH3sA6L BRswElVAVrWMWCEzGdY1NQQEPX/SOfDtGA+AB8gwQXerUUBsMLahyh4zsIpNQ63aq67euLzPH6TJ FYmxPacPBFPBp6Kf9hVK8Yog1QxaRxCtF6Tf0YDS1mqEilC2ddIB2xxROZpr9NNT68AlD5XXuMCY PD5uB7KZvtfoY5f4fYwbMGYPxqviCWKxqgdBJ1VJKb3msWYBJm6qpZtP60Ihuu/4uQR9XvQ2EqVv 6fTYrKGkVtDzaTQOaFprLC47cLpi/1Rw0UakwrocH3o4n0EjqHu36eW+f2KQmAoOACAAmrqSzCAI jHgAteraGEzA2IAJAXELFAkHD84jtLGFln6NMRhjsS7DmiauOV/fQ6ro7m18jgpXEkawsT6hWCGv q5zGRMOoJ38QvA56qkgNyeDf+ttgEJPFzCfmdUaPVYxS44JgonwOr4hfqkJdPCaWrVH5m7F60eyq VGgUM0MxDjFWq5vGEnyg7HUIvqToHfjVd/ZPBTeGMSi4y+z8eJKcFkdsVoOtEM3T2jzOe+IE8v7H JA8whwrey0vsTRMHzZsJHnwR3WWlnH/oYXwH4ztgg6qXDBgEvMc7i5EGFo+lgTGCiCNIFLRQKagV izENkEwJLJeD2LjijP5d6xOSx0pAKxm5Yg9M9CQJ45uqztlNUEmbMdGgQ4NgA/hKMVVkIgmKMULQ UJd2CpGg29v4uNpDoBa5BK/yd2RulfOQDcDmYxBLpFirX8ZYdUFWAUw98S6unNqFppOWJjoVdhIy J/4vFndCUBlY4gHEQejW8dWgrjOdfGNzbDaMzUawtsTmoyA+ahZQY3VOjyt5H5tHnOIRsZjoaoME LWalukNa/TVxJAPHvXcGMPCcCAwJvp5MqXpx8mIBy5f4sqvAMWh2QhACRotPvooT2sNkI3gxhKhq BoNzmqXoFjwF3nfxVQnGYLMc8ySacfefBczuRCSo8jfLsdkIWu8fIfhKmyeAEDzOJFl1jP9SRQ8Q T5KEyBEkAJhWilUjsPGQYlyl8mCHVEhqDOAV8LgSmw1hXRdrMs1GpCAU7RiaNGabzEUCpgRxiDSw ruqnoyapjSKnIUG5B4wa6hwMkHL7SMoweBswBGsxPu2OEpnB2m5UACs217vGaZiL+MAEwWa5hkMX cLYRuREHZQ8jJjbcWo0sWGxmyHBYFzQAuVxD0OEyADe0kCCCkbJOnRRwzSgTGAqMZNFNDsUTlrj9 RKokJVCacNEJZxBDpJNbxeR2UCXsCaHC1GyiiwCrQKRQA7FgG6Mk5I9zGvPThkvOaarqnKaLNnqG BAiNpVY4WTOQqQyyfdEYTKpsJkMeXHEWjGBtjhA07MRQaIKPghMQ20BczHJi841FCAT1DF49gVQl QYwWs3ygKroEAR9xAq6BZqWqqnIuG8Bmh8EAiukNYBzONQhU0dU7TJbXOb+z2gEUTMxP8RhyPdFA 320O0qt7r6qin0aFQuN86hPwBVK2Cd5TzuyiaE3iWxXSq5BiBqlmY7SJegEEIxINJmYKxqmQRHRC bXT3Jk2siWmehPgcBtz/IPmTahyRpDIBqPS51gE+8hAWQ1zZcedPjS4ekSq6/VgHsAbjTUxfjcrn rZBlUcRalQglBsHmEXz6SjEHGcGCGM00QqgI/sA3ONuvATTGT9ADtJkCrKQISivLpvQpq4tBxiRX n8QhVVwk0R3afMAYoscwTWrdgBnWPNmGGimbbCEikGdLCXmHKpvGhd247iS26TB0a+Rfx/qU/rks Hn9qGUtYYMBbKbTue7knaBfSKk9/JwMZoH6NjSA3CV37mCBIpbjD95TTr12/At36volim3huVQTr wDVxJsOJ4oSqKohRhiDo4yEgxhCexGUE9t8XICUEF0mJDIdV4sWCTTtXJp4boyvJJjfpB1ZRUvim jxxkAlNYSB4ghYESqp6Wg32lbrHsqFSrmCEUe5ByGilbGBddP6a/4iIXb0w0ABtTPeP6kz3ITqaY n+7XI638QUMY+Bf0+QmfVvbApIeYxYREIvm6v0GJoEjgJO8jAmIJA/swgUNMpYJYBOsaSJTJS6UY pz6OwwkCieVJ8Z3YpaPx1ebDBMmU2TKo+hdL6uqpizvGar0gxt1oSQO3QZSdXg+13L3mFiJYs0SQ aGMMz5VqNtUAQI+0X1D2MBirXkkcxvqI/B2WTEFqYCAEpOxk8BjTSIaQjrc+QfS9SEUQH8mZwYpf NIxkcF71ExKNRkTPQwhl3MYuLSL9XAkVqVVMxETK2NTcRvCR+t5vjWLuOAC0oNZpsmEVf9SCzfiF fS/G/RJjhjEmqERMvFqzyXQ109WTZ6KcvCaDItALEcyJloEVA2hNAKx6gVrRG9NA04geJ+uHFkN0 n32qV1GXoFfksLU3IBltInUs9NnNvYDfIBNYS9Xi8dSStxQmNfU1WExIk2sRCqKitSaMkkeSsuhz HojSzKJkmxEwWaZdSgIExSraMVXW+zQn0UuvPXX4DMDaJqFm95RFCzXoSby+gG1io2QhVB3FDUFp S0ymLkqMrrha82fQza7DAHJV/YAJEjGAhgWpFBlbEzANtKHYVhFoWgglvrMz4gDRVnXXUEDlIudv I7ljDBZXG4vOGsyN9/vqA4iAj2pgVYf+bSCTSU0rigEArHqqoOksNsd4j5hcMwTb0DRQrG5gGfSK LBIETJS0m1hgE23UsVkejStiq+jF8uowhoCqs0O5f2MgH8JXpl40mnO6yPtrdcq4pmKDGigmkJeM JagRDK6gKJKoT2iag1BGLFBRF1h8qYyg72nMTd4ILbSkuUygbw5tI2gGk6jepFQenPv6uPa+DT6e 2uIi1WuT6CPE+w5DFTMbAzb2GwgIFSJF3e0cQgwBQdO8EOlfcBEvaAFIN7B0WGcQQzSMxP8nI45h wB3GNDBUFUhH39R3VfWDV4WwhMixZ5qK2QyRimCGQDJcPqSTbQbkX4nY2JsIMqW60gB9djCRLqlI VBGqloLAKt58J6Zj0nf/Lq+zFp3bgBEh7UOgaVjAohtdG+MGyJUMIxb1TPE4XaKzB7xDbXgp9icr SpDWYkyGGOUC0vfQuYp9EpgoXM0QqxVNkwpGMRU11mLzLMoJdB8GiQ2zviyoqrImhwRL8J7e7IF3 i+2fCMqHEBlo/jAOkw9jXEbwHXVxvqfESxSKSjmNsZZgF2BJ7JoD8pirD67LxPtHl2tddJOxSGTi b0qwGdaNYDKDyQImKzFZAbaDhC5SdbU1Pb6vifUKrVkkgxN0U4rE25sYh03UM+T90Jb0jXWWEg2g 1v2VCjR9pZlR8OAj+xdUI6CTGSt6wUf6VzuaTSwDK77R+C1Vha8Kgtg6A/CxMITN8GWpBSGvGZbL NHT4oMbiGiNPJgk4ABBoovY/y+q8GuMgGyVrLlBgWAtAMrADwpAsZQFJFp4PZAGD6uAy3k+ufq+V JhXBdxAfCKFCQg+pOoRyGqnaSNWJmG44chHxfYOCVENAsqRi0phq3ZBOaOQpVNcwWKhKqzoN2et+ LAwZDQfG+BgOojQrKn8kcQoDGj8Ncz5qGSJYTiHQWEzWxIpetNJ6T6BfVzAug0oJL6m8yuCDICbT JMNU+OowCkJ8Z0JTsHwYMZ5gHG5oHvQKQj4a3a3Vootk2JiyIU7FEnVfQRRVGDQtnBMCqn7+Xyto u9qZKzb2BCaCJoUE6a9qDfoq6aorjvSNzQwQOoKSJUHbx1PGUFO7iV2RSMrMSfsGawHp/aI4JFS6 b4G4/vPq19k+Xojpaah6+mdUBOsFLDzio/wrCJWvCEWPyocoeskIREW2D+oN0s7nIvjKY7MmT2Yz iwPoDTwOCaUWg2pRRaa9gRKrd8T8XAwh9DA4DLnqCMwQc2XhadWnFEz0JNeEmo+p1Iiu3OCxiQQh w0qGcQGTx1tWYtwsyCxUPQISpd8eyDF50h3EkGP6DJ9qVhOYS984ZirJ09VGkAzBD4C+qGPIvFbg bAKxAWO9Nq2aRPpU6i0yNQhrsuihKkLVRUOT7r0kseRtRDAuw1mrF44SJX2U8hUNAY1hBY9FoZ4a g8sO/Coy+xeEhF5cOFEJlM5U4vljQyjGYl3UCNTUsOufzDkhIAGqhAX6NQDQmrZUbaSc0fJvVRK8 x3f3qP6tcJQzbar2FKFXEIppbBZJEWNjGIgrO1OiSMOT8gASWUJbC1cSso/GIgOZSzKK2kIGxCEJ fNe0QXw/UeCJsYr6fRm1goWC6hAZTa/1fcqu0sWxqONDQGVqUbWEi2WGCodK2CwQxAAZxmoo8r7S OQqHURCiZdWGxqUsFngG4z7o/bw5AJ72olfnMGq2ft853sCkwpABehjbQNwYhgaYCkMP1zCIKTBl B5eNYrNSvzxgTKZ6gFj4ia3BcRJi8ScCP5vUTHWqmiYf6nJwalKdQwEPAFZJ1G5M/0Tm/h18XwOA RC/YVCwVPNY21SsEj7ghddsBCKLCECw+qGaBIARfaRqYWUKAqtehKguMG0KvhNqpO516nfbhMwDX HCeE2Ls3J04S897o2n1/92rj1FXrqo+rq6aHG/379cdHrR/Qj5kZNssQ09STZCqwYxjbxVYdTHda MwAXVLRCrxaFmghAVQ/oMGQE8VjRYo024SSwmQ0Az4HTUfc0DN4GjrGu8AUwUcBSdz6rsamaGM3r jWBMQKwaiIhHbBSIZCORJzDY4CPdC/iA96lpJi6ouC+Dy4fA5gQsNgi5cTHQRcLpcBmAlhaTrxug Q+s4GVe9c7qNS3LBqRHUmIGPSTF1kFwZcKeDPLZoPA3BY5O4RDz4XhRdlhF0RVbO6G5kUiP4mHYR dJs66wi2qtXASAxHg6AR9LhsAm0p/UteId2HfgiLo+bt9ToJRqLuz0RxaCwEzan++dj1U7+liW+R OoeIFcEcY2WgD0CzC1evQ9GLc6UO51qEs/+xfwyQUorQxftsAAy2qevfFo2zmWIAlw8rGq71/wMr oxZ1DBYtVJ83RyNoMjBB3XUQ+jX3fmm3RuEiCAHfnVQsYpWSNi7DOoc4168NmGZU6eiKFwRr8r2O x+zjb6hDQDLGSAcrDxBr/FWBVF2VdRUtPX+icVvRfojFn6AZTqzeaXeyUaGIgDGN+KlW09Mor1ey KimFfZ1FGGvAa6jw1eHEAMFH9WyK0+mcmAi0miQFjnXDcdL1wGsUbW0dc2sKdk4aGGOuzeNER/JI CnWv1sdwUGElClJyweYlJvPgZvUdGvNq2be2KCaNQtxkKhlCVAKZvVd6TfDElDNY+p1FMvC9kpws 0ywAH3mACqSJtcNICBg3FoUfMcLEptCUNiKi2UNs6arZPgERp32CPj4/vlblkFaBpNf9gvVyfUl6 LlTFgV/u+ACyAKUekyZQmbqgYKbmoPWEhVBhbdpJ3PfPWdCWcrCRVk2AyvafS1zlgxU3Y4EiToy6 0OAVTWt5Ou0sGmnkJIdKYtAI8mQOWaVGqexfNJD0ecnNJyOwDByPGfhtBl4TdIUmj0Bq7NTvpO10 eoy6o1nUN4Sgi0qSgelvBY2xJ6BuKI2fbDIta6MZjs0tJtP83zhd/VXRwx5OSZgdmh9PlMNm8aKG Nu4KYl0UW5h4ci0iFQbdtsXYBJzSlzAxdyZOdgoRiQqOmYAEdfv1rmPopMa/04aUg63egC4hXyJ0 YmuArnbjckKm29ho09AAMWQGvICJIDWVixkMYQOvSUZRs3upqSUB5b7R1JgkTbLVSddKZ6WrPzaQ qMQ7xvnkkIxyAL4q68dU+ZP1+wIwsTLfqRtJD3Ts3wP0ZhCpcI1Rgt+r7y9raDuYaDND3X2TikQM VAPTSbTJ/Q9qAlL5NcXXVHZNJ9nHNMhijY0xV7V1qiGIExGZPUwUg6bVLT6WGgStEAbENGMZP3qh lPvX8d3tdXzJUNOOZhF8Cpru+dT/H4+5/u7JsFQqZ2wT4uSL94jVzSyD6WIqr6XsEDA+gHXRExRR JOrj3sGGIEU0FIMxOT79L+kdDpsB+AKTDyniJtN0hrhKMKqndw3dJzixZy4Dl1ylRfcVSpO/96ra y7WauPoCcUJ99I6FMmB+FkIXqVpI2UZ8j1B1sFmqvpnaELXvL0ROwM6ZEBP798V3MdYgWJzJ9fPF gMQSuKRQJP3jjviiv7KbigHSDiY+bo1nUT4jNnqQNsM08T1NZBON16qg9fUWuILK4sT3gHisEkOg V/FH2vxKKQTdmg/sk9pGfv8hYHi+9rclEGUii5c2TpQOgQIqo8Uf0c2kyYZx2ZD2EIaBk2cHV1Zi 1ZILNfS9wcAhGsHmDjEl1jQx1TB2uIEdamCHc+yQYGRWeYB688pcY7+RupKmCuE8xlWjBaBaJ2j6 md4c1D9gyLXrJyK2SELNMWIhlS1MFISauMmDkbQXYWwYjfLvlB3oW8ZOIuIOIukosoauKdsEk2ll JSqBJEisEWQYY+n1DmMI0OpeU3fXsESWLdYCBlrDtGuowNhhki5ej36wNhkLQ3MUt2kkV5vy6YQL omv3XV1FPt3vIb6LlLN6X0p8MavMoNUNIazLVITkomiFHLFG3SsOJEdMA6zVVLDe1dT2UX5dCxjM gKDGNQkDDGwLo0uyUI5/oPEjofxU1Krz9lg6DvVFrNRTJQWQjVxFMIJNbeL6ykifWKTsUflZMAZf HkYP4NvbASGkVA7BOodtjmJcA0IVV3xDt5C3mbozM+h2dfVhGwOPDTKEsd5fV9jSbz25IfbcS9At YtIJrRE7qUk0R2KVMKmRrNOQIlGQaUIZY6tRzrwqwDUINkYtF40xqXPnAL/knZILhzm9AylcRaxh 6uYQ9WIpBEjCLQMVSv0Ork4KjCioTjsdWAkIunF2qMookROtCgaPrwJV0UFE6B5OKjgfX6lfzyVZ daQ1a0IobqWe2q4j+Gq32npQVWBmWq8u3ut06XZ7pC3ZOq0W3fYsPqiwMZVHBYMPCnp6nXbc5TP0 S6BVRVWUlLMdQhWoegXLls8HmyvnX+f7GgpM1lQeoN68ImYHkZdQA25SF7aSse8NYPsxgjpMSfqh hiviCak9PP6tkq+yLwqJRiBVVW9pJ8ErondNxPtaFKKG1he5KI2tmZAzFjEeG5x6iCgwaQwNeKtD NQDfmVQX2RjR3vlY2HA2Z7bVpigril5FZ7ZDWfSYmZ6hqirK3qzmp1Z3wyi7sxiXqVjCGKx19Y4X RdEBm0egI+T5ML3uDLOtPdpzmA3pBSl7XWbbU4RKCJWn6HRV2u09RS8jFC0Ff6KaeRNyHCM6PflQ PVEGZd4MRrMZ0kZXUO91WAtXU+VyIKWtXb5mLSJJ368ZAcQG0URTp8ym3kQqYgebKbapemCqeCwo LrE5RiSmfr7mWsSXBD9ACpmsxhA27oUU5PBhgLIow6P5UOOkzmyPbtGl263odQs6s7NICHq18N4s VVHgfYXNG7i8iTWObndaJ67s4n2gNzNF5Stc3qTodul1ZqjKApfUrVabOnq9DtbltKcmyRrDFL1Z GsPjGJQ69aVKrRqNEcpuV08+DtucB4gSIS6RP7HxM5FREvvzATFadrU2qNDF5P3Jn4P+ExCM9/v1 37hCc63/B1H9n9WLVYlxMTMBZf1ihbBK116I/QMmU9gRRCnjpIwWoKw008FGDUAMDdb01cbGYayQ rtTqDqMg5J7P/eVf/RpP7eXS9jkC0HQOfMFwlun28IJxAWc8I6Ey86tqerF4lhjDsmaen2msPROg v/mDqzMCBfLxb5NCQFa7fZP2MkjPSeGsFpOkW+IcBpXKKlANoYSq0t0+ytmIfx1pGxhDFsFgrAmE oPX7TLejMTFbsnmGiQjfNNTbhUgU+aqqsXQQwXg16FCpQFRCoCwOUy0gXiVz08evPn3xk5/Cp2yk nCxDDTO3GUsWHDPvDWDPTNcs0jbrgd3N04ZVNot7BiVyJtUIBmoXiauoBaEJCxAfj1oBM8DwpZVb X0k9gluJzaIi1OKQ+voJEKquMqfi8WUBRjeKSs0eWtSMVzszsSta+iRTuoaSbTTJs4Y+xx7OPYKA 3/z8/RP7f9bRGx+/+vTdowvmbTfZcEJI0VXqKq7Ze2N0UQdPkAoTLOKs4ojEUqa6u2R6G5StpWrg YFgwNq7iTLeyNZXKu20ZVcEy4AGMtoQnQkiSliBgvO7AJqniJ2Cs8sKqXFaewGbKq4SQrtlgaxyT PEM/M9n/OHDO8N/7qNH4oLuOY3BlR7WSqWXgqWyN/l+07LrP96k/aO8Yq8AybtGgBShjI27rg866 hF31Is4g9iTEfoG6ChlBZ60s1usX6g5hujOI956q143XQ4wEomi4KA9nNfD/L0PJlF4N+IJkmFi7 kLr0K+CjdtFpBLGmQb8OoEBU3zDl/XsbgqNftRysFNroZQaMI4JFnceUCaBGVxURyXcJ5Sz4QIjN Hb4qkSgLl8j315oBXyiGMRbXGMZiTcyLAwAAB8VJREFUNXSEgAmCy2zsLDqw8R/GAIi6+rojqN6i hZpfMPHECGBNnLDUkj1YL0ggcA5lPaCGqsOFilaw2iTSbwp1qgb2Df1tfV3/V3df6XVQYmHHNsbV IAQQ7Vv0PtLtkUmVuvso/h0q0l4CxuUYKZX2hsNbDDrC48CD18DolsGE4I3EjZSsaLkUsdpq5bJI YPWvB6iqm9Q+lljHJAihn/rXIHCAuauPNhlNTBljjm9Il6FNaacGBxWEpB6IVE/R3UzEZlGPqkUt a4n7C/YbRA1aGiYC2SCqIrYEJDOI94SiG3cMPbBxsAZwoBN1MBP6pF8z26ssNjemMdJP8eKOJSam gYM7m5gkVpWgoKu+LlGoJ7Fmfmtvmu4M9CrWhiP9xxJdEB83xqBav1QDSeDPxEJZiPYVcQBG9Qpe CLFUbINgXHTtVawhROGACl5iN1Is2pnDHALMT7m/r7/39/ih/O+njj3tyvmqNFQF2BLdrEr33tW2 9AqyZmzETCtKGzHqtK4meNJjg1qGFArS/5N2YdBr9O8HiVcch5rdVMl4Wbt1tZM4gSH9ndjE2GuY Ns7G1mHNSNoLSAFfVSgRljaTlBAIh0kTuFeh/gmPDf7e+/6+/v5pj/2sx/d3bABMzZZZVZZOfKHl Xt9FSFcyRcu1sZ5uBi5pW2sGB0mfOc2hgxggrapBWjj2H0Qmsu4pSNW/0Is7funVTfDaEkZVqNRe 67x1mqgkT1N5gLg3IDi8oMAQbcGXEOIO4hJrCJpNKAei+wVJ2nJkP+OnGcDeedC+8qIDNYYDNYSD fb2ZbJfNUmxm8nh9v7poFSdKRAsugDJ4Tm9Bdw41rqmVTUxMxWxczalEHSd4Dg9Qo0sSH6A7hFgt lRuv1U/nMd5jsmiAXtlCWzeHVlET4MFWKuwQo8dGlImX2lWc0tx0zSRf+bhVjCaiEkvPZXeWuAXx 4HnaJz+8LwPY++QnH3ighvCz7u/r78HHn4zXqd9nplMNFd5kZMMYY+JWdoakZcSlfYD7bWPK2qlb 1zcajP8uEkEktMhAcI+fGn/X8T8ZRtCNo6ObV0efWsZ9//2M04tCRHEqwSsswOJFiSFndf8CrME0 RrX8m7qEQsB6BYm+KvBVqOO/zTJTliG5LwYOfK+D338IGLwNGsGBTtLe93/aYz/rs/bridqFH+51 2o3Q3RNBUSR30tap+VDsA5TYI5Br51AqFM3BAP9fe1ew3LYNRB9ASrJpeeREdSa3ZvoL/c5+Vw+9 9tI0GR96sJ1p3Fg2RRIEsD3sgoJgiqKUNvYhO6MhSEIixF1gF8Db3Y162N4ODq9KcIFb2AXfqRiO /MXwsODuRRJenn0fgx1iASf5AgT+HZJCOO9AzsM62fMnDWjB/VnDtk02lceLsZllUM7ytrn3at26 CTjKRWC8T44EFvNBIvRLz65eHO7FdeLVEgxcAzajTYQi2S8QTetPW8on2Wwh2ASZ9mne7u30fhgB okzn8R5AvTaoqxXjGe4fYS0DPAgKD3d3sKaF68LYbGL4eM/JGlojDiHC0IDT52DOLZQM6WfzM5yc TARESjg9meD8fA4iwsXFAnk+gwd7RXswcpjT43GKPE8ahKpzIQcpeGg464ItocvazQCEPfAIdbuV rLFXAGImAltznsHeP1QeOk97fdztYgtM99RTAOA8Ta1lIxCZJLDoEDu5CIBGVXNI9sfVHTx5rP65 BxHh7vaWY/FJ3ADXGl5B9JBwglrm45yEkvW94ApVhqYuYeo1nOdA1dYyPt80FTirKec01PmEe7n4 BUBpTE8LaJ2jbWpZxGGZz7TCq1cLOGfx5s0S3jlcXi6hyGG5XEooJcu+KDpjIXFGUEVKrRs3A1BE DLdg2JVC5ICxawSgpJwy/2sY31c/ZnACInxy/4lN4j2y1eqxCc11toWxLaqqRV0ZNI1BVa4Zm2Aa xth3AIpcDKdSoNUtbNPAmhpOfBtsa2Camtfiu8UfMHO9g7MWTVV2gqInU2E8gzc4R0EOU5c8xAuu L9gH01nB6kocbT0RGtPi5uZvONfi+voTlFLw9J4DRgFYLC4wn59h+cMSRVFgPj/H4uItAIXmy33t PBVgFRB6fejUYXXDA8M2QCoEhzJ27PWYqX31Y0hOBMvZjAJ/3pSff/3t9z+01r9MpienTeN4RZ4I RKS8rKP7EHHUexWyhHNP9xx6lfUnQ7IkAZNSquvBFBZ2oKAktY+XlUNnW3YGJQ7jEnKsBAcZTj0b sABstxMR8gdDWX6/ESy+IdFBxasIisIiUZgYPDysIQYIERG8c1QUBX58946uPn746/11ebXjnY9i zNfWP+R3gxDEHiNhrz/YATt7f/z5+afF5ev5ZA5wpJjQDkHfdm2itH20de+ghicXRn1dhcfINEFF TY12ckOjSTyg+FyixLEsKArnSoGUUrRuXPXxtvx89amqsIVi7VSABDrkkeFQATiW9j0nFoI+/d+n +wdnBjvKSK4f2s59NFZ+0nrp9KxPBe8q931Si3+XEei/lQCMoXQaqJPzlKH7mJ5eQ0/5pfz/QwQg PR4rFIRu9Hk5NMTAMTOQfT19yI55jneRMnps+Zhj70LQSxOAmMYM0ccaps/N+Jh2qYNDro35Tq96 eu4//1/T/2XUfgs6xP48pv53+k5P6V/aA29wwC5p2gAAAABJRU5ErkJggg== "
     preserveAspectRatio="none"
     height="8"
     width="8" />
</svg>
