/* XPM */
static char * maximize_active_xpm[] = {
"19 19 6 1",
" 	c None",
".	c #80FFBB",
"+	c #6BD69C",
"@	c #4A956D",
"#	c #000000",
"$	c #5ABA84",
"                   ",
"..................+",
".+++++++++++++++++@",
".+++++++++++++++++@",
".+++###########+++@",
".+++###########+++@",
".+++###########+++@",
".+++#+++++++++#+++@",
".+++#+++++++++#+++@",
".+++#+++++++++#+++@",
".+++#+++++++++#+++@",
".+++#+++++++++#+++@",
".+++#+++++++++#+++@",
".+++#+++++++++#+++@",
".+++###########+++@",
".+++++++++++++++++@",
".$$$$$$$$$$$$$$$$$@",
"@@@@@@@@@@@@@@@@@@@",
"                   "};
