/* XPM */
static char * bottom_left_active_xpm[] = {
"10 10 3 1",
" 	c None",
".	c #898989",
"+	c #C0C0C0",
".+.       ",
".+.       ",
".+.       ",
".+.       ",
".+.       ",
".+.       ",
".++.      ",
" .++......",
"  .+++++++",
"   ......."};
