/* XPM */
static char * maximize_pressed_xpm[] = {
"12 21 6 1",
" 	c None",
".	c #0B113E",
"+	c #0C00FF s active_shadow_1",
"@	c #FF0000 s active_color_1",
"#	c #00FFDE s active_hilight_1",
"$	c #E1E1E1",
"            ",
"            ",
"            ",
"            ",
"            ",
"            ",
" .......... ",
".++++++++++.",
".+@@@@@@@@#.",
".+@$$$$$$@#.",
".+@$$$$$$@#.",
".+@$@@@@$@#.",
".+@$@@@@$@#.",
".+@$@@@@$@#.",
".+@$$$$$$@#.",
".+@@@@@@@@#.",
".+#########.",
" .......... ",
"            ",
"            ",
"            "};
