<?xml version="1.0" encoding="UTF-8" standalone="no"?>
<svg
   xmlns:dc="http://purl.org/dc/elements/1.1/"
   xmlns:cc="http://creativecommons.org/ns#"
   xmlns:rdf="http://www.w3.org/1999/02/22-rdf-syntax-ns#"
   xmlns:svg="http://www.w3.org/2000/svg"
   xmlns="http://www.w3.org/2000/svg"
   xmlns:xlink="http://www.w3.org/1999/xlink"
   version="1.1"
   id="svg2"
   width="22"
   height="22"
   viewBox="0 0 22 22">
  <metadata
     id="metadata8">
    <rdf:RDF>
      <cc:Work
         rdf:about="">
        <dc:format>image/svg+xml</dc:format>
        <dc:type
           rdf:resource="http://purl.org/dc/dcmitype/StillImage" />
        <dc:title></dc:title>
      </cc:Work>
    </rdf:RDF>
  </metadata>
  <defs
     id="defs6" />
  <image
     width="22"
     height="22"
     preserveAspectRatio="none"
     xlink:href="data:image/png;base64,iVBORw0KGgoAAAANSUhEUgAAAIAAAACACAYAAADDPmHLAAAABHNCSVQICAgIfAhkiAAAIABJREFU eJztfWmMJMl13vciMiuz7prumZ6eGXJ2d4a7PEQul6cpUjZtQb5oCqQkQ4IMkbABwbJkwQBhwX/9 2zYMGIZkGRIsWRZFWrYMUZZ1mIZoWxIhkhLFa3ntkksul3vM7E7PTvd015EZL/wjIrJeRUdWH7Mr UvK8QU9mZUVGRrx4x/deRGQBd+ku3aW7dJfu0l26S3fpLt2lu3SX7tJdukt36f8Lohe6wh/+4R++ 93Wve937tre33z0cDi9nWQYi9xhrrXsoEay1zVFeC+XiMvL7QPHnFKXuW1fncUlrjW9+85tg5qZ/ KUo957jPZWbUdY3ZbGZu3rz5+WeeeeYXb9269fMf+tCH9k/V6AS9oALwnve85wdf/epX/9sf+IEf OF9VFRaLBRaLBYwxywcKYTjtwBIRmPnQPUqp5GDLQQrPDM8N9zFzc4zLxqS1Rl3XePTRR1GW5amE qK3u+LtwnmUZbt++jS996Usffeqpp/7B+9///kdP/NAE6ReiEgD40R/90b/z+te//r+84hWvGF2+ fBn7+/uo6xrGmENaLjVdDqT8TpaXJD/L8imLIcunnh1/L58btyEIkrUWWZZhd3cX+/v7yLJs5blB COPBTV0Ln2MeyHKBR8YYaK1x7733XgbwPVtbW7/+8MMP76XG4iSU3WkFAPCe97xn48EHH/w3ly5d ygMDQsPDMdbauKOhjByQlJYTEYwxK9oeC05cV0zS+oT6pFVouydYCGst9vb2oJRa6UNq8FOf43P5 bMk/KcTh+nQ6xYMPPvjK27dv/3MAP5Zs7AlI3WkFALC9vf3O+++//2W3b9/GYDBYGZDAMGDV/EuN lIIS38fMK9fDYAXLIu+z1qKu65X75Z+8FtoRhCz+Xv4FCoLl/TKyLFtxGan7YwsSBjum0I64jYFi wbnvvvt+8L3vfe/lOxk34AWyAJPJ5K29Xg91XWM4HKKua1hrVwYpZrxkkPS/kmJgmKojkDwPmCMF 9mKXIJ8lLUcKTwDO/89mM9R13Wru5XNiaxQGOGUVAh9ilyPbG4Dh1tbWZDQaPQTgG+tHZz29IAJQ FMVLwwAWRXFo4IHD/j4eAKmJsUbFfj3lSlJYYF25tnvj9sjrzAytNfb29laur8Mt8UAHtxGb+fgY zqUAhTYZY9DpdDAej+85NBgnpDsWgHe96115p9O5EExzURSo63rFhAPtflqavtQASx/dhiFSgvRi UOjDdDqF1vpIUy1J9k0OtrSAKdwjMUE4N8Ygz3Pkeb4NF8mdLpbFnQsAnTt3btjtdseLxQJZliHP c8zn8xXmBNAmzZrsbOwj41AMWA5sypy3CUPTyMiCSEppf/y9dAt1XSP0NaXpbQLR5q5ic5+yAJJ/ AecopaC1vhCK4pRCcCcCQL6RZ/I8n1RVhTzPobVuXEAK1EnzF+MAqe2xdsVmcKUh4r4UpTT12J0U gqqUwmw2S0YZMegL12Ruoc33r7NmfqAPRVQAkOf5JSwH/1RCcKdRAM1ms0mn0xlOp1OUZdkwLPxJ YQidipG9/E6WkUISrgE4JEAB9Mm6w/0yD5GiFJhMAc1Q38HBAZRSyfJhYIK2xsBW3ifLa61XPofz WOilhbTWoiiK7be97W2dtSN0BJ3WAlD4I6KXjEajfHd3F5PJZGUAgMMMDRRLvywvKfZ/McNTgC+Q tCoxtbmEdWSMwXw+X/H/MaCL+5oayDgcDkmeOGPa5hJC3zqdzvjMmTMTANdxSitwpxhADQaDS0VR YD6fo9/vH9LC2HenfF6KmTEFTZbMC5/b0H2bYMhy8T2tHfX+v6qqlfg/ZTHiwYvLSEwhkb28J1YI KVDGGHiXO+n3+2cAPAeAcQoXcBoBCFxSAFSe5xfyPEdVVRgMBocigDZzGqNiWX4doJOMkVahrdza jkSAs+2ZoU3z+by5T16XSD4lSCmwmHpW6r6UVQGAuq5RluVgsVhs4A7mdO7EBQCAKsvyYpZlqOsa 3W4XxphDFiAGQrEpjwcrlQIOx8BkHwZBa53U3Ngq3ClpraGUQp7njS8PiHw2m2GxWKwdMCkkR1FK iGQW0VqLqqowHA611voSnDIGC3AiN3BSAaDoXBVFsR0aG3IAErjFA97m4+VneQRW3YcxBr1eD1/9 6mP40099Gk8//QwWi/kJu/HCUCfvYGvrHF7zmlfjJS+5hP39/aRLk1nFtnmKlNsIJF1FqDtY3NFo FCKBU1mBk0YBstWq1+vlRVFcDJLd6XQaAYgFQeIBGSFIIZHWoy0CyPMcX/zil/Eb//238PTT12AM w1p8S/4MW1x/9gb+54d/D1//+uPodDqHMI+MiuLBbbMYMU6SghEsiDEGWZahLMttMY4nFoLTWgAF gK5evTqSSaCAZONwJTAkzuQBaY1oA4TWuqnYRx55BFmmwGzwhjc8hL/2V9+ebGwMyNa5hHXfa60x n8+bCaBQ90c/+kf47OcehtYKX//647jvvnuxWCya76Xrk/WnLEMKPIbBlnwM+Y66rpFlGYqiOI87 sAB3lAja2NgYl2U5ms1mKIqiQagy/k+h5HhQ21xAShCYGVVVAZZgmTEcDLC/v4/5fH5qv5/yuRIg KqWwt7fXaF2Y8+j3e7BsobRybYrqOiq0lc+SgDKEhbHASApWN8/zi/CAHMDhePcIOk0iqMkBaK0n RVEMZ7MZer1eY8bX+X15Tca9bXhBSj/gmLFYeGbDIs87K1FH7GpSdcftSH0Xa10cqxMR8k4HbC0s gFr0ZZ0QrutfUJzYeobnSQsavu92u+dHo1FQZIqOR9KdZAKp0+lsTSaTznQ6bXIAAaDEHViX/ZMD KDsnz2W5uvYCwBZKrUYWcaSRcjvxIMh7pLCEstJNhaydtRaKCLAWBIuFsEDr/hrmeW1PhbJtVlGe M3OIvMb33HPPCKuD/qJFAU37AdBkMrlUFAWef/559Pv9Ff8vmZ8CObGpjM1cLO3AMk6u6hrW/8vz fKU+iT/WPbPNBMvnhDIyxAsWwFqLvJP7VgBVbZL3tlFqkGWIKPMKkgfy+mKxQFEUI58NvIZVC3As IbgjDNDv97dkFjBovnQDMXNTZiyQ1LbwWZIcEIBgLQ6liOOBPG6iRx6lwIVBj63JUmhdRCBXIqV8 dsyL2L/H2VHJn9QikWBpy7Ic5nkeW4Bj02kzgQSAut3uhTzPYYxZSQLF5lxqpLQOcZ48Zo4kOUhV VcMJOCPLs5WBkYO9Tphk+dSgyO9SM43M7CMCBhFQVVUyzJODl7Iycf/ilUhx++R9VVVhNBplnU7n ghwXnMAFnAQDxBJGRVFshcZ3u92VVcCxBQjlYp+a8rmSKfGfy8lX/l6LTEzMpFxNOAZhC3/yGXEZ eS3O0UtyEYF7bsAlK8xNDKakVL2xFYuvS2GvqgpFUWA8HgcBODGdxAKENCMBoCzLmiygUgpZljX+ UU7BxmY9lRKONS4lDJIW8wplN2tcwEojo3rjDJp8zrqcffg+aHaqLVpp4QLMIW1vq1N+n7IubZlC aU2J3NzEcDhEWZbnk4w6Bp1EAFbSwFevXh0MBoONxWLR5OQDBojToYFSJj5lNuVR0lIj2afjGJ1O cWjSqc3sy7bIMm0LQJ1m10mBcZMxBWAZBKCulgkgeYxxSAz+2vqaanfKOuV5jqIoQjbwxFbgpGFg YwE2NzcnZVkO5/M5iqJomBUaFhocY4DQeGn62yZ/5HkYqKqqYYEmCnCR2GGtl8fYjaSeEecOwvUU Llgefd0+ElgsFs1iEKnpRyWo1mGeuB1S2KuqgtY6zgaeSAhOmwcga+2o2+0OZ7MZut1u00hp/uVK nUDrpmlT2UNgdYCXqVaAGegUhWuQ8O1tgifri+uVgxTuSS3QkC4tzzOwFXMDJh16pgZYCklwY23X ZF1x1AAAZVle6Ha7p9rldepEUFmW50ajUXlwcIDBYNBky2ImBkqh/FgjY41JMbCqK89wd10r3Zp9 jHFIKtso2xEPlAz/5EQV4FxAvDJ4Pp+tra+tbqk8cTvDZ6XUyjR0CE+ZGb1eb3LPPfcMsGoBjmUJ ThsGqrNnz14sigI3b95sBCA26XIgUxs/AsWMCh1OxdTVYgGCbTJw8/kMGxsbyXpWGi00KWhPHF/H CzrkApDYvQBw079YmoCqqqH16nrBNgwUYwTZxrgvccQUeGStDZHAaHNzcwK3MiiM0QuaCIrXAVC3 290qyxLz+RyDwQBVVSUlWk5fxmY2ZobssNz/J5k1XywaDKC1xk//zM/iCAz1ohERkOnMIQCy3icX SQzjyi8FLaz0la4rxhspIQnXA2+8AAyyLDtVMui4AiBDQABAr9fbDkvBwrawOP0qtThe1LAOIMkO MvPKJIwR6wx0lkFnL8jmpjsi1x6grisQlc01IJ3pi4U+CMVR0VNKaRaLBcbjcZFl2ZYvfiIhOM16 AIKbCDofJkaKosDt27cPrQVIhT7xcd1kDbC0BuG8mQn8Fmn9OlosltnAtvC2zbrF+QD5XVt+IeQp yrLEZDIJK4NORKdxAQBAZVleCMAkz/MmFy4xQIxWU59lh2N/GGtK4wLs0bFzTHKq2NXLjRARAUTL tfwScB2XrJ8PiNuVmu1L1Z3KNMr73TNWrQbgLMBoNEK3293CKcLAU4HAl770pb3BYLA5n8/R6XSa N2a0IXdJKXMmv5PnEkA2uKJ28wDHFQCXnq6xubmJq1fuw9bWOWxubuLMmUkTvs5mM+zcvImdGzu4 fv1ZfPWxr+HGjRvQOmtWAB1FwR/HfZLaHu/9l+BYKbWy5iAsdk0B5GBFiNzKoE6ng263G/YJnohO 5QIuXLgw6Xa7g/l8jrJ0Pk8KQFM4of2p8CtQ6lwywbmAhUMkRwhAaM9rXvMdeMtb3ozxeNy8rsYY g+l0ioODg6beQb+P8WiEBx64H9/1XW/Fzs4O/uRPPokvfOHLIKIjBYEAzGYuDEwltgIojiOiICBy IUgqfxHnOMJ5SAZ1Op04GWTFsZVOkwqmoihGRVGM5vM5ut3uoTg5HuB1aVDZqVSIlHIBoJB7S1NV Vbh4YRvf+73vRLdbYjab4fnnn0+WDfXXdd1s/JzNZtBa4+1v/yt485vfhN/5nQ/jmWvXkOd56zMt llHPOmQfp6DjEDTVvpTbtNY2kYTWGmVZXsiyTHtXHMbqSDN5qiVhWuvNsiy70+n0UA7gUOEIuADt u15SsW8gCZZiVyP/FosFXvayK/iRH/l70Fphf39/JaOXZRkGgwHG4zE2Nzdx9uxZjMdj9Pv9Zr1f 2Hmzu7sLpRR+6If+Lu69955mYUjqD7ArGCDFjxjYBT7EmUCpNPK7WDEC3vLT8RuXL1/u40XGAAoA TSaTi+PxmHZ3dzEajZoFkXGYE4d6cXQgGROfp9AzEFbnUNIDMDM2Njbwfe9+F27fvt3kJgAELcG1 69fxmc98DteuXcf169cBAFtbWzh//hweeu1rcfbsZrMBlJkxn8/BzPjed74D/+mXP4Dd3b0kiLOW MJvNxed2YZbxf4yF5ErgeNBTwDi4lrIsh2fPnh0/9thjO+GxochhTi3pVC6g2+2eL4oCs9kM/X7/ 0NvAYiCY8omxiUyt3JF5hOUU6AJosTZ1XeG73vadODg4aGYmg2ktigIf+/gn8NGPfszt8iFCp+Pm EW7u3MSNGzv43Oe+gL/yl9+KV73qlQ0+CFbl4OAAb3nLm/Hbv/27yPPEhlwBAuNX1MRgL+ZJDBpj vJTKEMp6/TaxYZ7nw2isjqTjuACZWyYA1O/3tzudTrMSKISAsmGBAZJS+KBpiDqcQo21wFoLNnUo dOiPjcHLXnY1uU2rLEt8/GOfQJ5l0OHtXv4+IoJWCnmW4WMf+wR6vd7KxAzg0sJXr9wHNib57NC/ 0Be5RTwg+pA3CbyJ+SMjA8kXWS5lTYwxGA6H3TzPz+KELuBUGKAsyy2ZBJKrgOMFGHLwJBBqiwbW HZVSmM8XzVRw6p9cmiVpOp3ijW98PRbVArWpwdY097A1qE2NRbXAQw+9FrPZLNk+a9c92YWTqTWK AA4tmF3nJmMLsKIAoo4QLoYp+clk8hK8SBhgxQoURXExSLdMArWleo/jAuR5WxIIgIsCWvIARG6H zr333tOEZKHcdDrFW9/6nbhy5T586lOfwfVnr+PatWcBAOfPb2Fr6xxe++CDGI9H2N/fP2R+y7LE V77yVRCl0Tpg/Uzl4TSv1Pb4XQXSBcYAUfIvZSHDcbFYoNfrnSoZdOI8wPnz58vBYHA2JCDkdrB4 MNeFd5IRQbvje1Kpz7o2rSBQKY3f/4M/xCte8fJmL7+89+DgABsbG3jHO/5Ws4wtJFOYGbdu3cLt 27cPvbEjz3N0u1187GOfgPLLwGKyllBVyyXjMbJvGJhIEctBlkkeqTzrEmfhrWF+n2AsAGtzAScF gXThwoVxURTDxWLRvCf3cJq1HfmnwqPQQXlMYQkiQrVYrPhdSYoIN567gV//9Q/h+77v3U0kIOsL 7y8+dK9//08cjxdFgeFwiN/8zd/Czs4OsixPJ6GsRbWYN9vIwzPDMQ7vUuFeuCa3hcWKIesLQiP2 CUoLEAZ+bRRw4lXBw+Fw3O12GwEIICQGXW1H2YH4fJWfh6MIa61PBKHVD+sswxe/9Ah+6Zd+GcYw er1eMosnByBondQyrTUGgwGYGR/44H/GI49+BTrLWp8L8htWIv8fJ4Bk/2JKLWWTlBIsYLlTuCiK i1h11/KYpBPnAZRSk7Is+9PpFJubmysCIIFg285XYHWBQ9vCj9DhWHtMbZIKKEnrDE8+9TR+5t/9 ezz00IP4zrf8pSYVHHIDcn1CQO1lWYZFltjb28Pv/8Ef4rOf/TyIXJ3rnmstUFf1yiDFYey6RTEp YJzCQrIeWcavDNp86Utf2n3iiSeO/cKEE+cB+v3+xdFopMKGUJn9ko1aMubwTp1AUkjawj55JCIs qjmOkeFs/PinP/0ZfPKTf4qzm2dx//0vw/b2eWxsbmDjzBl0u10ALsR75plncOPGDq5dv46vPfY1 PHfjBrTWwnoc9UyLRbVIuj45SG3Ulh1tahfWKl4yBjgrUBTF8OzZs5Mnnnji1pEM8nSUABwyJ71e b7soCuzu7jbvBQ4NiDuQGsjwF0+TxgxoW7I1n1cA0iAwRUplUCrD87d28fFP/DHCRg73nFCJXIxJ UEojzwvfnuM9ByAs5svNIW0aHJPsZ9sStRgrxEmzYIXLshyVZSmTQXc8GWSxCipoMBicD28CKcsy uRJopYLIhMuOtpUFcOiewBQ2NYhOnr4guI0c+ri3Hn/kG2KbnghL4ZzYTYaBDVPrYaInXikU6pYY KgDBoih6RHSil0adGAP0+/2tgFKLosDBwcGK/w8UN7jtO3kthRPiTlf1otHObzdaVItDwh1bshjd y/n/UD4O/yTFCaJQvq5rjEYj2tjYCMmgYwnBUfogK1IAKM/zC1rrMAd96F0AqfBNNjwVE7fNn8dM WywWeNUrX4W6qsGGl0HOt/iPDaOuarzi5S9v3lQS/mROIRbu0Nc4xFs7IImogshtE+t0Ouj1eid6 ZcyJMoGTyaTT6/XOB1MVL2SQg5bKbAHtbwWXzFlB/X6OnZkxnU7x/d//bnz845/Aww9/AU89/RSY T26qX0giIlzY3sYrX/lyvPFNb8St559vNDOY8UApXJAKgddRbCFCQq6uawwGA5kMAl7oBSGXLl0a dbvdQViIGBoQa3C8ri8kieIsmOxIbNpSqeS6rrGzs4MHH3wN3vSmNx57uVZrh3zd8QsgQxtTICwF 0sK7Andu3Dhk4uU9sm7Z59NQDJaZGZ1OJySDwj7BIwXhRAIwHA7HZVmO/JspmgZI7Y59fTjGoC6F AVLH5uHi/tls1kzYxHW0AcyYgv+dzWbNsqp196WAV1tbY0qFtse5r61cmwvRWiPP83ir+ForsA4D yEoU3CTQuCiKQdgMIreDSU1O+XR5nkLF8XdtoHGdv0wNforxMj8v1+RJCxTf29Ze+X0bzknF//JZ R/3JumRfZT2h/f1+/+zW1laJY2Z51xVaBsn+WJblhdFopMNmkLbNn21vxZAkrYVMAMWZwZjJcsDk XHlcNlimeCGGZGxI/0qGAocnbFaYItoctz0GwqEd6wZVlm8DzfEzZRmZCLLWoiiK0dbW1rEXhhw3 Kg45gO2yLLFYLJqVQDL9G2tOqvOy0+GYWvmT0txYUORzU8AzxhEpvykHSoLTmPltfUgJS8oyyOup jGhsvdoUSLY5rtPnAob9fv/Y28SO4wJkFvB8WAlUlmUTAsYdjxueYuQ6ANRmttvKSVAmP7c9I9QV ZgVTA9TWtpSliO+Js3byXumvY4E7ClPEG1akJQv1dLvdvrU2JINeWAvQ7XbPh5WzIQsoOyAbFa6n mBkPbMrXxsxswwRBe2PXkQKbqfvW1Z3Kz8f3rTProf1yoGUbU1Yz9TzZ3rhe+dm/QFpPJhP50qi1 dBIBUHmenw+LKMJKIOkCQkNTmh+HUSl3kYqRUyFmDIZizZeDEmupbEcbNpAaHCgW0jYtXdfH+NmH mJzw+21CJvFPqCuE571eL84FtNJxJoMIzvxnvV7vgrW2eTG03A0kzW4s6YFSnZYzZm35hHUWI6V5 bUurw7XQdlmHFNp17kM+Jx6wOEyU/YlzB7EwpqxguE8eU4IYzgM4T2wTaw0Fjz2rcunSpWGv1xuF FxOFCQjg8Gtg25gS+3E5WPH3x/X/hzokGJ8axPC81Mudj4MB4jbFewRCn+SyLnk95W4kv9rWR8RW RFIoH5aGdbvd1DuDkpagzQLEOQA1Ho8nRVEMw7vpwqAf9YNMbZKdKt8GglKMONTgSBtiqxTfl9qi fdxnyefJ9ksrJs3zOksRjjKqiaOWuD0xv+JXyOd5fuz5gDYLEOcAkOf5uCzLwXw+R6/XawRAZgID M9eFNOsAljxKJseamTKRKSAa4xIpFEdp+FGUam+cp2/DQyl/3tb/1PNCXXIGUT6/LMvzw+Gwg2MI wXFdgOp2u1vD4TBfLBYrr4WViDY0sG1xSJv/SoGicE2WjbVZup6UP5Uk29f28kcpICmSmh6b5JRw x9dT1jLmX7j/OG4oxV+/WWd46dKlY+UC2gRA+o2QBLoQkkAhDZzSftmp+Hr4Lu4AkE7jyutxPXHc 32Y5YubGAxwPprW2WS4uBUtilVTuQ/YtXrwZzuOdQbI+aSnaLOhRkVJQhqIoRsPhcHSImQk6biKI er3e+fCjUL1er1lc2aZxMbAJ1OYTj+OHZeePG6LFKDrglhicyfplijgOc+O2xAKVShG3oX1ZV1wm LieFJLZEsfXxL40a4xhvDz3uXAD1er3zeZ6DmQ/tBmoz8XGaOO6M/JwyxzHTpPVIRR7henx/jLBj l9U2yHF7UsIea2UKHKb4E/c5tqapPsj+pXgVQsHhcJj5hSHA4XBwhY6yAI0V0FpvhfSl3A8Yvxsg JeGhcZJkh+Prceckwk5pd0p4UiuOpfa3DVSbOwmmOW5nm+DGJj7mRRw1yHtSFjIGlgFPhEUnQSH9 fAB6vV5qj8AhU32s3cGdTkcPBoNtAM2WqvBA+cvWsc+NJT6ct2GCOMuXApmyjlQOPSWIst7UT9DK 2cXwOTa3sn/y/jakHp4lzXso36Yksg/x4MczrKn8Q7AAZVmiLMtj7RM8VibwwoULg263OwnmP8Sc cj1AbKrbBiM2l/K9AilJTwGumEGScXE9cfl4CVtogzyucwXxwKRC09AWKVjrkjtxP+L+yzbF/U3x 02cD5cIQeVyRunUC0EQAm5ub47Ish8G8AFh5AUOn00HABzETUp2VR8lUWTbFkLguyRBJKZMuhTas /kmVOaqeNkoJQSpcTPXhJCTvk0oo1wZmWYZOpxNbgGQ6+DhLwqgoiklRFMP5fN78NsBkMgERYXd3 t3m5UpvWrWNgGyPWXU/5/lT98efgN+u6XtFKqaVrGXEMIWj73Nb32NWk7m9zM0op9Hq9RgFD3/wr 5C/0er384OBgjjVuICUAh3IAeZ5vDgaDYjqd4nWvex12d3fxa7/2a/jsZz+LnZ2dZlFl7MPvlI4K F+MygSRmkPfIOfiUIMW4IK4j9vttA7QuvD1qwE9ilZRS4SdjcPXqVTz00EMQv+E03t7eHjz22GP7 63h8nLkA6vf7l0ajETY3N/HBD34QH/nIR9w7arsFenmO/nAIS9pvI7L+7iA/FoACyGuXJSiycKu5 CSAL688pWCiKmmABkP+BbBmcWqzW7X9EW+sMFMqH62wBZZvPBMBadreExxJgrQqchtIEhQxADasy 1NUcbAwIAEMBln0zQ9uU/xyea3FY+cS11Ncrl5ftdXsQGIoUGOwfY0C8wP7zN/DHf7yDT37yk3jj G9+Id7/73SjLcjgajcYArqef4uhYIHA8Hm9Np1N88IMfxNPffALb586iQo7posLc1lBWA0Rg6yo0 kbVTsIDNPWPUsl/MgFJufLD8DXQl73fcBmsLZTJAw/1AagOCLWD97/kywXCNZ5964kX5RfFu2cPk zAayrIBS5PsSWh6EDFhhK8XtPdw3wB8VNwXZ/xq8ggLDuqucgTWDjAIrty/DogPSGqOOxqBgfPHz n8dsNsPly5cHeZ6PcXjwV7DAcUCg6nQ65x999FGcn4xx62CO6d4UxsygjHtbBykLywSlnGaLQA6A hmVuOqfAMFDQsLBKAcqC2I2rBaChYMFLhhmAtFdy8u0OhRuyABhZ0cGtZ/dw9uwWRqMzYFO5e9gz kQjMBiCCZQZpDRiGynTTWgBQbIFMQZHC7334f6DiGiCgLAq89eJ3wxqLGrW3I8KENO0SJsUzhIhg YF0RdvbOWAMNDTDDaIa2ru8E319l3bsHGDAKUMqCrAK0hQID7C0uKlhW2J0rbG1fQDfL8fzzz3f6 /f6RL4w41tawxWKxdfnyFexVOerpAtbWsJYA6zpXg0BggJ0VaB7Hyg16SOVrAAAWjklEQVQAKW/C gRqAQg33258My4TanYFgwfAvb2L/RwRmpyoEd04MkGWwJRD5MWYFgsZsOkWe5TjYP8B0Nsf0YIHp fOZ+2hWERx75InZ2nsOjj34Juzd38MijX4RlwnR6gGo6w3w6w2w+x8HtKZTVGG33UZ4FBtsKJq+x v7cPKCfKKyy1AJhA1oKtBVkLyzUs+35xDaotmMn1nGsoKNRUw8m28jrvtV8RGM6tQjvZcpJkAHaC RQCYnfIZW4MIuH17jmK4gV6vJ/cInMoFOO+mM60H2xfnhrCoZrAwAAjGsBscWGTEMJagwU6DawYp wBI5IfDSCgBaOT+rwhMMQ3mzzs7OgaGWkskMVs5rO9/HYGRgEBS7sgBAZABr3A5dMJR2JpmVdoKq gJl3C4PBAM89ex1ltw8AqMwCpDMQW2jPK9IG1W2LwSsJ4zMaWd7B9GaF2eMzdPs9J3QWANfOjQGA 01eQ0wWHCbQrx1De2znjTlo5i2AUrC/jDAg1fVXeRZANamsBG5SBwdCu30Qgm8Eyw9QV9vZuYzy6 uO6NIY0VOCoVrDbPne/2usWkqozblMkAs4HWPoxyYwQCofbDZxWjBrwWL1/H5iTfgqxXW2MB7TlJ 5GVVOW8RJEYJ/jZN9sxB4HbgONx7/LyjMSAgTOzw8p7lqwY9yreunYYZjBo12FVpGBkBpAmaCMUE mNczwPcj5iCH/7W/7l0X+24CS30wDGgmpyRw9RtrQZZRW29c2f05lSMwMYjJW4nGLzrecw1LFgwn BJVV6PQ3zuFwLmCFYgtwSFo2Ns9NOllnWNU1ah/rK0WYzw2InO2zUFDEUDb4Q+fJg/QDS+ymAdRg N8gCBCnUsJy5+wkAaRAsDAMqTKOH6klU5h4HNgwiBeOTU3legLkWI+RC1PuuPABLjKtXHgAIuHLl fmRZjsxqZ02Ut1YEFOgiLzW4y1CZE+CqnjXPbKIQT5oAy2rFy8pmwsKNPGXQsHBqAqB2cI80wB7z sFkCZMcmAzIarA1gg2Q5ZXbg27kfsHuVXqY0dKbjfYJHJoIOBSbdXn+U5/mwXsxg7AJkGVVtoK3F ggHlx8wBenaAN6Bho6C09SEXGjybMjsMDR9cOZlg24gSGOAwMIAPtwwUa8dgAjQRqqrGoD/A17/+ lcQTTk7aFjCXgYxHWCggrzewtXWfH0TJUXKDZJ3zsr5HAcyxggvfDODMkHFlWIOV45WKhkdpGS0B 0B4IMAGoQVbDMENrZ+Ws0rBEMOG1vWRR5MVFrTMypm7NBq7LAxAAlel8M8+zcrGoUFWAYQYphYoq kCJQmKFTCmAFgvVmi6G9hhsGtFKwoIYB8L7PGngMYMBK+bjBuxJ/howds+BQs4EDUMwMUgz2dpXr GhcuXUKmX8jfEbrfDQADZk6YZfuoyUbRnYFFSByxAzomIHfHydq4XxQzVlhDbVwIDdtUpjShZhcn IURDTrqagQngkJQDwlY5obCmACu/Y7uq0Ck74+2Ll4ZPPvH4tK13bS6g+dwfDi92uz2a3rqBup6B YWFrC2IX1oA0lHb+KwA4KAuCdn5Sh0Z77WZnXxURLAOaDCxrQHu34S0crBtqCw2wY5LTLmFDtEPP jncaWhtMp7NlQumFppDTsm4IVWiEJ618WxxbAMsg0rDGv/uvCQ8ZmnUDnKGUU2xi1Gyc1QM7xQGB YRwPFC/BIFzUY2wNpQBCBrIGpiYYs0BVV8izfDganxk/+cTjz2J1bGUa7RCFggoADQb9rUxrLKrK zZZBgzTBEsMyw5JxINC6P01Od530ejTj0ReDGsDGzT+C5RrEHi2RBbGHvd5EWMsgSw3ybsJrBgwB 2ucIjNEuy8jKi5s7hnNE54ivc1TGf16GscpZIrLL6xwAgR+WgG+ZoC05i0nWHWvrrtXejMMbl2A5 GCCoBuMrRajheM6Kl8CMAMsMJoBYgWvnfphclnWxqFFzjSzLhp2iE9YGSjB4ZBTQPCvLi/MEwnwx c69pZfdiZcth7ZtuCrvOUCMMTC4/QBQi3NrZe48AQ2xLWqNmF+FYLxwAowa7zgth0SBYttCwzj7U FoYIxAQiA2btMQEAS9BBeGiJxl34yi4xZAGy5LRW3GMtwVJgtkscWZ/v0EwhYAc0gciXt054XUkf 7jWYklErH8oqj3k4sDoopDsnUYMmj/7941xexCtKE1LC9d84q2HqGvW8RrfXKzudYu0bxI9cEZRl 2ZbWCovZAmzczJ5rlBtoy4ya2Jtd6+Jif07MYKtR1+wG12pnOYhBzDBkQahhLEMHa9GgAA/IiZFx MLOMxr6wyDX560tn48I0h7MdTmGfkKlhgdoJRcV+FQ1q952/hxvWunocWvd1c2iD/8eMmsNOKKBe YR976+dDPWfvQkAM0k4piGq4XzFzf00yzQJ1TUDtk27Wtb2pnV2Iag3BkoUhADAwVYVFtUCWZej1 +hexGglAHI/OA5SdYpsIMFzDsPGm35ly9mlObQgcJFfrRjkCesq07wSHLJZ2AlQ7ASHy0g1v9T2j SLlXubN2n0O20MKCNDVasdSb0IrlZw2CUQCpMAjLXiuloWCgWbt7FHs8v/TsBIL2Vs6V0U3ij+AY T6wdGmeXAaSGA946sFMAzzbAWyNmpxTMGstgMSiSO2pVgzTDsv9GQfDXC6V3CZaDrQGq2QxaZSiK 5g3iclwbylq+UHA5gLJTFJt1VaGuFmBbQ5F2ppkIxjIUMljtmlOzhrbGNdIuwRFbj1gDG32IC0Uu WmAH8Vymy/nXGgZKaRD7H2gGg5QGs0EzExdYoAC2diWDVhsLFUwu4JA1AdaopQCwz7yHSRgip+0+ QgEAw8aBTp/VrslAcZiwsa4dwZp7qsnPN7JPNvluExQMMXTt4IMNbWhSFYExS7IgkXfwgBAaKmSY jHd9pJBZC4ZCbWrMqwXyTKNYvjQqqexq5VmrgkCTM5vjTp6PTO1+TIEYqGt2aJOdf4LPVoEBDQMT ULs1YFpqi2RQYFhjtJkhZwPIa67114m9M66de9BB24Nj9+AKlj0Ac2Fz6A1ZQFsNj5oA775q6zSU iMC2BtVeTYNJYvhwbGmiNC81lYJVZRcVOZ9P0GzBde21X0wVBBWQ2UPfTgaWMWP4jvzgB/NBDO0x SmAoaRb3EKx1eYCaK8Ba5JnaWikQUduCEAJA/cFw3CmKQVUvsFhUqDnsrHU5aUMWymfroCzAGkoZ bx8Jyhg/yC4D7vodZgS9BqgQLLuJIGUVDHkD6yebjPKuQwGwzh8T+RU+PlPmNHWJCdziHwVtGbVy bXAWRgPGtZEUfDk3x28CDqEQ4TOUb4PTviCxBFLso3+vpaidhit3LynlUrsuj+XwjCJfqw0zGGCz jEXcfzWYXcCr4ITaKusmQo2F8ZGHs27uGnlBNpqgoGG5xnzfvVO50+msnRBqcwEAQFneOZNnWa+a z1FVC4eIjYEFQ2tAqdz7Vhf7A24ElG4sNCi8AhX+N/cUg1gjg3KaYJePdWZehVSgTy6huQ+sVi9B WBbG0p75c58eQofDV9o/M/O95agWf+7U0YltkCrlcQHLB6XJ3cLNfat9CCXC8wnOCznbp6Bh8mXW G3BzI8bX4xLWCkzOdSIj2JpR2xowDogSEWrr1gkWZXdz6/yF/vVrT89wTAsABAvQ718su111sHer +WHkst+HqSrs709xMLsNy06bnEF0/tv6TFkT2diGK66zHmM3X6rA8MBggFWwF45R7BkR8z41HIyQ WvX1B/mvfRPIhX6J1HgrO0ISu0loyed6zKaWoxbmpprBDxout7Q1kYsDSVDWfTa+TgpMDAjUK4yF bZZGAEDW6aBbdNHtdQHrXqhZzefgmpHpbDA5szG+fu3pHazGnO7eQz1d/qnBYHBeQ8HUFSajEZ68 to+vP/xZ7N2+7eJQImidQSvno5oEUEA4voPOiroeWP+9BTsTDwXfb48DhPQzRFudM3fGIfhf91k1 WibjaTm4DPZLvRRJvZcWQAHW+pxV4Hjm8vuNNFuvfz4sW4HNLj/hxpmkCjs3xWGhC63c5r1d8JpN npO9PWgqIbjFIHARBVkNUtb9TI2tXbuUwtlz5/CSS5fR7fUxn0+R5/moLMvURlECwlqqw0QAKM+L rV6/j+l+jv/zfz+Cg4MDXLh4ES+ZnMEpVzXfpReJrHX5l93n9/BHf/QHuHLlZXjodW/A4trTZd7p yDeIr1iBtQtCJqPx1nw+w8//3M9gfGaCK1eu4saNG9jdPfbvEdylPyMiTTCVQW84wHdc2MaXHvkS /sPP/TR+5O//Q+p2u2FhSCsGiHMACgCxtZs/97P/Gtvb2yiKHp588gkMh2N0e12/swZuzp1oGcM2 Ya+/5ie1yJtrttYnd11ZJpcxdG7BI3gmaAozj8ssoIPqBNIGhl0wqBhhrmh5DuUXm7CfdlvmDcDK XZdgTIVy8FN44VnumrICbDYo1Dt9ZihRvSMLt5qYYRXAhqFU5ir0q4SsAZQKcwp+EGjpErXyTfFT NhZ+PWGEdi0pZEpBkQb6wOxgiqee+iZe9cpX48tf+Bz+1+/+FsYbZ1rfGBJqinMAAKAe/uwn+1op lGUPOzs3sLF5FqS18zvszI6CBgygVQYN7fcK+ry/dkJATDDkJ0qgwKTcfAG5cM6SbjaQ1FaBlJtE 6XRyKD+f4NaPKlDm/F+mACL/OdSThXrZXYeCyrxQKuXmdDLnSxW5zI7SoR7lfL0iN7A2/PqnglXK e2blg5OwcMvBHbLwbytzRRRpWG1hCdDKbaSxXMNY5UI69plM9htEbchNOJxD2gJMDuVbAJb9AhKC znMQ+V8jta5dzO43C01VoSi6GE/O4Jvf+Aau3v8Avva1R7C7eyv1ziAAR0QBN3du0Jkzm7h16xbG ZyZuB43PSjnAk8Eqh2qvXb8GU7uc/sbWlo9HDQgE1rVbysROytmGTjvNC2lekILmGtYqZJ0M1649 g91bt3yTnduS8I48Fls5FwVWvodI36YKyJ7H+EYEEzKwOFxsWXfzvQW2t7fR6w/gpu2Ui3CYYcjx USsfynmNV9aFeWAA2oKMgu0QuK5x7akbsACyTOPs2fMuo2LQbHdjU0PlOfqDPm7e2sVwMML1p5+W K4NWKOUCaFnYvQqdlIJWCpUP0ZT14RQ7TbCW8ZP/5J9hY2MDu7du4YMf+EXMZjPkWe7QbE1g7Wa1 3PSBW+2rap/HhuMUWZfStMagQ7kbfE8WDFgCkW0Y637F0yeYmt0yuln6TYC/5gbaWvjJE5+IsT68 08otwfLg3S1oClGNd0fWa61xiRwiatqtQG4lcOhLkES/OeWZZ57B1Zfd74XDNqGuM7/GJX7IAlbB 1hYmc2v/VWZgbQbSwGI6x3A0xnv/6Y9hPD6DGzeexX/91V92eQPlf7jLMQK2qtDpdLDY24UqhphO 98fR+DYUh9CHBIGN8evpuVnraKGgrFvk8PTTT+LHf/KnUBYdPP3kN8EW+Imf/Cns7+262S1YsCZY 41K9yi98ZGNgyMKS9TOFfodxzYCfP28aqRS0JTftqbRLBuvlHnvS2plxcoGTIoKGM99QBEVu8YT7 XtyjCUQaCgqaXNpXUQaAoHT40WcAvm5igLQ/V94FQDsFIQIpLH+YOtI1y87ykfUxvF8+bsnCWr/D mvxMofGzksbvaOYai6rGj/34+1BXCzz++FfQ63bxj37ifXjmmSeR63w1pQLtEnREYGvCOCczgetS Ws6xKoIxFRRlcDlANwnB0GBC87MxFsCvvP8X8NhXvuy0g6ybPmaXJWHDgGEYwzBgKOv0y9YMawyM tTDWNMLAwjRzAHfsNnIaa2CNXdnW3Wz8NG69nbHumiJCHe6x7nt5D5FFbWoYS82PSCvt7/F1mqbO 1We6fX+uHBNgzPIFWS7XsxRiJ+Bu+XxtD//AZG0dH6z1U8ZeSKxvt7UGRMCjj34Z/+1Xf8VNjdQ1 ytK/sc0PLxsFKOd6K1M7a0f6G2gBgWLKpBEIBecaOptnzz6glH7DfDZH2e15M+PNPjFQWwxHY3zq 05/AK1/1IP7G33wnJpMN/Mdf/FmYRYCy1k0jwy1UdL1hMCk/a4OQ42k8vAUhI8LNmzcD+xqH+/Ir L8HZMyPs3NzDy6+8BJuT4fLcX3/gyqWmzAP3XRLl3fmNnd2mHnm+rs6Xt9T5QFPPXlPPczd3BfZw rB1NxiA/m6chlod5r+C8lO+/DdNiLh2o4KKMRx79Er7nr78D3/09fxt7u3v4wK/8Arr+11uVn9tg YhRZgf39fWcFLOxisfgXu7u3vg6ggottGsmMkwNh8EsA/TNnNq9Ozpz5QKfTubSzcwMvvXQP5vM5 aq6hKQAV5wpu3rqJ2cEUbBjjyQa0Jjfw3uQtU6mAIvZu0MEmA0Lm8VizcUxZVLMKzz13Pfl6tT8v lGUZzp7bgsqUczHwWT5aTgs5rBJWhbr7lI8YHN4i5KRQ1TWe392FVhq9XonxYAKGA81QztoWeQ5j LZ67fh3jzTOoZtVvPv74195nrd0FcAAnBGHVTqsAFAB6AEabm+fePhqN/hWIRjeeexaXL98LUhp1 tXA/46osTO0AkAOuNRa18WbMb5MK3GA0MbjbQ+QC7SZaULbRDmaGyoBci5+IU0k39m1JlpfzIfN6 DmKCUmGTB+AxrUs9WAutwhJYv7Teb6WzsMiscptjVYZMaR9Ku3UKliwyyqC0Qp7n2D/Yx86NGzh/ 7jyms+nDN3Zu/OP9/dvfAHAbwBTAAmgmY1cEAHDt0QA6cAIwADAZjcZvGU3O/FQny+7d2XkOnaLA aDiGVplL7nANsEFtAVgDa1ynQBbKhzsqJLt9dEPKmXqFZQ5G5lKcVnhO+eYtEbaCUsGKyCkaH+j5 zaoe6oeJxGUgaS2UDSuHLChMrbJ47Tx8QsiqZi5jmacX8eZS8hsL555ifRxFUH47l5scDPsGQof9 MxFmSpRfJMLuPuVXQtsAPl0crrUDeZpcWq2uahzs7YHJYjye4ODg4H/fvLnzL+fz+RMAdgHsA5hh 6QYsxFysPGYAcgBdAH0AQwCTLMsujkbj7y/L3ncz23Pz+YFz53C7bh1QCevd4CbayXUcrOA2DVnP nJD1WzKJmq3VaFhIwveH/GKTOWPjmSOQjXU9WrETK4kzglXRJIsM5u/AwCzb0TZd7CuXeQf5PHF5 OUVFYgtcUBeHzTW5rXjwL+XQWqEoumDmRw4Obv/G3t7ehwE8Dzf4e3DaPwP8Dr5IAEJzCE4ZpRsY +L8RgIHW2fmyLB/qdDqvIVL3sDUbBOogbP9dwpsG0q0ymcTn1ZIrTPkLNNkkhTR97qd425JQ4kR+ tNYaWDogwrPGmK8sFvPPzOfzT1tr9+AGPQz+AdzgL7AUAKBFABSWbiAIQd//9eAsQwknJBmWMeaf Hwf9F4Os+DP+bw430AdwJn8fy8GfY9X8A4npYIul0zX+hrCShP3nOZxwZFjug40F6S69uCTtBPu/ MF5zLM19AH01Vge+qSOLLkjrFGKvcM34iuZY1f7WLNNdetEpWIAgBDXcgMd/lSiz4mRSk0GhwkAL rEpYavDvCsC3hqQbCGNUi78Q84fkjxX3AWjfHi6FQFYewsS7g//tRWGMJB4If0nND5QavJaZweRx XT136c+GpFbH1iBWZHkEsH7gUjmC+O8ufftQGHx5Lq8BCStw1CAehe7vCsK3B4XIbd1gH9sF3Em5 u/TtR2tTav8PIz8/c41a/M0AAAAASUVORK5CYII= "
     id="image10"
     x="0"
     y="0" />
</svg>
