<?xml version="1.0" encoding="UTF-8" standalone="no"?>
<svg
   xmlns:dc="http://purl.org/dc/elements/1.1/"
   xmlns:cc="http://creativecommons.org/ns#"
   xmlns:rdf="http://www.w3.org/1999/02/22-rdf-syntax-ns#"
   xmlns:svg="http://www.w3.org/2000/svg"
   xmlns="http://www.w3.org/2000/svg"
   xmlns:xlink="http://www.w3.org/1999/xlink"
   version="1.1"
   id="svg2"
   width="22"
   height="22"
   viewBox="0 0 22 22">
  <metadata
     id="metadata8">
    <rdf:RDF>
      <cc:Work
         rdf:about="">
        <dc:format>image/svg+xml</dc:format>
        <dc:type
           rdf:resource="http://purl.org/dc/dcmitype/StillImage" />
        <dc:title></dc:title>
      </cc:Work>
    </rdf:RDF>
  </metadata>
  <defs
     id="defs6" />
  <image
     width="22"
     height="22"
     preserveAspectRatio="none"
     xlink:href="data:image/png;base64,iVBORw0KGgoAAAANSUhEUgAAAQAAAAEACAYAAABccqhmAAAACXBIWXMAAAsTAAALEwEAmpwYAAAK T2lDQ1BQaG90b3Nob3AgSUNDIHByb2ZpbGUAAHjanVNnVFPpFj333vRCS4iAlEtvUhUIIFJCi4AU kSYqIQkQSoghodkVUcERRUUEG8igiAOOjoCMFVEsDIoK2AfkIaKOg6OIisr74Xuja9a89+bN/rXX Pues852zzwfACAyWSDNRNYAMqUIeEeCDx8TG4eQuQIEKJHAAEAizZCFz/SMBAPh+PDwrIsAHvgAB eNMLCADATZvAMByH/w/qQplcAYCEAcB0kThLCIAUAEB6jkKmAEBGAYCdmCZTAKAEAGDLY2LjAFAt AGAnf+bTAICd+Jl7AQBblCEVAaCRACATZYhEAGg7AKzPVopFAFgwABRmS8Q5ANgtADBJV2ZIALC3 AMDOEAuyAAgMADBRiIUpAAR7AGDIIyN4AISZABRG8lc88SuuEOcqAAB4mbI8uSQ5RYFbCC1xB1dX Lh4ozkkXKxQ2YQJhmkAuwnmZGTKBNA/g88wAAKCRFRHgg/P9eM4Ors7ONo62Dl8t6r8G/yJiYuP+ 5c+rcEAAAOF0ftH+LC+zGoA7BoBt/qIl7gRoXgugdfeLZrIPQLUAoOnaV/Nw+H48PEWhkLnZ2eXk 5NhKxEJbYcpXff5nwl/AV/1s+X48/Pf14L7iJIEyXYFHBPjgwsz0TKUcz5IJhGLc5o9H/LcL//wd 0yLESWK5WCoU41EScY5EmozzMqUiiUKSKcUl0v9k4t8s+wM+3zUAsGo+AXuRLahdYwP2SycQWHTA 4vcAAPK7b8HUKAgDgGiD4c93/+8//UegJQCAZkmScQAAXkQkLlTKsz/HCAAARKCBKrBBG/TBGCzA BhzBBdzBC/xgNoRCJMTCQhBCCmSAHHJgKayCQiiGzbAdKmAv1EAdNMBRaIaTcA4uwlW4Dj1wD/ph CJ7BKLyBCQRByAgTYSHaiAFiilgjjggXmYX4IcFIBBKLJCDJiBRRIkuRNUgxUopUIFVIHfI9cgI5 h1xGupE7yAAygvyGvEcxlIGyUT3UDLVDuag3GoRGogvQZHQxmo8WoJvQcrQaPYw2oefQq2gP2o8+ Q8cwwOgYBzPEbDAuxsNCsTgsCZNjy7EirAyrxhqwVqwDu4n1Y8+xdwQSgUXACTYEd0IgYR5BSFhM WE7YSKggHCQ0EdoJNwkDhFHCJyKTqEu0JroR+cQYYjIxh1hILCPWEo8TLxB7iEPENyQSiUMyJ7mQ AkmxpFTSEtJG0m5SI+ksqZs0SBojk8naZGuyBzmULCAryIXkneTD5DPkG+Qh8lsKnWJAcaT4U+Io UspqShnlEOU05QZlmDJBVaOaUt2ooVQRNY9aQq2htlKvUYeoEzR1mjnNgxZJS6WtopXTGmgXaPdp r+h0uhHdlR5Ol9BX0svpR+iX6AP0dwwNhhWDx4hnKBmbGAcYZxl3GK+YTKYZ04sZx1QwNzHrmOeZ D5lvVVgqtip8FZHKCpVKlSaVGyovVKmqpqreqgtV81XLVI+pXlN9rkZVM1PjqQnUlqtVqp1Q61Mb U2epO6iHqmeob1Q/pH5Z/YkGWcNMw09DpFGgsV/jvMYgC2MZs3gsIWsNq4Z1gTXEJrHN2Xx2KruY /R27iz2qqaE5QzNKM1ezUvOUZj8H45hx+Jx0TgnnKKeX836K3hTvKeIpG6Y0TLkxZVxrqpaXllir SKtRq0frvTau7aedpr1Fu1n7gQ5Bx0onXCdHZ4/OBZ3nU9lT3acKpxZNPTr1ri6qa6UbobtEd79u p+6Ynr5egJ5Mb6feeb3n+hx9L/1U/W36p/VHDFgGswwkBtsMzhg8xTVxbzwdL8fb8VFDXcNAQ6Vh lWGX4YSRudE8o9VGjUYPjGnGXOMk423GbcajJgYmISZLTepN7ppSTbmmKaY7TDtMx83MzaLN1pk1 mz0x1zLnm+eb15vft2BaeFostqi2uGVJsuRaplnutrxuhVo5WaVYVVpds0atna0l1rutu6cRp7lO k06rntZnw7Dxtsm2qbcZsOXYBtuutm22fWFnYhdnt8Wuw+6TvZN9un2N/T0HDYfZDqsdWh1+c7Ry FDpWOt6azpzuP33F9JbpL2dYzxDP2DPjthPLKcRpnVOb00dnF2e5c4PziIuJS4LLLpc+Lpsbxt3I veRKdPVxXeF60vWdm7Obwu2o26/uNu5p7ofcn8w0nymeWTNz0MPIQ+BR5dE/C5+VMGvfrH5PQ0+B Z7XnIy9jL5FXrdewt6V3qvdh7xc+9j5yn+M+4zw33jLeWV/MN8C3yLfLT8Nvnl+F30N/I/9k/3r/ 0QCngCUBZwOJgUGBWwL7+Hp8Ib+OPzrbZfay2e1BjKC5QRVBj4KtguXBrSFoyOyQrSH355jOkc5p DoVQfujW0Adh5mGLw34MJ4WHhVeGP45wiFga0TGXNXfR3ENz30T6RJZE3ptnMU85ry1KNSo+qi5q PNo3ujS6P8YuZlnM1VidWElsSxw5LiquNm5svt/87fOH4p3iC+N7F5gvyF1weaHOwvSFpxapLhIs OpZATIhOOJTwQRAqqBaMJfITdyWOCnnCHcJnIi/RNtGI2ENcKh5O8kgqTXqS7JG8NXkkxTOlLOW5 hCepkLxMDUzdmzqeFpp2IG0yPTq9MYOSkZBxQqohTZO2Z+pn5mZ2y6xlhbL+xW6Lty8elQfJa7OQ rAVZLQq2QqboVFoo1yoHsmdlV2a/zYnKOZarnivN7cyzytuQN5zvn//tEsIS4ZK2pYZLVy0dWOa9 rGo5sjxxedsK4xUFK4ZWBqw8uIq2Km3VT6vtV5eufr0mek1rgV7ByoLBtQFr6wtVCuWFfevc1+1d T1gvWd+1YfqGnRs+FYmKrhTbF5cVf9go3HjlG4dvyr+Z3JS0qavEuWTPZtJm6ebeLZ5bDpaql+aX Dm4N2dq0Dd9WtO319kXbL5fNKNu7g7ZDuaO/PLi8ZafJzs07P1SkVPRU+lQ27tLdtWHX+G7R7ht7 vPY07NXbW7z3/T7JvttVAVVN1WbVZftJ+7P3P66Jqun4lvttXa1ObXHtxwPSA/0HIw6217nU1R3S PVRSj9Yr60cOxx++/p3vdy0NNg1VjZzG4iNwRHnk6fcJ3/ceDTradox7rOEH0x92HWcdL2pCmvKa RptTmvtbYlu6T8w+0dbq3nr8R9sfD5w0PFl5SvNUyWna6YLTk2fyz4ydlZ19fi753GDborZ752PO 32oPb++6EHTh0kX/i+c7vDvOXPK4dPKy2+UTV7hXmq86X23qdOo8/pPTT8e7nLuarrlca7nuer21 e2b36RueN87d9L158Rb/1tWeOT3dvfN6b/fF9/XfFt1+cif9zsu72Xcn7q28T7xf9EDtQdlD3YfV P1v+3Njv3H9qwHeg89HcR/cGhYPP/pH1jw9DBY+Zj8uGDYbrnjg+OTniP3L96fynQ89kzyaeF/6i /suuFxYvfvjV69fO0ZjRoZfyl5O/bXyl/erA6xmv28bCxh6+yXgzMV70VvvtwXfcdx3vo98PT+R8 IH8o/2j5sfVT0Kf7kxmTk/8EA5jz/GMzLdsAAAAgY0hSTQAAeiUAAICDAAD5/wAAgOkAAHUwAADq YAAAOpgAABdvkl/FRgAAgBBJREFUeNrs/XeYZdd53on+1trxpErdVZ3RCY1ApAaYg0AQVDAVIRmU dK0Zi/TIc+8zvh6Rj67nesbyUJTt60DbpGzJ8iiRGsmSRTGAoiIlkSApMZNokCAJInUD6IBOFU7c ca37x1p7n32qq3N1d3X1WXjO042q06dO7bO/9H7v936C8bluz533PzQF7Lf/+4D9cyewy/69+v1L PQeARfv3Q8Dz9u+PFt9/4jOPLI4/jevziPEluC4Mfb816v3APdawH1hjb/NR6yget07j0BOfeeTA +NMbO4DxuXhjf8Aa+v5ViODX+hywj8eBR8dOYewAxmfU4B+wBv/GNRjVr2S28GnrEB4d3wVjB3Aj RvgfuYEM/kIcwsfGGcLYAaxXo3/IRviHGAJ047PyOQQ8Anz6ic888sj4clxlB3Dn/Q+Nr8rqnIds lH8IA9qNz8WfResMPmb/HJ9LOE985uyXTo4vz6qe/cD7gQXgo8DbxsZ/WWfKXsOP2mv6fq5/UHRN nbEDWJ2b9B3AQeCxsdFfcWfwmL3W7xhf57EDuJbngUq0f++4tr+qZ5e95kVW8MD4kowdwNU6b7MR 6FP27+Nz7T+PT9nPZPx5jB3AFUs/f6ESccbRfm1mBUVG9gvj8mDsAFYz1TwIvGt8U103zvpd9jMb l2ZjB3BZ0WQMNl3fjuAd9jMcZ21jB3BRqf64nlx/OMHBcWkwdgAXYvjvGl+OdXveNXYEYwewUnR4 bFzj33AYwWPjLO/GdgD7Me2jcX14Y55d9rP/FDcwu/BGdABTGHT4McYEkvEx98Bj9p6YGjuA9X0e Yojsj8/4VM877L3x0NgBrM9071OYoZJxnT8+58oOP2rvlV1jB7B+PPs43R+fSykL3jF2ANe3N//U jVrbjc+q3D/vtffQ1NgBXJ+1/jjqj89qZAPrFhtYbw6g8NrjWn98rgQ2sO6yyfXkAPbbdO0d4/t1 fK7QeQfrjDewXhzA27jBCR3jc9UDzUNjB7A2znsxjK5xyj8+16IkGDuAa/ghjFP+8VkLJcHU2AFc /TRs3Nsfn7VwHriey095HV/wXeN7b3zWGC7wwNgBXNnzNtY5MWN8rvuS9G1jB3Blzi9gwL7xGZ+1 fN5v79WxA1jlizpW6hmf6+W863oJVvI6Mf63je+p8bkOy9X3jx3A2PjHZ+wExg7gIs8UY8228Vk/ TuAx1ihwLdeo8Y9pveOzns5+1mj3ai06gLHxj896dgJjB3Cemn9s/OOznp3A+8cO4OzGP675x+dG wATWjBNwr8UPPfDJD426xQcfXpfGL4QY/n30G2MzuJJH69H/Lb+s15IT4MAnP/T2VUkrHnz4+nIA y978L6wn4y+MXlhDF0IgBAiGfy+cgGDsCFbV7gtTt4autTF6jS7/jtZrxSG8bf+DDz9/4JMf+oUb LgOoGP/bWCcMPyGG5iykRAiQQiKkQAqBlBJR/Fk4iqpDGJ/VCfpaW6MHpRRaa5RSKK3RSqO0Qinj CIqLfw0dwbv2P/jwoQOf/NAHbjgHsP/Bhx9gnXD7C+MvDN+REmkfruMgHYnjOObrQiCKP4tsYewE VsUBjER7pciVQilFlps/8zwnzxVKqDMcwTV0Au+3TuDRG8YB7H/w4f0YRZX1Yfz2URi+40g818V1 Hfun+XvpBKRESjFSBoydwOVHf00lyufGAeR5TpblpFlGluVkWUaW52R5jsBkBih1rZ3AR/c/+PCb DnzyQwduBAcwxTqR8CoMX0pj/I7j4Lounuviey6+7+P7Hr5nvuZ6Lq5jHEGRCSw3/DEucAk1fzUD sCl/Ee3TLCNNM5I0JUkSkjQjSVJklpGJjDxX5HCtncCUzQTedOCTH1pc7w7go6yDXv9y4y8N3/cI fJ8wDAgDnyDwCYPAOgIP13VMWWDLACqlwPhcThZg0nmltYn6ReRPU6I4IY4ToiQhimIcRyITc/1T kUHGWnACRVb8pvXsAN7LOpDxKmt+MWr8hbHXa6F51Gvmz9Cn5gscqZEoIMM0p8aGf+U+JInSDmke EiU5/Sih1x/Q9zxc18WRAwbV619xAtewN/DA/gcffu+BT37onevRATzEehLwFMO0vzD+WhjQaNRp Neo0G3VajRqNAISK0HmGziFbO73o9e8DhMAFJgKfehhSCzw6vsnCiuwL64qL8iG3zv0a4gHv2P/g w58+8MkPPbKeHMB+1hniL6Vp6bmui+d5hEFAo15jotlgotVkqhXiiwE6S00Lyj6qoOH4XJlj2n/K ICpCoHWMFAkTYYjntWwrVpSgodaqbBWqZVyBa3SKzsCB9eAAplhvuv1CIIVB+13HIfA9arXARP1m g5lWgKu7aNuG0lpRq9WZmZmh1ZpkcnKCyckpHOmsJXbaujhZlrKwsECn26XTXuLU/CmSODGYCxE1 mSMn6hjwv9ItsJ+VEmotZAFTXCVQ8Go4gHexjgZ8RqK/4xjQL/Cp10IajTpTrRBX99HaINFSSvbu 3ce999zH3pv3IYUcW+lVOnEc8eR3vs1jBx7jyJHDAEhSAkcw2aqR5ZnpEmSZaQ9muXEENlu7xme/ tZ0rigdc6btxfdX9pRMQJvrbdl8Y+NTCkFa9RiBjtM5RSuF5Pq997Rv4sR99K/v23To2/qt8giDk nrvv5e/+2Fu55579JsIrhc4TGn5Os16nFgYEgY/nuSU2YKjba+K8Y/+DDz90vWYAU6xHFV/b+isI P24VAKxJdJYYYElr7rvv5bzxu9448s8NU02fMbByqeeGKSAu9BcVIIQs5y8AWs0W3/e9308cxzzx xDcIghChEhq1Gv1ByCCKib2EOElte1aixOp9RquABzx6pUqBK+kA1t2K7iGAJ8v2X7Xv7+rENPmy jK1btvL6171h5N/nyjDRDOCUr8rNf+57VK8bq79QWxQCpHQtG9NDSgcAz3W5/7veyJEjR2i3lwgc iS9zwtCQtTzXxXMcEschy3PbE1wTZ4oryA+4UjnpO1ina7uK7pHBACSuY7oANd9B68xcVCm55557 CYNwaPx5RhRFpGmMUrntPQ0fWumzP/TZH2e80Mjj6hvsef/TF/OAi02WtNZkWUocxwwGA/J8aMkb pjdy1113k2Um0qs8wXMkge8bboAlaA0nN9dMp+aB/Q8+/I7rxQHsYp1r+BdcfkP9NTwAzxVlO6nZ bLJ79+7y+Uop4jhGa4UY4wBXHqGxxpurjCiOSkBPOpJdO3cjhEue5wil8F1Rzm1IR9pZjTU5pfmu /Q8+vOt6cADrelX3cHhnOO3nug6OHI6W+r7P1OTwEmR5Rqay8vsrR/K1lnpfSiQ/T0Kir877Lh5C CPI8I8+z8hn1Wo16PUQphXQlcTQYGdQScs1yNK4IprbaGMBDrOONvYLRGYBi5NeM+Q7LxgInKAxe qdwSUvS473+1XZnWZHmG63oA+IHPRGuCU6dP4fshve48XmN6OKVZCrpYLsDa+nUe2P/gww+tJktw NTOAK+Kh1iYOIEYZgY48Z9TQesz6v9ZOoIx4jovvB9YZKxyb9mNxneuAqfn+/Q8+PLUWHcC7uEG2 9o4KgAgLGo0N7TpxB2jUyP8LaT/PinNfw2eKVcTYVssBPMA6JPysbPzL/1L8VZznphufNeoPRqY7 S7m2tX3eYUV11owDuCE39xb3iTgfdexadeXG55zlQPk5avvxVCYEr4OM7r1rxQG8jXUM/I3P+oz6 Z2RoWl1vAO0DVlT3mjqAVa1Hxmd8rr7xV0sBmxFwZpm3Rs+7LhcQvFwH8A4M8Wd8znmUfei1efNf 6PM1Z+cw6It/ca01Wl3d66JX/rWuV5RmF5eJvV0OD2AK+NmxcV+4+YsrZNHFTS10YVhYwYviixq0 2UeA0ugKdqH10CCE0AgtSrKP0KJ87jBMVmrmsoYW5deHEbRQ27GvpYpe6PA1BYAU1nfoCwBTr8wR IxLt4ozvrfHS4GeB9wGLVzsDeAc3SNtvVex0FQOd1kb6OreCFlqZh9JW5lpolFAglH2+QAtlHxot jDFqiucohDBaeObfFcapSwdiFp0IpJYIpPlPmL8boykMpXgfilwrlMqNVHfpCItpSOs4VEG6ESum HcsBVjHylxXA1/Ok7WdE+uu/fTt1OVnApTqAXePa/xr5kkK2CktLtp+gFHYDEQKhpTFULUHbr1EY q/m60PZr1qAF0tq7HYax3yv+E1qwLB0ArW2eoRG6iODF65m3VmxHKii2stiFICrGKPRyy14h0anu WbTvZTTlqDxZLHv+Cq+3vngb77rUUlxexg8cn8uuPi/NAciKzRTmTWGgopp4Dzn9aAUW6RaWDGN0 82xc1so+3z6vyvkvnm8fRYRXNhMpJhZLwQ1U5WcX71OU1Yh5vwxfp1jmYdd3LXcyZ5Y71vGUtH8x /Cl6+bUWo1ddwzrtyV6STV4KBrCL8Rrva+ZDZIEn2ACoRlJbTaFjoZdFvyLaCop/o5d9n1Io83zI YYkvoO3rDV9LW8PUZVKvR2p8XWQOYllKrov3oBFKLEvlrRvRQxyiijRoVJlVoEGL6nqVG4aA8Tbg 3cChK+0AxtH/MmK/uIxX0cM73qrXViKa0KXhixV+TtUgVnoP4ozvXYAKidDDAC2KLwubiOiRTFtX /1nx97NEYz36hKHb0stwAl18SZSOp/inBS6xUndiHbuEn+UiNQQvtgSYwkz8jc9lpPCX9sACfzbt Ll2CKhdiiopxjaTvVXENziW8UU35q9+r/B2GQGLF24wUOHooe1Zs6hVnZCTl0G7l73qo0a+UXfJZ GTW2SOoZX6/8PGUdRzHsU5QZN1AWMHUlHcA7GCP/l54C6PN989wPUX2+UrYOrtT6uqi+9Zlj+MJm CUW0Lh7F95ZlGLqIrhZoK/5enfsvonoZrIvniGU/o/IehwiBcSJCjF6c8p1bkFCLqjMbohvDNEej Rt2HfU/K4gnnL2nW0ZniIjsCF+sAxn3/y/YAl6aQMeSqD9NsBagh7jcKcpVWOjQsvSw6l99bwYkU /1aryr9TK73vqq6ZXv5jhyX7Sl9jiFdoKs+rVgCVH6eX/Vq6XOChORMqtM5Lj5IW9Pp3AhdloxeD AVx0ejE+5zDmSzxSiFEbH5p2JcE2fl2I4XOEHv3esNjXaD2MA65jpLHKxaVnJPDa6u4Z6XNdZAiq yBYqdbdewdz0qJ+qeLcharDSPzgbcqFXuK6i2ukTZ1789T26PWVt9QOr7QDG4N8qgICX7zVEhQNT 3M2yUh5UbnqxHOUTQ7S9fIpE2dBbC0OElPT7PaIoHiLrFRhSCkmtVqNWD8mynCSxMujSEovOBj8u B+NWvCDi3MZO0QIc0Qse1i1VjFKIM75+A513rbYDeIAx5/8SAb/LCf9nf7KAFVhv4mxPHImOpdlI Ydp1WhOGNRYXF/nrRz/Nd77zFIuL7RXfjxSSmZlp7rv3Hl7/2tdSC0OiODKZiRbLeXyVv15q2BUX cEmWpQFCnAE23jgwAFhbfQB4dLUcwE+PzflyUwC96i95WfGtEiED36fb6fFLv/yrfOSjj9Dp9HAc 56xOLcsy5uZm+Z/e9j/yD9729/EDnzRODD/gMhD3C/qdhKh0BMTZ/YVmRbxCL+M/rOPz06vlAIqa YnyuYtWvV+1Vl+X8FTuRljTjex5/+Gcf5cMffQSBYG5u9ryZzcLiEr/9O7/Hrbfcyt/53u9hMU7N vACipCqvVMHrVbtSF2HCthUohLhRcACszb6T8wwJyQt8ofG5zARWX+TjEmuOFR6VOYGRh40AjkOS pXz2bz+HIx2CIDwvJwGg1WrSbrf52mMHyFWOdBzbpZBGK7F42Em784/cXuCVsVRmcR53oav+zzKh L+rirg+Rx/Pa7oVkAOPW36Xn/RdmtFfK+Vh58pUovkMGn0AKh8XFJfv8i3htKYmSmCxPcRxBmuoV Ioww1FxhOP+X+/uOZhRnKxh0iXvokf+7+CLgDI3AFcaFLwUbWv5B6LN9//JOMSp8yQ5gP2Pw77LN fzWXgV6ocRQS11qD4zrUajWkWLmuP/j8cywsLV20c0HDqVOnSJOUZmMCamc+L8sTBoMIlWsc6dix ZX3Bv8tFff+M1P7ScqpC6VlKgVKUjrH4GqI6vjz0CSv9WlX/UHZHC2ekqmzNyn0ixGo5gl3Whg9c qgMYR//L9AAX+xmuipuQAiEd0JpavYbjCJ597jkOHz5i0nVpKj/Hceh2+/z5X/4Fp06dOivwt/KP ELi+x2MHvs4v/fKv8qpXvALPc1HKjhophet57N51Ezt27CCKYpIkQUrHaAToy5UnOh8soC/ruhr9 A4l0hrsgZWV5iCh4EuLsCd3Zvlc4QaXMdGauDGvRTEaCKOjTqyNG8rPA2y/VATw0tuS1BA1eWPx3 hESgqTVqLC4s8X//t9/nr/76k/R6fYPS2ztTCskgiuh0OuVizIs5vuex1G7z+//9g/zJn/05nueN SIQJ6TA52eKhH/oh3vp3fxTP88iyDCnlyNLOVb0i+iyOmApj8ixGVex3EHbrUxGMHcfBdez6MLtI RFQdwbLUXVdmIZd/X9k5h1wp8lyR5zlplqGEsvotq+4EHrpUB/AQY+bfqoKAq+4W9Jlhq9hSFAQB g/6A3/itD/Dr7/8AaIHnuStmzK7rXbTxF8dzXbIs4/T8whlVtQYOHz7CU089ixCCn3jr30U60gz2 2UWqV8pD6mVFgLjASkAgTOS3JVS5Bt5z8TwX13UrbElpu6liSIO2hl7iKZX6wOgeaPLcrIlPs4w0 zRBSkGXma+asqhOYuvP+hx564jOPPHKxDuBHxua7BuK/vjhnI63qj+f5fPqzf8sffvijoA1qf6W0 7VzXGMaK7ykIWOp0eP/v/C6vec2r2HXTdrTClgJqVYz8wo7CNL30OWv/Yuej6zqlgwt8nyDwCXwP 3/fxXBfHGd0lWE4xFmpNlfVxxffzPCfPFVmekSQZcZIQOwkykQhSg5lkmR3EUtZxrYoT+BHgoh3A OP1fBRBAUZlwW+W8X694E0scxyFOEr757Sc5fvIkM9PT10zYUgONRoOXXnqJJ7/1HXbtuMmKj6qR 7oS+Yi5gZNRo2f8tA/4K43ckQrg4UuL7PrVaQL0WUgtDHCHwPAfXNd83Lc7KOLIyfIOwVidJ4pH0 P89z0jQjTaURdslTcgm47nB8WUmzuVgIc+9ovRqE5rOWAe44/b8yd/3ImOwFpJ+rYZ6FgKbjOPR6 fU6eOGnr2mvb0xaAyhWHXzpq6uMKiKb11VmbVMT/s123Qq9QSonnuXg2s6nVQpr1Go1GnfSLf833 Lr6IkA7K4iwFuOdKyPKc95zsc+cPPox2JPd/7uP4wiEqXJ026g0OmlDAbxyZ5/ltt7Dr1v1oDMPS kRIlJejcai8Mh6suIws4axlwNgfwxrEVr1XQT5/X2IQQKG1STSHXDqFFqZyVR4mvaBK27LFyDlDU +57nlX/3fZ9Ws06r2WDxmW/xc0sHuUVkJOrMiQdPC371eIdk0y1MtVq85q//gB92EgZZfsZv3PAc /mqhz1PCY9eeWwh8jyRNcKQgL0oKIRBKl0a/ClnAG1cqA+Q4/b+WIKDmsjmClW+Jik6GWMMXxAR/ sQrGzEi7dQUS5KiI6Ir6hqbF5wgD9nmuSxj41GthafxJv833P/dVbhE5XaWItR55OFLw+W7Ce7Ma r3/gzTS//Cg/ImMW05xB5Xl9rWk4kkODhH9zMmLby1/P3KYtKJUiC4VlYV5PWlB3BEi8/DLggkqA /YzJP1coDF3h9EFUzV/g2EjmSHnNnaBjjawqKHphk34X+5SVxy/PBgEKYYA8x3HwKtmA73s0G3Wa jTr+F/6Ut9BlICB35Mi79gTM5/DzJwfsf/D7yZ5/ln/cfYEETeYYzebi069LQSzgfSd6tPfdyb07 d9Mf9MiTFKUytFaIYmeCEAihV5M/tuvO+x/a/8RnHjlwPgfwwNhoV8Ps9coA15VGvUv7N3vvHUea 1ts19gDSkUNp8GVYyZUums53pCPxPAektL1+hzDwaTXqzD/+BX6udxjHg0HGKAMQCBzJLx5doL3z FvYEIT/x7UeZrAtOpwrpDJ/rADXP4feOd/hEMM0r79pPlqdE/R5ZlqHyzOggVuXOhLleQqwaPfgB lrECV3IA4/bfatf9F5EA6Mv6Sctr0+Hwz7V1APY9CFPbDtWDr8Xe9DN/nuuYNqbjmuvkuS71Wkj7 +BF+8MUD7HA1SzkjeIoGJj3JH53s8XtpyP233MadT32Z72pJTiX5KK9CwKQrebyb8F8WMm565d0E QcDSUps0TcnzISdCXFkRkx9h2WzAOAO4wpm/uOjun74sQxvy1uUIffVaHynthqAqDnDVPochKKCX aQQCeJ7p9Qt7rXzfgzznpsc/zYNeRE+BcsTI+607khfjjJ8/2uPO1z5I8+iz/OPGgK7SCHfUUTQd wWKm+Q9H2vS238LezVvottskSUKW5eSqMgtQsgtX3tKwChnA2UHAO+9/aGz81wQbWCWc4CyptyG3 XMuHZdZdqdh2LnDwAq5y4LuEoU+9XqPZqFMPA9pffpT/QR9HuZBIjXBNuNQOeJ7EceFdB+fxdt9G U6f8XH4U6UK0/LmuwPUkv3uix2f8aXbv3UeaJERRZFJ/pSrKzXKoZ1r99VYRCFhu4+44+l9pA2d1 jfscL2O6ABKtRZl2yzUAAiJ06YhGtvDqFcBAfaG/tr78C1bU545DLQjwgwDXdTn0ja/x0Py32RBI 5lOFWIahtHyH33h+ib8WE9y3fTs/fOqb3DbjcyrOR/AWCUx4Dn8z3+fX5hV777kdPwiI48hEfWXF 3vVwiUm17z+UfF/1LODRszmAcf//CgWm1Uf7VsC7xSjnTdjBoDNKAL0CcLia3ztjKEBbJ3SmI9L6 Qlqlq+iMzxJNHcfB8zzmT53klm9/ltc3FO0MtCtGJMwnPYcnOjH/5siAl73mfnadep6f3iBZyhXy jNRfciLRvOeFNs72W9g4u4k0SexMAGjbFTFgn5VT0xVa8ZXJmd44zgCuYuy/0ARAr4pX0MhKfW26 AHaGffkzVVGMFyyzyk9RoozcZ8yzFymqXPb1IqIve70iM3HksLYtvER1Hcg1/bw0eL5Pmib0v/TX /FS4RIIgFZTXTmuoeZJYwf/+nXlmbr2LRtzlf2t1iKRDphi5zr5jJjN+6/A8B/wNvPzmfZYIRZmh CSGtKKuwVGBD4CqMX2s13HzEqnYCzsQA7rz/of1j070S4X/ox89P77lckTAx5AIYda4z6nEhBK4L Yaip1RRhoHFd8zwhBb4LYagIQ0XgG4di/i0EgaZW04ShxnONJoCQ9vUCRa2mCIrXE2KFn42ZA6g6 lqs1o3DWS6lNmeQ4HPvGV/ip6FnqoUMHG9EdgXYE0pXUQ5dfObjAN+tzzG3YwNs5yvYJnx76jOc2 fZdPz/f5jdM5t95+B57nWx0EQErrQSUaiUKg9NDRmNtGDWcMVvlUbd0dR/8re8eVG3OvUpQTFaad GXBxTPuqzIAlgZcx1UpwHU2WS+bbAXEmkRpa9YRGPUUAUeJwajFESI0jYGYyIXA1uYJO36PT90BD 6GdMT8Q4EuJMstgJSBJp135R1vzDhZ0rVwqrE831Gf8/3He40mdh3teLB5/h7mc/xx0zgqVBjnBG 0/mp0ONvXurya8czbnnVHdy9dJAf2uqxlOUj/X4B1D2Hw1HGv3xmiZnddzI9s4E0TazBY4xdSLQF /ZQyo8K5Klasm/+vRv8rgAMcWO4A7hkb7SoZ4eViAJdUDRSsGlECSwJhaKVClm8qV5Ig0MzOxPie Io4dOv2AJDcOoNnM2DgdIzV0+j6nlgyXzXUVMxMpjVpCljvkyqHdNzdwGMDcTIznKroDj34UmIk3 OVw9NtIGrPABL8aYr8T1k65LHEf43/g0P7EhIco1mRxyJ3INE4HD6Uzxf357ni23v4KJ3jzvnEuI pUMuR+XBPAeUEPzS0wscbm7ivt17zJy/kMawbWpWkJNzqxFgHICyDuDM6L/K1+KelTKAcQlwpTCA VTPycyHienkFgBRyhAosgAyH0NdsnI6pBTm9gcvRUzCIJUhoNTI2Tcd2qtB0FRxp0vrpyYSpVkyS Oix1Q4Q2ellhEDE7ExP4OX5H89JpbX/20AE4Uloq7vBN6itp5BfwwWgEmdIc+toX+LngOMKTdLMc x5Pl+w4diR86/PsvHufE7G52hj7/S3CCDQ2fpTRHuHIk+6r5ko8davMHp+GuV99p6nyd29Re2CxA oBDkylCUc2v8pWKQvqLRf8TWxw7git5sulSi0VdlPU1lG54wdXuVCGTsziEMFBunYuq1jKDn4bnG YLXQNOuKjTMRAEoJpHSQUuE6ipmJmI3TEVHscOxUEymNaEYYKDZOR4R+bnj0HpZUsywDECMbyq4y 0KfLLknxswcasqWTvPbw33LTTQELvQTHq6KegmbD44+eXeAP5iW3vnw3b4wO8sZZSTtW4J6Z+j/f TfgX35pnx20vpzkxQZrExuiFKb+UVUnWyk5sZkNpMNMaHDqBK5gJjTqAMQB4ZTzAcNPNlccAyu3c QiLsrkBRAeAogXpJLTRGXg9SAj8jCDTCOompZsLG6Qi0wQeMvj94LmyYitkwNSBOXFqNrCSuNELF 3IYI381BCgIfwEHKvAS2DMgoi3fJaOJ86anR+fxqqdKzDJTNhEN/qc0989/m4dmMXuqinOG+hFzB dNPlUDvm3317kV13vIa57kv8zE2KCEnujAqCulKgJfzrx08QbdzJvu07rfGbRSkaaQwfgdKQV9L+ vCISWnQBVhn5XxEIfOIzjxwo8pddY4O9MmWmuto/sOoQhFimZitxpSCJfaaaMbftPs1EPSXJfKQU aO2QZh43bVliz/YllHIQOAghyXMPx4GX7Z5n84Y+SeIburEQpJnHVCvmZXtO0wgzktQrdfWqSrpF hiLPSwM+swuiK+NV+myCK/p8r2idsuPQj1Mmj3yL73eOIuohA6GRngTHCHI0ay7CEbzn8RP0t+yj KXL+0aYBE3WXSICwzzUPQT10+YODi/xZ22XfbbebyT4hTb8fYRwAFQegNFkJ+KnS+IvdCVehPNpV LQHGGcAVKTZXSQJEXxhgpitRtYiz1WEgAdRCzcnFFl96YjtL3Rpff2qOXi/AtdHv6Rc28uUnutTD nANPbsX3zHx6mrl87VtbqfmKo6eavHBsmsDTCKk5udDki9/YzqnFBl/75ha6/RDf0yN6edJxcCpi FwgzDKTRV6keMAPBQggSLclfep4HB0+xZdpnPhPlIJDGTO6FLZfffvwEf9lrsPumzXy/e5hXzDl0 UgUjHQLNhO/y5ELEux87zb77XkcY1siyFNNlr4B+2tT+Smny3D6uDup/tjLgEXfcAVgjLmO1vH3F 6Iyk9SgT0JeQI/nqt7bz+He2kmQOQtpI4EK7V+MTn7sFR2qixMXztF36CQePbuToyWlyBWnu4Afm e5ny+OLXd/LVb24nSV0cR1fRCAMCOnIoXK6XTUlepWFFAWjpMmgvceepb/CKOc2S8MEdXnulNTNN j68f7/MrT3XZceuruDk/yU/uMbP8uRQlCUoDnpRkUvDPPn+M+o59zM5tLo1fg0H9LehXGr9S5Con z/OrhfqftRNQOICpsQmutkFXh9CufKQr9eLsz5AVeavlTEAXyJVDlLg4UpdgHQYjJMs9sgxcR1W4 +wYUixIPKTSeM7Rc1zHtxShx7OudeS1G3oLgCqqBnWUxgAAtJYMkYeL5r/GWiTZp0CLPhzP+SsNU 4DLIFe/58jHYchvTxPzDm2KaNYdOokYm/UDTqnm874vH+ErS5OX7biXLMlMyqSLTscCfMnqAWa7I clVp/1311J+qzRcf1QNjk70KFcEVdzqq/EGBH1Cr1Ur66fLjSI3nqhHjLwzddRSuq85QopLC/BvH 0Rf8etWIVm/UjUOygy9mY+/llljLcYKVvyuEIBcORx//Aq/pHGBmQ4OeEMagXcPg832JW3f49a+f 5CvZLFNTU/zIxjb3zPkMwKD+ledPNT2+9FKH9359kdvuuKeURleqMGRRSf0hzzVKUdb9Rfp/lVN/ qjbv3nn/Q+Pof91avR6pRfM8s8ISGs/z2LxpM450yfP8otZ+rfbJsgzP97ll7y24dn2Y1posS22G cemzfud9srY9B8fjxWeeQnzqt7h9o0NH+Eh3VJ6o1fD5m+eWeP/TCVv2vYz7/NM8tFMSoUkLZ2Ff 03egm2v+v586wtzNdzA1PU2eW8JPAfwJUdJ8c61tvz8v9wNcpZbfWc+d9z80JccA4PUEKOpl/1X0 LhRlSwnLK3/1q17Dq171KuYX5itbZ66+8S8uLfLA/Q+wZ89e24YTJFl6cZMPlzEmIYRDpzvghT/+ Te7Qz5MEDYP02WiuHMFk0+N4P+U/fPk44bZb2OrF/IN9OfWaw0BTZgq4AuEZfsC//dxRXvBm2X7T LvI8s6QfTHtUmLFspbDbgNSQ7lvsALhKLb9zAYHu2MCugt2eI0ytll5ggQEMoj6+5yOlZG52jn/4 M/8zzWaLL37p8/T7XfJcXxWpcMP+c2g0GvzkW3+St771J2g0GihtSC9R1L/s3/lCr0sOfPuTj3Dz 0U8STrUY5KNAXuAYw/61r7zEU2Izu1o13rptnn0bQ9qDdKTuVxpmGh5/9u15fufJAXe8+pXlnMOw 5SfK1p9Cl9E/s6DfNU79z8CDxvX/FbH/at9aX5WhN4EmSWL6gx6t5gRKK3bsuImf/dmf5amn3sLT Tz9NksTnlOTWF+3lzu4AamGdO152B7t27S4XhwoE3Z7Rwru0hSUX9w4dP+C5J5+g9uX3s33apYuD 9Cq4BtCoe/zpN0/x+89qtt5yE6+bmucH9wX0U4VyhyImSmtavsNL/ZSf/+sX2XHry6nXG3ZsV5Tj X6Xx20Gfa8T2uyAcYJwBrKtjsoD+oIfrOoRBHQDfC7jrzru56867r40zLEZb0fR6XaI4Oo/x61Vx C1I6nD69wMInf4s3NjtEbkgVo9QaWjWXZ073ee8XTjO1/Tb2hH3+pzs0eJIkU4bwY48nJU7g8PMf eZZ4aic7t2wp8ZVcmexAS+MAcq0rdf+Q7bdGUv8RB7hzbDhXpgTQerXG3c+Fei9DBYTZwLPUXqTT XULlOUJce8ek8oylpQW63TbnU0e4rHUpRddPSHLt8OxnHmF/8g1UWCOXZma/mNsPaw6JVvzq3x7j JWczmydr/L19EZs31umkuUn9y+dDa8rj9756nL86DLv23gqYfQJmmacZvaac7zd04qL2LwZ91krq b89OlzEN+BJuZ0a07apbYM+MSBfaDVglQSwrua20ptvrEicx9VoNx/FwpHtVFYKVyslURpam9KM+ eZbZZZqr4A/PF9lcn29/5XNsf+HjzGyo08/EiIqRKyVh6PD7X3yJP3xacOvtm3njxkUeuLVOp5+O SIEpTN3/5LE+/+ZTL7H7tlfhB0GZRSgL/KmC6qtAKcp+f5H6q9xmAVYI9Bqm/sXZNS4BLhBIAjPh JoQZkJGVrTtDsYuVonZBy71I8St9uU7KEO4LFF4IiSOdFeXBLhTTuNhjBC5yU/uXm3RX73c82wu5 nsfRl46jv/q73L4xp6/90blXLWjUHZ442uU//c1pduy6nZdN9PmZV4VkWpEC0o75Kg21wKEvBD// 8efx5m5mw+yc2eDrOKamF8P6P9cW9bcMvyzPS8LPNWD7XRAIODU28XMbfzleK8ymHdcx++Nd1y0f 54yE9iGugKFfUJ1nx3ZzlZGpq3z9iu3EevUNfUXQz3HpJpoXPv27vKH+IolXN+G4fAVBw5e0k4z/ 8JdHmHc2cs+kx9vvHdCYqHF6McLxnNLluUJQm/T5jx97jq+dDrjzvj3251jj1wIthmm/0nrI9FMm 2l9Dtt/5zpTLmAdwfsO3qjqOI/FcF8/z8D3PrJH2XHzPBbJlwJeujKLqq0R7Pe8vdfm0e30N3vcF voIQgFfj6c//GbcN/ob6TI0ohSo32XMlji/4739znD94IuOeOzbwd3Z2ufe2aZYWYqTvVAs9JqZ8 vvDEPL/6mZPsvfv1eJ5fdnWUrf0L1p/SQ7ZfnhvgL197dX/1jHkAK6b6ywzfiEYa4w/DgFoYUKuF 1MKQWhgQBD7k2arf9OdS4b6i5rVGjPxiX8UL6jzzzDM0n/kQOzc69HMH4Y7qEtZrLl9+ep5//ecn mNuymx++TfA/vqZGEmXkknKCUSloNj3meynv+uhBJrffxsTkVBm5VVnUyTXN9ruQEmAc6asRslyo IUq1WNdxcF2jG18LAxr1Go16jWajRqNeJ/B9ksFgCAiKAh3WdhLOsbx3cVlWoC1/fr0b8kW/mNb4 QcDpxQHzX/od3jB9ikj6IxOJIAgDyalezL/4yCFOsoGfunOSn3p5jtcION1Ocd2hMm8QSLyaw3v/ 4GkORlPcfsvOSklno34hbVYYfz4k+azFlt/YAawQ5YtdelIY0cpym47j2Hp/mOYHvk+tFtJs1Gk1 60y2WrSa9dI4pZQo++9d1yk/eNd1zI76S3QAWtlYY4G0LMtI0hQh1rGRX+gLao3jCFJ8nvniR7nT eRyv5pNoaei+BTYgBI4v+LWPvsCfPgXf87qt/PhdGTt31Fls57jBkBoo0DQ2hPzJZ47ye1/usO+e 1+J5np1hqOg9C2mGfGyLr6j7Deqv1nLqf2M5gJWMXhZ/SjmM9tKs0nYcB88xIJ/nufi+R+D7hIFv o3+dwJOotMeRF44bqa08Jh50TQ9+aYmPfOQjduZdk2Ypuc7PLYJ1LjUbbZzHxMQEmzdvZufOndTD kEEUrU1jrs746/M94Wz/f6FH4dam+frXvsam03/BplmXWLtn/Pxa3eXRx47zy5/qcPedt/P9t+W8 eX+DXixQrizHlZXSTE2GHD7a499+7AVmb7qN1sSkHbIq0H4j6W3qfmFn+lmrbL8b1wFUgbxqpC9q +sLoHccpo3aZ7rsunu8RlMZvav96vUbSW+Do0cN0O0tkqV31VI7dmo0uTzzxzTMc0NmM5UKyAyEE QRAwNTXFPffcw5vf/CCzs7NEUXTpmcVlXNfqSq8zXrCyz/5s701Xnissg/Fij9KaWr3B4aOnyJ76 EPs2tMmcwA5DDduuNd/hxFLEuz/4PFtveTnffZvkx1/ZR3k+cZRZXX/Dnag3PHIB/+6jz3Ein+X2 bdtHFngWU35aF4q+Ra/fMv7yvCzV1nLqv64dQDXiFz375TV9meK7bmn4nufhug6+5+F7Lr6N+kHg UwtDwsDj9PEXOPz8M2RpQpKYh7I73cwNZ3u+Sp0DwtOlIk6BF1xIhIjjmG63y5EjRzl69Chvf/vb mZicIE3TVbJyfb5sGykFjcAjdEykG9mBYEX6hJAot063H+NJTegu33Jn9+CVd2GNONP0e71lO8XE WQFQrTW+79GJXQ4/9gj7m0/h1wPSXI78C9cBL5C854NPcUTt5MdfvZcf3f1NtmxrMb+UGx1A+3qu dAinff77nx7ij78ec9vd9+K6bpn6l6i/Nlz/TKlS1jsrDN9mEWs99V+3DmB5+86Rcmj41tg9m9oX f/qeh+eaVN913TLqB4GP57mgUuL+AicOn+DkS4cRQtDv93Ecl717b2ZycgqtcjKV40qX6Zkp6rXG 8D7Uo3exwPAJHMe1E3wD2ktLRElcLveoHmnr/qPHjjI/P4+Ukq9//et84hOf4OGHHzYRWenLNvDz 3iyuZH5+gf/++Sfp6Rp116S55SsrhfACevMvMe20+b4H38AXnzzB86ciAleO7h+0V0KpnPzEk7z5 ja9l760vo9vtGO3AglxV/KlHt/lIQHgNnnnss+xI/4aZjZJUOWh31GG1Jn0+/Mnn+eDXNG/5gVfx yrkXefXtIUuRRjiUUkVawcRMwJPPLPHeR15k2667aLZaZFlWUn1LbT9h2H5aW7bfdZj6r0sHUDX+ op53HWPwrjX0Aswr6nqv8v/F1wSKLO4TtRc52V4gGvSIBn3yPCPLMpaWlti6dRtvffit3H7bHdTr dSu5bfT1G80GgR+YD95KaUlRaOUbdd4oHtDrdZlfmGeps8jGmVlqtQYrieRJYbTkjp84xh988A94 8skn8X2fL37xi7zpTW9i44YNJCq54jW/kILAFXzzhQV+6/GMxoYNOPkAjWNrGQfhu8SDGYJP/yb5 whHE5rt439+49MUEvjPUKih/rnRJvv4cX/nsX/HeX/2vSOGQxDGO69k2rEBLWYKsxqBy6o1Jnnru Bfyjf8SujX1yN0Dno8bfqDscOt7lF3/vEPtf+f3cOdfmzXcMiEWNHIX0ZVn3tyYCunHOe/7gaTpy M7dvNoM+FGl/IegphrLeht6rr4ms99gBrHSDVozfKVt3QwOvBQFhGNi03vwZBj6+74NKifptFhfa 9LpLxNGAJInIlZnhjgYRcRzj+wF33HUXf+/H/x+8+tWvuaj3N4gGLC3O0+l26PV7LLUXybKMPTv3 cNNNu8wKr7OcPM+Ynd1A9we6PP300yZzGAw4evQImzbNQnrlUfo0U0xMTvG2t9zDV089y+OdFrXG BLnKR1yWnN1K+7af5D/+9m/wnv99K9+3bwt/8MIkuePisEyiTDqol/0Yf/roL3LXr7yPf/i//hOi OMbNclzPNfgMVBSGNX4QcnIpYfE7f8w9Uy/i1QKSZT1/xxG4vsv/+etPwOTLuGdvi+++9Vkmpuos 9RjZ/uP7Dl7D4/0ffJpHv6O5/a5bTEdHKTvjX639TfQ3db8abvQp/9TXReq/7hxAkS5KKUzkt7W8 qd8NcaduH41ajcB3yZI+cfck850lokGPJI7IshSlFIPBwEQADUEYcsu+29i5cwd7du/l7rvvYceO baRJTGoHXMxN5+I6DgiT7sZpRLfTod1ps7S0SKfbIU0S0iwlSWOkcLhl323s2LHbbOZZAThLkoQ4 iUniCK1hw8aNNJtN2u02QggWFxdtanqFzrJUNkFyx+5N/NyDJ3nnx55hkd203Miq35rnizTGu+9+ jpx6gt/83Y/yMz/9kzxzOuUbyQ4CkZ1Z0G+YZvDKt/Ob//3fc/MtL+OV3/Umut0OYRgaXEZrQ7cu Wn6ixnNP/AU3OV9iesolUR6iIlKqtGZyQ41f/71v8emnQ77v++7idTte4M69IUt9gXSH9ZgAmtMB Xz5wil/+6BF27N5PvdEwqX+BV1DR9tOi5Prn2oKA+bD3XzX+tR7915cDsIbjSJv2e6aWr4UBzUa9 fHiOprtwhFO9NnE8IM8ysixFa02cxAwGA8IwZHZ2ji1bNnP77S9j7569bJqbY+OGGYKghnQckiS2 7TkHx3ERwqSSvUGPXr9Hu71Er9elP+iTxDGp/RlaG8Co2Zjg5j23sG3r9pI0NIpwGyfUbi8RxzFB EJDnOXEUIeXQWSituex4c4E3qgDyPCcRkjfevZO/f3Ce933zGOnkLJ6KLDEGUBkyW6D1pr/HJz/0 z7n10Uf54dtfxQvP+/T9jTgqM9rg5c/vUNt5K8dPvIVf+c//hXdv28HMxjn6vT5hPSzLDyE0nj/F d578NpPtv+SmzTG5rFVGrsxnMDkZ8M3vnOI/fPAI977y+7lj7gTffZ+kn7toZwhcKq2ZbHqcWox5 z397GtHcwezcplI+rTB842CHAh9F6q+uraz32AEsPwWJx3VM9A8ta6/VbDDRbBD3TnPy5GHiaFCi 6kmSlBLa27ft4I6X3cHOm25i565dzM3NEvgBvu+X9Wch6WTaihKlcgZRn0G/z2AwoDfokSQxWZaR 5RkqN5rYjuOQ5ilSSOZm5tizaw8zMxtMjatH6apKaQaDPp3uEktLiyRJysTkpBksyfMVOx4Xa8yX 42jjNCNotPiJ1+3ksePf5tFOwGTThzy1ywhAqzZufRr/wZ/mtz/xb/gnm+Z4oJnyp0kN7bkInY9g HdLR1O/7bh77xBP83//Xr/L/fOc/sQoHqlwjVmtNcOzkEtHhP+OujcfwajWiVBowj4LBZxR4/+l/ fpy5Xa/g1q2CH351hAxqRJEu135rrQk9F+k6fOCPnuKrByV33nszyn62JpMvNvkItDBdgMx+/lkp 7bVmB31uHAdQRYtNP98AfmEQlKy9pZOHaC+cJM8z0jRlMBgwt2kTO7bvYO/uPdxxxx1snJ1jYqJJ 4Ac2ohs1mziObRvRMRpzSpGlKVEUEScRaZoSJ7F1DmYTrBCGRajIyXLTLpqotZiZmWPb1u20Jlpn RIqq8bc7S3S6bdqdNnmeUavXyi2/Zxi80qtq+Pq83xMMEsWWTZv46fte4tnPHuEoO2l5eeV9aHR8 ksaeW5i/64f4bx/7U3764R/gqc6TPBXeiZ8vKwVEiteok732Yf7iL9/H3o8/wpt/6CH63T5SOASu S2egOfadT7Gn8QQzMyGD1B3W/QLINfXZOv+/932Zp07Ncf937eD77nmJndvrtPu61PbTgERQm/D4 1Ode4pf/8Ai7b78P3/eNsq9d40Vll58h+ujhn9cR2++GwQCEjbQF+Bfa2r87f4TF+eNopYiiAVu2 bOUHf/CHue3W29k0N0cQBCUjcDjFp8p7WQiz2Lo/6DPodUnSlCzLUCorhz4K51O1oCI19FyfmakJ Wq0JNszM0pponRElilbeIDKRv9Nt0+12aLcX0cDM9IaVHcAVBv5WvtbGMSZC8uqX7eQnji3wy88e IZ3cRKCSkiOPVujoJFOv+16ePvYEn/3bL/LAK17DS/1DDCa3I7NotO+vu4TbdtC5+/v54CMfZ+fe fey97XYGgz5BbYJjhx5nOv0s27dqYh1Ape7XOUzOBXz2b17kd/98gf2v+n5eufc0b7i3Ri8RJvJX FD7qTZcjJwf829/+DpNzO5me2UCWZaW8lwH9pIn+WpBrNRz0seSf663lt2LWvH4cACM8fs8zLD4V d1k6/ZI1/ojXvu4N/J///N285fvewr6bb2ZiYoIgCPA8z4B4rofn+fh+SBCYh+M49Pt9+v0eWZ4D 2my7FQ5COOUCzOJeHmrdC1rNCeZmtzI5McOGDbM0W80VbxKlFP2oT6ezRKfTptNp02636XQ7dtXU 2Q38MhSzz+M6znwMf0dQucKrTfCDd93EmyY6xPEiKhAIJwUnATcDOUDSZ+It/wN//fQJOkcO8rrs aXS6AL4GJx0+ZISUEY39r+bg9K186Pd+n8WFeXLtcOjQYdSpv2bftgVkEJJLSrkuJQSNSY+lpZh/ 9p++zrabX8XezX0eul+QSQdlVX9xBFoKgrpLquG//N5TfPtFh+07dpJnucFWbOQvZL11Afrlelj/ K3VdDPpcqAM4sJ6yAFkCgaYUiPpL5HlGFEXceeed/KP/1z9i29at5xXxqBpmr9chigalkxFCltRi sz5blpiAtKQV3wuYnpplsrUB3/eZmp6i1WqtXL4Ag8GgNPxOx6T+7W7n3Cy/VTDo8qGXP879dCkM 1pJp2LJ1Kz/5sllu5gT9fABujnBS+8ggb+NvaOG++WE+/rdfY5fosW/xSXKZVZ6XItwM6OHWJf7r v4fPHevwqT/9UxbbEZ3jn+O2rS/SmmwSZeaaYx+u7+A1fX7xV75KR+xhz00b+LHvipiarpEqUT4P KXE8Bz90+YvPHOH9j7zEpi078XwjE2yEU0Sp668sPXgty3pf5jngAouss2MgAZPS52li5Juk4K67 7iYIAtrt9gU7FK0VaZYhHWkAPUs2KpRuRLn+0Ri+lA7NZp1a2CzprlNTU0xMTKwc+bXJTDpda/zd Dp1um163S5YmFXz7fNCcvjAfsEqOVkOZbaXa4xUvu5kfO7nAfz12iri2kTDPR36cGszT3P8KTj// TT79N5/nDW96gOPzz9HZuhsnGSUxadWntn0znVe/mY9+6hM0WgE/8XdSbtrh04/kSL9fa2htavCh P/wWf/75lDvvvZM33rXEPXc06Uejm3wBwrrHM88v8a9+9ds0p7ezccOkaeG6bjniq7Qkt37QGL4a CnxcBzP+F3EW1/k0oEDaQR8NPP30U3znqe/YwR193g9OKUUQBMzOzuK5HpkCLUFXugBS6nJaLwjq NOoNpHTIczM9NjExcVbjB000GNCuRv6uKQEuOPJrDI91Fe6/i30JYR1AnueIxgQ/eO+tPNV5jD+J 5skbLZxlIik6nWfqLT/Egd/8j+x+9lneuEvwJ506emIKuWxzkdQK72V3c/z4CzTzz3Pvy15Or++h UOViE6U0UzM1Dj17mn/7G0+xc98D3HNzj7c8EBLnLNtICr7v0E0y3vNrT3DweMhrXrONNDMMQyGl 2YxKgV/oM9l+6yj1r4KAh9aLuWvbEzfpmfnA6s0puu3TeK7HN7/1LRzX5Zab95Wz9VprS/lceXmH 1prpmWn27t5Ds9Ua7t0WQ/EIRzo0Gy18v4a2m29c16HVatFoNFa8QTSaOIpsnb9Ep9uxxr96ab++ gv9SiOGYsue5JEnC7Oat/ORtpzn4jWf5tpLUfReqbUulkY0m9R9+K5/4b7/J2zZv4m5e4LHJkMDH 6GiXOJ0iSnN+6Hu28b98j4tSgiQTSHc4OBXWXBIJ//zffwXl38aubSF/93sTanWfOMnBGUJcUgq8 0OX3P/gsv//HJ3jDG16DVgrphjiOS65NRoMd7x3q+esh229ty3tdyjnkAs+vD+MvduSZDyzLFVmW MTE1Q71+gn6vTZZlfPUrX+Hpp55i06Y5grDG7NwmGrU6aZbgOi46T62y9rBfvLi0wLFjR9mxbQcz GzYQBIGdLfBp1BvUao1SqKPQim80GtTr9ZWNX0MU25q/26bT7ZYZwKUYvz6L1LY+i0GLy3EAevgK gmLGwcFzPeIk5e7bbuUnTs/zn46fph1MEYhl7yRepL5vB4uvfy1//uhn+cEfeAvHjx/k+M7deIlp IwopWUpTbuN5/uk9h5nZMsPCkkZW2nhCCGoba/zKL3+Jr3y7xj337eUH7h+wZ2edKNYs31Ee1ly+ 8eRp/tV/+hZ79u6j1aqx1O7TnKyhtEZKz6L+eijvleuRQZ81KOt9uef5dVMCFK27YiY7yzLSNCPL Ndt23crhg99mMOiRZxntdpv5+XkAXv7K13Lfd7+GbZtmabUapFlmbsIRXr4myzPSxNCEjUhIQFir 4blGKaa6gTcMQ8IwPHvkjyM67U6Z+re7bbrdJdIk4UK2eFSfUnAeMs9bvVxAX/j3TQWicISLFA7a 83nLvffynU9/mg8nbfJGA3cZeUkni0y9+Q0888x3ePLxb/DgK+/jD+ePoWY34MYpA+FSjxf5x7uf 59X3TNDuOwgnt2mHSc8nZ+t87Ysv8Gu/f4Qdu9/I6/Yn3P/qGqkWaFlxcxo8z2EpzviF//AY7WSC e2/ZzmAQ4XohfhCQZjlCilLYs1jmWUp8rWFZ79UoAR4F3rUenEC5dz03wF2SpsRJwkRzmn2338cL B7/D0sJJhBCmQxBF9NpL7Nqxg21bN110xpFbth8WEDODJT6eNcblLD2tNVEUmVS/26bbtTW/nRG4 cMleMeIAwiBE5eqCrVbry3QAy59imXCe8omThOntO/jpe+/jua9+nq/qHo7rIpZ7DQcmf/wH+PT/ 9Tv8/R3becOWOT6V+ehGnWS+zU+2DvIPXueTUScnG+r0K2hOBCy1I/7lL30dr/4y9t8e8ND3avya R5xUgD+rX+DXXH75/Y/zic+2edObXm2CQ6aZmJ4kyzKkdEE4ZqFHbhH/KtPvOmf7neM8ui54AENA ZpiyZVlunECSEicptcYEt97xcsK6mdPPsoxWq8X3fPd3s23rplLFRan8vA9D/smMkk9FXSgIfEsk WeHfqJwojuh0OnTaHTp2SKjb7ZDGyRB8utjfvWhJqdykptWbduShy4euPNRKj+JanOOhdT58VJaV u64kylL27tvHT23dyVzUI3UTkBnI1DycFJ12CLdPw/e9nj9/9DPclubsPnGahTziDn2Yf/qqAe7G SdqxMqm/NNN4XujgNj1+5de/xjefaXHLvu388PfmbNkSkCoL/BUPIWhMeHz+q8d4z688yd13306j HtIfpNQaUziuCxjwT2OQ/9xiQib9z9dTy++sGcCB9VMGsKwMME4gtlN7p146QpZEaK3xPI/v+d7v 47u/+3vo97tozHhtksaY5p46b/grFHC0rYsdRxpE3LISl0dtnWuiOKLbbZdsvySJudjlfQVfHeD5 55/nS1/6AnGcnPP96osO8edbVabPev3TNEOhmUJyz0tLfNpP0a0GsloKaIGO27RefwdHnn6GT/3Z X7LrlfdxvHOCn/teza13bmCxrXGcAnG0k3tzDT79Z0/z/v92BL95G298TczL750g0/Yzc4bgbFhz OL2U8PP/8ku0Jnewc8ccS+0+XtCgVm8YYVXXQ0vHpv6G659lRdTX66nlt9I54D7xmUcW77z/oevf +O2nXpYBxWqmLLePjMGgQ5Km5HnOps2b+YG3vIXeoM1gEJFmCUvtxXJttb4Y+W2Gs+paadskEMue YcqONMkt4Ncxxn8J2U7hZACePXjQzgvkF5HHiwu8oBfnAKrZWJrnOEKwuw/PHDzOkbu3Ilw56li0 RgjF5Fu/iy//699n36Nf4B+9bS8/8V17GCQSLTLTnsOwDic3NDh1tMu/+ndf4pmDMT/x4yk/8L0h ru/S6+eICurvCEHY8PnFf/tlvvWU4HWv381iu48X1Gk0WyRJAtJFCMcavibNctLUgn7FpN86avkt P0985pGSB/Ao8MB6SAEKoEZbwQZVyQSyisFNW3JOt9dDSoc4jpBCUgvrl91EO2sUFhYD6CwRx4kN /Je3qyfwfSYnJ8nyjFXY+3PZv2ShaKbynDTPmao3ef3zL/DXp9ss7ZhARMsWqKgMf2MN+fAbaH3u C/zMT+1AuwGDboxTtvwgbPpoofnPv/w1/vJFl7l7m/zPf38z23dO0mmnBvUXJSRBa2ONP/v4M/z6 B57l5lvvpB/nBGETPwhJ0wykg5QOWkgyBVmWk2emVMtugNTf2nw5DLS4nn6zYqBHaWWHN7LSq5e1 j+OitV3wmGcopXAcp4L+r/5HboBCLK1YXrbxCyEYDBKOnViw5CRpXlEWqnnXxAWUf+aZwT/qYYvd 33iBxyc1YqoOcTYiJholik17JvgXf+d1bNrTYvFUiuO4BR8Hx4XaVI0/+50D/Ne/OI78wVfw//n+ Ce5/bYtBpMm1KKO/UprGpM+xYz3+j3d/gc3bzTJP6TgIhMmeHBdhjV8pQZ6b8d5MmcGuGyD1L22+ cACPAw+tD+MfKZZt+sYZKr3aqtdKTB/dcdyR2roguVyGdZ7xJTPNZyW1L/Gly6iEWVAZZ4JNrVnS JEE6spTsLm5ktB4xzCt/zIyEIyRBzdTuqplzZ63F8c99lRM/vAOhFbroWjiSaLHH/7qhw9950w56 HWUGd6rRfEOdF791gn/xG9/ixM07ePj+KX7mvgZO4NPp51bW2/yqXuDi11ze/S8+R7s3yW133IQG S87yENIxDkA4KKThjNjUP0tvjNS/YvOlA1g3QGCpPFtYmS4+vDP58gKJQCLRSOGYyGllugM/sBRi XabWBdOw0LIXiFIGvBolsixbsS1X7CNYzd81z7NyDDnNMqI4NelsXtGqK2nPV+P6Wwdg5dc9x8Fx Ja3JKV7VvYW/+vIzpPdvI19KEA60U8392QI/e/9m4kyQKJCFTHquqU/4RN2M//hLX+XzaZ19b97G /3a7w/RkQDvSCOlYZ6HRCppTDX7/dw/wR39ynJfd9QqUHdX2fA+Eg5AuCBdlZb2zzNT+WZ5XWn+j qf86NP7S5gsHcOj6Nnqx4k1YIa2VOvzVrFtIg9YLJMKRSKVxHBcpYGFxEWWNqyCGFFlEsQeg4Ia7 rltKfHuex+TkJPly8UvrAORq7PMSo79rnuf0BwOiKCFKEpI0Mzr1SltRy4pgyJW6l8XQKwkEjjSg p2e1GfvugNlNW7jryRN8+dg8cq5OP8nZcHyRd796gslNLRY6qSHk2EUhXugQBD5/8IEv81ufO0nt x+7mn9xd5xU7J+jl0mxbKrbzopmcqvPMM6f4V//6K+zcfRthWENj9ASFNA+kW2r3G7aoFWxZYdBn XZr98BwqHcATn3nkwHroBCwH3YQeRmpxRhIsRpd5SoFwPKSQfOELX+CP/ujjlucviJMUx3XYMDOF 5wXkeUaSJKRpxtTkFDMzM3YXoBkXvuOuO7n7nrvM9GDlDRlFIeeiInHRw0es5OysCIkQJFlOlGYM 4pQkTUmzfLjLTp9/8Gl1M4BCmi3H9z1yu0VH9PrctvcOjn/6b3nx79XRixH/bF/IK1+xjUQp6g1/ xLkFXsh3Hj/CL374Gdqv38P/+42b+Km7NyAmasgkpR441iFrfMcDR/B//PxnUGITs3ObQJg5DS3s oI9wzHvRwkT8XJPmQ9R/+aDPOqz7qx2AkQygSAn2r4sygJF5HRsf9ArPGToAKSSe79Pv9fjGN77J k09+hzAMybMM3/eZnplBWuHPKIoAwcz0NBpYXFwsMYM0TVFo9u/fD3LZMgurWHyhp6hbZ2Y2lIbv ug55NmwDep5PmiqSNCOypKcoTkmzrJS1vlpKteVGJqvO7DquibK5skIaIITDfbN389KffI2H3zTJ T79hO0o4xllXlnl6jsfJk33e857P8/yhhNe/dZaffdkM9YkGqcqM+nKRWSFwnJD/9J//hi99qccd d78S13NLtTRb2w17/doQfVLbIcorqf86ZPudNf1fVw5guARaMGr2emXATSxzAI6DYwUhXNdlbtMs YRASBiFTU5N4nkeaZQwGEa1Wi82bNtFstsjzjDhJyLOcLEtJM6MVaKK9XmYcwuIF57+xCkBy65bt zMxsAA31ep0vfelLRNGgpB67nlkSGsUpcZQwiGKiJCFNDauxyACupAMQy1Z4iVKZabSlZghJika9 xqsXbqL/J8f5J599gThJSsZkQa5ypGRxacChgxO8ctdO6n/R5d9/9UlyBMspGqaMU3z966fZd+vd hGFtiOYLwz3QdidJoe6T5Yo8G874qwpous5T/7M6gMfXWQVgo8OZjuHMdFXgCMeqCTm0mk2mpiaZ npymXm8gHUiSFJUoZmc3sHXrVsKwRhqnZnpPCAZqUNJuhX2dEcFPaUEJZaWmz2P8aMHWLdvYuHGj YcC1mnzjiW/yl3/1V+V7d1wf6QV0ez0GUcQgjomTlCTJyNKsHGTRutIFWA0HMGLwovxScT2LDkXx M8tNzLZLIUXMxtktSL0JpTKkl5IMBiRJYpSUlanFEZqde0S5Bn2+sxLYO/zEd+yas7V9bpd3muGh Qt5bKUWuNVmOcUzrQNb7cjoAyx3Ao+vpNzzndupqF8D2/aUUCCnxAp/WRIu5jbNMTk2htSKKYoQQ 7Nx5E1u2bMFxzPy7USPWpLlpwbmeS0ihL+icofhbbPgV54v8wObNW5jdOAtAs9HgySef5MMf+TDz 8/N2ialLWJ9GOC79fockMc4oTVMyCwLmFQxAn0Xv4CJsfZmxD79ZNf4C6BTl5uWh7kIBsGW5UWiS rmPHfzV+GOK4LlmWmTmLSg2udYGfmPdQgnTFOi5lZxdsOl+k+kbY08p7a02OkScoJv2q67xukNT/ DFt3q6DA9QwEnrlRjwtixomyPjfz/YsLC/T7PZrNJq7jEicxYa3G9u3b2bRpzoqLJkghiFDEscax ewhcq47T7XQNkYUzHYBpA+qzR340mzZtZW52Do2m2Wjy1FNP8Ycf/jAnjh8347++jxc0mZnbxmK7 Q5wmppWV5ZUBFhNFtQXJRqLa8htciPOk9cP16sJuPSoEVYYGb3AUIYe6jGY3o4vjSLOM1XORjnEM JV4gJRIjxyWFg3QctPKGZUtBxhGiNHZRzORrZRd25OTKRHyFpCiyCrV0BSiGkt6ZvT43ANvvnADg 8gyg8AwPXN+pv+3/i+WuQKxs+tJ8LwxDXnzxBR799Kc4ffo0XuCTZAkTrQn27tvLzMwMWWLQfx0I +rnZGut6LkiB73m0221OnjzFRGsCz/NG+AHDCOmseKMpu25206YtzM1uMpNs9TrPPvccf/jhj/DS sWNIKfF9H8erM7dtD4M4ZhDFxLYUKZBtpRXKprTqXIY/zHcr0VyUkVbaibpCbbk0+GLlujXm4u+y 8n3HSrG5dkGrY7c1ecWGZsfBcYr0XgOGtq2slqC2mZAqI70uI3YhxZ6rHHKFQiIwk4lGBkygcmP0 Gqvpb18jU0bTP1PDuv8GSv3PyPSXO4BPX+8OYMTQi6EccfYSwXU8tFY8/vUDfPqzj9LtdPF8D5Ur 5mbn2LdvH61WizzPkYEhBsVJBAJ838NxJXmuOHnyJMePnyBNEmOk0hl5LyXgWGABZ0R+mNu0hU1z mxFCUK/XOXjwIB/84Ac5fPhFPM8zr+vX2b7rVvpRTLfTI45i0tSKn1jkv2Q/VikHK93Yy4xe2uhe CKqWxm7T+YLI5DjD/y82MZXPcYrni+HzpYPnOriei+u4uI5xEI5rmJjGB6hS1MU4Q8O30LZurwJ2 eZ4ZEY88R5Mjyci1ZR0qsxlICavnVw6IYbT9LeCnK3MjN1DqX9g458oA1oU4CKIq1e0gnSGYVHUU aZbyxS9+ns994W/JsgzP8xAIduzYwZ49e/B9n8wuADUjxinSkYShT557JEnMyRNHOXH8JFprIxdm W1RyhUUeyzcAFzfd3MZNbJ7bjBSSsBbywgvP8+EPf4TDhw8Pjd+rs33nLURJRrfbJ4pjS/xJbc1v mX9qBXsXy53RMMoXBl+wIKsGXxhrYcxFNHekWcBqviesY3DKut9xXDy7pMX1PJNBWL0FIe0OB8v1 N1t2TPQXlpbtuG75c5VSJIn5HU2moxBJbMeOjeBrVqzxJbUbfA0JKs/NEs+C6KMqcyLX2ybfK54B PPGZRx69XnGAYjX4sK9v0m3HkTiutC2+qiWazbt//hd/woEDB2zUNrXq7t272b59R2n0IIiTyKT/ WltJMI9er8+xoy9x6tRpw/N3PZRWTE5NXli5Ym/GjRtm2bx5sxEVCQMOHz7MB//wwzx38Dlj/EGA 44bctOd2ojih0+nRH0Qm/S8cQJbbelajhUboqn6pGK3lpRhN1ytpexHhXcc1QprWEF1H4rgOrrRG 7bo4rsRzPeMI7GalYnuRVhkqTUijHv2lCM9zmZps4noGHC0UgrTQaGneM44VLCEhGeR0Oj2jANSa IKw1aDYbZlV7lJg5CJlg9qILMmXae1pKdG7FYSpOQJeqvqxo/DdI9OeJzzxyzhLg+sUBbDtP2JvQ dYsI5Nqb1rVR0RB2okHERz/2IZ588kmCIEADzUaTm/fdzOzsLMoyxJRSVlAkKSO4kJJOp8MLh16g 02nj+wFZmhKEAVuntrB9x45zt/jsai0QbNiwkS2bt9qtRC5HjxzlIx/5CM8++4zZWBT4OE7Atp23 ECcp7cL445goSUlTO8FmQTFRiGdIcOyWG2EHdKr1u+M4FqRzSkUj1/L3DbVZmnrdkbbrYGt4xzWp vJSAMotQkx6OKwkCjzQe4DqCZquB54ZIUSsdaZqmKDXcCWgcwbBXWzAvhRCEvsPMZB3HcVDKrGXr L3WIU0VYa5pNz66H40SICKtiZJd3ZqoEAY0CkioxgEI1+kY0/pU6fSs5gI9dTw5AFIs6LJuvuIE9 18HzfXzPxQ88PLfoSws2btxArR7yzDPGyEwU3sC+W/bRak2W68LzPCdKBmaE1NJuNZrTJ0/x4ouH ieMYR7ponTE1NcWOndsJa2GpKXDmjWUUgVSeI4Vgw8wsWzZvM+/X8zh+/Dgf+ehH+bZ1Sn7g47g1 tu3ch1KCpU6bQZQwGETESUJmU39l0f5iaYln6cFFGVIF7BybwruF0bvGmB3X1OmefS8Fau+6Lq5j SU0qR+cZKhnQjwdMTjSZnWuBCipYhmdAuiyjH8cj2U7xWVXLEfP1oiUrhgNMmnJ8WwiB7znU6wGu 66JyOH5yHuHVaLWaZkuzjey5ZR7KcsuvnYdYZvzceMZf2DYXkgFcX8Zv01jX3sC+5xIEAWHgE4bm T9czv+rmTZvYunULUkorCCnZvHkzN+/dSxCGpKlJ8zO78VejkZj2Vq4ULx17iWPHjpk13ZZgs237 Nm697RaCMCCOEjbPbTmjlVZEuGIycXraEIo81zinEydO8NFHHuFb3/oWYRiahaVOwLab9qFxWGq3 iQaG6RenGWlqkWwLZslKl0HYPYXV1N61tbpro7rruDaVt9fMN9yCwPNsZiDQKieNI9IoYmqyiXBz ajWfMGii8yniJKbf7ZxhSILholanxAEMAOi5HtJ1ys/NPHcIy6qyzjd4Sxwn5ZhuZpeHOI7Dti1T 9Poxx0+dJKhNoKmZZR65MgrOaVZek2G5RWU8+oYz/gvOAA5gJoV2rWXDH+mtV43f9wgC3xh/4NOo 12m1WiwtLrBhZorZjVNopUjTlCAI2LlzJzftvMkAgqmJ/HESkyax7SIYI4rjmMMvHuHUyVMgTF3p Oi6vfOWruO++lxPWQrI0RUiHZr151pofYHJymm1btuN7Pp7rcur0aT76yCM8/vjj1Go1a/w+W3fc jHA8FheW6EURURKXYJiyJYRT2U0ohTwDxCtTedem954pjTzfI/B9fNfFsTV8nsWoLEaiSaOYiVbI 1MZJBJMkSUKuJEmcEPWiAnQx5YRr+ve+51Kr1ajV6viBb34/38P1PHz7GNnJKEY7IkNpd41SGXGc EMexWZ3WbtNud+xnk9JudwiCgFv3buX5wycIvBqqXi/l3wopONO+zEeu/w1n9uYcqvb/z+UAAB4B 3rHWjb8AnQoiju971Gsh9XqNRi1kotlgcqJFe+EUgZuyeW6GJDG7AlutFrt372bz5s0lHTTXOXEU lah/geJ32h1efPEw7aW2Mf4sY2Jiiu96w/3cd+/Lh28uOD/o12w22b51O77v41aM/7HHHjPGU68h hMfWHftwghrzCwv0o4g4Tsqor+3eAsfR1vDthmIbbYtr4rlO6QBMSeHhuya9F1qjdI7OU+LeEp4r mZ5o4LnGgUo5SRzHdNrtsk1ZaiU0AsIgIAjM/oN6vU69USMMQxPhbTdACFkSeopRaq0rXdnl49l2 MafrgHYcAj9ETBhnm83NEUURC0tLnD55kqWlNlEUkaYp2zZNc/SlBVzpUasZya8szUk9013Ic4kQ qiwxuDGj/yMrfdE9R6/wHWvR+EUF8CvBPrsKPAx86rWQZr3G1GSLyakJluaPs3EqxJEB/X4frTUb Nmxg7969TE9Pk2WGdprlGXEclYKbjmPq/flTC7z44mEGgwEIyNKUbdt28OYHv4fdu3Zf1PuXUlIP m/TDHp7nsbi4yMf+6I/4yle+Qq1Wo16vI6THlm0349eazM8vEEVm7Lig9RZOyXWHKX9xHcp0u8iG Ao/ADwxfQUp0npElEUnSIfBdHJ0xNdWi2dxCnmXEcUye57TbnbJmdxyHWq1GGAY0Gg1arQkazTqB HxKGAY7r2T7+kJ6LNvv0NFlZ++gR9kUlDlcUi4uh7eJzNnhAgQH4uK5Hrd5gemqSkydPcezIMQbR gHanw44dsxw89BKiZtR+0zwjyTLS1EGKzBC+9A0b/c/o/19IBrAITK1Z47d1re97hL6p9eu1Go16 yMzUJBOtBkunjrJ1UwutFL2emaDbsmULe2/eS71WszWlJs0S4jgyNFO7NCTLMl566SWOHj1GlmaW oKK54/Y7eeBNb2bjho2X2qzA9z0WF5f42Mc/zpe+9CXCMKTRaIB02bxtL42JaU7PnyZKEpvuG+Mo eu0FO8+0OA0y73kGrAtqAb5nwE8pJXkakUVdMpVQDz1m51o4sl62RQeDAadPnRreEK5rNhvVQhp1 03prNJs0mw18PzCORA9r6jwr0msbYUuL1iNkG620ke3WyxxA5UtCDlesF7yEokVg6MyGYFSr1di6 bQtB4PPiCy/Q6w3otDts3TzDsy+eph4GJHFK4qWWIOXgWOafXWo4kg3cAGfxic88clEZQOEE3rbW jH/IMbfGb8G+Rr1Gs15jZnqKei2gt3SCbZunyNKEKIrwfZ+bbrqJnTfdhOt5ZGmOQpEmyRDss6lz FEUcPnyEE8dPWtmtnCAMePl9r+QNr/0uwlp4yb9HrVbjhRfbfPyP/5jPf+7z1Go1Go06CJfNW/cw tWGO+dPzpGlWAobSkXjCA8vWK1Jsg9Z71GqBARM9s4EnTSKSXhdHKhp1n0azRmtiI1EUEUURsZ2D BwypKQgJ6yH1Wp1Wq0mr1aJer+P7QVmzFzz8rDLOPDKwU6zQojKHoIeMuwIwLVqSVakmLWw7MBcl qUNoy1eQEkcanEIKkwU5jodSmg0bNyIQPPfcQeI4xvd9Jhse7QhT7iQusS2DRCYuT+NxHab/53MA H1sLDmC58Rdpru95hGFALQxo2LR/emaKwJVk/QW2b54ijmP6/T71eo09e/aybds2BFT6+xFpkoI0 yjFCCNrtNodfPMzCwqLtjzvMzc3xhtffz2233n7Zv88LLz7Pxz/+x3z+i18gCHwajQZCOsxt3cPc lh2cnj9txlkx6b3nmg9J2Ak7V0o836Ner9uOh4fSOfGgS9SN8Rxo1gKmNk6X0TeKIo4fP2Gn6sw8 QaPRoN5o0Gw1aTaaNBp1wqCG57mAKPn3eZ6jbL9e6+Hm5WIBi8ERhtG+Cs4W6XxR60ukrclV6RBG 63FREpEMbmB7+CJH5hLP83Gka1qdrkcUR0xNG0Wm48eP0+/32Tw3xfzTxwn8gIHjDpmLjkOW5wgl bkT238cuxQFc8zLgbMYf+D5h6FMLQ+q1gFazwczUFI7IkXmX2dkWg8GAKIpoNBvs27ePzZs2lyue 8zwjiiOTvophXX361GkOHz5Mt9vH9w19Nc1SwrDG4mKbz3/x82Rpdkm/i1I5J06e5Ctf/TLf/va3 8D2PVqsFQjK3ZQ87du5hfn6ePFdlf968Lw/sCu7ADwkC3ywDTWOSqE+vN4/rwPREg8CfIAg8A951 O6Wjc12XRqNBs9mkNdGk0WjSbDQIghDP0nSL/nuWjUb4IW1WWcquofMWkbpok0pHWoA0J0szs4ch Sw0ib+cUSoQ+zypirZUxZYEhHTmOyW58jzAIqdVqdkdAgvCNdoMQht2Z5YrZuY0sLCwQxzFZltGo ucTawfOcssMhYQ3sTVhb6f/5HMA1LQPOZ/z1MKRRD2k2G2yYnkKlEa5M2LihRb8/YDAYMDk5yS23 3MLs7KyJOmjSLCWOB+RWLdas89K89NJLvHT0GHGSlDv+Tp06zclTJ3n6qWf5i098wgKEy8GsC/hd bH97YFHrAjkXwmXjlp3s2nsLnfaS2TxsU27D2nPMBmLPRQrTput3F0l0jiNyJpsNmnMzZaSO44hO p21UcD3XRPdmk8mJSSYmTFofBEGpgVDU5pnKKo6q2I+oLD/f6uTZ9L1gE5Zr2NKcftonTVLTIoxj 4igiic0Gplzb17CdlpXQ/7MBpmaM2KdeqzE5Ncn0zBSu6yGF0QaQjkRnuuyeJEmMUhrfk6SpxYks 7RkpSh2DGyz6P3Kub57PAfzStXAA5zL+IPCohyH1esjkRIvpqUmSQYdGoJiZatHt9kiShA0bNnDL LbcwPT1dMsrSNDVMPMsSc12HKI45cvgYJ0+cQCllDVNy/PhLHDlylMFgsGpgke/7JnX3PKQbsHHT TezcfTNRNEBho58HDaeB63kIAb12m6jTIYl7NBshMy2PIKjhui5xHNNud0qCjO/7TE2bjUeTExM0 Wy1qtRq+5y8T5ciHjgldGnue5Sidl6PJiOGAUHn9ItOX7/f7xtCTlCRNSNPULgKptgwN/8DxnJFR YtdzkUKM4IEFTlC+Dzv2G0URvV6PxaUl0iznpptqFpcYZinF9OTSYttkLHmCEL5ZK2Y1CsSNGv+N DV+yAzjAtSIFiaGIZtX4G7UajXqNyYkm01OTpIM2kw3JRLNBr2eMf25ujlv27aM1MVEaf5IkJHGE 0qq8qTvdHodfOMzi4iICQaPRIMsyDj7/PKdPnUQrjecHtj99eXt8NOC41ni9kM3bdrJxdo5oMCBX Oa1my9SpWUq302H+xAm0Sgl9yfREHd/bUEbRwWBgmG62np+amqI1McHkRItGs0loU3uLxRv6q9Hl LYE5Ux7kQwkuW+cLe71zi5rHcUyv12fQHxDFkclikoQszUaMvXgvYWj2KeRKkcSJJRAZHkCaKeI0 o9PpjpZS5fyCYGKiSaMW4jjCMBZtKZQkCYsL82zZsolazWj+Vd2yoStTKh8ZVQBdKhfdoADgIc6z 88O9QA/y3qsa/Ze3+izJp2HbfCbyT5AOlpidqeNK6HR6ZFnG1q1bufnmm0tjFgLixLT5ChDMcSQL Cws8//yLDHoDpCtpNBp0Oj0OH53HC6aY3TJhJ+JkyQgs2G9V7TspZTmLMGLwK7SaHMchrNWpN0xL TWtNrV5Ha83iwmk6Swto267bOB3iOvWShdjtdo0mgZSEYcDU9DRTk1NMTk4a9mAY4Dqu4b9X0+0S vLNRPs9KbKB6rY1cuZE/6/f79Hp9E+Vjw7wr+BJFq7BWCw0HwTW6B2lmRpSPvnTKSn55ZLllKzqu oSg7EscJaU01DLBYiIfajga2VIrTBJXmxFEf38nZsX2zXdpquiC6EAYttPwUFScmKvsgbljU/4Ki /4U6gA9cLQdQHexx5LDVF1iCT70W0mo2mZ6aIBu02TgV4kro9/sopdi5cyd79uwxct428kdJTGrH eIs236lTp3nh+ReJowjXc6jV65w4uUi3n7N5286hiIQx8VKZpuqgRKUlOTJk4zqlQMZyh0DFUSiV 02kv0m0vkmcRjdBnw2SA7zfQ2iys6Pf75CrHkQ5hLaDVnGBqapJmq0Wj0cD3/BHtQaMnaFKVQt++ 0NgrxS/tdTDTkYYAFQ2Mg+l1u2bQyBKCigEaaQ00rIU4jiQaxHTafeIsp9uLiKLEcAQ8H8dt4nlm W4+LMDJdeU6uNTpTRGkKOi1LDOkYAdXAV4ShT1ivE+oafhCwOD+P1L3SWTWaLTN5mRn1H6N/aAa1 kiQd7UDYdXBaWwmxZco/N8j5wGo4gEX7Qm+7KsYvhwbleYbkY1p9Aa1Wgw0zUyT9NrNTPq4j6PV6 AOzevZvdu3fjuq41fqPcEycJwkZfIeDYMVPbp0lq+PBByKHnX8LxGzRaTdqdLkmaDkdJtU3/paHc Oo4hpxilm+rAy1DpxnMdG9FMRPJ8vzT89tICi6dP4sicWugz3fJw3QAhBFmW0ev1bCdAUG/UmZiY YGZ6hlaraai2njcC4lUjvdJWVkspY/jKTAqa4cCh0cdxzMLCIr1uj16vRxRF5WZco80njO6gxSHy XNEfpBw9dJQkyXFdH+l4OK6LG0zQDIUV2zCrtvIsJs0zgzcoTW7RfvNeh1mRrFCWldJoS2sOwwCl FP3uIrtvmqPb7eA6Lq1WywxlpSmZUqUcu9Kafn9Q4vyOG6ASSkeeq6Gu4A1m/Iur4QAAfvuKO4Ci 7rfI/HCqz9J7G3WmJyeJ+202TLh4nkO/3wdg1+5d7N29F+lIO7oLg2Rgevxal7vmDh8+ykvHXiLP civq4fPcoSPUJzaSK0270yNJMyNBlatSULIYtJEyG07XKQftStuO0qV4pbA3dlG7aq1ZmD/FoNtG q5gw8JibqZu1RZaTEEVJmd7XajUmJyeYtkZfq9XMUssqj72yKaiI7GlmZu2L+Xdseu15DipXRFFE t9tjabHNYNAvo3y1hg+CgCAMyLOchYU2/SghTnLiJCOs1XG8JjXf9NNzrUnizGrzKbtWWw0R/0qX IVdq2NcvScES6Uo86aADH8dVeFaxp1avcfrkCbZsmixbiVNTkzSaLUOLtpLeqcURosHAyrObe2gQ ZyjtkGVDTQddkUi/Qc5vX8iTLtQBPHolwcBhPV2Afq6Nzib6N+s1pqemyOIe002HMPAqaf9N7N61 B+nIMhoOokEp4OG6ZuvvCy+8wMkTp9Ba4wceQjgceuEErak54jSnP4hIs4w0KxRjNYWdCSktI1Ui RBFNRssB15XUanUC3yjadpYWWVo8hSRjotVgsukgZcMYvcrM5KHSCAm1Wp3p6SmmpqeZnJggCMIy Yyn1PIs3o0GhDAiX51YPIC9TeyEE0v7Og/6AdrtNp9Ol1+uV046FIwmCIdMvSRM63YiDh44hHB/P D5FuDSeA0NVkKicepGQqGhp9bjMO6zDViHinLheT5FajrFzoYVt4bu6gPA/hOAT233meb8RYki61 6Wna7Ta+7zM7O4vv+aRJakhcaWqBUJdur1eWP1K6RIlCkZLlWSkeWt2UfIOAf4+upgMAeDfw/iud +ruOGWQJfM8SfWpMTDRxpKZREzQbId1uF6UU27dvZ8+evdbIDUg1iAekWVr2rLM04/nnn+fUqdMl z19rwYtHTzMxPUsUmxn7NLPS0lZAUleMf6hz51SyE6/UHajVQiTQWTzNYhYjdGp49xtqoIb69Uli opGUknqjzuTEJDMbpmm1JghDY/RVEU+lGYpkaI3KMhvpix32quKAXLIsNbz4Tpf20hKDQVQKhYpK S8/zPRzpML+wRKc7IFdGTtvzAsLWBvJckWQ5WWKyhOFqr2KRpi419gqmYLF0Q+eaXNvsqQTpRiNv AfBqFyufbp7rOEbIZP7kMTbPTdPtdgFMNjQ5bT4jW6okiXFmaRYz6A/QGIXmk/NtXC+k0x8YMpJS 5Lke2ZN4A7iBd1/oEy/GARRg4NQVafkVKavrWtabTz30abUahIGPjpaY2TJdGv/mzZu5+eabrfy2 iTRxbIg2ReSPopjnnnuOTrtTAllxnHL8VJeJqY1GTTcztFshjLS0dBwQGiko31NR27u2tm/Uariu A2iyJOLUsZeo1wKadR+0a/S4NOQ2XdVal1N10zPTTE9P02q1qIW1cmWYxvDni223CAue5ZlF741o JhUAUlvcoN/rs7S0RK/Xo98flLyAamrvOA5JmhBHGceOL5LlENTqOMEkOs9RWU6U5GRZQpplQwVe ZXf72W07+TJJ7WIHgXGahWMaXdxRtvrsezItu2FfVVoH5roeS/Mn2TJbI4oM/6JerzO9YQMaQZKm oDRxmlgWp2BgW79aadwgpN3tkOGRxEYuLbOfgbpxQMDFCwH/LsUBFG2FVVUNHu6Ss20/a/xhENCo 1Wg16sS9RXZtM8afZRnT09PcfPPNhGFYtofiJCJJUzs159Dr9Th48BDdTteMk/o+3V6f0wsxkzOz xmlgZgCUBFy7zaYcRxWjEd/3CXyfPEsYdBfwXKj5kmbgMt2YtJF22Bs3Ri9pNhu0JiaYmZlhcnKS wPdLJZxSwrvgzNvBozzPSTPDpNOoUsyzwDKSJKHf69PudGjbufii3paV3rlZbQ7zC216/QhkgOcH eLVJpFJEcUqW90xktVE+zzLzZ9UBZJkF01T5py438gz1+qlo+OtS77/q56VdjGL/boVcXM/FD3zy JGbTxjraZnN+4DOzYRbfDy2eQ6n2A4I8y2z6n+O4Lu3OgFwYxx9X1JKLjEndAFt/L6T1dzkO4H3A z65WFlDW/kWktal1aGv/RrNOnvTZtnmynNWv1Wrs3r2bVqtVRnvzYReKvR7dbpeDzx2k1+uXBJWF xQ7tfs7E9AxaKxzHRSNBKITj2OWR5qYo5ut9PwCtyLOYPOsTJws06gEbNrVKcErlOVGW2RpdmLZi rcbU5CRT01O0Wi3CoHYGiFcMymitTYRXWZneqlyVslpSmDZfkqT0+j2WFpbodjvE8RA4LGp/w7iT DKKIXj9iMMhBunhBSNBoECUxvUFiF4jkBiQrWYDKpstD4CxXuqyhSzBPUzqAMsrbkqW6hmzUyRdc gwry77lll6cehviuQ91NcSRkKUjHYWpqA43WpFE8tj8rSTPzWaEZ9HuoNCXPwQs8TpxeIMcjihMS uyuhXP2tbogMYNHa6BVzAEV68Y5VTf+L6G+FKYPAp1EP8RyJq1IcWSNKUhzH4aYdO5idnS2NP7VC FmZTrkuv1+PQwUN0uz1DvAlCjp9eIEoErYkpkyp6Jt10XPDsjVustSq21GRpQn/pBIEnmZ5qIoUH mB0B/X5vpK/vei6NeoPJyQlDxbWbgYSU5dBLtV1X1LxZXizzyEuGYpF5aK1J05Rup0e7vcRSu00c xeXPLNqPGFyQNEmZX+zS7cXUGxM4bguvrkjSnG4/MoM4StktxgbFz8rIr8qVYnleOCSNXpbmF7iE 1kN1n5X2Di7nPBRsPDkyzWlwnjAM8DyHbLDEzI5Z4jjCdRwazRbNiUm0Mo4JrU1pkisEkixLiKIB mdI4rsvJU22U8BhECVGUGJAwH/6uqgAix62/y3IARYqxKg5AlMSNKvjnE3getTAgjbrsuGmG9pLh eG/aNMeOm24qb7A8z0mSCK0VnufS70UcPPg8nU7XCFwGAceOnSbDcPC11kZZxmrTFVp6aRLT73VJ k5jAdxA6Y3KiwdzUjGXCDUZu+KKurjfqTE9NMzU9RaPewPf90ri1NgY0avTL0vtCKde2GbXWRElE vzdgadFE+iiKy4k+13WHmIHW9PoRS+0eWngI6RKEEzSmBFEUkfS7pHlWSeOV3YirysWhxZac8u+l Hl/F4G1Lb3mEH24bG7H8EcdurlVFvakC8Pq+byYbfY886rB792aiKDbfD0Oak1OANBEfm4nYut/s BuhbfESjtGChE5MpQb8/IE6ScklqXmoTnOmgbvT0/1IdwKHVJAYV6i8GABxKWUkBzaZHZltX9Xqd HTt24LpeqdxblAWe5xInCc8//zztpXY5RXbk6ClyfGqNOmjs+GhGmiaGHZelJPGAqckGczMToL0S 6ErThGjQLwkrhoLr02xNMDU5weTUJM1Gs9w3UKDilH3uQpI6L9l4Zxi9lIZvn8R0O12Wltp0Oh2i KCq/Xx3XzbKc/mBAr2/68/XmBLXWHGmWkaQZi+2uUcCxBp7l+chKrSzPS938vBjvtY4qt07LIPfF zMBFGDxVaa9hiSdFRZnYdfH9ioSb70Pa5+Y9W4gGAwLfw/V9WpMzSOmVoiiqwstAG8GTOI5I0hyB w0snF8m1pD/oEyepif5JZslQqlwxdgNE/0NXwwEUbYZVcQBiJDU0BJ8wCEgGXaZnZ+j1TR0/NzfH 5OSkBf2ElY7OrNCD4siLR1lcWrTG73F6YYlBooCIfr+DynOazTrNZg1XwNRkSC1sAlNEUUyv2ylr 2ip6HoYhjWaTmekpJlqThHXTAdBKoXJKZZ2hTSib3uflwE2V+WacRU4UDej1+rSX2oZ9WJQxVpKr oLOmWUav3aPdHeC4AdL1ccMpnFDQHwyI2/PW2HW5NHMk0pdtPFUuEMkLoQ3rkJSdxivR+3LS7uwG ry/kc618tgWxy3PdUq4dnbB75xz9/qCUbm+0JpGOZ+i+arjCW9uV31kaEw+6pElGnkNvMKDTT0hy GAwK8C8brkqzbct1Hv0XL6b1txoO4JD9ge+6TOuvAEPFlhpLqbW3mcpzGo0Gs3OzlgJbMN+G9fCJ 48c5efIkQouSEKRUxmTLY2pywkQW17Vgl0G00zRlaWmpvCEK6rHneUb8cqJlBDSaTcJaiBTOUD04 zS2TT5RLLE2PPC/TfIQuKbsFzXcwGNDt9um0l+h0ukRRBGDanpaUY+b6Uzq9PlGckeVQq7doTk2a Nl6c0um3yaxCcBnZs7y86fMss/164xiUUqOPCiJ+zih/lgg/6vCW1fvVtm6xZsy2dg25K8D3fYQy xp/EsRFfcRy8sInGIYpie10rYiR2h2CW9EnihDQzO/9eOtUmyQW9/oAoTYiTlCwZRf9vgOWfv3Qp 0f9yHMDqdQQsEUiWWn8SlWfMTreIoric9W41W+SZEeQoNN9Nrz/i1PGTpEmKH/hltNg4M1Xh1ycj IFyR0vu+T60W4gdG8Xai1aLZbJnJOtctW3UqV+RkIwah7DLLNM/RNuWuTggqu3tgEEWGc9/p0uma OQMsL6DRaBihD63N8+bbdPsRjhvih3XCpk+WKwZRRNQ+TZYPe/JZrobAXl4QZIZ9+yKtV5V+fGEM xYqsyzH4s2E6I2PcNvIPiVOGPOXojF1bN5ImqVEndh2kF5LlgmwQ2xmMIa/AwBE5KkvIs5TEkraO nVggzmAQRcRRTJxYEVBVEJTUjUD8uWjkf7UcwOLl8ALECttqjeClJEtTpDDGLKQgCAMjOWVL7JJh xjB6CylGjLxwHgVLznVcXM8xRl+v0ag3S7nroBYS+MHQOLQu1W7LNduqSKMzMmVTe6VHdu4ppUiK RRbdHt1ul36/TxIlRu7KdanXzEBPaunHnU6PQZQhHA8vqDExM0OcpPQHA5K0T5ImNqobNLxAwksg b1k9X4B66GIIRl1wlL9Ygx/5/KodnQqrs9wpaNN/V+TctG2WPM/s/gEHLXySVANxKT6qqpwCDZIM lVsKNZKT8236cU6SZEakxAJ/aTbEQKprwNZ59F+8Fg6gyAJ+msuYEThDp6Vc4KlLoQjHkXaxhNHq d1wHL/dQucIPfLZv30692TCrp+1acEdKs+7K84xMtu+XNb10nHJ2vhxYSfOhpLWoLpK0tXOWltNy pj8vwYEsy4gGZn7ePIzRF9iA53k0W00cW5p0uwOWOqeJYoV0fYKwSX3SzM7HUcRi51S5B8BEe+t4 MpNtmDpfG+FQXUnxq/X8Cka/mgZ/PuOXlfHoIgNwHQdP5uzYMovKcwLfDDhl2iGLcrQeAn7FivPc 0p2N3GBuNQmgOxiw2IlIc2UkyOLC+POys1FdALqOjf/Q5UT/1XAABfhwyTMC1QStEKCUjofSpo40 rb7EfN0KOznSoRbWyfMMDdQ31dk4O2ulroarwV27ssreBUOavdXQG3kXZb/ejtOqDJUPyS7F5p1i xr436NHv9+h0zEitEaTMre6/T7MZ4rgeSZLQ7vTodgf0Bgl+UMfzWzQmA3Kl6PUHxEm3LGvKXr2t 65XWlrhTadvpitFDRan34o3+coxjufGPIv6VNeKOxHM027cYVSPPd9EIoszQewsAMq9oFuR2lNh1 wJWq7ALEScaJ023SXJOmmVkCkhlKt+E15DdK3Q/w7gOf/NDi/gcfvmYOoGg//DSXsVFYV6bI8lwh pEMUpTTr5u31+wP6vT61sIbrGOUYoxnvD38RV1COy1VeN8+UIaJUZKjNRJ0e9rl1PmS/WcdQsOtM lqBIkpRBEem7Xfq9wYi+YLE5R1uDPb3Qod3uobVEuB5B0KJVM62tfpIQd3qWqaYqRq9Kll5eif5l r14N99wXvfkLqedX0+jPZ/zFmnGnsmY89GDrnCFhOZ6D0hDHuRUH0RW03vxeRTfDcwTaFaTaaAqk qbmumSoIYMUSUaM4XB2SugFY/48e+OSHPnC5L+Ku0pt5J/DYJVr/cJosLwQhYWGpy+yGLSRJQq/b 49TpU2zdsoXckmKklegSWlRu6monujCKAvzCaNgrXQplaNsjLszEZA1uycKLYzNp1u/36fX7RP2I JE3s5JpTzs870qHd7rC4tEC72yfPIQgbeLVppOOQK01nMCBJOqaGz9RIij/SrsvzEeQ+r8yyXwyI dyWMfiXjL3r9Zhtwxfit0Eez5jI73TJlnRTkStOLMwZxVn72ZcciU1ajUOO6EuE75BklG7HdjYhT M5uQWqMvMJFy4Kdi/Os8+r9zNV5ktRzAAVuLvONion4xL1Lc6MUHmyQpnuPR60d4vk8SJxw/foJm s0mj2SCL03I4xirynVlY6AJIUpUUWZdlR5mu4pTjrYPBwBj8oE+/22cQRSRJYup5bQZtzMYcQwlO kpQXDx8nijIUEt8PCRozGAZbSmT70mmB0FfQ+7xU7dFlXV/cxMsjfbU/fyXr+UszfrsK3EZ/6chy gnKi4TM90aDQAU9TRZRmDKJs5HoYI87LTUha5Uy2aiTJ0PH1+glRkpVp/tBp5uVk4g1k/O878MkP HVhLDgCG5KCLagsWNXZua94kTYmSmNpki2PHF7l13zbmk3l6XcPx375jO62JCdCKNMkrN78etQRR wPeVLoPdWGtm880AUTSIrOEbLbwkSUizFJRCSMMoDMMQzzelx6lTi/T683R7Ma4f4HohfsMMFmVZ Rq/bN1NoqUlJ02XknOKmVzYDKDT985Jrr0dHaq9SPX9Rxk+V6FMh/NiH7ztMNgPqNd9oGroemYJO P6HXj0qGXpabrUIKZaTXjPlTr5kuSW7HvKMkYxClwyyx8ucNaPwF7sZacwCLwNuBj17MPyoiXm4j QZJI4jhhMIjxXY9jx04xNzfN0uISS0ttkuQg09PTTE1NUq/XkI5LOU5rDV8jEFqUKH6xnSZOE5I4 Jo5iG51jo2ef5yVbzHEktdC0B/M8ZxDFLLZ7LCy0yXLw/BDXq1FvNcmVkblOB31LwbW1vFIVYk7x NVPa5CVDUA8Br1yhBWvS6Fdq2xYErmKOo5xIlALfd5lu1QgD06XBcen2YxbbA5K0WClmrkXR8itl wrSiUQ9RStNPYzPklGbEcVYCnwVWM9IuvHGMH+DtBz75ocW16ADAbCF59EIBQW1v7gKVT9MMV0qi JMXtD3BaDU63U9LsJDt3bGZpqW2GPeKY06dP4/umvee4zmhqaodl0jSxhpmVIFNhgIUOvZG4rpWM tTxXLCy0OXz0JFkOCBfX9XHDSVwhyXJFP0lJE6PNn+ZZZWy2YvjLZLOKHv2Qjcc1Qe4vywlUUv9y XFkOS4HQ95hshEgpSLMcx5GcOL1Ib5CAcEosoxjQMRx922URUAt9kwUmKVpDluckaV6hA4/+22qr 7wYx/kcPfPJDj6zmC7pXwkNZQPCCSwGlh2BYnGbIOClryolWg/Yg5ZmDR9m1Y456XdPr9UmShDiO S8S+gikWQcpG9SFVtUD26/U6fuCbteH9AYuLHdJc0e1FZJk2Sjl+C09LFKbdlCYxaZqTWImt5Wl9 kdJmWQW5XyPtutWM/qIa/Ss7EsLApdUIwF4vISS9QUpvkBpJLp0ONQUqHP8i65KOJM1ylErRUAKk QEXOa5QkdIO0+pZn2Kx1B3DI1igXtktAG+ntIjpnQpCkBlSyWD6NWkic+3zzqaM0QsmWzRtpeK6t EfVIhNIlkaisVktxzSIin57vsLDYNvLWroeQDggPJ/CRPmQqJ7LCGWVqX5mbX96mK5B7bcHMKude VyK9WjZHv5aN/mzR317Rcs8eQD008m2lNBjCLGNJMmuwRdTWJdinCx0GadqsaapRdkfhEMAtVoaN dj5uQOMH0/M/dD04AGxH4EfOVwqUWu2WAJTlw62zwn74yhJv6mFIGNSIFTx98ASCnGYjRErKGlAA wqp5GkBZoLQgTXPiODFa9o6L43mEzRmr/W/otFmeVFJ4ZRV3VXnTZtWIb9uIJetM6xUHba51u+7K ZAM2I7CRvx76+N5w9bbWGFwkzU2Zo868PlTlubUgz4tPT5+RyZ2RKekh5HsDGf+jBz75ofddiRd2 r+Cb/lHg4AWVAnbgQ6DIEQiRE4MlhSjy3CPPcuIkMSOlno/rSKLMTAcK4Y6u56oqQAvQDni1Wil4 kcQZuUqG6jd5xaCtum1WWVB5hjRWpZ7XF4ncX29Gf7adelIK6qGH60rTJrVON01z0gqDsjqItPz6 CAH5qGboSrfGGYbPjWX8i9aWuN4cwAV1BYosQBSR02YBJa/d1tNZlpNkOZ7r4DhxSThx7Nabgu1X iGvqkvxTVau10ShXKDR5PrxBM6XLrTpnSGMVMtgVLbzrEcRbreNIQeiZWydN87KbY2r44fCNXuYY R5R5C/BOiGXYjVhRg+AGNPwrgvpfTQdQdAXexwUQhAxpT6GkhDwfilLYfnmWG9ZXafiONHLSVkte nrEMsqgRsXRTVQJxI+m60hVte12O/yr7s5dH+Wpqf73W85dzpCy2B5tlIcL+bnlFdFMvExipgnbV 6yNWyo7OkS3dgMb/vtVG/a+2A8ACgg8A+8+VBZR6+NYJ6Nyw73IhcdSQOOM4CsfJ7W6+YQ96pXR1 JA21kahoH5V95FIyqiJ+aZHnixXNWK9GXz15rhiopNIBOHvaPlxNzoqCnBd6dW5Awwc4cOCTH3rn lf4hV8MBFKXAp86FByx3AtoO4UhhWmdmYWZWGryUsmSiUbakVrgRl6PIy6KSrkhOFc+9HJWc9Xaz Fp/LqBEblNZs3l3mdJdfswvo01cd9w1q7GezGdaDAwAzK3BBeEDhBIqVzrlF8oVQiHxo8LKyl+9s YFX1Zqq2nqqGXn7vIoUvb7Qbtpqyl04AztgBsNxRXkjtPjb6Fev+A+vJAVwwHqCrTJ5hPjlcl6XF yLcLdvrZ0OrqANBKNn0uYz9bmnqj3rAjTmD5uu2zlEJj4157df+1cgBgRhj3cwFU4arYpB4tLs80 zAvZ+36eG1GPo9MFlQEj0t83GP5xFc6jV6Puv5YOAExP81OcAxQ85410NtRpFW7y8bmw6zPilMfX bzXL5B+92j/0WjiAAuA4Jyg4NtTrwxmMz+rZxJXs95/tyGvi6gzA8aPjz318xsdkxVcL9Ft+zsin 77z/oav589/GZQiKjs/4rIPzdoyu5hU7T3zmkbWVAVTOB1hFdZPxGZ/r7Lz7Shv/miwBlp1fuNYX YXzG5xoFv1+41m9CrpGL8faxExifG8z4374W3ohcQxdl7ATGZ2z8N7ADKJzAgfE9Mj7r9Dy6lox/ LToAgDeNncD4rMNzgDXY+l6LDmBx7ATGZx0a/5u4jC2+N5IDKJzAvWNMYHzWSc1/71o0/rXsAKqY wNgJjM/1bPxvX8tvUF4HF3HsBMZnbPw3sAMonMCYMTg+18t59/Vg/NeTAwDDmnr7+N4an+sgWP3C 9fJm5XV2cT/AGkVTx+eGP4v23ryuylV5HV7oRxm3CcdnbZ0D9p589Hp743J8wcdnfG7cgCSv4wtf pFzvG9+D43ONzvuu95JUroMP4Z0YiuUYFxifqxl8ftTee9f1kevkA3lkjAuMz1UuPx9ZD7+MXIcf zLgkGJ8rnfKvm0Aj19kHtDguCcbnCqf86+q+kuv0A3sE2M24SzA+q3cvPbIefzm5jj+4RZuurTuv PT7jbHLsAC6ubrt3nA2Mz0WcR+098771/ovKG+QDPWSzgTE2MD4XUuu/yd4zjB3A+qzn3je+18dn hUxx3db6YwdwZm03LgvGp5ru35BYkbyBP/gDNtV7+42S7o3PGWXh27nBCWRyfB+Umm3vHuMDN0wG +G7GmpNjB7DspvgFWwOOlYfWt+Hvtp/12NmPHcA5HcEHxpdj3WV5Y8MfO4CLqg+LjsH4prm+I/4Y 5xk7gEt2BO+slAZjR3D9pfpjwx87gFUrDabH0WTNZ23T41R/7ACudD25m+tQAHIdfx5vYozbjB3A VT6PViLOO8dZwTUpzYqM7NHxJRk7gGtZHrzPRqCitzxOP6/Mdf6AvcZjcHbsANbkOVDJCn507AxW zeh/tBLtD4wvy+odd3wJrth5xD7eDjwEvNH+uWt8ac6b3j8CfJobbDBn7ADWvzN4J7AfeAD4Efvn +Jga/mP2z3GEHzuAdV8mHGA4kvyAfbzxBnIIj9oI/yhjAO+aHjG+BGvr3Hn/Q0WGcI/NFvavE4f3 OPDoE595ZBzhxw5gfC7BKeyyzuAeYGoNZguPYkC7x63BHxob+9gBjM+VdQxTlQyhcAg7GQKNU6uQ QRxg2Mk4BDxfMXiAA0985pHF8adxfZ7//wDx3phgHpFiPQAAAABJRU5ErkJggg== "
     id="image10"
     x="0"
     y="0" />
</svg>
