/* XPM */
static char * maximize_toggled_pressed_xpm[] = {
"20 24 4 1",
"       c None",
".      c #143D52 s active_shadow_1",
"+      c #0A5E89 s active_color_1",
"@      c #007EBF s active_hilight_1",
"                    ",
"                    ",
"                    ",
"                    ",
"....................",
".++++++++++++++++++@",
".++++++++++++++++++@",
".++++++++++++++++++@",
".+++..........@++++@",
".+++.+++++++++@++++@",
".+++.+++++++++@++++@",
".+++.+++++++++@++++@",
".+++.+++++++++@++++@",
".+++.+++++++++@++++@",
".+++.+++++++++@++++@",
".+++.+++++++++@++++@",
".+++.+++++++++@++++@",
".+++.+++++++++@++++@",
".+++.@@@@@@@@@@++++@",
".++++++++++++++++++@",
".++++++++++++++++++@",
".++++++++++++++++++@",
".++++++++++++++++++@",
".@@@@@@@@@@@@@@@@@@@"};
