/* XPM */
static char * menu_pressed_xpm[] = {
"20 20 2 1",
" 	c None",
".	c #CECECE",
"....................",
"....................",
"....................",
"....................",
"....................",
"....................",
"....................",
"....................",
"....................",
"....................",
"....................",
"....................",
"....................",
"....................",
"....................",
"....................",
"....................",
"....................",
"....................",
"...................."};
