/* XPM */
static char * right_inactive_xpm[] = {
"6 33 3 1",
" 	c #CECFCE",
".	c #848284",
"+	c #000000",
"  ..++",
"  ..++",
"  ..++",
"  ..++",
"  ..++",
"  ..++",
"  ..++",
"  ..++",
"  ..++",
"  ..++",
"  ..++",
"  ..++",
"  ..++",
"  ..++",
"  ..++",
"  ..++",
"  ..++",
"  ..++",
"  ..++",
"  ..++",
"  ..++",
"  ..++",
"  ..++",
"  ..++",
"  ..++",
"  ..++",
"  ..++",
"  ..++",
"  ..++",
"  ..++",
"  ..++",
"  ..++",
"  ..++"};
