/* XPM */
static char * title_4_active_xpm[] = {
"6 27 5 1",
" 	c None",
".	c #848284",
"+	c #FFFFFF",
"@	c #CECFCE",
"#	c #004905",
"......",
"......",
"++++++",
"@@@@@@",
"@@@@@@",
".+@@@@",
"#+@@@@",
"#+@@@@",
"#+@@@@",
"#+@@@@",
"#+@@@@",
"#+@@@@",
"#+@@@@",
"#+@@@@",
"#+@@@@",
"#+@@@@",
"#+@@@@",
"#+@@@@",
"#+@@@@",
"#+@@@@",
"#+@@@@",
"#+@@@@",
"#+@@@@",
"#+@@@@",
"++@@@@",
"@@@@@@",
"@@@@@@"};
