/* XPM */
static char * close_inactive_xpm[] = {
"14 25 24 1",
" 	c None",
".	c #A7A7A7",
"+	c #A6A6A6",
"@	c #FFFFFF",
"#	c #A4A4A4",
"$	c #FEFEFE",
"%	c #A2A2A2",
"&	c #FAFAFA",
"*	c #9F9F9F",
"=	c #F4F4F4",
"-	c #9B9B9B",
";	c #EBEBEB",
">	c #999999",
",	c #E5E5E5",
"'	c #989898",
")	c #BCBCBC",
"!	c #969696",
"~	c #CCCCCC",
"{	c #949494",
"]	c #DDDDDD",
"^	c #8A8A8A",
"/	c #EEEEEE",
"(	c #8B8B8B",
"_	c #8E8E8E",
"              ",
"              ",
"              ",
"              ",
"              ",
" ............ ",
"+@@@@@@@@@@@@+",
".@@@@@@@@@@@@.",
"#$$$$$$$$$$$$#",
"%&&&&&&&&&&&&%",
"*============*",
"-;;;;;;;;;;;;-",
">,,,,,,,,,,,,>",
"'))))))))))))'",
"!~~~~~~~~~~~~!",
"{]]]]]]]]]]]]{",
"^////////////^",
"($$$$$$$$$$$$(",
" ____________ ",
"              ",
"              ",
"              ",
"              ",
"              ",
"              "};
