/* XPM */
static char * title_4_active_xpm[] = {
"5 25 51 1",
" 	c None",
".	c #5D5D5D",
"+	c #FFFCCC",
"@	c #FFF998",
"#	c #FFFCC7",
"$	c #DDDAA5",
"%	c #FFF690",
"&	c #DDD8A1",
"*	c #FFF59A",
"=	c #DDD8A6",
"-	c #FFF5A5",
";	c #DDD8AC",
">	c #FFF6B3",
",	c #DDD8B4",
"'	c #FFF7C4",
")	c #DDD9BD",
"!	c #FFF2AA",
"~	c #DDD6AF",
"{	c #FFED8E",
"]	c #DDD3A0",
"^	c #FFE972",
"/	c #DDD191",
"(	c #FFE454",
"_	c #DDCE80",
":	c #FFE24C",
"<	c #DDCD7C",
"[	c #FFDD46",
"}	c #DDCB79",
"|	c #FFDC3E",
"1	c #DDCA75",
"2	c #FFDA36",
"3	c #DDC970",
"4	c #FFCD09",
"5	c #DDC258",
"6	c #FFD50C",
"7	c #DDC659",
"8	c #FFD81C",
"9	c #DDC862",
"0	c #FFDF2C",
"a	c #DDCC6B",
"b	c #FFE138",
"c	c #EAD45B",
"d	c #FFE848",
"e	c #FDE74A",
"f	c #FFFFFF",
"g	c #FFEA58",
"h	c #FEE95A",
"i	c #DADADA",
"j	c #DDD48A",
"k	c #B4B4B4",
"l	c #6F6F6F",
"...  ",
"+++. ",
"@@#$.",
"%%%&.",
"***=.",
"---;.",
">>>,.",
"''').",
"!!!~.",
"{{{].",
"^^^/.",
"(((_.",
":::<.",
"[[[}.",
"|||1.",
"2223.",
"4445.",
"6667.",
"8889.",
"000a.",
"bbbc.",
"dddef",
"ggghi",
"jjjjk",
"lllll"};
