/* XPM */
static char * title_1_active_xpm[] = {
"14 25 26 1",
" 	c None",
".	c #5D5D5D",
"+	c #FFFCCC",
"@	c #FFF998",
"#	c #FFF690",
"$	c #FFF59A",
"%	c #FFF5A5",
"&	c #FFF6B3",
"*	c #FFF7C4",
"=	c #FFF2AA",
"-	c #FFED8E",
";	c #FFE972",
">	c #FFE454",
",	c #FFE24C",
"'	c #FFDD46",
")	c #FFDC3E",
"!	c #FFDA36",
"~	c #FFCD09",
"{	c #FFD50C",
"]	c #FFD81C",
"^	c #FFDF2C",
"/	c #FFE138",
"(	c #FFE848",
"_	c #FFEA58",
":	c #DDD48A",
"<	c #6F6F6F",
"..............",
"++++++++++++++",
"@@@@@@@@@@@@@@",
"##############",
"$$$$$$$$$$$$$$",
"%%%%%%%%%%%%%%",
"&&&&&&&&&&&&&&",
"**************",
"==============",
"--------------",
";;;;;;;;;;;;;;",
">>>>>>>>>>>>>>",
",,,,,,,,,,,,,,",
"''''''''''''''",
"))))))))))))))",
"!!!!!!!!!!!!!!",
"~~~~~~~~~~~~~~",
"{{{{{{{{{{{{{{",
"]]]]]]]]]]]]]]",
"^^^^^^^^^^^^^^",
"//////////////",
"((((((((((((((",
"______________",
"::::::::::::::",
"<<<<<<<<<<<<<<"};
