/* XPM */
static char * bottom_right_active_xpm[] = {
"19 19 18 1",
" 	c None",
".	c #EEEEE6",
"+	c #000000",
"@	c #888888",
"#	c #616161",
"$	c #313131",
"%	c #606060",
"&	c #5E5E5E",
"*	c #5C5C5C",
"=	c #5B5B5B",
"-	c #585858",
";	c #565656",
">	c #545454",
",	c #525252",
"'	c #505050",
")	c #4E4E4E",
"!	c #4C4C4C",
"~	c #4A4A4A",
"             .+++++",
"             .+@@@+",
"             .+@#$+",
"             .+@#$+",
"             .+@#$+",
"             .+@%$+",
"             .+@&$+",
"             .+@*$+",
"             .+@=$+",
"             .+@-$+",
"             .+@;$+",
"             .+@>$+",
"             .+@,$+",
".............+@''$+",
"+++++++++++++@))$+ ",
"+@@@@@@@@@@@@!!!$+ ",
"+@~~~~~~~~~~~~$$+  ",
"+$$$$$$$$$$$$$++   ",
"++++++++++++++     "};
