/* XPM */
static char * close_active_xpm[] = {
"12 21 15 1",
" 	c None",
".	c #292929",
"+	c #828282",
"@	c #616161",
"#	c #5C5C5C",
"$	c #FFFFFF",
"%	c #5B5B5B",
"&	c #575757",
"*	c #535353",
"=	c #4E4E4E",
"-	c #4A4A4A",
";	c #454545",
">	c #414141",
",	c #2D2D2D",
"'	c #000000",
"            ",
"            ",
"            ",
"            ",
"            ",
"            ",
"            ",
"            ",
"            ",
"............",
"++++++++++++",
"@@@@@@@@@@@@",
"###$$##$$##%",
"&&&&$$$$&&&&",
"*****$$*****",
"=====$$=====",
"----$$$$----",
";;;$$;;$$;;;",
">>>>>>>>>>>>",
",,,,,,,,,,,,",
"''''''''''''"};
