/* XPM */
static char * hide_inactive_xpm[] = {
"12 21 14 1",
" 	c None",
".	c #000000",
"+	c #989898",
"@	c #888888",
"#	c #868686",
"$	c #858585",
"%	c #828282",
"&	c #818181",
"*	c #7E7E7E",
"=	c #7B7B7B",
"-	c #FFFFFF",
";	c #797979",
">	c #767676",
",	c #686868",
"            ",
"            ",
"            ",
"            ",
"            ",
"            ",
"            ",
"            ",
"            ",
"............",
"++++++++++++",
"@@@@@@@@@@@@",
"######$$$$$$",
"%%%%%%%%%%%%",
"&&&&&&&&&&&&",
"************",
"===------===",
";;;------;;;",
">>>>>>>>>>>>",
",,,,,,,,,,,,",
"............"};
