/* XPM */
static char * title_4_inactive_xpm[] = {
"16 21 55 1",
" 	c None",
".	c #000000",
"+	c #FFFFAB",
"@	c #FFFA9B",
"#	c #FCD5B0",
"$	c #FFF99A",
"%	c #F6CCA3",
"&	c #FFF898",
"*	c #F0CD8F",
"=	c #FFF797",
"-	c #EBCD7F",
";	c #FFF694",
">	c #EACD7F",
",	c #FFF592",
"'	c #E9CC7F",
")	c #FFF48F",
"!	c #E9CB7F",
"~	c #FFF28D",
"{	c #E7CA7F",
"]	c #FFF18B",
"^	c #FFEF8A",
"/	c #E6CA7F",
"(	c #FEEE8B",
"_	c #FEED89",
":	c #E5C97F",
"<	c #FCEC8B",
"[	c #FCEB89",
"}	c #E4C87F",
"|	c #6E6E6E",
"1	c #989898",
"2	c #FAEA8B",
"3	c #F9E88A",
"4	c #E3C77F",
"5	c #888888",
"6	c #F7E78C",
"7	c #F7E68A",
"8	c #E2C67F",
"9	c #858585",
"0	c #F5E48D",
"a	c #F4E28B",
"b	c #E1C67F",
"c	c #828282",
"d	c #F2E18E",
"e	c #F1E08D",
"f	c #E0C57F",
"g	c #808080",
"h	c #EFDF8F",
"i	c #EEDD8D",
"j	c #DFC47F",
"k	c #7E7E7E",
"l	c #EDDD8F",
"m	c #ECDB8E",
"n	c #DEC37F",
"o	c #7B7B7B",
"p	c #DDC37F",
"...             ",
"+++...          ",
"@@@###.         ",
"$$$$$$%.        ",
"&&&&&&&*.       ",
"========-.      ",
";;;;;;;;>.      ",
",,,,,,,,'.      ",
")))))))))!.     ",
"~~~~~~~~~{.     ",
"]]]^^^^^^/.     ",
"((((_____:......",
"<<<<[[[[[}.|1111",
"2223333334.|5555",
"6666667778.|9999",
"000000aaab.|cccc",
"ddddddeeef.|gggg",
"hhhhhhiiij.|kkkk",
"lllmmmmmmn.|oooo",
"pppppppppp.|||||",
"................"};
