/* XPM */
static char * title_3_inactive_xpm[] = {
"8 21 21 1",
" 	c None",
".	c #000000",
"+	c #FFFFAB",
"@	c #FFFA9B",
"#	c #FFF99A",
"$	c #FFF898",
"%	c #FFF797",
"&	c #FFF694",
"*	c #FFF592",
"=	c #FFF48F",
"-	c #FFF28D",
";	c #FFF18B",
">	c #FEEE8B",
",	c #FCEC8B",
"'	c #FAEA8B",
")	c #F7E78C",
"!	c #F5E48D",
"~	c #F2E18E",
"{	c #EFDF8F",
"]	c #EDDD8F",
"^	c #DDC37F",
"........",
"++++++++",
"@@@@@@@@",
"########",
"$$$$$$$$",
"%%%%%%%%",
"&&&&&&&&",
"********",
"========",
"--------",
";;;;;;;;",
">>>>>>>>",
",,,,,,,,",
"''''''''",
"))))))))",
"!!!!!!!!",
"~~~~~~~~",
"{{{{{{{{",
"]]]]]]]]",
"^^^^^^^^",
"........"};
