/* XPM */
static char * maximize_pressed_xpm[] = {
"10 14 3 1",
" 	c #BCBEAA",
".	c #4E4C40",
"+	c #A29D84",
"          ",
"..........",
"          ",
"          ",
"          ",
"   +++++  ",
"   +   +  ",
"   +   +  ",
"   +   +  ",
"   +++++  ",
"          ",
"          ",
"..........",
"          "};
