/* XPM */
static char * maximize_active_xpm[] = {
"10 14 2 1",
" 	c #BCBEAA",
".	c #4E4C40",
"          ",
"..........",
"          ",
"          ",
"          ",
"   .....  ",
"   .   .  ",
"   .   .  ",
"   .   .  ",
"   .....  ",
"          ",
"          ",
"..........",
"          "};
