/* XPM */
static char * title_3_active_xpm[] = {
"14 14 2 1",
" 	c #BCBEAA",
".	c #4E4C40",
"              ",
"..............",
"..............",
"..............",
"..............",
"..............",
"..............",
"..............",
"..............",
"..............",
"..............",
"..............",
"..............",
"              "};
