/* XPM */
static char * shade_toggled_inactive_xpm[] = {
"14 27 5 1",
" 	c None",
".	c #9C9C9C",
"+	c #F4F4F4",
"@	c #D2D2D2",
"#	c #C2C2C2",
"              ",
"              ",
"              ",
"              ",
"              ",
"              ",
"..............",
".+++++++++++++",
".+@@@@@@@@@@.+",
".+@@@@@@@@@@.+",
".+@..@@@@..@.+",
".+@.#.@@.#.@.+",
".+@.##..##.@.+",
".+@@.####.@@.+",
".+@@@.##.@@@.+",
".+@@@@..@@@@.+",
".+@@@@@@@@@@.+",
".+@@@@@@@@@@.+",
".+...........+",
".+++++++++++++",
"              ",
"              ",
"              ",
"              ",
"              ",
"              ",
"              "};
