/* XPM */
static char * maximize_active_xpm[] = {
"14 20 4 1",
" 	c None",
".	c #4B58A2 s inactive_shadow_1"
"+	c #3678E5 s inactive_color_1",
"@	c #FFFFFF s active_shadow_1",
"              ",
"              ",
"              ",
"              ",
" ............ ",
" .++++++++++. ",
" .++++++++++. ",
" .++@@@@@@++. ",
" .++@@@@@@++. ",
" .++@++++@++. ",
" .++@++++@++. ",
" .++@++++@++. ",
" .++@@@@@@++. ",
" .++++++++++. ",
" .++++++++++. ",
" ............ ",
"              ",
"              ",
"              ",
"              "};
