/* XPM */
static char * menu_active_xpm[] = {
"14 20 4 1",
" 	c None",
".	c #4B58A2 s inactive_color_1",
"+	c #3678E5 s inactive_color_1",
"@	c #000000",
"              ",
"              ",
"              ",
"              ",
" ............ ",
" .++++++++++. ",
" .++++++++++. ",
" .++@@++@@++. ",
" .++@@++@@++. ",
" .++++++++++. ",
" .++++++++++. ",
" .++@@++@@++. ",
" .++@@++@@++. ",
" .++++++++++. ",
" .++++++++++. ",
" ............ ",
"              ",
"              ",
"              ",
"              "};
