<?xml version="1.0" encoding="UTF-8" standalone="no"?>
<!-- Created with Inkscape (http://www.inkscape.org/) -->

<svg
   xmlns:dc="http://purl.org/dc/elements/1.1/"
   xmlns:cc="http://creativecommons.org/ns#"
   xmlns:rdf="http://www.w3.org/1999/02/22-rdf-syntax-ns#"
   xmlns:svg="http://www.w3.org/2000/svg"
   xmlns="http://www.w3.org/2000/svg"
   xmlns:xlink="http://www.w3.org/1999/xlink"
   xmlns:sodipodi="http://sodipodi.sourceforge.net/DTD/sodipodi-0.dtd"
   xmlns:inkscape="http://www.inkscape.org/namespaces/inkscape"
   version="1.1"
   id="svg2"
   width="32"
   height="32"
   viewBox="0 0 32 32"
   sodipodi:docname="preferences-system-power-management.svg"
   inkscape:version="0.92.1 r15371">
  <metadata
     id="metadata8">
    <rdf:RDF>
      <cc:Work
         rdf:about="">
        <dc:format>image/svg+xml</dc:format>
        <dc:type
           rdf:resource="http://purl.org/dc/dcmitype/StillImage" />
        <dc:title></dc:title>
      </cc:Work>
    </rdf:RDF>
  </metadata>
  <defs
     id="defs6" />
  <sodipodi:namedview
     pagecolor="#ffffff"
     bordercolor="#666666"
     borderopacity="1"
     objecttolerance="10"
     gridtolerance="10"
     guidetolerance="10"
     inkscape:pageopacity="0"
     inkscape:pageshadow="2"
     inkscape:window-width="640"
     inkscape:window-height="480"
     id="namedview4"
     showgrid="false"
     inkscape:current-layer="svg2" />
  <image
     width="32"
     height="32"
     preserveAspectRatio="none"
     xlink:href="data:image/png;base64,iVBORw0KGgoAAAANSUhEUgAAADAAAAAwCAYAAABXAvmHAAAABGdBTUEAALGPC/xhBQAAAAFzUkdC AK7OHOkAAAAgY0hSTQAAeiYAAICEAAD6AAAAgOgAAHUwAADqYAAAOpgAABdwnLpRPAAAAAZiS0dE AP8A/wD/oL2nkwAAAAlwSFlzAAALEwAACxMBAJqcGAAAGt9JREFUaAUFwQlAzofjx/H39+kQOUsm ixwpJaWThAhzH6EbFVG5ct86HEkic42nJPciIlebc+bcyH0bDRs27M8283N9/q8XAAAAAAAAAAAA AAAAAAAAAAAAAABOjVtUm7/qaOaCwvu/rix5/n7hhvuVo9K/m9PCf2A1AAAAAAAAAAAAAAAAAAAA AAAAAAAAAAAAAAAAAAAAAAAAAAAAAAAAAJp7hVqX7D+98fbjT1q55z9lbftHX5f+p2W7338aMuuH IgwLEwAAAAAAAAAAAAAAAAAAAAAAAAAAAAAAAAAAAAAAAAAAAAAAAAAAAG36pHXI3vLsw+Yj7zR6 +XMlL3umpGXPNHv9S0355s/PrTqNaQMAAAAAAAAAAAAAAAAAAAAAAAAAAAAAAAAAAAAAAAAAAAAA AAAAAEDnuG3TZuU/V0zGPQ2d/4uGLXigYQseKD7roSatfqqQ2MJpAAAAAAAAAAAAAAAAAAAAAAAA AAAAAAAAAAAAAAAAAAAAAAAAAAAAtIksSh+XV6mw6Vc1eNZ1hc++ofDZNxQx56ZGZv+igIFrZgMA AAAAAAAAAAAAAAAAAAAAAAAAAAAAAAAAAAAAAAAAAAAAAAAAAODZe3VGwoJb6j7+nHpP/Fl9Jl1Q n0kX1HfyRUXNvS6P7jmzAQAAAAAAAAAAAAAAAAAAAAAAAAAAAAAAAAAAAAAAAAAAAAAAAAAAcO64 KH3wjAp1TDyuzkk/KDT5pEKTT6rr6FPqPeEnObdPnw0AAAAAAAAAAAAAAAAAAAAAAAAAAAAAAAAA AAAAAEBQj1S7iDEbRrQeuHG7X/j23a36rl3q0mGGX22nNiYAAHvf2Rk9xp1WQOwBtR1WrqC47xQU 952CEw4rJPG46vpMmQ0AYFvP28LJf3yQc0jO14065hxqFJK70zFw1tg6ruH2AAAAAAAAAAAAAAAA AAAAAAAAAAA0az8l0Fxy4+rFO+80Pu+BJq38VSk5txU0bP9b969y0wyTyQKgimtqRvvhh+U5aJd8 IvfKN6pMPpF75RtVJt+ofarqmjIbAGB85u6sycsu/xc7t0IpuQ8UP/+mOo74Xl+GrLhdt9XovgAA AAAAAAAAAAAAAAAAAAAAVK3V0OTWZUFU0NB9b6eveajs7X9pePZjjfn6hWasf6vcnf+oS9LRjy4h mQkAOEamB0btktfg3fKL3if/mP3yi94nv+h98ui3RdQfPAcwGgROT1yz+6nMBz9q3rbPmpr/r0Yv /1Nj8n5XTNp1ufXZ+tHBb84aG3svWwAAAAAAAAAAAAAAAAAAqju4G807ZYwKjj/4dlT2HYVNq1D4 7BuKz6pUSt5zTV73t9K2fNLcgt/l3tt83TBZWGDbcl7ggJUKiD2goLjvFBT3ndoOK1fbYeXy6JYt 6zreC2vUamTXsNOKy7PNj7V4pzRn00dNWvtGycueadiCh4qYc0PRaTflE7FH9v7zD9k2HlAfAAAA AAAAAAAAAAAAgKYdZoW1Hbr/n/h519Vp1An1GH9OA2dc1ZB59zUq93elrv5LMzf8T4uL/5NP+M6P Q1xbeLXx9tvfts9chSb/qG5jTuursWfUbcxpdR1zWp4hE9TDqcnldK+gNOfQtX+v2PNe87Z91ozC dxq/6pVGLvlNsZn3FDb9irqPO6s+k36Wf8wB1fabf9KmQVcHAAAAAAAAAAAAAAC+9E5o5RtR8jp6 ziX5RZcpOOGwuo05rX5TKhSVdlsJi37V6OV/aPK6v5X97VtNzzv/sWLLlusT+w78X3D/DA2YdkWD Zl7T4FnXNWjmNQ2ccU3eoRM02rqqdrXwfOvSbfXH7OK3mr3xgyav+1spec8Vn1WpyLm31HfyRXVJ +VHt4r9XhxFH5RNZphre6WesHYJqAAAAAAAAAAAAUNe1f60WvfLPhk35SZ4Dd6rVoF1qM/SQOif9 oF4TftKgmdc0ZN59JeY80cQ1rzQ2954y4nP1evFizZ6wQCFR32jI/F8Un1Wp+KxKxS18qGELHsi/ 10JNsK6rn6pVU9c+WYrLvKrp6//V2BUvlJjzRLGZ9zRwxlX1TD2vkJHHFTjkoFqG7ZRvVJlc+2xX VfcpRVZ2ftYAAAAAAAAAADTuMG92aNJxeQ0ukXO3DXLvXyy/6H1qP/yIuo05rX5TKhQx56YSF/+q 8XkP5ddvo8pjR+vdixeam7tHXYfvUUreHxq38qXGr3qlsSteaMzyP9Q2vEiTB07Q9YgIFcQmq1m3 fI3Iuq1xK55r6PxfFD77hvpOvqiuo08pOOGwfKPK1KLft2rUtVDe4aVyCF710bpp4nAAAAAAAAAA 6rlHu3oO2PYyJPGwagcuV4NOZrn02qJWg3YpcMhBdUw8pu7jzio2/aai51xSQMcc7Qrup3d//aVP nz9r3uqT6j3+B01b/06zN77XnI0fNKvovWas/08dEw5q7vLDevz8uS5t3qxcj2C1aJOhdnEHNTzr F/WfeklfjT2jjonHFBB7QJ4DS9Ss52Y5hqxTrYA8tQzbKRvPec8svujeFAAAAAAAAOeOi1eFjjqq OgHLVN03Vw7Bq9Woa6Hc+m5X64g9ajusXL0mnFPYlPMK7parc2076+8tW/Thwwd9lpSdf07h088r q1jK3SUt3S0tKZGyiqUeY45rwZof9OLlS/1y9qzO+vtrg4WNujj3V7OeGzV45hV1TvpBbYYeknd4 qVz7bFPDLutVt90qVffNVQ2fHDXsUiCj8egCAAAAAACq2rk7uPYu+jswfJNoOlVVWi1S7cDlqt9x rZr22CSPATvkG1WmiFmX5DegQMfOX9WrHTv0v6Iifa6s1OdHj7Rs9UklzLustQekoiPSpmNS4ffS mv3SyIVXtG7HFf354oUe372rW5Mn65CjowoNQ/2Dhsop1Kw+ky7IN6pMLcN2qmmPTarfca1qBeTJ 2jNLNJ2sRh0Wy9o9451R07spAAAAAI4BMya3G3ZAtZvHiIaJMrmlq1rrHNm1XSGn0AI1771V/Sad l1vPos/5Ww+psrJS/2zdqo9Xr+rTjRv6VFGh0m3nFDnrZ+05Kx26IH1fIe3/SSo++Vl53/6us2fu 69lvv+nXe/d0OzNTP3bpoi3Vq2utq6v6xWbIKTRfnUadkFvf7XLutkEOwatV3TdXFi3miUajVOXL fnJslyu+HJoHAABAldou1o7tc39sF75WRk0fUX+gaDpV1p5Zqh24XI4h6+QxoFghiUc1cGjuh4rr N/Tbzz/r/aVL+njzpj5WVOjj2bN6evtXhU87rfz9f+nCXenqA+ncLenrnX+oT+IB3Z+/WI9zcnR/ 7VpdW7FCZ1JTtSsoSObGjbVqbrq8u8395B1eKvf+xXIKLZB90EpVa50jw3WucIoTdYLVMHCSDKfh 942aXrUBAKjtGtO0cdf8fzyChopqzYRDT9F4rCzd56uG31I5BK9WSOJRNe5q/rR187e6cuOGXlRU 6MONG/pQUaEPZ87ow6lTev/6tS7efKnYtCuavqZSecXPNHnlA8VM+lFHpuTqycSJepCcrBtjxuji wYP64dgx7du8WevHjZM5Nlbz45Nk6zX/U0DsAdXvuFa1A5fLxitbhsss0SBC1ApQHecuqu4+6bNR J7gzAAB1Wo6O8ovep5r13EVVZ2EfIhoOl8ktQ9Va58gheLU6jDimNsGT/jqcl6drP/ygN9eu6d2l S/rf2bN6d+yY3p07p//+/Vdv377Vsz/f6OCppyo68ERlRSf1YGaGnkycqIcpKbodH69Lyck6U1am 7w8f1r79+7WxoEBmf3+Za9SQn8vgv5r32qIvO+erpv8yWbVcKJpOFvXDRK0Amap7qEGbNFG320IA AOx8Zi8NGlIqw6aRsG0h6rQTDWJkuMxUlVaL1KT7Rrn3L/6c5N/n71ILC1WEh+v1gwf69/Fj/Xv7 tv49f17/Xrqkf1690t9v3uj1mzd69fq1Xr5+rafr1+vxxIl6kJSkW3FxuhwZqbOjRuno3r3at2+f 9uzZoy2FhTL7+ckMmuTe5p8a3vM+NO+9VdV9c2XhPl80Hie+6C/sO4lagfoyYJqMul2+N6ztLQCo 45O2z39QobBtJWq3FfYhwnGwaDJRlh4L5DmwRA06rvo3y7ft+52githY/d+ff+rNmzd6/fq1/u/F C/119qxe7dmjlwcP6s8TJ/S8okLP7t3TrwsX6kFysm7HxelKZKTO9e+vY6NG6cDu3SotLVVJSYm2 rl8vs4+PzKAVnq3e2zRJeunae7NsvBfL5JomGiUJxwhRf4Co10v1fSfJwqHLI8O6jj0AdfyyLnr1 WSHsQkS9nqL+ANEgUjinyHBLl3d4qeoGLHi6ysfnfxtBZ+Pi9OKPP/Ty5Uu9ePFCL5490x9lZXq+ cqV+z8nR48xMPZwxQ/fT0nTj1Cld3bNHF1eu1Jnp03U8Lk4HJ0xQ6bffqqSkRMU7d2pzfr7M7u4y g8ytW7+3dQq77tLdLEuPBcJllmg8TjRKEk4J4ssYfeE7VVb1Qt8Y1Zq5AlDHf/Gdlj1XiC8GiAZR wileNEoSjceLZrPkNXi36rSeeXONr++rAsPQ4ago/fbokZ49e6anT5/q98pKPdm6VY9zclSZmakH M2fq7oQJurlwoSquXdP5Cxd08tQpfVderv3FxdozaZJKIiJUPGqUtk2bpo0zZ8rs4iKzYeibgIDX NZ16nm7WZYVMLebJcE0XLrNE06miyQThPFoOvnNlXS/kP6q7egNQyz/nrmdfs3CKF87JokmqaDpV uMwWzdPkHV6qGi0nX8zz9r6cX7Omdvfpo7vXr6uyslIPKyv14No13V+7VnczM3Vr+nRdT03VlVGj dCEvT6fOndPx48dVXl6usn37VFpSopJBg1Ts5qZtTZtqS6NGKvT1lXn+fJknT9ayvn3vVXNof6RZ 56Wy9sySVcuFsvBYIMMtUzSfK5rNUL3ARariEPwfti6tAajuPf+WR98i0ThVNJ0mms+R4ZYpS48F smq5UK0G7VKVFjOuZ331VUn+uHHaPHq0Kvbv153Ll3Xrxg3dOHdO15Ys0ZUZM1SRmqqfkpJ0Ji5O J775Rt8fOaKDBw+qrKxMpXv2qKSwUMWBgdrWuLG2ODpqU926KujZU+aCApnXrVNGt24nLGoHHnMJ zVW11jmq1jpHNl7ZqtJqkaxaLpSpxTw5tF0q6zrebw0bRy8AqrjPPN1q4A7RbJYMt0xZeiyQtWeW bLyyVa11jloN2iUbz4xnwzxbZ5tXrHibv3ixylNSdG3dOl02m3Vx40b9bDbrbGamfkxN1fERI3Qk IUHfFRXpwMGDKtu3T6WlpSopLVVxerq2NWmiLY6O2mhvr8IaNWSeNEnmwkKtzcp6l9ygwTqjdtur zbutVK2APNX0X6Yafktl67NEVb1zVKXVIjVov1SW1Zv9ZVjWbAyAZbPU4tYRe2ThlilrzyzZeGXL 1meJavgtVU3/ZWrR71vVDlj2zr6298gVU6bcyV+7VptDQ3VuyhRdzMjQ+UWLdOb4cZ08cULH9u7V 4cJClWdl6UBWlsrWrFHphg0q2b5dxTt2aNuAAdri6KhN9vbaUL26Cpo0kXn1apk3bNDXMTGPmhiW ky3rdnzVovcG1W23SvZBK1WnzdeqFZCnGn5LZeuzRI3aL5SpSr07hoV1TQAM55Ez3fvvkK3PEtn6 LFENv6WqFZCnOm2+ln3QSjmFFsit91bhGPVNUufOSwry8z/nR0SoNCBAp8eO1Zm0NJ0sL9fxEyd0 +OhRlR8+rAOrV6usVy+Vdu6sktBQFffooW0JCdoSF6dNnTppg6urCuzsZI6MlHnjRplzcz+nNG++ 1ajiuNiuecQn1z7b5BiyTl90+EYOwatVt90q2bVdoVoBeXJukyosbIsBADAcB4bUDVz62aXXFtX0 X6Y6bb6WfdBKOQSv1hcdvlH9jmvVdsgBmRqP/cPZoUGXhePHnyqYNetTQe3aKvHy0rHkZB3bvVuH jxxReXm5Dhw4oLLZs1UaGKgST08VN2+ubU2aaEtkpDZu3aoNmzapoKBA5jFjZPbwUH779p+y+va9 /GWtWglUa37Fo1uOmnTfqEZdC+UUWqAGncyq33Gt6rVfI8cQs+q5fCXDZD0WAACjdhs7o1HKo8DY /bJru0IOwav1RYdv5BiyTk6hBWrUtVBeg3apSaflwqF7XjcPj4SVXl6V+d7eKggOVnGnTjr4zTcq P3JEBw4dUtm+fSodOVIlrVqpuHlzbXN21hY3N23KzNSGoiIVrF8vs9kss6+vzIahr11cfg9p0SLD sKqTUePLzp/9okrl0muLmvbYpMbdi+TcbYMadlmvBp3Mcu+3TVY2du8Mk6UnAAAGGDhGmj37Fsop tECOIevkFFog524b1KT7RjXtsUkuvbao88gjsnJO+Neo7j40yM4ufrWLy6P8jIxP5pUrVZiQoO0R Edo1fbp25eZqx+DBKvb11bamTbXZ0VFFgwersKhI+evXy7xmjcx9+8psZfXp64YNn7bz8EgzLGxG YOP81D9srVqG7ZR7/2K59d2u5r23qlnPzWrSfaMaf1Uk105pwrA8ZZgsqgAAAGDUDmhbu+XET35R e9Wwy3o1/qpITXtsUvPeW+XWd7vc+xfLa/BuBUV/K4v6/R4aNo59e9rbp2QFB58rWLHiszk1VeZq 1bS+alVtaNJERfPnq2juXBUmJWl9587Kj42Vec4cmbOyZB46VOY6dT4vcHK60qlJk/mGyXIo1vUv NQ8aozZDD8k7vFReg3erZdhOufcvVot+38q1zza1DNshu4ZtZJisRgEAAABggIFDzxP+g4vUvPdW ufTaIre+2+Xev1gtw3aq1aBd8g4vVbv47+U3YK2wD31o2NQf5Gxj0zslLKxgeUZG5Vo3t//MNjYy u7rKbDbLXFAgc3a2zN7eMlevLrOzs9YOH/4ub+rUx0lubjsa2NomWVjapDi5BN5o5BWpkJFHFRB7 QH7R++QbVabWEXvkNXi3PAeWyGPADnn3WS7DwuZ3w2RRHQAAAAAAo7Zvx+pNo/8LGV6uFv2+Vcuw nWo1aJdaR+yRT9Re+UXvU8CQg+o06oTaRxfJsm6nN1R1mWeYLEPdvvxy6KhmzdaktW59Ymlo6L01 Y8e+Xped/X5du3bv19Ss+TrXw+OXOf36nR4+cOBGVzu7VAMirW1qzrWv7/rezrGlgqK3KjjhsNrF f6+2w8oVOOSg/GP2yzeqTD6Re9Vm6H7VdvT6ZJiskgAAAAAAADAsq5uM2m3y3ULmqO2wcnmHl8on cq/8Y/YrcMhBtR1Wrnbx36v98CMKTT6pHskH9YV79Eds3a9iXW+KYVj1sa9Va6BX/foj29erN7Wz j8/cTnZ2ae1sbWe1bNRovH3NmsMMw4jEsJ6Mhe2ZGnXd33eKWqmQhDJ1GnlMnUadUMfEY2o//IiC Ew4rKO47tRl6SG2Glcut/XgZpio/GiYLWwAAAAAAAACMqs6ORk3/Ox2ii9Rm6CEFDjmotsPK1S7+ e7UffkQdE4+p06gTCk0+qa6jT2nA1AsKHVqkus16faZKoydY19+Lld0iLKqOxVRlOIb1CAyrsZiq LsBUrQTD5n51u2YfA3tnqv/ks+qZ+pO6jzurr8aeUdfRpxSafFKdk35QyMjj6jDiqNoPP6rg6E2y sLL9P8Nk6QcAAAAAAAAAAIBh07CNtZ3/392Gl6jDiKPqMOKoQkYeV+ekH9Ql5Ud1G3Na3cedVY/x 59Rrwk/qPfFnRc29qbBJx9VuQI5cA4apfrMusmvgpzqO3qrnHKQmXv3l3326eiWXKjr9tvpPvax+ UyrUd/JF9Zl0Qb0m/KSeqefVfdxZdRtzWl1Hn1Jo8kmFjtirqrWcPhomqyEAAAAAAAAAAAAAABhV nGJsHfz/6TGqVF1SflSXlB/VbcxpdR93Vj1Tz6v3xJ/VZ9IF9ZtSoQHTLits+hUNnHFV4bNvKCrt tmLSbykm/aZi028qNuO2YtLvKHLuLYXPvqHBs65r8KzrGjTzmgbOuKqw6VfUf+ol9ZtSoT6TLqjX hJ/UI/W8vkouV816Hh8Mk9U8wzCZAAAAAAAAAAAAAAAwDAzD2iHBplbztz1HFqvPpJ/VM/W8ek/8 Wf2mVKj/1EsKm35Fg2Ze0+BZ1xUx56Yi595SVNptRaffUXT6HcVk3FVMxl3FZNxVTMZdxWTcVUzG XUWn31FU2m1Fpd1W5NxbCp99Q4NmXtPAGVc1YNplDZh2Wb3GlKu6XdPPhskq2zBMVgAAAAAAAAAA AAAAAAAAGJY1e1pUsfszqO9cRc25qgHTLmvgjKsaPOu6IubcVFTabUWn31Fs5j0NmXdfQ+f/omEL HmjYggeKW/hQ8VmVis+qVHxWpeIWPtSwBQ80bMEDDZ3/i4bMu6/YzHuKybirqLTbiphzU9Hpt9Uh YoWsbOq8NUzWYwzDZAEAAAAAAAAAAAAAAAAAAACAYaribVjYnHZy7fA5YvJhxWbeUVTabcVk3NWQ efc1dP4vilv4UAmLftXw7Ecanv1IIxY/VmLOEyXmPFFizhMl5jxRYs4TJeY80YjFjzU8+5ESFv2q +KxKDVvwQHELHypq5nk18Q6TybLaXUxWPQzDMAAAAAAAAAAAAAAAAAAAAAAAADBMljUwWc20sqn1 j3fHEYpL+0kjlzxRfFalhmc/UmLOE41c8ptG5f6upKVPlbzsmZKXPVNK3nOl5D1XSt5zpeQ9V/Ky Z0pe9kxJS59q5JLflLz0mUYsvCX/7lNlU/2Lj5is1hgmK0cAAAAAAAAAAAAAAAAAAAAAAAAAAAAA DJNlQ0xWq0yWNi/d/AYobPRWJefc1fhVLzR2xZ8a8/WfGrvihcatfKlxK19q3MqXGr/qlcaveqVx K18qddUrTVzzl8Ys+1XhE/bKMzhOllVq/ovJqtgwWbUGAAAAAAAAAAAAAAAAAAAAAAAAAAAAAAAA wDAsDMNk1cgwWU0zLKr8bFurwd/NvHqo44A5Ch//rUZknFHK4usat+yexi27r9E5N5U477wiJ5aq c/hCufoOUA27xv+ZLKvexGSVbZisWhomC0sAAAAAAAAAAAAAAAAAAAAAAAAAAAAAAAAAAAAAAAzD wtIwWbpjshqOYbkGw/JHDOtKC+saf1tXtfufdTW7/1lWqfnWMFV5gmF5HsOyCJPVOMNk5WsYpqoA AAAAAAAAAAAAAAAAAAAA/w9AcxvGBGa5oQAAAABJRU5ErkJggg== "
     id="image10"
     x="0"
     y="0" />
</svg>
