/* XPM */
static char * title_inactive_xpm[] = {
"8 5 4 1",
".	c #6D84AF s inactive_shadow_1",
"@      c #EEEEEE s inactive_hilight_2",
"+      c #EEEEEE s inactive_hilight_2",
"#	c #657FAF s inactive_color_2",
"........",
"@@@@@@@@",
"@@@@@@@@",
"@@@@@@@@",
"########"};
