/* XPM */
static char * close_pressed_xpm[] = {
"18 18 6 1",
" 	c None",
".	c #000000 s active_border_color",
"+	c #686868 s active_shadow_1",
"@	c #D0D0D0 s active_color_1",
"#	c #E7E7E7 s active_hilight_1",
"$	c #010101 s active_text_color",
".............     ",
".+++++++++++@.    ",
".++++++++++@@@.   ",
".++@@@@@@@@@@@@.  ",
".++@@@@@@@@@@@@@. ",
".++@@$$@@@@$$@@@#.",
".++@@$$$@@$$$@@##.",
".++@@@$$$$$$@@@##.",
".++@@@@$$$$@@@@##.",
".++@@@@$$$$@@@@##.",
".++@@@$$$$$$@@@##.",
".+@@@$$$@@$$$@@##.",
".@@@@$$@@@@$$@@##.",
" .@@@@@@@@@@@@@##.",
"  .@@@@@@@@@@@@##.",
"   .@@###########.",
"    .############.",
"     ............."};
