/* XPM */
static char * top_right_inactive_xpm[] = {
"18 26 5 1",
" 	c None",
".	c #000000 s inactive_border_color",
"+	c #C0C0C0 s inactive_hilight_1",
"@	c #7F7F7F s inactive_color_1",
"#	c #3F3F3F s inactive_shadow_1",
".......           ",
"+++++++.          ",
"++++++@@.         ",
"@@@@@@@@@.        ",
"@@@@@@@@@@.       ",
"@@@@@@@@@@@.      ",
"@@@@@@@@@@@@.     ",
"@@@@@@@@@@@@@.    ",
"@@@@@@@@@@@@@@.   ",
"@@@@@@@@@@@@@@@.  ",
"@@@@@@@@@@@@@@@@. ",
"@@@@@@@@@@@@@@@@@.",
"@@@@@@@@@@@@@@@@#.",
"@@@@@@@@@@@@@@@##.",
"@@@@@@@@@@@@@@@##.",
"@@@@@@@@@@@@@@@##.",
"@@@@@@@@@@@@@@@##.",
"@@@@@@@@@@@@@@@##.",
"@@@@@@@@@@@@@@@##.",
"@@@@@@@@@@@@@@@##.",
"@@@@@@@@@@@@@@@##.",
"@@@@@@@@@@@@@@@##.",
"@@@@@@@@@@@@@@@##.",
"#################.",
"#################.",
".................."};
