/* XPM */
static char * title_1_inactive_xpm[] = {
"6 18 5 1",
" 	c None",
".	c #003333",
"+	c #003232",
"@	c #E8E8E8",
"#	c #C9C9C9",
"      ",
"      ",
"      ",
"      ",
"      ",
"      ",
"      ",
"....++",
"@@@@@@",
"######",
"....++",
"      ",
"      ",
"      ",
"      ",
"      ",
"      ",
"....++"};
