/* XPM */
static char * bottom_right_active_xpm[] = {
"7 7 8 1",
" 	c None",
".	c #000000",
"+	c #888888",
"@	c #505050",
"#	c #313131",
"$	c #4E4E4E",
"%	c #4C4C4C",
"&	c #4A4A4A",
".+@@#. ",
"+$$#.  ",
"%%%#.  ",
"&##.   ",
"#..    ",
".      ",
"       "};
