/* XPM */
static char * title_1_active_xpm[] = {
"8 21 21 1",
" 	c None",
".	c #000000",
"+	c #FFFF50",
"@	c #FFF032",
"#	c #FFEF30",
"$	c #FFEC2D",
"%	c #FFE92A",
"&	c #FFE626",
"*	c #FFE322",
"=	c #FFE11D",
"-	c #FFDD19",
";	c #FFDA16",
">	c #FCD416",
",	c #F7D015",
"'	c #F0CB16",
")	c #EAC517",
"!	c #E3BF18",
"~	c #DDB91A",
"{	c #D6B31C",
"]	c #D1B01D",
"^	c #B07C00",
"........",
"++++++++",
"@@@@@@@@",
"########",
"$$$$$$$$",
"%%%%%%%%",
"&&&&&&&&",
"********",
"========",
"--------",
";;;;;;;;",
">>>>>>>>",
",,,,,,,,",
"''''''''",
"))))))))",
"!!!!!!!!",
"~~~~~~~~",
"{{{{{{{{",
"]]]]]]]]",
"^^^^^^^^",
"........"};
