/* XPM */
static char * title_1_inactive_xpm[] = {
"8 21 20 1",
" 	c None",
".	c #000000",
"+	c #F2F2F2",
"@	c #E5E5E5",
"#	c #E2E2E2",
"$	c #E0E0E0",
"%	c #DDDDDD",
"&	c #DBDBDB",
"*	c #D9D9D9",
"=	c #D6D6D6",
"-	c #D4D4D4",
";	c #CFCFCF",
">	c #CBCBCB",
",	c #C6C6C6",
"'	c #C0C0C0",
")	c #BBBBBB",
"!	c #B5B5B5",
"~	c #B0B0B0",
"{	c #ACACAC",
"]	c #7E7E7E",
"........",
"++++++++",
"@@@@@@@@",
"@@@@@@@@",
"########",
"$$$$$$$$",
"%%%%%%%%",
"&&&&&&&&",
"********",
"========",
"--------",
";;;;;;;;",
">>>>>>>>",
",,,,,,,,",
"''''''''",
"))))))))",
"!!!!!!!!",
"~~~~~~~~",
"{{{{{{{{",
"]]]]]]]]",
"........"};
