/* XPM */
static char * bottom_left_inactive_xpm[] = {
"21 21 2 1",
" 	c None",
".	c #000000",
"    .                ",
"    .                ",
"    .                ",
"    .                ",
"    .                ",
"    .                ",
"    .                ",
"    .                ",
"    .                ",
"    .                ",
"    .                ",
"    .                ",
"    .                ",
"    .                ",
"    .                ",
"    .                ",
"    .................",
"                     ",
"                     ",
"                     ",
"                     "};
