<?xml version="1.0" encoding="UTF-8" standalone="no"?>
<svg
   xmlns:dc="http://purl.org/dc/elements/1.1/"
   xmlns:cc="http://creativecommons.org/ns#"
   xmlns:rdf="http://www.w3.org/1999/02/22-rdf-syntax-ns#"
   xmlns:svg="http://www.w3.org/2000/svg"
   xmlns="http://www.w3.org/2000/svg"
   xmlns:xlink="http://www.w3.org/1999/xlink"
   xmlns:sodipodi="http://sodipodi.sourceforge.net/DTD/sodipodi-0.dtd"
   xmlns:inkscape="http://www.inkscape.org/namespaces/inkscape"
   viewBox="0 0 64 64"
   height="64"
   width="64"
   id="svg2"
   version="1.1"
   sodipodi:docname="folder-grey.svg"
   inkscape:version="0.92.1 r15371">
  <sodipodi:namedview
     pagecolor="#ffffff"
     bordercolor="#666666"
     borderopacity="1"
     objecttolerance="10"
     gridtolerance="10"
     guidetolerance="10"
     inkscape:pageopacity="0"
     inkscape:pageshadow="2"
     inkscape:window-width="640"
     inkscape:window-height="480"
     id="namedview6"
     showgrid="false"
     inkscape:current-layer="svg2" />
  <metadata
     id="metadata8">
    <rdf:RDF>
      <cc:Work
         rdf:about="">
        <dc:format>image/svg+xml</dc:format>
        <dc:type
           rdf:resource="http://purl.org/dc/dcmitype/StillImage" />
        <dc:title></dc:title>
      </cc:Work>
    </rdf:RDF>
  </metadata>
  <defs
     id="defs6" />
  <image
     y="0"
     x="0"
     id="image10"
     xlink:href="data:image/png;base64,iVBORw0KGgoAAAANSUhEUgAAAIAAAACACAYAAADDPmHLAAAABmJLR0QA/wD/AP+gvaeTAAAACXBI WXMAAABIAAAASABGyWs+AAAmd0lEQVR42u19SY8k2ZHe52tsGZldWVldXb2RlEYa9ECEGhBBEOBB V+qko/6AIEA/QQfd9Bf4QwYCdBiMIEAXHSiAADXAoDkjaMQSiVZPV1VXLhGREb7oEPF5fm5uzz2W rO6WNAYE3MOX58/N7Nn27JlHeFyI9jhf73Hd/49AvNQnXnMQPCYhohOO/R1soX6k43vDYxGjaefy s382jdPxBOWmfvXX//ltvb7Wa/5u9PdDZ4Rf/aN/fom6jorVzdtv/vt/ujfXngynEkPvj8ZPPo1W b34XffD5v/iT69//t7/+449Hf5pl2T/ZbDaPJrIsZFmGzWbz6NfuC5vNBlmWNW0/8jP+9te//vWP 5x9+no2v/v4fl5vl717/5X94sztXy/ZotXAKA0SyjQBEs/c/y/7hR+N/k2XZvz0Fmf+3w7Hv4TGP /P+zl5uP/9XXf/Hvf48tsfkDTpAG6RH3RGa/+eXzp5MsWz85lojfNvHTNEVRFI/e7rHv0cc4m80m jYAM3UGravVgRjiUAULEjwHEcZyMsiw7G41GuL+/79ycpg+PK4oCaZoiSZLBhw5ds08bg4jYMUNZ loPtlWX5KOcs800mk+aYMsNuu8TyPgKQYEtobYyEP1gVxCfirSE+gCRJ82mapk93CG06kqZpi/g8 liSJyyjAlqj8WcTxOPf7IE1TlGXZer7tixJjNBr1ttfHIHpO+xh6P+LF648hfgEgjdPkDNtBG2PL CDoIj4JDGMCO/li2CYAsjuPzJEk+2L14FHo5IsAiPERU/a8MweMecxGKokCSJI3EsRBijKF+K4Pq z+uv7nuMQWYI9RHbUX2VpvkzbBmATEAahOg0CMfaACr6E3YqTpJZklRPQzeSeLrtQ5j3H9gyjYpP RRyPhwjI4yFia7ve8T67QfuqUovHPUnG49wvigJUoaJK6yzLruIieYKtHQAAFR4MwaNtgH0lgMdl JD4ZIKvrerZery+GRnCSJMjzvFdM8pw3upXgfaN/CJSYbHM8HrtEpjTjdUPPCY10e8wOiDRNW8Tf PScCcBFFuMCWAdId3k+WAscYgapz2IEUQIYa0yRJzoZGuRXhnlhXAoWIHmICvV+J6+2Px+PWPUrg oig6YrlPcuzrVXhMb1ULbaNdezGAM9T1DFsGKLFlgGr3U5ocJAVOUQFK/J0EKMdJkoyUyIe8uEe8 ToeFGVarVYsJTtHzfarBqhcFKxE8+4P48FSBZ+SyHV5/f7+1/quqHAPIsWUA/mI8MME7dwMJygCN EQhEY/ZBLfg+Me8RVpFtkavX2NF7iPi394V0/JBhaBnSXsvzIUNW//dIwqgoClRVneNB/FMFhLyA vRhiHxsgGjgnRmB2qSct8fvcN0/UDo1Qj1DeaLTn7K+PuKFzoetUfSiD2jasPdDnPvI9L6v/cYEH iWsZ4ChXcB8GsFxkVUAEIImTPH+e/P5Z6AXty4eQZpHVh3wi2NoKesxrpygK5HneMgAtIS0MMYu9 bjweBw1GjxkUjEqoR6NRBABZlr0XZ5MxwgbgwUxwaBygE/9nZ+JsnGdZ9ixk+XrM0IeYEOJC6sAe t0Ql0fM8BwCs1+vOvcoU/K8QkjhDrifvtZ4E8WPBxBYitr3ZbM6z0dkEbfXLwah02htOsQFadkCc 5nmWZc93Yr8uyzLah+hDxy0RQ/fkeY7FYoHpdNoh3Hq9xnQ6xXq9Rp7nSNO0xQh5nmO9XgNAc910 Om3a03O8x/Yj5Dra8543otfbyOh6vSYjFFmWvZeOZrP7279V8U/ikybvNBQckgJxko5yAO/LOZeQ If86RHRPKpDIHNV6nsTRLQlst2QcPcZ9+2z2e7FYNPuW2fZRE/b9bUDLhqIZLwFQZln2LB3PZvBH /VE2wCkSgNsYQBQlaTYajS49I8/jeoug0IhQZC8WixbRdFQrwvSYbuM4bl1n961U0Lb0mYTFYtEQ nRJI+z3kUXiDgUzAc2oPZFl2maQjqgANxx8Nx0wGWQkAbGcCUwDn9mJvBIdCrBYReZ43CKc41uvi OO6MZktchaqqWueUIRQ85tB9Sop9JECfVKCxaEEZQ+ynKE3TizhJRziR6K0+nHh/owaiKEkBzPXl Og9zjikCiEwSm1sddePxGKvVCnmeo6qqDpHiOG6O231gywTj8Rjr9do9p0zB8xYoTdgPT6UQ9s03 8FShuTcGMIuiWCeCvhU3UCFCKBwcRRGjgNr5ffxs1a9qeKkBxq2O4jiOWz8lGhlrPB43koL3UKzr fVZF8Frd53+9R/tmVQbfUZn4kDkMHtupgQhAXHenga1dZun1qAxgGeGBA6M4LcsysmI+pNut+0Rx ry6ZEtKKdY5uHaVxHDcEt4xDsEQDgNlsFlQjbM9jCm3T2hrWNqF94BE7FNzSc0mSxABQ1y0GGCLy o0QCQ9CyBbLxfG5foC9GHtKtVoRaApMoFOU6uvXe2WzWaR94SLTQe+7u7lpEZF90a++hurBSgX22 xiglwJBK4Gyk4ks9gyjOztA/8t9JHMDqmLYhGMVxOrm42s5J7O/rW79aR53VxwSOLh3lSjS2QaIq 5HmOzWbjeghZlrUYwSZo0vDTfug++6sM66kIjVdY6WhdQoF6NBpF6/UaT5Ov3nsVJ0ldlUNMsFc8 4Ji5AC8OEL2ffNmKAlpJoNG5oig6froSyxLfIxiwHeV6jPtZlmE2mzXp2jym/y0oY/C/Ap/leR1A 2+YgU6itYINNCp5UMFIgArYeQZZlT+J0xOTQfVVBEB4lKTSO02Q6nX6463gNJx1MdbsV+RZ0RPE6 73pLJI5aHtdcfXvdEOh92ibfwfZntVo13kXIvVQPxsYUFE/e4NnBGsCzJJtk5XoRMgIPigYeGwcw KiCKsyx7scu9izxf3/rQikgAHV1qjT8d7fZeJZQd6Y+Vou5JD9v/PoYmU3v2CmEP1VlOp9MPkzS3 6eFHS4FTkkIlBhBHaZo+085aLlZRry+vonI8Hnf0Ju/TEegRo0+8K+ybTWzbtvt2q7aDghfoIYQY 2guY7RJE6izL3hcG0Ejgt5IQElwXkCTJk7Is3cCONzIsYmzQpW+Ee4QB/CRLCyqe+5jAJmjw+rIs W8T3VvJYb0I9BlVtVVUFQ9kNgdoqIE7T9EmUpAwGnWwHnJoV3KgAAHPNbNVInuo+SwQiggyxXq8x m81aiFXRbqEvzUyfpYi3LpsXMdRjfalctk/Wc7DMYN+9b5BYKZokSZwkyRm2wSDS4iR4rDhADGDC jtpIHnWftez5wvP53LULrD4PZReRYDYqaF01L9zK43qfnsuyrDnel9ugoGohy7JBu0eP29lINRTT NI3v7+9jIGoH4bqq4J0yQCcMHMVJnCRJWpZl4+JRlKmoVzGvU6+ez+4BxbIlgB3RjCzum+HTl3Gs z7AM4vXF2gabzabXhbTtevMKogbi0WjEaKClxVHzAafMBTSJCPn0yYwI4QwZiauilT/r96v/HnLd iGw7wu3IjuO4k+sPtNfdKXEnk0mLKUKMou1bSRMyLD2V5YWi2S6BxjCvkWyiCADibDxT/B9K9EMZ oE+0xACi8fw51wMOijq+fJ8xl2WZu+QKQGcG0M4pTCaTFtF1JOp/fW6apq3jZAper+sDQvmKIfXk uaPWpbV4YnYxB8pODdQAorIskY7nT2HnYnwD/WQGCFX1aC8LP3v6IdD29z09rC+l1rId8SERTzui bzLFGo82oMNrbdDIA57vI7yVCH2uqPajD9Qglm1EV/D56Jv3d4a3HZwHzwaesjKo+V1F/+vjJPm4 iQICfjiXep9W/j5+uzKSzambTCad+ECIiFmWNdKC6oAj3cbkbaUPj3B9Gch2TkBB29U5B42LEHfW e9rBaj6fv4jiNK7LDXBiVtAhDBAyOKKLi4uPdohoOuKJfR3xFjzXrS9RVHU3keiFUfWYtQ36FpVy 2ycl2IYyns3mIZjUrqZNJT4Hic1tMPgrAHwaRXFcd1XAwYbgIbOBDX3kWIytaPpAkea5NyHjLtix 1F8XqKLbhnztiPSMPjva7X2WkFZKKIFpVyyXy9a50OjXwJJKlb7pcDtDuvv/YRRFzAvwaPROZgND sec4SZKnZVk2OloNNb5MaNRb65463lrwyhj2mCUe/w8tykjTFMvlsmU4WpfQzmIqqBGpbRIPmnXk xTIsWO/JZjrt9uOzs7OnURR7iaEHS4BTMoJU/JyPRqNWqpW+lCJrH1D9bBFOkRtKJrUWfWhSKNQf PrdvOZnXL9oYyhS2j9Zt9Pqh8RNmPGkYGVupPa9RnxwDAE7PCeRvTA8glBxpX5ajXhGjSPamdEMZ RiFbwcbsvZnC+TaRqRODICOEGMU+UyXcoYWnbJg7lOS6e24MII2i+Gi9r/AYNYIiAK2ZHZu44QV1 POITeYoQ6lmLWCsllLh9OQADmbfNdeyHNw/hqRWNMXBfVYuFvpAyw8feTGKapgkA1FUVWhl0EJwa CYziJM+wm5ywefqKUH1xizy1pjn6KU5DiNcRamfl2I59jn3m0FpEttXnBXgLPAjL5bJzvRdStkDD kAEhzTKaTqfR/f09sskFF4hYurwTGyDkasSzp58+JVHViAnN3HkIoOGlYj9UjAFAx//nPSEC9c0J 6JyBDStbpgipBstI7JuVCjZWEMdxb9TQBoRa/T67ujK0CdGrF/oYYKguQAQgmly8eMEXZ5AHGI7u KeKs4eYZXVbM7kNwC8witkzo/bfSxqooT82oq6pxBG77mJGMYA1Y4nOnTuvxeBwBKEazJy8wvDDk naSFt5NBR29+wBM6j99n9Vuxb40vul5WCoREMcPLnmjVZE2t4BG6vk88W2YM5SmoWlDbxPMQFFar FZIkaTEN9xkO3r3D4kdP7n+INuFDjNArBfYJBLlZwPxNp9MPvWpeBBvhsyNLxaUS3XMDPWKECKih ZyZrcmtz9olgb/UwgZZ4nyRQe6HPNtDzauWPx+NOkgntAe3XaDQqN5vND2DsMRxhBxybFt48NMuy D1S02dHgjSgS2hJfEbxcLoNhWDs1q+Ct8NXjdpskSWc1sf4nI1rVwXdWm8D21Qsr2xgGDcMhsMvO JpPJxw7xCXuX5T9kNtCdckzT9FnIleLo9wg1NMKp7z3bgG16SOLWm24NTdl6C0i4XS6Xg6uOlfn7 1AHQdmuBB8PWyy9QXPL5O8mUAngWoIm3DcLJgaAkSc4ZBh4CnY3jy9nR77lwimQiyxKsj+Ch4lRe NU8Lk8mkox7sekELNtjk5SeoPcDzVVUFy8YRZrMZ0jRNdrmBoRjAo6uAUNgxBjDRwE4IoTa+r7N3 ofl8vVfBE+0WvNGtVUr1nDKHrWCqzO1VEfGykhT6bAL73+YeEqxNACAty5J1Ao7W/yTgIdAJBAEY eRxblqUr9tVwCs32eT626mAv60gR15cp7FUpDVUm99rS3D5v1bCNGyh4wSnFQ8gesINiPB4nRVF8 69XCFZQJ0rIsW6tx1Z+1un7If7bIJnjFIBQ8grJt9VJ0pa0XaxiNRh114dX000UufTCUIaRZSmoP 2OuMLbC7IPJG/0EMcWxGUAwgys+uzsqyTKyY1RfQcKiKQwK53456GzXzkki9QotadNnmFOi9inAv pMs6PZ40oZQITXwpQW12kSU231tzCkL5BIRdMAiTJx8/Xb55eYOwkf5oDOAuRBzNLs+SJOmUg9N0 MBI3FOb1wrqKqJCxFTLatMCSndsPFYbiApYhsAakzfD10tMJfXMKNrGEbVqVZDKJimx8fr48cXVQ SAUMuRbbZNDJxXu7Y7WnL204VC1infbtm2kjkXSEhdw563drESdrwOlWS9Hkebv8XCjgZJlpHy+I OPCO2ZQ2zyVUPGZZVmSTs/ewn+gPMsVJbuCLs+WnSZLEaZpG5FTP5/emYkNr4puOBQI8lvh9Ez1A N8KnKVZeOTldtt3Xtrf+0Ktf5BGabdr2Q16BxeOujfX7o+u/hxPLxQ6pgFDGSYRtFPAFHtKV3QY0 adJG+0IGkk4rTyYTt4K2fmaF4OXWcQ5Aq44w08YLALH6l7bHeoB8h5BHQaZqIThAXD1GOymkDr1c wtFoVM/n8x8a+njSundC6CQJMJ1O3ycDEGzMXBdZeC9vEUUgEUNum96nq5EUvKodOicfmhCyy7hC +YIhl3NflWBd31Ao2YOdJ/ARwpnBjzYdHJpxigE8Lcsy0swVTepUkbVP2Tje74EVuXZkqTi3kbpQ cigJGppNtKFltSlCn5hj5DBEbC8EbhnBekCAG1hLJ5PJ1QCxB+cE9vEC9Jt0rV+apnONrNmXsgsp FPYx/Ox/D+F9oySUDh5iQm+NgC0OpQkkvEYtdesi2hx/nUXk/fqtQK8fClQHu9xA1g1+Z5HAkF7h b1KWpesGKdip3j7wxCdfejQatUazimpN9vCYQr8tYAlO8ErMc4WOVQtKPKueJpOJG8QKQd9kkr1X mC0tioLh4FC4/lEmg7xFh/zlACIrPm0yxKFZstblC83aEZhHP5Q1rCnfobRvvSdN004xyr6JJy8k rrjxUsx0YGhUsCGQk8EEANPpNN5sNinesQQghAyMFHhYtcKXJKL1hUIxch7XCp+eywcANzc3LcR6 dQK9pWF9RaS0P5YRGO+3DO5F/dgnoG2vePYAn2mnhu1gsca14KOO4zjabDbf3VxAOp6PAaQ65w90 Q5walZvP50HXz6sXqIhIkqTJ4bcI1603mvsWeXqLQPlMin/vebaokwKlQeh97KpltmHtJtu2SJiI dRBHZ8/m8GcFgSNVQBQ41poHOLv60Qd4+IplSwQzm8dCURTBc6Fo3670HAC0vhdg2/UQbYtEEjTJ U9PPLVH43R/G50OqjAamV1iK76SMpHkBOgfAXIl9FpvuYDW7/JiZQZZONgbgMsO+RmCHsybzZy+S JGlJAM3tJ+IV0VyHZyODtrhz6KMTQ2ndFnQiRiVDKO8wlOhJ9WTnJyzTjUajjqfiGY+q8226eGiA eO7gZDJZP5+tPkXYBnjUjKDWQz6Z33wAIFWfm0Qm8dX/99bzE3Sql0Qpy7L5kWghkWpn9VTPq01C sJFIlVw2IOMlrbC/+g0i9sNjXrtmUp9PJrA5hjyvxijxovSbz+c/QPgTsoNMcOi6AKqAGMBVkiSJ 9bXVANRRNJ/PW8c0K1ane/mCmplDAoQMKgW79j6Ur+itLyAhQgwTqnJun+ERP/QRiSzLsFwuW6nw ikPrPptweArgQ5yQE7DPbCD/W9HyBEBijSGVAIq8m5ubjm6zadmKJI5+tuHpec+90oWkquuHVifr eYphz0hTYuinYxS076HIoIJdkUxJ1Ae7glzpZDK5BAb9/71nA/cxAGMA0WQymSdJEjurV1s3c/SG xD/Qtq5Dk0paWl4J7xV8sITqG/Xe/8lkEpy78Nw+S2AvNS3kNfStKu5LFdsxWIbtZ3rUC1CaDcKQ CnAjTD/96U//ZZ7n/xRAVFVVY2na9GebGWPB6lJ5sQ4CdS5f7/OibJpY0XlhU64uBLbPNjpoXVD1 BLT/dAf74gHaX5VkXgRVjczxeJwmSfJHP//5z/8d/NE/WD/okFCw+pkj7GYB4ziOvJo2Cp4Ytlxt EaTGjqcueK+KX2+Ecz+Uvat9sP3zgkYaJCKoIehJsL7JIesJ2OVyilcuJiVuxuNxvNvPgeOygw9N CYsBxJOtfIwA4MWLF8FFHqG0Li9Vm9fbT6aw7dFo1CBCE1AJ9gscRJY+T5mOiFT/noTicRKECOd2 uVyiqqqWD69bjViyDQBNxa+bmxssl0ucnZ11AmDan/l83nERuU3TFHd3d2Si3NCINPPo2MoPOHRd QAQgWi6X413YtabBZNfCkwge8W3Ah4j1qnbd3Nw0gZjQ2nr1FBTUiNQ2bbCG5/sWZBA2m03v5I59 By9hxe5TlWk43VtRZJ5T53lOIo/Q/ZbwXlKgTwKEXIv45ubmr7IsW6zX6+kXX3zB1Sqtjzyo+8Nq 4F6xCIt0K03Oz887oVovIKPPY4KltqUzivb7vEPAGc++RaNelJBunM34LcuyVR6O7QytEVytVg1T LRaL6Pb2FlmWlTc3Ny9xhAcAHO4Gkssu3r59OyZiFSwx8jxvxfAptpT4m82maUf9YRvKVcKHmI3r +SwjqZTx+h0ClWyeLrfBHa9wZSgtXcX+EOjSdmW2t2/fJgAu8PBJ+b7p4Q6oBBhyARsmqKrqOYD4 F7/4RUEjjOLILLtudI5Xt3+HtKgoino8Hkc78dnSUUVRtDqv4VpbSKpvwalKn1Alz6ESrkoA2wc9 J/ZADaNzV6tVlKZpvXuvmnjY/W9wlOd53Rc/WCwWdZqm+OUvf5nuGCA2P0s/Texp+nRIUmjDXfwu 0B/+8IeUPrNHYG8dvk3spFhWDue9SjAilVEzRbZFvjKFR/y+LCJlDo+4OldAEa8jXPX+er3uDAr9 wDSv9zKKCJ7KieO4kaQ8hq7u3yvM72HCTiXaRrfFoeIYX3/9Nc7Pz/H27dsWckPI12AQr5nNZi0x q0wTSgHnYg79hqASgfuUClYsD32tzAZnSHTqcvaXz7u9ve0wIQlLgn7zzTcdG0K/BWD7eH193cKf NbJpS1RVhWx7kWcAeqK/JZFCQ8GbT241WFUVvvnmG1RV1VlZoxIgyx4+yKh1A4hsG/YkA3nlUslE asSNRqPWYs00TTv60isV76WxabvslyU6R7BNPtHZTPsZGl7HUcs+6f1qHGregn4zWZkUAK6vr3lt lk2fzDaLN7cYtv73VgGhTODmATc3N3jz5g1GoxGur687M2GcT/e+GcT91WoVnJjxFpKqiiEzcLRx 4SclhNYptCNI21XCe66XEl2v4dQ1i0jc3t62JBGfqapivV430Ty+OxmDhH39+nXHDSyKoukn75fv Eef55OJis3jzlUOzXjg0JaxhDBKBSGdAh4mbNiffJkl6RPfWFDBLxjPQNECjq34VrAi3xA1Z4KrL behYo34a6lXbgpJDQ7xeHEJLx5OpGNSyYOcY5J2TOMnGaBuASrtHYQBlhEjnp+1KGa/AshW5d3d3 WK/XDQLs+j4etylmIaL1rbyx7WmNIj2uyRhqpDFIwxGnI3G9XmO1WjURPLajbXK/L+Ckq5H6Ck4Q bBv1g1QPuYFHMUDQBrAhVe6HSq9z2ZT3cWUF1f3eiLWEtmFaBX6XT++zBp56FfosW/rdjnBdTKrf KfISYW1+pBaG1LkKtktm8JjaWyYHAKiPWyF8TFp4h1DaOS+MeXZ2FrQB7IsREXZCx7pyFpT57Fe+ PQJbb8QyRlEUriFqawZ4M5KMR2iGkZfc6am2vi+NWnw5TP9oCSEEL6kwIkI8DqVRpi98e3vrukBK EAWOTCLPMgtFsk0g4b3avk6uMJSqz7XZODYeQVgsFs29fXMGlnFDksvige/DRat6vdcnIwEixJ0P SFg4Oil0EDx/XZGdpmnLKrcjxisZY/XfxcVFs885eSJQ8wdbLyfBKa28ocT29KyOas1UUiveew4A XF5eIo7jwYWe3tfItYaB3rPH8vTr2//9V78L0OxRjUD3v0WIZrJ4yCVR9Gsim82mM4rVDfz8889x dnbWIGRoRg7YjhzrR9vUM3XxLOEtAe0o5vVqD/z4xz8G0HU9dSLIgi1hq/dYYzoAeTY5n8K32Xrp uW9GUBDUIuY2lBbW96HkLNt+K9AuoiQS5xdnuL29dQ00RaDniZjPrwHYqiUltk1NZ9/Yzv39/eB0 8Xq9xvxiy6R3d3etjB5lWLU/rHrbZ/Rb3ANI88l7nHE7aKXQoUWiALTrAfT53/YF7NyAZweQCShG FXGvX7/uZB2z/dVq1YpAWiuZTMioJbOM7EhnMYjFYtEheFmW7qwc+66JIIzqeZKDoPF8xYsNAGmb LeI9hN3TOMl9QuxoFjpxDAO0jLz7+/sOE/CY5V4i3yvNoi/pV/OM8LOf/QzA8NJyda3sV8EtAu38 gYJVM6HVTm1DL2qdCyzt6uQX6OAIMQxdbl08w2fXqPqmf4NVQo4pE9dCKBMslAnYOZZmscjwxJ5n 6ev+/fIeP/nJP0Y+HiGOov66J3X3j3d9hEgDKIGXjewB97qqrrFe3ePNm9vWQk5NM7NgvSJv/YBN NvVqJARfsLfXWzhKAmjnlfjaufv7+2CCpHK7im6KddXjWZbh5uYGb9++3VbzGK+RZimSOMGm2KCu 9/o8XgeqqkJd1UjTdNvGEetroyhCmqSo6grFpsB6tcarV686U7wKGvpVozOUORxSIQFGOHil8NEM 4Ik2m9pNd1CDG4wKalDIIsjWxp1MJvjyyy8BoCm+YBGzTz5fCImM53s6P5Q5ZEPXi8UCy+USX375 ZWthScjyD9ke3toA+1y210pti45bIX40A9BI0yleu7Y/lLDBqKCumdNvChM4aXR3d4df/epX+Oyz z3B1dYWiKHB5eYnXr1+3iOAZniGwH2SyYJM7vexfAE3+YVEUePXqFX77299y1U6L+NZ+sJ+FpW3E 9hmjCDG6Rj6zLAOiJY6BoxjAy/PX0aRbIttKgaIocHZ21vo4IvMGtE0yxVdffYXf/OY3nVlEItn7 9rDXZwJL1XurcTUL2RJL31XPkzA3Nze4vLzEZDLB3d1dR6K5H4DaTV8r6CdubJDLkyjHVog4yQvQ qt9cGm0JaKdqybXT6bTzZWyrB9XN0wBO6FMvWhNQgVnJNrYfqvVrE03ZBgmuEkyvL4oC0+m0mcYO lYzxQuI2rYzHKOY5qGyw7CHc3LDAQUbRo6kA7ST3lejU/Xwxa/nb2L4yAYNBNpbPtjhS7JbngXYu XsjNskTwqnWpiLbtkMk0QVXxowavEt8+Q49ZwidJ0tL9D9LrOGP4aAawL8dO2ZiA90Epi2SdI2Cl TjILmUz9Y2UmSziNM4Q+BKXPtIEp3q/1g0OJp1pBhGDdWaZ10dbxkmYtboZyByzxsyxDXTc2wLfj BVgGIKLoFqotYI0pRaqXOUyjcL1e4/nz5y2Ce4Wg7GSKF2SyX/mwRqgtHevFJmxOgDU6p9NpswBm s9k0No11+TT5w5M0mlRqmUBHv+YO1kf6w4cyQJPHDmzFqs7V0xawYGMCXr6bVxhyvV434l+TTi2h daHI+fl5R5+HLP3ZbNYxPOl10PhU6XF+ft4wAvCgtrRC6XQ67QS87CjXWb99XD+g3yUFsN6szILE PeFoI1CzfIFuEMd6AoC/nl+Ja91CYBsvv7q6aoldqghOIKloraqqccH2+QikV4jhvffeA9D+nB3b ZB9IFFPCvamE9vr165aRyFGv4d7QegI93mf989llWZblZknR8M6NwOYB9qOJfBGtmKWdt36tVsci ku3ILssSX3/9dat+ENciesaZrksIfeK175wi1lvf4J1TuLm5aTwkEt7OMoaCPjzmzbASt9rH1vMf VMCj2QC1+XWYwENeaIWuzRe09oC3dq6qqmbG7Pz8vEVgnYSxi0Ztzr1HKK4f9M55aWK6wJPEsDn8 7PP19XVn4WdoMYoSNrR62QM+dydZ6rquQrTqhSEJUJv9GkC9XC5/A+Ani8WCX7DGdDrtIOT8/LyT MRx68TRNcX193WIKRRhz6K27yJw/Z81hwwje6iAt1mhHtaaj6RIwT614aWkhwjOtjK6rZSivviDQ XRVkmHNVVdXfAKiEXrXZD4KX8MkFIMmOQXIAk93vDNuaNOf5+Yd/9KMX838dx/EFgDhJktaikSzL 6izLzgCM2WnPZgj957GPPvqoUR1ePgHnFehjW9fKhpdDYEW6hqZDU7cksiWaEvmrr75qvZ+nfvpw sdlsqs1m8xoPK3pqAHW55ZbN27dv//zr2/q/bO5e/c+6XL8BcAvgDsAKwD2ADYBCGKTFGPsywFgY 4AyIzoF6/vAfk901ObaFixIA8SeffPInFxcX/wBAItxd76RC3SfmkiSJyrIsxuPxD7MsSz1dHNLR Q4xmrw+167UzVGbWEK9crVZ/kyRJbN9VxXxVVSyz09HfVVW9+eKLL/7jjoAFgPWOsMsdoW8B3Mjv FsDCMEBpGKC1iGCIATJsK1BMsa1PP8NWCpABZoYB0t0vBqIE3QULfdA5/8knn3ye5/nFUPIGDtN9 9W5UR7ttned5xOzlPWC48sY2q+j65cuXv/aeP9Q/uaba/UpsGWCDLXFX2DLAHdrEv8MDA6zRZoDK Pv8QI5CdYEfYmTUeihPodTFQD61UtevWLYKjly9f/lf0J6UeXSn7kaAO7Ov/euC816aH+w0ecL6W /QIPtAmNdvdZaU8HtCMeF6539yvxeT5Bu2JFqHBRaBWy7keBa79rwvfhbJ/tPvskpA68DbainSJe mYGMUKFrFLqwrwSg/lHi3+OBwEp8MgUXKuxTxryPyEOlTr5rRvBGtR1A+zCDh/e+wWeZQBnASoEg pIEOaEe0A5vdPRT7RD4ZhPrfYwBPCkQDx0L1b7XsyfeBAdRCV9x5sZShUW9Hv2UAGoJrPNgCygQq AQaZIDUd8KpJWN2/xgMxOfI32BqLYgA2KiBUtqRPCgz9vPu/axgi/pBO1v9KOGUA4rrAA9GVASgh yn2fu48KYAeY8xzJeXVNyAAkfEgF9K1eGSpK8X21AzzRrvgbkgJ9+t+zA1QK2J+qgMHyY5YBVJxp 50p0iWD1vif67Tfu99HlqipC+wdnv34LYIlc9ewDYQngjVwlKPU8R7v+yBwh8d9RBSEbQHU7kV6a a1Qk9Y18Em7oG7dWPXhSQM95bXxXEArB2tFvxfxQO9oG1YDaAyoRCnSNQDjPbcGQCqA0qMzxCltC l2i7fFbn9xEP8KXAPrZA6P7vCtw5E/jEH7IB+phIjTtlBvuz6sN7HoD+OICqAo+TJeDTqVML+IT3 CLaPHQD0j/zvihH2JeKQ/o/gi+qQJLDMQFrY84NwyKdjPfdw6MPF+4zYPrcwJBG+z+ARfN9gEALn vZ9lCLsfel4LDonN94lmHo97rh965iHRwEPe4V1DHwE9/TsUBIowzDzW2OTxIQPzKOQN+euAT6Ch +L3tFMPJQ/d9XwJAFryAEOATI0JXRHtqwDIDEJYOCJzvhUOROKR7+/T8oe1/H0f7vrCPWD+lnaER vm/7RyN0HzF+7PP62v4+jnwLnlFnz+/bziHn9ia6wmMh8zGJ8n0n8KlwFKHeVVvvGtn/rxPz24LH ZJoW/B+3Oz0sWl2yRgAAACV0RVh0ZGF0ZTpjcmVhdGUAMjAxNy0wNi0wMVQyMjozNzozMy0wNDow MDBEnqcAAAAldEVYdGRhdGU6bW9kaWZ5ADIwMTctMDYtMDFUMjI6Mzc6MzMtMDQ6MDBBGSYbAAAA AElFTkSuQmCC "
     preserveAspectRatio="none"
     height="64"
     width="64" />
</svg>
