/* XPM */
static char * bottom_right_inactive_xpm[] = {
"29 6 3 1",
" 	c None",
".	c #4C7BA6 s inactive_color_1",
"+	c #000000",
"............................+",
"............................+",
"+++++++++++++++++++++++++++++",
"                             ",
"                             ",
"                             "};
