/* XPM */
static char * shade_toggled_active_xpm[] = {
"14 20 6 1",
" 	c None",
".	c #4C5E7C s active_shadow_1",
"+	c #FFFFFF s inactive_shadow_1",
"@	c #EBE8E3 s inactive_color_1",
"#	c #4B58A2 s inactive_hilight_1",
"$	c #000000",
"              ",
"              ",
"              ",
"..............",
".++++++++++++.",
".+@@@@@@@@@@#.",
".+@@@@$$@@@@#.",
".+@@@@$$@@@@#.",
".+@@@@$$@@@@#.",
".+@$$$$$$$$@#.",
".+@$$$$$$$$@#.",
".+@@$$$$$$@@#.",
".+@@@$$$$@@@#.",
".+@@@@$$@@@@#.",
".+@@@@@@@@@@#.",
".############.",
"..............",
"              ",
"              ",
"              "};
