<?xml version="1.0" encoding="UTF-8" standalone="no"?>
<svg
   xmlns:dc="http://purl.org/dc/elements/1.1/"
   xmlns:cc="http://creativecommons.org/ns#"
   xmlns:rdf="http://www.w3.org/1999/02/22-rdf-syntax-ns#"
   xmlns:svg="http://www.w3.org/2000/svg"
   xmlns="http://www.w3.org/2000/svg"
   xmlns:xlink="http://www.w3.org/1999/xlink"
   xmlns:sodipodi="http://sodipodi.sourceforge.net/DTD/sodipodi-0.dtd"
   xmlns:inkscape="http://www.inkscape.org/namespaces/inkscape"
   viewBox="0 0 64 64"
   version="1.1"
   id="svg6"
   sodipodi:docname="security-high.svg"
   inkscape:version="0.92.1 r15371"
   width="64"
   height="64">
  <metadata
     id="metadata10">
    <rdf:RDF>
      <cc:Work
         rdf:about="">
        <dc:format>image/svg+xml</dc:format>
        <dc:type
           rdf:resource="http://purl.org/dc/dcmitype/StillImage" />
        <dc:title></dc:title>
      </cc:Work>
    </rdf:RDF>
  </metadata>
  <sodipodi:namedview
     pagecolor="#ffffff"
     bordercolor="#666666"
     borderopacity="1"
     objecttolerance="10"
     gridtolerance="10"
     guidetolerance="10"
     inkscape:pageopacity="0"
     inkscape:pageshadow="2"
     inkscape:window-width="640"
     inkscape:window-height="480"
     id="namedview8"
     showgrid="false"
     inkscape:current-layer="svg6" />
  <defs
     id="defs3051">
    <style
       type="text/css"
       id="current-color-scheme">
      .ColorScheme-Text {
        color:#f2f2f2;
      }
      </style>
    <linearGradient
       inkscape:collect="always"
       xlink:href="#linearGradient12083"
       id="linearGradient15651"
       gradientUnits="userSpaceOnUse"
       gradientTransform="matrix(0.100167,0,0,0.536489,25.54017,3.573861)"
       x1="58.226566"
       y1="17.318592"
       x2="210.27936"
       y2="17.318592" />
    <linearGradient
       id="linearGradient12083">
      <stop
         style="stop-color:#0000bf;stop-opacity:1;"
         offset="0"
         id="stop12085" />
      <stop
         id="stop14722"
         offset="0.60000002"
         style="stop-color:#00bf80;stop-opacity:1;" />
      <stop
         style="stop-color:#00bf80;stop-opacity:1;"
         offset="1"
         id="stop12087" />
    </linearGradient>
    <linearGradient
       inkscape:collect="always"
       xlink:href="#linearGradient12083"
       id="linearGradient15653"
       gradientUnits="userSpaceOnUse"
       gradientTransform="matrix(0.100167,0,0,0.536489,25.5402,-2.798868)"
       x1="58.226566"
       y1="17.318592"
       x2="210.27936"
       y2="17.318592" />
    <linearGradient
       inkscape:collect="always"
       xlink:href="#linearGradient11184"
       id="linearGradient15655"
       gradientUnits="userSpaceOnUse"
       gradientTransform="matrix(0.305601,0,0,0.527548,-12.17435,-62.09439)"
       x1="58.226566"
       y1="17.318592"
       x2="210.27936"
       y2="17.318592" />
    <linearGradient
       id="linearGradient11184">
      <stop
         id="stop11194"
         offset="0"
         style="stop-color:#bf0000;stop-opacity:1;" />
      <stop
         style="stop-color:#bfbf00;stop-opacity:1;"
         offset="0.36270002"
         id="stop12974" />
      <stop
         style="stop-color:#bfbf00;stop-opacity:1;"
         offset="0.465"
         id="stop12097" />
      <stop
         id="stop12972"
         offset="0.75"
         style="stop-color:#00bf00;stop-opacity:1;" />
      <stop
         style="stop-color:#00bf80;stop-opacity:1;"
         offset="1"
         id="stop12095" />
    </linearGradient>
    <linearGradient
       inkscape:collect="always"
       xlink:href="#linearGradient11184"
       id="linearGradient15657"
       gradientUnits="userSpaceOnUse"
       gradientTransform="matrix(0.305601,0,0,0.527548,-12.17436,-55.65524)"
       x1="58.226566"
       y1="17.318592"
       x2="210.27936"
       y2="17.318592" />
  </defs>
  <path
     style="color:#f2f2f2;fill:currentColor;fill-opacity:1;stroke:none;stroke-width:5.33333349"
     d="M 32,0 C 32,0 24,10.630075 0,13.296875 0,13.296875 0,50.6324 32,64 64,50.6324 64,13.296875 64,13.296875 40,10.630075 32,0 32,0 Z m 0,5.507812 c 6.34798,5.3788 15.50864,8.967038 27.382811,10.773438 -0.645035,5.7808 -1.263499,10.131137 -2.757808,14.335938 -3.140363,8.8364 -6.801904,14.212124 -10.085942,18.078124 C 41.450152,54.686112 36.828768,57.110635 32,59.523435 27.171232,57.110635 22.549846,54.686112 17.460938,48.695312 14.176901,44.829312 10.51536,39.453588 7.375,30.617188 5.880688,26.412387 5.262223,22.06205 4.617188,16.28125 16.49136,14.47485 25.65202,10.886612 32,5.507812 Z m 0,4.796875 C 25.026036,15.145887 17.191397,17.597626 9.328125,19.265625 13.051509,40.393624 21.07246,49.428336 32,55.085936 42.927541,49.428336 50.948496,40.393624 54.671877,19.265625 46.808603,17.597625 38.973964,15.145887 32,10.304687 Z"
     class="ColorScheme-Text"
     id="path4"
     inkscape:connector-curvature="0" />
  <g
     id="g15645"
     transform="matrix(0.49754543,0,0,0.56093648,20.775503,20.322521)">
    <rect
       transform="matrix(0.516109,0.856523,-1,0,0,0)"
       y="10.356378"
       x="31.372629"
       height="5.0174885"
       width="15.230728"
       id="rect11208"
       style="fill:url(#linearGradient15651);fill-opacity:1;stroke:none;stroke-width:10;stroke-linejoin:miter;stroke-miterlimit:4;stroke-dasharray:none;stroke-opacity:1" />
    <rect
       transform="matrix(0.516109,0.856523,-1,0,0,0)"
       y="3.983655"
       x="31.372641"
       height="5.0174885"
       width="15.230719"
       id="rect14724"
       style="fill:url(#linearGradient15653);fill-opacity:1;stroke:none;stroke-width:10;stroke-linejoin:miter;stroke-miterlimit:4;stroke-dasharray:none;stroke-opacity:1" />
    <rect
       transform="matrix(-0.536293,0.844032,-1,0,0,0)"
       y="-45.477615"
       x="0.82551414"
       height="4.9338641"
       width="46.467571"
       id="rect12091"
       style="fill:url(#linearGradient15655);fill-opacity:1;stroke:none;stroke-width:10;stroke-linejoin:miter;stroke-miterlimit:4;stroke-dasharray:none;stroke-opacity:1" />
    <rect
       transform="matrix(-0.536293,0.844032,-1,0,0,0)"
       y="-39.038486"
       x="0.82550603"
       height="4.9338641"
       width="46.467583"
       id="rect14728"
       style="fill:url(#linearGradient15657);fill-opacity:1;stroke:none;stroke-width:10;stroke-linejoin:miter;stroke-miterlimit:4;stroke-dasharray:none;stroke-opacity:1" />
  </g>
</svg>
