<?xml version="1.0" encoding="UTF-8" standalone="no"?>
<svg
   xmlns:dc="http://purl.org/dc/elements/1.1/"
   xmlns:cc="http://creativecommons.org/ns#"
   xmlns:rdf="http://www.w3.org/1999/02/22-rdf-syntax-ns#"
   xmlns:svg="http://www.w3.org/2000/svg"
   xmlns="http://www.w3.org/2000/svg"
   xmlns:xlink="http://www.w3.org/1999/xlink"
   xmlns:sodipodi="http://sodipodi.sourceforge.net/DTD/sodipodi-0.dtd"
   xmlns:inkscape="http://www.inkscape.org/namespaces/inkscape"
   viewBox="0 0 64 64"
   version="1.1"
   id="svg6"
   sodipodi:docname="security-medium.svg"
   inkscape:version="0.92.1 r15371"
   width="64"
   height="64">
  <metadata
     id="metadata10">
    <rdf:RDF>
      <cc:Work
         rdf:about="">
        <dc:format>image/svg+xml</dc:format>
        <dc:type
           rdf:resource="http://purl.org/dc/dcmitype/StillImage" />
        <dc:title></dc:title>
      </cc:Work>
    </rdf:RDF>
  </metadata>
  <sodipodi:namedview
     pagecolor="#ffffff"
     bordercolor="#666666"
     borderopacity="1"
     objecttolerance="10"
     gridtolerance="10"
     guidetolerance="10"
     inkscape:pageopacity="0"
     inkscape:pageshadow="2"
     inkscape:window-width="640"
     inkscape:window-height="480"
     id="namedview8"
     showgrid="false"
     inkscape:current-layer="svg6" />
  <defs
     id="defs3051">
    <style
       type="text/css"
       id="current-color-scheme">
      .ColorScheme-Text {
        color:#f2f2f2;
      }
      </style>
  </defs>
  <path
     style="color:#f2f2f2;fill:currentColor;fill-opacity:1;stroke:none;stroke-width:5.33333349"
     d="M 32,0 C 32,0 24,10.630076 0,13.296876 0,13.296876 0,50.6324 32,64 64,50.6324 64,13.296876 64,13.296876 40,10.630076 32,0 32,0 Z m 0,5.507812 c 6.34798,5.37914 15.50864,8.967104 27.382811,10.77344 -0.645035,5.7808 -1.263499,10.131136 -2.757808,14.335936 -3.140363,8.8364 -6.801904,14.212124 -10.085942,18.078124 C 41.450152,54.685893 36.828768,57.110763 32,59.523435 27.171232,57.110763 22.549844,54.685893 17.460936,48.695312 14.1769,44.829312 10.51536,39.453588 7.375,30.617188 5.880688,26.412388 5.262224,22.062052 4.617188,16.281252 16.49136,14.474916 25.65202,10.886952 32,5.507812 Z m 0,4.796876 C 25.026036,15.145776 17.191396,17.597536 9.328124,19.265624 13.051508,40.393512 21.07246,49.428389 32,55.085936 Z"
     class="ColorScheme-Text"
     id="path4"
     inkscape:connector-curvature="0" />
  <image
     width="22"
     height="22"
     preserveAspectRatio="none"
     xlink:href="data:image/png;base64,iVBORw0KGgoAAAANSUhEUgAAAIAAAACACAYAAAG0OVFdAAAABGdBTUEAALGPC/xhBQAAAAZiS0dE AP8A/wD/oL2nkwAAAAlwSFlzAAALEwAACxMBAJqcGAAAAAd0SU1FB9gHDg8rGA4GvcMAACAASURB VHja7b17nB1Vlej/3XtXnVc/0+lO0gkJAfJCMiCCPIJcUHkoD4FRUFEGH1fFQZwZGZS5n7kzOFcd fxdFh0FEcQbnOiojKCKMvBISXgGFhIdAIAFCCEnIq7uT7j6nT1XtvX5/VNU5pzv9SjrpBMjuz/5U dZ06dXattfbaa629HrCn2uLFi7evXLlSNm7cKH19fXL77bd/Z7D71GAX7733Xuns7ASgp6enMQiC 7UuXLuVrX/sa8+fPVyP++m233SYDr1199dXf/vnPf77DdT3wwo033tj5yiuv7PDQK6644spVq1Yx 4gM6OzubC4XCoCOrvf6FlfX3AXiD3Th16tRhX/H063Lyozk9agcg3nHtRTLzwOl0dmylo6ODzo4O uro6aWhooGXiRFomtvL9ws/ITWTzzaeWJg06gtlz7qJ7wwu84Ss6s47MjAy5gqaxAb5SCsApbj61 OGlIGIgIThxXFYRfeYIm4NGwxJV+SKZRcdsF/9Tv/h1G4JxGO8U/FoWbj3kn1/WuQHAcmJvF1Jee Q0QNjwXPC8hkAvJ+yEeWLeP06Zdw1sFfYvmiVXzxsBClZKQReASBpi/SlAOYe++1vBJF3DQHrPV3 wMgOD9A6wvMijGgUCq0sf9YAiENrRn5A/BAwxpHJgFaglUYpQamhJ5MC6oECkE96NvkBBTggAspA CSjW9D3UFi1aJK+99pp0dXXJrbfeKkPdNygMli5dKmvXruWNN974eE9Pz7taWlquEBFRSo3MC5Yu XSo33njjDr940003yYsvvjgyPyiVSsyYMWPGwOvF4uDw2uEBxhhOP/30tTugS6mHU35wyaq654Z8 wEjtEw9n5pa2MndQpvr6o1+TDWsCOir8YCsATc3NTGiZSENrE9/a9u/c9YWSGhQLbTNWU2/v5+d+ N0cZw/SJhrqMRy4PzzUH/LhLuOyo87iLXwwOA6UMIpbTjeb/ThScsyj6+Jrt41cCNhIOb54zNB1o 7XBOoYHtrwq3nzSLTX2raQKm5ufyfw6zbAxlOCw4stkyWa/MNa0hm+9awVkHf4mzDv4SV/Yuw/fL DKQlrz8vAGs9ApehL7T8Zasht/Aa1oUOe7APmOHpQOuYH/gqwCBAiBbHnDpB6wgRO/JcUAqUcvi+ AwGNRiuXXB+aH2SBuhp+kAUyNWO2CS/oS/hBCegFArWr0/3uu++e1dXV9V+lUml+GIa//fznP//R XXnOTg3g97//vUyaNIn777+f5uZm2tra0nnGo48+yvbt27n++utZtGgRp5xyitptA7jjjjuCxsZG //XXXyeKIi6++OJBv/ed73znE+3t7f/5wAMPcN1117F8+fKm4447bvuYBnD33Xe35HK5rc8//zyT J0/mwx/+8Ijf+cEPfiDr16/nmGOO4Zxzzhn2/hG50TPPPLM15Yej+fGU9TU1NfGud71rh88uWdng dmoAaWtvbx/TGvXpp/JfPvmfs3LD7G4z4po0WJsyZcou/fD5i6nvW5vvXv+I4L+rXI9CRkUDd1x7 kXzwgj5s1wrCrtXYci8bt0xhS0cLndvzdPcYekshYRCQy2aoKwiNDUJrcw/t7VuQ1m385co8tgxe Dn77sZIa9ao8kD+mfTUbub5uO//HLxI1grUa3wOdSY5ac3Wo6Owx0FvAy4KPx/eP/gq/5Sp2egDO pUCK+zt8mLE54Jo5rQSuhDgh6gPtg/GrL5jHw4aO7x14AC0HfYZ1r/awU3JJf4FX4ZxGRCPApY0R wWtb+NqmCXzw3NMG/c5/33IbN59iyGayKGUZTpwZdhZoDUpptFY4p3DKI9Q5yjbH3zcUOWrRbzli yW+559cPMb/1vXSvE8750638/HhLLtdHLlfG8zy8YV5zFCiIUMphjGCUw7OCsg7jYhac1ZpvtG/G v+vLnKc1UcYjwhGGGt95YG3ynF0YgFKgtUIpQWuHWIvWurI0KiVoZzFO4TnwtCWjwdeC5wlaW0ju 3+UBgFS6MbHc4vsKBYiA5wmeB8bEPZbnU/QJKDXsAGrl+wzgJ8f03K+55g3ouoaG0lHaRA+wQDhI DwY57t22ywLJLbfc8k+lUunSIAi6PM/7xqc+9ambxmXEt99+u6xYsUJeeeUVWbdunWzZskV6enok iiL57ne/K3sMAosWLVpujDmyqamJX//61xx99NGISGpU4Z577uHGG2/kqaee4rjjjjNKKbfbBnDf ffdd5nnetcuXL2f69OmICNbaZdbas8vl8pQgCJ5obW3VWmsWLlzIJz7xCU488cTdJ5ItXLhQgiBg 69atNDY2ls4555xBDTLXXnuttLW10dzcTGtrK+9+97tHfP6IAsnNN9/caYxhw4YNNDQ0MNSPA3z5 y19WxWKRe++9l1mzZo0KtSMOQCnV7JyjWCxy7rnnjvhGvb29H5o3bx7ZbJbHHntMxjyA2bNnIyKU SqVRvdGXv/zlO4rFIj/60Y8YjVI/4gCMMfT29uJ5o5beCIKAYrGItf11sf/5Uv15Oz2AVPEYyhA4 knGwn6VhjfxmXAZQX1+/w7WLH6uTfKsq7tIAtNbk8/ldHsDFj9WV1z5kiVzPtF2GwM4MoBZan3iw 0LvhjzYz9Vjj/uNIukbNiNYv/6hs3zCXUl+JUinufaUSpVKx3/9KKTKZDLlcjly+QL6QJ58vUCgU +OmkX/H6qz2YDNz56V0Qy2cd/ijBlmexvRvp7fV4Y/M0tnY1YcRDOYeyEShFoRDQWNdDU0PI5Eld TJ2+jks35ejYoDBZOKSxDXht5yUiEYO1eYIgj8XxX/56LqjbRN4IUaPGA3IZD2Ugk9F4xpErOC5e k8eFCi8DyoOzSu/hX2psS6OmgVikLuF5JTxKPG8Nt5oyeb9IwfSQ84p4eju+34NWPXTTy191RSij MDlQPvzszG8OSy8jSMVe0rMEDppLjlVTsvz9Bp+LQmGGp8lawUXCP4VCvt0jU8P9TikcRNbL7PoA wKK1xamAjHb8Q5Piqz31NM9U/A7BBoINFX5B0VDzw1ldx8YV2/jUR95FGMpYWLHBuQxhmCG0WcrW 5wvby7RnD2Vmy3wamxrJt2i8nMZkFV7WMLNlPhtf6uY3J4PnGUbi4CN87FAqxPMirHVkjaM9Ixz7 zOO8dNSHmdI2c4dvrFr/DDfOhijSuNChrN31AWjtMMaBJ0ShoLXGGJiVVUx78rf8rLCAk085oXJ/ JCETVv+KxsOEfB50XohGAIEengg1znmEoaYcakLxKItP2XqIy/Dp8uPcdsN36dvuaMvP5NYb/oVT JmusNcgoxVNvJBZcVVIV1go4AQvKKXCKr87UeMu+zw9WOa4+Qif6SaxXmlFIfCMwIovWDnB4nsLT EuM0eTulDaJAHFw2x8M6CBEy1uGcxlqFc24sNBATotYOJYJYlajrIAhKHAaFEcHH4YuLdTkfPC+m IdF6LBCI1yulqhpy9cNkJXOgTHwuaJRRiLhEZ1AV3WG3aMdKge87nE3pomrEUAq0crHGqqva8Uhy 4egFPWJbQTyYlDgl+TFX+dGxqGb+EN2rOZqk6wFTuFY9tzVqelhzHKim21oIeANsAf4gNoL0ntpB qJoB1P5w2k3yY6qmU5mrySDe1k2Nx48sXry4ta+v77He3t5DrLW0trbS1tZGY2Mj2WyWMAzp7Oxk zZo1rFmzBoDW1tZ///jHP/7ZNy0AFi5c+HdBEHwLYt8IYwye57Fx40YeeughtmzZgnMOa22lT5ky hdNOO40FCxZgTGzT/+EPf8icOXOCU045JfumAMDChQsftdYel8/nyWazrF27ltdee40DDzywwpMT 80qlK6XwfR/P8xKer1i/fj0PPvggxxxzDJdffjkrV65k69atLFiwQO2zALjvvvtERCgUCjz55JO0 tbXhXLwo5fN5nHOf/8hHPnLjcM+46qqrMk1NTWsbGhom1dfXo5TinnvuoaWlhauvvppf/vKXzJ07 d91RRx11wD4DgJtuuik3adKkUi6XwxjDihUr0hemra2tePbZZ9ftynOvvvrqYxsaGh4rFAoUi0Ve fPFFrrnmGm677TYOPfTQ6NBDD/X3CQD827/9mxx66KGUy2WeffZZfN/HOcfMmTPff8YZZ9w/1udf e+21ksvlKBaLbN68mW984xssWrQI3/fvPemkk04fy7P1WAf3i1/84ncHH3wwpVIJay0iQrFYZObM mTfsjpdPDY/lcrliIXvggQcoFArkcrnTxvrsMQNg8+bNZ7a0tKCUqpjlwjDkjDPO+OLu5C+e571Y KpWoq6vjkUceYerUqSMKugCXrKy7YbfJooO1crmsUwNaGIbk8/lRGUZ3tonIZmPMXBEhDEOMMcPq Oh9/gtamxobXEknwkj1GAQOtiA0NDTtlytyZVlc3Ol76uecL10pHYXP3OpePoujTe5QCBqrQDQ0N hGG4RwDQ0NDAtm3bhvz808uzp+D8e1++M1LNB2saD5EbfvKO0m3jCoD6+nrK5fIeAcBQlHXeA7Q3 +IVVm5ZLXXl7ROOBirqp8tOfHlkakQ95u3sK1NXVobUeFwBYibjw/kJH7zqZsLEzZojNh2j8Bvnr ny0o/csekQPuuPYiOeo9AZOmOiTYxqY1zWzeNJ0wdIRRSBSGhFFEFIZEUUQYhkRRSBhGRFFIFEaV +6IowlqL53kYYyrd930838fzfHzfqzmPe+Rb/nPCbXT1lAh7awA0SYEJTrzljOjhUa8uYyN5obXt eSbUP4Qrb0eiEs46ggCCMgQBRCGEIUQR2Ci28zgXm1OMrppP0t7vmgLPBz8Pfg7WafjHLXmiPoV0 xvgzmRiNhTqPi7afzpmfuOXhnXmHXQaAcwolHtZ6hKGHCz3EeoSRoxwKdxQV99kM86OQD4cQhBBG MSAqJjeXvKhRsbnHCJ5SeMphjMYo8DJwc1l4SjQqMYForzpysfDOtrlcPPVDvLR81c7LF7s+3wVU hDER+BHOWURZjHJogdNywl0dPi80Z7iq19GsLBeaiLaM4JwMSwGiYEmk+Z318Y3BZPWOAxWhr0v4 51M/y7zWQ9m4dvOuCVi7if1VLE7OKaIIMs5wiRdw/WaPxumGMj434RH0CuUu0IGjPoKGxNq4DehC kanT5CcqlFHUDyV8bXNMCj1uOO88qJtJNAbD1i4DwFrAKkQ8IquJAh/lHA6HMoByHJJRXOUc/7TC MnneVApNGYK6IsWWbThiKa63shEDE4cSgLwmcl49fWGRV5/eyD8eEXLszEMrTtdjErF39YvGAE6w KsLoCDFlREqoxM9QiJlYgwffaHasfGU1Pyk2cMLJx+Pn+w/bSUQkIU6iyuJklMHX2cpC9dSKx5mw qZvb3mPxcwnPULHhW0TGHwBRYneNQo8wircSxXnxXkXSURCJQ5RmVl7zzWyZjicW869bMyw44Wym HDQBYfjBdxY38rtb7+TqIyyzj1Q4UYiAtQqsAxsDwLlxBoDnJcZlL0J5EZIwwSh0WBQG8LWH8jRa YoApUUw0wv+eWEat+g0PLhf+uzPHh864gFmHzN7hN26++8fM3PIatx4HflbjeRbfS/ZdPAeeAk8T Wc2uyl67DABJtwIS5hdjJe7OKZyDyMY9TGSAMLCxHIBGCZzUoHhvUxnz4s9Y+ZTw49egfuJU3nfc mfzqjp/w43dG1M2Mmar2QFmNtuBJbFdEZMwWnV0GgFLUhDbEGyXOxWjQSvcLexAFkQJndAwuifeS 0qkSOZiT11zzDjB6M3rtTzn1nRqtMkQSI9qJ4JzDORcDJDIYMUhybdynQPJqKBVbeKMwXd91jGWR mEp0HBbmaRULMoBYQaEwLtHHtUMbSQSims01wChb2Q6L/WVT39k4YCy1Iu+qCWIMkiC4hLTTvXMt IM7FL6wgEIeLiAPbnAJXFYVFQHQSKwPoMJbqRINohaRElE12nSXdBKxuCKbbn5ICe7xNYrU7kikG 0iXJOYdRxF2DVhWmUfNdXcH0oPqZ1qTbsvE+iU4kht1ncfLG8vLoFGMOtEMZh8JhTLxLnjLKFNuY ZFMkAZhWFkWtKNx/CmgsGqEWdumetE5+E63RshdWgZ1ZLQb2WkZa0QFMrF8M1AYrbum6uim/J3aG zDDdG+FzU0ObQ92vh7iWbllLwinSLe7a8z3a1U4CS9W8jB7Q1YCXqj2v3ZtXwxhjahlFenTU+mlU /6891nZb89n+tr/tbpvgWNsdd9zx6WKx+IEgCI621h5gre0RkTVKqTsbGhr+3wUXXPDSWw4AS5Ys +bfOzs7PhGFINptl8uTJTJw4kbq6OpxzlMtl3njjDZ599ln6+vpoaGh4OZfLHXfhhRdueVMDYPHi xd/p6em53FrLjBkzqKurq3iKDDzW9g0bNvCrX/2KmTNndp9//vmNb0oALFmypNzT05NpaWmhvr6+ 4vLy5JNP8uSTTxKGYcVDxLlYpj/22GM577zzaGxsRGvN888/z5IlS5g5c+b/OvPMM//5TQEAEdGL Fy+2pVKJSZMmYYyho6ODRYsWMXHiRKZNm0Yul9thR0lEWLNmDU899RRBEHD++edz7rnnIiJcf/31 zJ8//8mTTz75Xfs8AO6//34JgoCmpiY8z+POO+9k3rx5ZDKZGsVFKpsizjk8zyObzfbbVb7rrrvY tm0bP/3pTykUCvzkJz9h3rx5j5144onH77MAWLhwoURRRENDA845li9fTnt7e+WltdY451wURd+1 1v4yiqKXoiiqV0qdJCJ/G4bhUQ0NDZUt9s2bN/PII4/w9a9/nUMOOYRbb72Vtra2L5988sn/us8B YOHCha8756blcjm01jz33HM0NjYiIimj22StnX7BBRcMG735/e9//3Mi8uMpU6agtaZYLPLggw9y zTXXAPDqq69y5JFHqn0KAI899lhjT0/PttTd7fHHH2fy5Mk45ygUCvi+/8lzzjnn5zvzzKuvvro4 ZcqUvDGG1atXs379eq677jpuu+025syZE86fPz+zu3Y0xtzWrl27NZPJYIzhjTfeoLW1lTAMU9+/ 43b25QGuuOKKwrp164pBEJBmvbnppps4++yziaLIX7x4cW6fAYBzzksNIVu2bCEMQ8IwpKGh4f87 99xz/7Crz73yyivrtm3bRhiGHH744axYsQLP83j55ZdpaGjYsE8A4JZbbrmnvb0d5xxBEOB5HmEY 0t7ezllnnXXlWJ8fRdEpqU8QwCOPPMKcOXPIZDLN+wQANm/efFqhUEBE+mFfa3327hjg5Zdfvih9 Zl1dHQsXLmTu3LmUy2WWLl3astcBkJqqlVJs3bo1fXnOPPPMO3cbp1bqhjAMmTx5MiKC7/t0d3dT KpV+uk/wgPSlU0xNnjx5d8tX34qiqN8eYCmO3jxxrwMgk8lUKCCKIpxz1NfXv7A73/7SSy9da62t eJ91d3enPoLDKkqffTF/zOdX1n1yXACQNt/3AXa7GmuM6QeAZGoMO35fe78BjtjjU6D25RMA7Pbm eV7F+2w0foiXrCz8q0JNQ+TZYZ+7uwGQzWb3GABG2y55ofDBqKQvVUYwueJd40YBmUxmjwEgk8mM CgifWZaf6py+/bUHQoV2XTfMYtO4UUA2m91jABjN1DrqCXztmeXr/2D9poM0NpRvjcsyOB4UMBr+ coSue2jri25ycZNQP824blP84YhTa3cDIJPJ7BUK+Is/FH7Zu8Edu22N0HigQqz8v1vm0zPuFLCn AJC60A7WLnokd03Qxce2vigYHxqma9fb03vZuEmCtZx6TwEgtRgPbB9fkvuHsEf/dceLDu0RY9/J Dbe8d2Ts75FlcE/KAQMjUZ6WW5HAfL3rZYcyCu1Btkl3r3i+96/3mEVo+e8ulLmHh6x7YX7iCZ56 hle9xCue4amXeBgmHuJRP8/xVIdIvcSrewM+nu8lBpXYc9z3Yq/xGMgZltU/w0PZP9L9WtU7pL5d oevkgv96f+mWPa4LzHrXn5g640lyua2Md3s0u4wH9R/pWS8oE3uQ+XVQH2bZmZcf8xSoq9/KjAOe x5Y6IexFXEQYCt09zfQUGyiW8hT7cvSVPcqBIjCaMHT0KTDa4ukQrTTaGHJZh2c8cllHNiNkM458 LqC+ro+6hj6amzrJ1Qfc0m1Y2pGlb6tUnK4UkG1UHPncbG7ij4wbAIYUiPwuVL6LnIGGXBwzEIX9 HaR2iA0Y5H+tqrECxsBPtvgs6faJirGLfWWFyMGC7OE0lPM7z1t29SVFDCKGIPDB5nGhw7mISBRl 67iyLHzaKSaHijBQlIM464VzDlEe2oGnNb6JnSa1jeMFlAFfNFocxtOxqc1avrcpZE2gEQva9Odi rblm3l93LMt4ZvwAkDrvKSVYF2eGsC4isrHTYmB9fuiES6OQpiRfqjiIQodSFmc0NoQwDZZQEudK iRxOKzytsAGsdcIPuhXOaNCgBiSukAj+Zv5fEL6+a4FaY/AUdYgkARMmAhehVRR7dRlQkQ9ZzQ/E 4/O6j3aTTAE/daWz/UgeT2OSl9OJc+VDVvG7QONlVX+spwbTPvjoYadyQFMbr657bfwtQv2jPVS/ Pk9ZQFB5zfVkWYKHq/gWu8Tpsdo9IjwiMjqiQwK+3af4nRgy9RqdiQMoarsNhQMLE/no/A+MTb7Y dWOoV+lR5CGhT+Q0YSSUI80JnuOp3jiSy2QN93dqlhQNJ1g43BnqDPgGtHVopTAGtmjLby2sxpBt glx+cPy4UAi3C9/66J+POUx3DI6SUZxLXkd4ngOJ0FGEcoID5vqa+i5HWPbxC4pCm8JFioe6hPu3 WwoiNERQrxTdSugMIfINuQmKhno1LO/pfl246vhDqfOzY3YFG1PITOwWr3BOEJtGbqS+vJa/bIBv bNBMndeIJcR6IfVTFExWOAvFEHpcLMgUvP5L2w6Kls4Dii2v9XDGFM3hEybS1xc7V4ahVDzVx3EV UElhFEMQGjzJIRKBipe7yAktSnivcSx9OWDm/Ck4LMWwi8D1YTwwozAdGOXRmGlDodiwbj2Tg4gv HpYDX2FyCvEVvq/655kaLwAo5eGcwTMGG7o4/bcVgjDxahT4QN6wubOPN17uY+Y7ptCUm4gTR0/Y QU/UgZWhDZx1ppkJ2WkoBZs619G7NuT6/6FwLgNOo5yGvRUzZIxDdIDnlXGqjOeVkSRhijFxpEjG xARxYb3jRxvXsSnbwMHviHOfNGarMWKRK2MlQpJIMq00RnkYFavW3eFWXlm2hW++M6QxC1qHaE9A 2VgaGQMjHAMF6CRpW3xUYkhznGkFnnKIAoWQ9eHSCRE3vvoCq4Ms8989a9ROz9ZFLFnyAB9rhzl1 WYIAnPGhT1C+wniWqBKOOo4AiCJXeXlHHO4pGCySJPQyBM4RCiCaCPhUC/z+jad5/P4y/+P9J+Bl 9LBRY4KwcOkdzAoj/nyGxHHEPnh+BnwBTxD0mKLVxxY15kdoP17+IEKcQzupuE8rL44ei8TGQZbA WY3wRM8KfvNf6/ngqR9m8gETh6SGJ1ctpXfVJv5lQYTvUYkY8zxbSbku3l4CAPSPAUgS0MehfA6s 0wi6n5s3SuHE8c48vKO+m+vu+g8aZxzJB049k0y2vyltc/c6Hrn3UX58jGBMGqPnauw4it3h4bPL oIvVWo2Ih0i8GoShicNoxccpQySasmgC0QRW0xdCaD1CMfhO87cHaOZ1Psl3/vUbPLh0MTlTT53f TMFr4mf/+VMum+Fo0HHxojQkT5KQOZH+ITjjSgEi1UJBcQZci5P4qJWgRXCRAqcxLg6GwjqUpMko U6oR3tcCJ7UIt664n6v+8AAnHP1+NnWs57T6IkdP6B9AEDPeKt5kN0QE7BIAlIqlQPAqdgEwMWYS QhWlsFINGJMkUFC5mHQ1cTpQi6ANfHw6nGMtv195D20OPjzXxMAahNCdU5ik7sReE4WNAUmwr5Qk 3FxQInjaxIGSKk7r6IhD4ZQGcUm2zzToinj1EAsNBj5+YJJbIXKgIBQwSFL8pSZI0saCUBo4uRe0 wThQUkSSUn8SBz35GpsmSFBgRDA2ZhpRlLAuBVpUHGGq40TSqITNSZwW16TRcUoQDU5cMv/TCJ2x SYC7QRtMMKWgHMSWGa0MLpI4X4iLQ2LFmDjYlyTVsotJWHAo0SBxfKHWClMTORoDyWEQlIur69R+ plRsFJUkcnSvLIMpP/D9OF7J2SiOGTQQiorj/SKLEQ8bWZyLl8k0EFKwaKVqQqBqZAhdzVPrafBM NYTOmDCWsWtCZ/fCFKhmhnFOg9MVRuic4IhFYSsgBKBVEiwZv6dNuHntqiAVnpDAxPg4hMiBl2QL rkyDpO81HpBiUXkKa+Ks0+Li2F4Vh/UjSuMbCCqcMD6mdXm0EnQS+Fw1rUlN8HRsNzRG0T+aLuE7 lbo+e4ECUgnQWonntFWIU4nAkjKsuICgNnGUq02sw7FtMI4Cd8l7OJdKkzV8xsQM1RPoXwZRx7YI 2YspNGpDXtEOjEOUwzmpxA3bKMaXSShWK3Aq3cuzCfOrBlGbgami05VEDTTA2iRuOM7ePRZdYM8k /aoB0nCSZJWSXL9oEhGVdCqZKdIicLKb40H3cPB0/2TgtfwjnvfSb+4PtjW2p4On9zAApEZ5Yci+ N5sa5P/aSO+B53rAdT3I9dpA6oFB1Yygx8og3TF4oLQd4v/Bjul5NFCFHPjCe7oPBKga8KIDw9sH uxaxc2H2EaMMnx8p1t8Mgn0zBEWYAVQwFCUMh/1azA/E9mC5BkbKPzDwmrCTJpXR5g4YmDdAD3jh oaaADHIcLG/AcLkDXM3L7c8fsL/tb/vbTkoBb4m2ePHis8rl8vl9fX3vDsNwrrVWp1UO0l77/2Dn SRCQM8a86Hne44VC4ZaPfexjd+4ngH2sLVy4cLJS6jrn3GnFYrExze+fz+dpbm6mqamJbDabqJs6 cT5Sw/5fe72jo4NXX32VF198ke3b49ryLS0t2wuFwr1RFH3pwgsv3Lif3kgD3QAAFOJJREFUAMa5 3X///UcppW4PgmBaEASkNU0mTJhAJpMZErkAxWJcNTIIAtLvpsVd6uvrmTBhQiV9x2AEobVm48aN LF68mDVr1tDa2sq0adPWdXd3n3PBBRcs208Aexbx9yilTi0Wi0pEyOVyNDU1YYzZYdauXLmSl19+ uVLxQylVCWfyfb8fUaS5XEqlEsVikZ6eHtIgVeccWmvmzZvH8ccfz4IFC/qFLBSLRe6++27WrVvH vHnzRCl136mnnnr6fgLYXcYUEb1o0aIXlFKz0xlbV1dHmqRDKUW5XOaPf/wjHR0dNDY20tbWRkND Qz878WhNprXfSc+ttaxdu5aVK1fS1dWFc44JEybwyU9+khNOqNabfO6553j44YeZPXs2mUxm1Xve 8555oy0Fvp8ABl/f79BanxWGYWVd932/knDo2WefZcuWLRxwwAGkyQsGInwwQW8kIRDi2JxcLlcJ fkqJQam4guXzzz/Ps88+i9aa9vZ2/uZv/qaS4+Opp57imWeeYf78+RSLxTtPPPHEs/cTwE60hx56 aE6pVHpeKWWccxhjyOVySc1Ty7Jly8jlckycOLHfhkh6TAO2nHOvAz8AfnHBBRfslBv5j370oxlR FF3onLvUOXeA53k0NTVVnp3uRfb09PDwww8ThiGFQoGvfvWrHHTQQVhrufPOO6mvr6etrc1u3779 HSeeeOLK/QQwQrvnnnv+DvhWWj/J932MMSilWL16NT09PUyYMGHA/knMHTzPwzn370qpy88777yu 3Tmu733ve80ico1z7tOFQoGmpqaaXM6Kzs5OHn/8cTzP46CDDuKKK67AGMOyZct44403mD17Nlu3 bv1fCxYs+Of9BDBEu/POO38RhuHHJ0yYQBRFlRBJ5xx/+tOfKkCvRXx9fT3ZbLZTKfWhs88+++Hx GOd3vvOd91hrf1coFCYMJIQnnniCIAjI5/NcfvnlTJkyhRdeeIGXX36ZuXPnsm3btl8effTRF+4n gAHt9ttv/2Fvb+8lU6dOrbB6rTXWWlasWEF9fX2/9VopxeTJk8U5d96HPvSh2/fGmL/97W+f43ne bU1NTSolVq01L7zwAqVSCc/zuOyyy5g+fTpPP/00mzdv5qCDDmLz5s03HH/88V/cF+Cu95GZv2DL li2XpEab2lQ8a9asIZfLEYYhQRAQhiGe5zF58uQXisVibm8hH+DKK6+8vaenJ9fd3f1CqVSq5E46 5JBDKpkyb7zxRnp7ezniiCNwztHZ2UldXd0lixYtWrCfAJLW0dHxe601kyZNIpX4RYRSqUQtYMMw RClFW1vbQ2edddahI+VjHI921VVXBV/5ylcODcPwoZRAoyjioIMOSgVRfvnLXwJw+OGHs379+lRm +f1+AgB+85vf/O327dubJk+eXJn1KeA2bNhAWlQz7dOnT99YKBTet68Jr52dne8TkY2VLApRRHt7 OwCvv/46K1euZMqUKRQKBbZv344xpum+++7727c9AfT09HwGoLm5uWJ9qzXbhjWFChOB67L3vve9 0b5GAFdddVUkIpellsUoiqirq6vYD5Yti63EkyZNolgsxsDX+jNvewLo7u6elZbmTJOipcJfivi0 t7W19X7gAx+4dV81qnzpS1+6VWvdWzvmVBZYvXo11lrq6uoqexBKqVlvewLo6+vz02xbtbO/XC73 4whJQpkVKo5F2DetakqJ1noFQBRFlZyyNbIOA951l70SL3qeiZ9/se7GS1Y1hF94se6Hu/ocb28D zVpbSZCbqnfpeVptQGudWvn62MebiPT5vk8YhpWNpLTVVl9OBN1dUsMvecmfLy57tUKdDgRoee1N SwDDzKaKFXCkqur7Wqud9UEQDErsu9LO/xVm4hGFr+D0112g8iYDiGxwRha+5QgAqikzjTFjigYf 71a7YVVLAGNp//P5zByt/WttpE7reMEqZaBljhGUvblrS+nZtyQHyGazFQJQSr2pCMAYg7V2zM+6 +EmaPZO/Aqf/qriFui3PRugMTD7SExG510Wl79+ygNJbkgBSDuB53m6JBx1PzhVXQd11rnXSYryZ zbmPamW+GRXVjK6Xrdq+Vsg0wMRDDdrIyr4+9/c/O4oxuaTt8wSQumvtjtk03jLAroatXfSH/NHG 6G8SqVN6Njjd+bLFBZBpgNZ3GLysWheUw7/62bHlJ8Y81jeDDJBK1W8mAki9lXamffRRZmZV/h+V mE/1bXFsf81S3p4sKw3QMkfjFWSjde4vf3Zs+Z7dMtZ9XQtIe60K9WaQAWpU15Gl+wdpy+jcP2hr PhuWyHevjyh3EZdU9sCvh6YDNV5WrQkD+eIvTizdtduIdV8HpO/7laXgzcYBRlJdA4p8bHHu74zT f+361KTuTY7yNhBRqERbzDZCfbsW7bunw0g+d/N7S0/s1rHuyxwgZf+pJvBmkQPSVNhDjTeSkOej u/mD+w8I9Td7OkWVt8VF1FVNvfFcM+RbNWh3dxDxuVtOKa3b7XDe08C449qLZNpMy5QDLE0tjkxW s21TK50bmghCXZP+xuJs9dym15PCi9a55HPb7zvW9v++dTX3DHzegO+nCBro918bS6CUqnE7N2ij K+em5jy+Ht9ndJwRO82Nnh5DbXk2v4I/5J+mbAOCHiHoZscwTgXZpjgjtij3k7Luu/K3p7JH8pR7 4z+zHS3tG2luWYkLupGwBxf2YsOQcjFLuVxHX7mOvnIj5bBAOchRDnLsI64Lo39PbclmiuRyZcJc F3/MvMIf3VbKVgi7BNuXrPEDDIPKgF+vyGQ0s16dyjc2rPwCX2ePmUH3yhKQJrxwLs4Y5hwgFt/b iq83UZ8JkPo4OZxz1VxxNoIwPbfgkuQZ1lXPnQMXxjlqYMdUDJX8FKp6nnbEoc3w95j0PHmW8eI0 TsaLBTbjxbUstA8dAv/d67G016dcUtgy2DCe4moQi7D24lTwDSbL8cU/I/uGga+v3KM28L1CADqJ qnc1BCEuRmqK0ZiFx1nS0kSBzsEbFtZGikkitMX5iXAYoloiSLKq1xKAUybJsDoEcgW08lGWSgS/ rkT7x9mc4mvxIq0AUQ7jwFPgK4nT4IjwciAsKWtWBYpQNBLF7wcMmgQ9nfnaEw6tm8mp2WMIe0Je Z8Mex8W4E0AUpenwIIo0EmkcHoKHKC/J/uTiJGhenH5PabCRwjp4MIJHJUbmYcpxMsIkkiRrSsUp vATSfTZJUnOpGg4gKk7I5SlQSTInowfjCEnWK49KNiuVEIciTueXzvwugSfKmiWhz3abJDtLOY9i 0Blfu+YbrTl9+nG8r/EYerf0sonN46OxjL+KFCPLWYXyhSR9YpIqEHAGlEmWhTi7TpjMRqsU00Ph sZLCKsWflOY5EY7VwgKlaJaYrXiqmlpUxSn1YgJIEDqQA0jC+kkRj1TuSVOfxV0lWUIlqQHgeMYp HixqVkYxhWjTH9nDSdnOxtlE2+sn8sn5Z3J482y2d3RTVL3jh4/xXwCqkTxprihnq6lbREKcjRLE JIn3InBW4yLhQIR6C51a4eVjnfnRsuKRyHGwRLzbCgdHYLQXs2lxSJprFjBK1yTtc5V89drWEECy yCtclRCMVBKDvmQdy6ziOTGUtcFkwMsNKO4xLATi2hcuEE6a+Wd84sgPMTHTTKm3b9xTR407ATgX s1JrBakRAiXJviiJHCAJ1pxInIA8QcQBHrzH09xZ8oiUJlOv8DIKsZpXy8LLJfA8x3QJOFwsc5WQ Nwol8fKgaoS4OCGhQhld+Y2qTKATziR0As+Giues4nVRRMbgZcHkFDlv5zRpWxaCXkeTyXLRkSdx 8iEnILqeKMkzGkW7XgjhTUEAlYoxBpwVRAuOasbZNL+RJFNBOQU25g9pe0/OsTmwPNQDKE2uGXRS TIEmcJHi9ZJmddFHQocB6oEDlGW6crSimCCKOiUYAeUcCgg0dKPYJMJqJ6xF0+EUoQaT1fiNCj8L WaN22oIiVihvF6Ju4d3tLXz2yOOY2jIHfIVohcXhJ4UgjHFv5SWgBihJTkRVkbpUvGar/inURKtq PlWBrIZz64SscyzuhFJoqG/TaC+esdqAl1Xkmkky+kMUwEt9mhfKsZoYr78JwUUJ+3c6TlSbAS8L Xk6Rz0IhXRZGbV2L/1AKEUdQdBS3CHXO8dnDWjljzjxMtj5JeKkRrRG9d7a7vfFHuk7Wdl0hAGvj dKtRmmnbxshPEg4T2XgdtxFEkSJKRIbTs0Krs/x2m7CtT9EypZ76CTlAiFxIJGUiFwCC8cAv7EnD pyKjc/gmh1Zx4uC+oEjXpl5KHcK7WixfPCzLARMngHjsrsT/b0pLoFIS17vRDqfi9HZRFOfY1Qk3 UAkDUDpOMG4lLiSWZvdTCa28u04zLyvc1x3w4EtdNLQ00n5gGw31fkXkcmIJXIk+WyR0Jazsvj2F rM6T95rImkIl32/kAjZt3kTH2l5U2fEXB2k+OM3H13mKRQ8ihXYaIxpciOgQG1rK5ZByOTGMvR2W gFQT8BILmAtTKdEh4hK1TfqJz76ATnpsBLI0efDnjXBMNuL32zp58ckSk6dNY9pBk/BzZhAuJDgi IhcQuBKRKxO6PiKJcEQ4iXCS5mKsJoZQaLTyMMqjYJqo9yZgdKZWv6GjZyNrVq2jd1OZEyY5Lj4y YkYTiXVQQ6YMmQgyNu6+j2gfqzUusmSzffTqtxEBSCVh58C31lUZgGrqy7Q2i6ARpUgSZyMK2jNw 8QRYWQq5Z+2rLFu7kZkzZjH9oHYy9YY96VbYF/Xy0poXeH3lZpqc40tzIt4/zZHJqgF7bwP722wJ iIV7NaDiiCaKVFJuRYHViFicjW2kKdIjW02qHyV7ASKKyIENJUmgDzNF87mC8EZUZMmrT/PAqhVM nzqX2fMOoamtblB9XcbwQus7XuXpp5+ia32RkyYJn5oltNRpFInq6RIrl4vfb0BJobcXAVSJQCoz XUSjVNyd6DgHf6KHO3HVWZ/k6LdO4VDYxFAUJMWFKhtMONAwKaM431eELuSxLX/i0XufxWs8gLmz 38HBBx9MpsEwlkCjYtjN8j/9gRf+tIrJnuPyuYpjJ5uKJTKu8BJbGeNAEANisNaDtOuk8kwl6QXs YrzIm0UIjK1/sQBoQcVleJWKuzEhvrYJB0iq0yQGHJusFEpAYkyjBDJxGSOcg9ClnKFKbEbBSfVw Qg422Fd44plX+fljPq0TZzBvznwOnTuPXH12J1iysGr9Mzz88ENs29TFB9sd50yHxrxCoghrgGTm 60SsiVM5W/QOia+p5ENQifA7ntFve8USmB5tYguvmj/jdTEtSZSWCDMJ8lWNrV4nIkK6OeNsUsZE VWvQpARgbcxsPR8OzsAhBfgoAav7XubhJ1/hxofvJFvXwuyD53HYoUcwrf0AfC8zqMzQ07edhUt/ z1PLn2RuQfjSHJjTYjBe4sqTJFAX5RAl2H7Jz03SpaYnsk1oCUOblER9Cy8BFUtgUnapan+vinta JyVaVbVQRmoIstb1M9mmiNZ6gJ+B1AqZA4XLWN2cVYBD8kIoEZujTTz+2mbufv5htlqfltY2Dpt7 BIfNPpKpE6djjMeK1U9x5/2/ptSxkQvb4f2ThHw2XtM1Dk8nFU6S8fg7+AhYMLZaCiXpyjNo4kLC cUnYt7gMULvHv0P9DEnr7rgahxBVU0BQ1RQdqQpwzlYJAelPAFUOY2q2eqmYn3NKMcOHAwvwEaDs AlYUN/D0Mxv4xdJ76IwU2UwdfWGRIxstH5sL7YWYZbtUTSSpFaYSNdWBRBKXvsKgBTxtwJq4nFTa dRxCZsN4L6C2PuBblgDSvQBl4k0glcxY5arLcEoMKcuvFdWtTWb/EBa5gbJ9lSNE/baDB13dFWQ9 OLLJcVRz7QZRsIMDyaAlNNJCUV7VV8DPpHaAEPwwNmZUerwXoFFEXkrUb4O9gFqXsNg8rPvXREum bVqZK4ogDBzWQhgm3kNS6xIWo8C5HTkAaKJkYa3IEKr/UmJ8XeUqO6jrunpeY0WsodfK0Qwl9zjA eXGNuX7djXob+S1BANbqRMCrlpyx1iDW4KxBrKCcS1QhwYoQCYQiWKVjTcCLkRKFoIxJuTlOVFy4 c4AM4JwQ1ppiFChlKgg3ikpVQ7EOTbXQnxGHMQ6F9OcAycOcxHXy0ApxYBKBT1XqXdaWjUokvnQf XOIFJPVSTu97i+8F1ObvjXluWggwronpYhUvKamodVI/M7H2KZNsDYtDeWBdvFa4pEaXTsy2tYV3 tI7XZaj1CUzud5LYIGo9haRSuCxVy3TiEVSp35kQhPFSIhJ04imkar5XrTUcV5/HuAHlmKq7gaka +JYmgLguoCQ6vkUkQrmockQlNcml6hWsTAwrm6z/tXsBhhgJTtVoAQwlBA7lFGr7fZZqF4N6Du+U sat/Tx2fUvvAvtD26dCwWrWtVm4Y2Ksr787xz9gA0x+5zoExuua624EIat3CR+6uUmpV10qN+wlg sFlS3dmJz6ksFYMZR1KWGXOSwUsy1hbkrd0NTB1Ea5emquevHdVsr9r5q/Z+VWPkU65S4rYypn0t zcVeJQA1wBBULQosA0zHyQaS7m8/GIoj1BJLbd3OVApUCpRW/Vy9B+t6uJmdFDGuBoT0P1bOza4t IW/LJUAkLsKMU4kdQOGcqpTrjkJVs+mj+yE8NaI4B1E4UAaQitGossbr/lK9MVJTydqNakHpH/// 5qzTuE8RQMoBpMYpNJ3BVU5Q010tAuPuXFKwWmqIagchUNXMblWR1qvlidWg3GoHNXBIAxSDEIbs J4CdWRZSk24/WUH3n9nKq67DqRaQwrp6n+xAAAzU6Ydlz2qIPYXB5Jjhy0S/FWWAgfVwNTvWzN01 Ihhq5qkae8IYnj/6LmPUAsYsA+RrDI+D1REeE3tRg+hcgyFyYD1wNYp7h/psZz4f6v+hrqlBiHKw atUj8euBvFsYuqjzYEgZ6ppj5GLQo/l8NN8d6d5+HGA45OmdQO5wx525f6zENLBqtx5AFIMRwUAE 1846hkHm7kDaSEhUQxzdMNeGul57lJ0tn652cuaOZrYOh6iRZjijuDbSrGcU3IAhWO5w14bqIxHW SFxlNEQ3aofDfTn9phpC1mAEtq5G+Sx2YhkYSayXEY77rBrw/wOmIk4MM9lWxAAAAABJRU5ErkJg gg== "
     id="image10"
     x="21"
     y="20.348534" />
</svg>
