/* XPM */
static char * maximize_inactive_xpm[] = {
"18 18 3 1",
" 	c None",
".	c #000000 s inactive_border_color",
"+	c #BA7C5F s inactive_color_2",
"++++++++++++++++++",
"++++++++++++++++++",
"++++++++++++++++++",
"++++++++++++++++++",
"++++..........++++",
"++++..........++++",
"++++..++++++..++++",
"++++..++++++..++++",
"++++..++++++..++++",
"++++..++++++..++++",
"++++..++++++..++++",
"++++..++++++..++++",
"++++..........++++",
"++++..........++++",
"++++++++++++++++++",
"++++++++++++++++++",
"++++++++++++++++++",
"++++++++++++++++++"};
