/* XPM */
static char * title_3_active_xpm[] = {
"2 26 8 1",
" 	c None",
".	c #000000 s active_border_color",
"+	c #352722 s active_shadow_1",
"@	c #5D3E30 s inactive_shadow_2",
"#	c #6A4D44 s active_color_1",
"$	c #BA7C5F s inactive_color_2",
"%	c #B4A6A1 s active_hilight_1",
"&	c #DCBDAF s inactive_hilight_2",
"..",
"&&",
"$$",
"..",
"%%",
"%%",
"##",
"##",
"##",
"##",
"##",
"##",
"##",
"##",
"##",
"##",
"##",
"##",
"##",
"##",
"++",
"++",
"..",
"$$",
"@@",
".."};
