/* XPM */
static char * top_left_inactive_xpm[] = {
"6 32 5 1",
" 	c None",
".	c #000000 s inactive_border_color",
"+	c #5D3E30 s inactive_shadow_2",
"@	c #BA7C5F s inactive_color_2",
"#	c #DCBDAF s inactive_hilight_2",
"......",
".#####",
".#@@@@",
".#@@@@",
".#@@@@",
".#@@@@",
".#@@@@",
".#@@@@",
".#@@@@",
".#@@@@",
".#@@@@",
".#@@@@",
".#@@@@",
".#@@@@",
".#@@@@",
".#@@@@",
".#@@@@",
".#@@@@",
".#@@@@",
".#@@@@",
".#@@@@",
".#@@@@",
".#@@@@",
".#@@@@",
".#++++",
"......",
".####.",
".#@@+.",
".#@@+.",
".#@@+.",
".#@@+.",
".#@@+."};
