/* XPM */
static char * close_active_traditional_35p_xpm[] = {
"27 27 7 1",
" 	c None",
".	c #878a93",
"+	c #000000",
"@	c #3d4049",
"#	c #000000",
"$	c #ffffff",
"%	c #999a9f",
"..........................+",
".@@@@@@@@@@@@@@@@@@@@@@@@#+",
".@@@@@@@@@@@@@@@@@@@@@@@@#+",
".@@@@@@@@@@@@@@@@@@@@@@@@#+",
".@@@$$%@@@@@@@@@@@@%$$@@@#+",
".@@@$$$%@@@@@@@@@@%$$$@@@#+",
".@@@%$$$%@@@@@@@@%$$$%@@@#+",
".@@@@%$$$%@@@@@@%$$$%@@@@#+",
".@@@@@%$$$%@@@@%$$$%@@@@@#+",
".@@@@@@%$$$%@@%$$$%@@@@@@#+",
".@@@@@@@%$$$%%$$$%@@@@@@@#+",
".@@@@@@@@%$$$$$$%@@@@@@@@#+",
".@@@@@@@@@%$$$$%@@@@@@@@@#+",
".@@@@@@@@@%$$$$%@@@@@@@@@#+",
".@@@@@@@@%$$$$$$%@@@@@@@@#+",
".@@@@@@@%$$$%%$$$%@@@@@@@#+",
".@@@@@@%$$$%@@%$$$%@@@@@@#+",
".@@@@@%$$$%@@@@%$$$%@@@@@#+",
".@@@@%$$$%@@@@@@%$$$%@@@@#+",
".@@@%$$$%@@@@@@@@%$$$%@@@#+",
".@@@$$$%@@@@@@@@@@%$$$@@@#+",
".@@@$$%@@@@@@@@@@@@%$$@@@#+",
".@@@@@@@@@@@@@@@@@@@@@@@@#+",
".@@@@@@@@@@@@@@@@@@@@@@@@#+",
".@@@@@@@@@@@@@@@@@@@@@@@@#+",
".#########################+",
"+++++++++++++++++++++++++++"};
