/* XPM */
static char * maximize_toggled_pressed_traditional_35p_xpm[] = {
"27 27 6 1",
" 	c None",
".	c #000000",
"+	c #878a93",
"@	c #070a13",
"#	c #999a9f",
"$	c #ffffff",
"..........................+",
".@@@@@@@@@@@@@@@@@@@@@@@@@+",
".@@@@@@@@@@@@@@@@@@@@@@@@@+",
".@@@@@@@@@@@@##@@@@@@@@@@@+",
".@@@@@@@@@@@#$$#@@@@@@@@@@+",
".@@@@@@@@@@#$$$$#@@@@@@@@@+",
".@@@@@@@@@#$$$$$$#@@@@@@@@+",
".@@@@@@@@#$$$##$$$#@@@@@@@+",
".@@@@@@@#$$$#@@#$$$#@@@@@@+",
".@@@@@@#$$$#@@@@#$$$#@@@@@+",
".@@@@@#$$$#@@@@@@#$$$#@@@@+",
".@@@@#$$$#@@@@@@@@#$$$#@@@+",
".@@@#$$$#@@@@@@@@@@#$$$#@@+",
".@@#$$$#@@@@@@@@@@@@#$$$#@+",
".@@#$$$#@@@@@@@@@@@@#$$$#@+",
".@@@#$$$#@@@@@@@@@@#$$$#@@+",
".@@@@#$$$#@@@@@@@@#$$$#@@@+",
".@@@@@#$$$#@@@@@@#$$$#@@@@+",
".@@@@@@#$$$#@@@@#$$$#@@@@@+",
".@@@@@@@#$$$#@@#$$$#@@@@@@+",
".@@@@@@@@#$$$##$$$#@@@@@@@+",
".@@@@@@@@@#$$$$$$#@@@@@@@@+",
".@@@@@@@@@@#$$$$#@@@@@@@@@+",
".@@@@@@@@@@@#$$#@@@@@@@@@@+",
".@@@@@@@@@@@@##@@@@@@@@@@@+",
".@@@@@@@@@@@@@@@@@@@@@@@@@+",
"+++++++++++++++++++++++++++"};
