/* XPM */
static char * top_right_inactive_traditional_35p_xpm[] = {
"4 35 6 1",
" 	c None",
".	c #040004",
"+	c #ffffff",
"@	c #acaaac",
"#	c #aeaaae",
"$	c #595559",
"....",
"++@.",
"##$.",
"##$.",
"##$.",
"##$.",
"##$.",
"##$.",
"##$.",
"##$.",
"##$.",
"##$.",
"##$.",
"##$.",
"##$.",
"##$.",
"##$.",
"##$.",
"##$.",
"##$.",
"##$.",
"##$.",
"##$.",
"##$.",
"##$.",
"##$.",
"##$.",
"##$.",
"##$.",
"##$.",
"##$.",
"##$.",
"##$.",
"$$$.",
"...."};
