/* XPM */
static char * maximize_toggled_inactive_xpm[] = {
"14 25 3 1",
" 	c None",
".	c #ACAAAD",
"+	c #000000",
"              ",
"              ",
"              ",
"              ",
"              ",
"..............",
"....+++++++++.",
"....+.......+.",
"....+.......+.",
"....+.......+.",
"....+.......+.",
"....+.......+.",
"....+.......+.",
".++++++.....+.",
".+....+++++++.",
".+....+.......",
".+....+.......",
".++++++.......",
"..............",
"              ",
"              ",
"              ",
"              ",
"              ",
"              "};
