/* XPM */
static char * menu_inactive_xpm[] = {
"14 14 3 1",
" 	c None",
".	c #ACAAAD",
"+	c #000000",
"..............",
"..............",
"..++++++++++..",
"..............",
"..++++++++++..",
"..............",
"..++++++++++..",
"..............",
"..++++++++++..",
"..............",
"..++++++++++..",
"..............",
"..............",
".............."};
