/* XPM */
static char * shade_toggled_pressed_xpm[] = {
"15 25 4 1",
" 	c None",
".	c #5D8BBD",
"+	c #FFFFFF",
"@	c #000000",
"               ",
"               ",
"               ",
"               ",
"               ",
"...............",
".+++++++++++++.",
".+...........+.",
".+++++++++++++.",
".+@@@@@@@@@@@+.",
".+@@@@@@@@@@@+.",
".+@@@@@@@@@@@+.",
".+@@@@@@@@@@@+.",
".+@@@@@@@@@@@+.",
".+@@@@@@@@@@@+.",
".+@@@@@@@@@@@+.",
".+@@@@@@@@@@@+.",
".+++++++++++++.",
"...............",
"               ",
"               ",
"               ",
"               ",
"               ",
"               "};
