/* XPM */
static char * title_4_inactive_xpm[] = {
"4 16 4 1",
" 	c None",
".	c #FFFFFF",
"+	c #ACAAAD",
"@	c #000000",
"....",
"++++",
"++++",
"++++",
"++++",
"++++",
"++++",
"++++",
"++++",
"++++",
"++++",
"++++",
"++++",
"++++",
"++++",
"@@@@"};
