/* XPM */
static char * stick_active_35p_xpm[] = {
"35 35 7 1",
" 	c None",
".	c #000000",
"+	c #a5a5a5",
"@	c #656565",
"#	c #5b5b5b",
"$	c #252525",
"%	c #b4b4b4",
"...................................",
".++++++++++++++++++++++++++++++++@.",
".+###############################$.",
".+###############################$.",
".+###############################$.",
".+###############################$.",
".+###############################$.",
".+###############################$.",
".+###############################$.",
".+###############################$.",
".+###############################$.",
".+###############################$.",
".+###############################$.",
".+###############################$.",
".+###############################$.",
".+#############%%%%%#############$.",
".+#############%%%%%#############$.",
".+#############%%%%%#############$.",
".+#############%%%%%#############$.",
".+#############%%%%%#############$.",
".+###############################$.",
".+###############################$.",
".+###############################$.",
".+###############################$.",
".+###############################$.",
".+###############################$.",
".+###############################$.",
".+###############################$.",
".+###############################$.",
".+###############################$.",
".+###############################$.",
".+###############################$.",
".+###############################$.",
".@$$$$$$$$$$$$$$$$$$$$$$$$$$$$$$$$.",
"..................................."};
