/* XPM */
static char * title_2_active_35p_xpm[] = {
"4 35 6 1",
" 	c None",
".	c #000000",
"+	c #a5a5a5",
"@	c #505050",
"#	c #40A740",
"$	c #252525",
"....",
"++++",
"+@@@",
"+@@@",
"+@@@",
"+@@@",
"+@@@",
"+@@@",
"+@@@",
"+@@@",
"+@@@",
"+@@@",
"+@@@",
"+@@@",
"+@@@",
"+@@@",
"+@@@",
"+@@@",
"+@@@",
"+@@@",
"+@@@",
"+@@@",
"+@@@",
"+@@@",
"+@@@",
"+@@@",
"+@@@",
"+@@@",
"+@@@",
"+@@@",
"+@@@",
"+@@@",
"+@@@",
"#$$$",
"...."};
