/* XPM */
static char * title_2_active_traditional_35p_xpm[] = {
"3 35 5 1",
" 	c None",
".	c #390000",
"+	c #ffff55",
"@	c #e3aa00",
"#	c #b87f00",
"...",
"+++",
"@@@",
"@@@",
"@@@",
"@@@",
"@@@",
"@@@",
"@@@",
"@@@",
"@@@",
"@@@",
"@@@",
"@@@",
"@@@",
"@@@",
"@@@",
"@@@",
"@@@",
"@@@",
"@@@",
"@@@",
"@@@",
"@@@",
"@@@",
"@@@",
"@@@",
"@@@",
"@@@",
"@@@",
"@@@",
"@@@",
"@@@",
"###",
"..."};
